Results wll be collected to ../../../results/depth_tmp/bh_Hybrid_Sched_BarnesHutPlummer1M.in_1_unsorted.stats...
Configuration: nbodies = 1000000, ntimesteps = 1, dtime = 0.025000 eps = 0.050000, tol = 0.500000
Time step 0:
the depth of the tree is: 19, and the number of nodes is: 1479892.
Time for asynchronous transfer and execute (ms): 9.840192
SPLICE_DEPTH = 1, DEPTH_STAT = 8.
@ extra: 68 ms
@ build_tree: 674 ms
@ compute_bb: 25 ms
@ compute_cofm: 201 ms
@ force_calc: 5960 ms
@ init_kernel: 2577 ms
@ gpu_copy_tree_to: 296 ms
@ kernel: 2384 ms
@ gpu_copy_tree_from: 102 ms
@ build_tree_gpu: 533 ms
@ pointer_table:  7 ms
@ adv_point: 61 ms
@ read_input: 3473 ms
@ overall: 10545 ms
Collected results into ../../../results/depth_tmp/bh_Hybrid_Sched_BarnesHutPlummer1M.in_1_unsorted.stats

Loading data from ../../../results/depth_tmp/bh_Hybrid_Sched_BarnesHutPlummer1M.in_1_unsorted.stats...
{'build_tree_gpu:': [533.0], 'gpu_copy_tree_from:': [102.0], 'gpu_copy_tree_to:': [296.0], 'init_kernel:': [2577.0], 'compute_cofm:': [201.0], 'kernel:': [2384.0], 'overall:': [10545.0], 'adv_point:': [61.0], 'read_input:': [3473.0], 'compute_bb:': [25.0], 'force_calc:': [5960.0], 'extra:': [68.0], 'build_tree:': [674.0], 'pointer_table:': [7.0]}
Configuration: nbodies = 1000000, ntimesteps = 1, dtime = 0.025000 eps = 0.050000, tol = 0.500000
Time step 0:
the depth of the tree is: 19, and the number of nodes is: 1479892.
Time for asynchronous transfer and execute (ms): 8.753408
SPLICE_DEPTH = 1, DEPTH_STAT = 8.
@ extra: 67 ms
@ build_tree: 676 ms
@ compute_bb: 25 ms
@ compute_cofm: 203 ms
@ force_calc: 5990 ms
@ init_kernel: 2538 ms
@ gpu_copy_tree_to: 288 ms
@ kernel: 2386 ms
@ gpu_copy_tree_from: 144 ms
@ build_tree_gpu: 566 ms
@ pointer_table:  7 ms
@ adv_point: 109 ms
@ read_input: 3557 ms
@ overall: 10812 ms
Collected results into ../../../results/depth_tmp/bh_Hybrid_Sched_BarnesHutPlummer1M.in_1_unsorted.stats

Loading data from ../../../results/depth_tmp/bh_Hybrid_Sched_BarnesHutPlummer1M.in_1_unsorted.stats...
{'build_tree_gpu:': [533.0, 566.0], 'gpu_copy_tree_from:': [102.0, 144.0], 'gpu_copy_tree_to:': [296.0, 288.0], 'init_kernel:': [2577.0, 2538.0], 'read_input:': [3473.0, 3557.0], 'kernel:': [2384.0, 2386.0], 'overall:': [10545.0, 10812.0], 'adv_point:': [61.0, 109.0], 'compute_cofm:': [201.0, 203.0], 'compute_bb:': [25.0, 25.0], 'force_calc:': [5960.0, 5990.0], 'extra:': [68.0, 67.0], 'build_tree:': [674.0, 676.0], 'pointer_table:': [7.0, 7.0]}
Configuration: nbodies = 1000000, ntimesteps = 1, dtime = 0.025000 eps = 0.050000, tol = 0.500000
Time step 0:
the depth of the tree is: 19, and the number of nodes is: 1479892.
Time for asynchronous transfer and execute (ms): 11.064992
SPLICE_DEPTH = 1, DEPTH_STAT = 8.
@ extra: 69 ms
@ build_tree: 670 ms
@ compute_bb: 25 ms
@ compute_cofm: 202 ms
@ force_calc: 6039 ms
@ init_kernel: 2597 ms
@ gpu_copy_tree_to: 317 ms
@ kernel: 2387 ms
@ gpu_copy_tree_from: 121 ms
@ build_tree_gpu: 549 ms
@ pointer_table:  7 ms
@ adv_point: 87 ms
@ read_input: 3618 ms
@ overall: 10855 ms
Collected results into ../../../results/depth_tmp/bh_Hybrid_Sched_BarnesHutPlummer1M.in_1_unsorted.stats

Loading data from ../../../results/depth_tmp/bh_Hybrid_Sched_BarnesHutPlummer1M.in_1_unsorted.stats...
{'build_tree_gpu:': [533.0, 566.0, 549.0], 'gpu_copy_tree_from:': [102.0, 144.0, 121.0], 'gpu_copy_tree_to:': [296.0, 288.0, 317.0], 'init_kernel:': [2577.0, 2538.0, 2597.0], 'compute_cofm:': [201.0, 203.0, 202.0], 'kernel:': [2384.0, 2386.0, 2387.0], 'overall:': [10545.0, 10812.0, 10855.0], 'adv_point:': [61.0, 109.0, 87.0], 'read_input:': [3473.0, 3557.0, 3618.0], 'compute_bb:': [25.0, 25.0, 25.0], 'force_calc:': [5960.0, 5990.0, 6039.0], 'extra:': [68.0, 67.0, 69.0], 'build_tree:': [674.0, 676.0, 670.0], 'pointer_table:': [7.0, 7.0, 7.0]}
Configuration: nbodies = 1000000, ntimesteps = 1, dtime = 0.025000 eps = 0.050000, tol = 0.500000
Time step 0:
the depth of the tree is: 19, and the number of nodes is: 1479892.
Time for asynchronous transfer and execute (ms): 9.760704
SPLICE_DEPTH = 1, DEPTH_STAT = 8.
@ extra: 69 ms
@ build_tree: 662 ms
@ compute_bb: 25 ms
@ compute_cofm: 197 ms
@ force_calc: 5973 ms
@ init_kernel: 2570 ms
@ gpu_copy_tree_to: 315 ms
@ kernel: 2390 ms
@ gpu_copy_tree_from: 104 ms
@ build_tree_gpu: 526 ms
@ pointer_table:  7 ms
@ adv_point: 61 ms
@ read_input: 3501 ms
@ overall: 10575 ms
Collected results into ../../../results/depth_tmp/bh_Hybrid_Sched_BarnesHutPlummer1M.in_1_unsorted.stats

Loading data from ../../../results/depth_tmp/bh_Hybrid_Sched_BarnesHutPlummer1M.in_1_unsorted.stats...
{'build_tree_gpu:': [533.0, 566.0, 549.0, 526.0], 'gpu_copy_tree_from:': [102.0, 144.0, 121.0, 104.0], 'gpu_copy_tree_to:': [296.0, 288.0, 317.0, 315.0], 'init_kernel:': [2577.0, 2538.0, 2597.0, 2570.0], 'read_input:': [3473.0, 3557.0, 3618.0, 3501.0], 'kernel:': [2384.0, 2386.0, 2387.0, 2390.0], 'overall:': [10545.0, 10812.0, 10855.0, 10575.0], 'adv_point:': [61.0, 109.0, 87.0, 61.0], 'compute_cofm:': [201.0, 203.0, 202.0, 197.0], 'compute_bb:': [25.0, 25.0, 25.0, 25.0], 'force_calc:': [5960.0, 5990.0, 6039.0, 5973.0], 'extra:': [68.0, 67.0, 69.0, 69.0], 'build_tree:': [674.0, 676.0, 670.0, 662.0], 'pointer_table:': [7.0, 7.0, 7.0, 7.0]}
Configuration: nbodies = 1000000, ntimesteps = 1, dtime = 0.025000 eps = 0.050000, tol = 0.500000
Time step 0:
the depth of the tree is: 19, and the number of nodes is: 1479892.
Time for asynchronous transfer and execute (ms): 11.563424
SPLICE_DEPTH = 1, DEPTH_STAT = 8.
@ extra: 75 ms
@ build_tree: 671 ms
@ compute_bb: 25 ms
@ compute_cofm: 199 ms
@ force_calc: 6075 ms
@ init_kernel: 2624 ms
@ gpu_copy_tree_to: 304 ms
@ kernel: 2386 ms
@ gpu_copy_tree_from: 146 ms
@ build_tree_gpu: 540 ms
@ pointer_table:  7 ms
@ adv_point: 109 ms
@ read_input: 3573 ms
@ overall: 10906 ms
Collected results into ../../../results/depth_tmp/bh_Hybrid_Sched_BarnesHutPlummer1M.in_1_unsorted.stats

Loading data from ../../../results/depth_tmp/bh_Hybrid_Sched_BarnesHutPlummer1M.in_1_unsorted.stats...
{'build_tree_gpu:': [533.0, 566.0, 549.0, 526.0, 540.0], 'gpu_copy_tree_from:': [102.0, 144.0, 121.0, 104.0, 146.0], 'gpu_copy_tree_to:': [296.0, 288.0, 317.0, 315.0, 304.0], 'init_kernel:': [2577.0, 2538.0, 2597.0, 2570.0, 2624.0], 'compute_cofm:': [201.0, 203.0, 202.0, 197.0, 199.0], 'kernel:': [2384.0, 2386.0, 2387.0, 2390.0, 2386.0], 'overall:': [10545.0, 10812.0, 10855.0, 10575.0, 10906.0], 'adv_point:': [61.0, 109.0, 87.0, 61.0, 109.0], 'read_input:': [3473.0, 3557.0, 3618.0, 3501.0, 3573.0], 'compute_bb:': [25.0, 25.0, 25.0, 25.0, 25.0], 'force_calc:': [5960.0, 5990.0, 6039.0, 5973.0, 6075.0], 'extra:': [68.0, 67.0, 69.0, 69.0, 75.0], 'build_tree:': [674.0, 676.0, 670.0, 662.0, 671.0], 'pointer_table:': [7.0, 7.0, 7.0, 7.0, 7.0]}
Configuration: nbodies = 1000000, ntimesteps = 1, dtime = 0.025000 eps = 0.050000, tol = 0.500000
Time step 0:
the depth of the tree is: 19, and the number of nodes is: 1479892.
Time for asynchronous transfer and execute (ms): 14.208672
SPLICE_DEPTH = 1, DEPTH_STAT = 8.
@ extra: 105 ms
@ build_tree: 671 ms
@ compute_bb: 25 ms
@ compute_cofm: 200 ms
@ force_calc: 6221 ms
@ init_kernel: 2684 ms
@ gpu_copy_tree_to: 358 ms
@ kernel: 2387 ms
@ gpu_copy_tree_from: 145 ms
@ build_tree_gpu: 541 ms
@ pointer_table:  7 ms
@ adv_point: 108 ms
@ read_input: 3556 ms
@ overall: 11036 ms
Collected results into ../../../results/depth_tmp/bh_Hybrid_Sched_BarnesHutPlummer1M.in_1_unsorted.stats

Loading data from ../../../results/depth_tmp/bh_Hybrid_Sched_BarnesHutPlummer1M.in_1_unsorted.stats...
{'build_tree_gpu:': [533.0, 566.0, 549.0, 526.0, 540.0, 541.0], 'gpu_copy_tree_from:': [102.0, 144.0, 121.0, 104.0, 146.0, 145.0], 'gpu_copy_tree_to:': [296.0, 288.0, 317.0, 315.0, 304.0, 358.0], 'init_kernel:': [2577.0, 2538.0, 2597.0, 2570.0, 2624.0, 2684.0], 'read_input:': [3473.0, 3557.0, 3618.0, 3501.0, 3573.0, 3556.0], 'kernel:': [2384.0, 2386.0, 2387.0, 2390.0, 2386.0, 2387.0], 'overall:': [10545.0, 10812.0, 10855.0, 10575.0, 10906.0, 11036.0], 'adv_point:': [61.0, 109.0, 87.0, 61.0, 109.0, 108.0], 'compute_cofm:': [201.0, 203.0, 202.0, 197.0, 199.0, 200.0], 'compute_bb:': [25.0, 25.0, 25.0, 25.0, 25.0, 25.0], 'force_calc:': [5960.0, 5990.0, 6039.0, 5973.0, 6075.0, 6221.0], 'extra:': [68.0, 67.0, 69.0, 69.0, 75.0, 105.0], 'build_tree:': [674.0, 676.0, 670.0, 662.0, 671.0, 671.0], 'pointer_table:': [7.0, 7.0, 7.0, 7.0, 7.0, 7.0]}
Configuration: nbodies = 1000000, ntimesteps = 1, dtime = 0.025000 eps = 0.050000, tol = 0.500000
Time step 0:
the depth of the tree is: 19, and the number of nodes is: 1479892.
Time for asynchronous transfer and execute (ms): 11.544320
SPLICE_DEPTH = 1, DEPTH_STAT = 8.
@ extra: 72 ms
@ build_tree: 682 ms
@ compute_bb: 25 ms
@ compute_cofm: 204 ms
@ force_calc: 6644 ms
@ init_kernel: 3247 ms
@ gpu_copy_tree_to: 290 ms
@ kernel: 2389 ms
@ gpu_copy_tree_from: 102 ms
@ build_tree_gpu: 544 ms
@ pointer_table:  7 ms
@ adv_point: 65 ms
@ read_input: 3369 ms
@ overall: 11142 ms
Collected results into ../../../results/depth_tmp/bh_Hybrid_Sched_BarnesHutPlummer1M.in_1_unsorted.stats

Loading data from ../../../results/depth_tmp/bh_Hybrid_Sched_BarnesHutPlummer1M.in_1_unsorted.stats...
{'build_tree_gpu:': [533.0, 566.0, 549.0, 526.0, 540.0, 541.0, 544.0], 'gpu_copy_tree_from:': [102.0, 144.0, 121.0, 104.0, 146.0, 145.0, 102.0], 'gpu_copy_tree_to:': [296.0, 288.0, 317.0, 315.0, 304.0, 358.0, 290.0], 'init_kernel:': [2577.0, 2538.0, 2597.0, 2570.0, 2624.0, 2684.0, 3247.0], 'compute_cofm:': [201.0, 203.0, 202.0, 197.0, 199.0, 200.0, 204.0], 'kernel:': [2384.0, 2386.0, 2387.0, 2390.0, 2386.0, 2387.0, 2389.0], 'overall:': [10545.0, 10812.0, 10855.0, 10575.0, 10906.0, 11036.0, 11142.0], 'adv_point:': [61.0, 109.0, 87.0, 61.0, 109.0, 108.0, 65.0], 'read_input:': [3473.0, 3557.0, 3618.0, 3501.0, 3573.0, 3556.0, 3369.0], 'compute_bb:': [25.0, 25.0, 25.0, 25.0, 25.0, 25.0, 25.0], 'force_calc:': [5960.0, 5990.0, 6039.0, 5973.0, 6075.0, 6221.0, 6644.0], 'extra:': [68.0, 67.0, 69.0, 69.0, 75.0, 105.0, 72.0], 'build_tree:': [674.0, 676.0, 670.0, 662.0, 671.0, 671.0, 682.0], 'pointer_table:': [7.0, 7.0, 7.0, 7.0, 7.0, 7.0, 7.0]}
Configuration: nbodies = 1000000, ntimesteps = 1, dtime = 0.025000 eps = 0.050000, tol = 0.500000
Time step 0:
the depth of the tree is: 19, and the number of nodes is: 1479892.
Time for asynchronous transfer and execute (ms): 11.517408
SPLICE_DEPTH = 1, DEPTH_STAT = 8.
@ extra: 75 ms
@ build_tree: 669 ms
@ compute_bb: 25 ms
@ compute_cofm: 200 ms
@ force_calc: 6079 ms
@ init_kernel: 2614 ms
@ gpu_copy_tree_to: 329 ms
@ kernel: 2385 ms
@ gpu_copy_tree_from: 142 ms
@ build_tree_gpu: 534 ms
@ pointer_table:  7 ms
@ adv_point: 108 ms
@ read_input: 3593 ms
@ overall: 10921 ms
Collected results into ../../../results/depth_tmp/bh_Hybrid_Sched_BarnesHutPlummer1M.in_1_unsorted.stats

Loading data from ../../../results/depth_tmp/bh_Hybrid_Sched_BarnesHutPlummer1M.in_1_unsorted.stats...
{'build_tree_gpu:': [533.0, 566.0, 549.0, 526.0, 540.0, 541.0, 544.0, 534.0], 'gpu_copy_tree_from:': [102.0, 144.0, 121.0, 104.0, 146.0, 145.0, 102.0, 142.0], 'gpu_copy_tree_to:': [296.0, 288.0, 317.0, 315.0, 304.0, 358.0, 290.0, 329.0], 'init_kernel:': [2577.0, 2538.0, 2597.0, 2570.0, 2624.0, 2684.0, 3247.0, 2614.0], 'read_input:': [3473.0, 3557.0, 3618.0, 3501.0, 3573.0, 3556.0, 3369.0, 3593.0], 'kernel:': [2384.0, 2386.0, 2387.0, 2390.0, 2386.0, 2387.0, 2389.0, 2385.0], 'overall:': [10545.0, 10812.0, 10855.0, 10575.0, 10906.0, 11036.0, 11142.0, 10921.0], 'adv_point:': [61.0, 109.0, 87.0, 61.0, 109.0, 108.0, 65.0, 108.0], 'compute_cofm:': [201.0, 203.0, 202.0, 197.0, 199.0, 200.0, 204.0, 200.0], 'compute_bb:': [25.0, 25.0, 25.0, 25.0, 25.0, 25.0, 25.0, 25.0], 'force_calc:': [5960.0, 5990.0, 6039.0, 5973.0, 6075.0, 6221.0, 6644.0, 6079.0], 'extra:': [68.0, 67.0, 69.0, 69.0, 75.0, 105.0, 72.0, 75.0], 'build_tree:': [674.0, 676.0, 670.0, 662.0, 671.0, 671.0, 682.0, 669.0], 'pointer_table:': [7.0, 7.0, 7.0, 7.0, 7.0, 7.0, 7.0, 7.0]}
Configuration: nbodies = 1000000, ntimesteps = 1, dtime = 0.025000 eps = 0.050000, tol = 0.500000
Time step 0:
the depth of the tree is: 19, and the number of nodes is: 1479892.
Time for asynchronous transfer and execute (ms): 14.317184
SPLICE_DEPTH = 1, DEPTH_STAT = 8.
@ extra: 107 ms
@ build_tree: 663 ms
@ compute_bb: 25 ms
@ compute_cofm: 202 ms
@ force_calc: 6225 ms
@ init_kernel: 2722 ms
@ gpu_copy_tree_to: 345 ms
@ kernel: 2387 ms
@ gpu_copy_tree_from: 118 ms
@ build_tree_gpu: 547 ms
@ pointer_table:  7 ms
@ adv_point: 87 ms
@ read_input: 3604 ms
@ overall: 11014 ms
Collected results into ../../../results/depth_tmp/bh_Hybrid_Sched_BarnesHutPlummer1M.in_1_unsorted.stats

Loading data from ../../../results/depth_tmp/bh_Hybrid_Sched_BarnesHutPlummer1M.in_1_unsorted.stats...
{'build_tree_gpu:': [533.0, 566.0, 549.0, 526.0, 540.0, 541.0, 544.0, 534.0, 547.0], 'gpu_copy_tree_from:': [102.0, 144.0, 121.0, 104.0, 146.0, 145.0, 102.0, 142.0, 118.0], 'gpu_copy_tree_to:': [296.0, 288.0, 317.0, 315.0, 304.0, 358.0, 290.0, 329.0, 345.0], 'init_kernel:': [2577.0, 2538.0, 2597.0, 2570.0, 2624.0, 2684.0, 3247.0, 2614.0, 2722.0], 'compute_cofm:': [201.0, 203.0, 202.0, 197.0, 199.0, 200.0, 204.0, 200.0, 202.0], 'kernel:': [2384.0, 2386.0, 2387.0, 2390.0, 2386.0, 2387.0, 2389.0, 2385.0, 2387.0], 'overall:': [10545.0, 10812.0, 10855.0, 10575.0, 10906.0, 11036.0, 11142.0, 10921.0, 11014.0], 'adv_point:': [61.0, 109.0, 87.0, 61.0, 109.0, 108.0, 65.0, 108.0, 87.0], 'read_input:': [3473.0, 3557.0, 3618.0, 3501.0, 3573.0, 3556.0, 3369.0, 3593.0, 3604.0], 'compute_bb:': [25.0, 25.0, 25.0, 25.0, 25.0, 25.0, 25.0, 25.0, 25.0], 'force_calc:': [5960.0, 5990.0, 6039.0, 5973.0, 6075.0, 6221.0, 6644.0, 6079.0, 6225.0], 'extra:': [68.0, 67.0, 69.0, 69.0, 75.0, 105.0, 72.0, 75.0, 107.0], 'build_tree:': [674.0, 676.0, 670.0, 662.0, 671.0, 671.0, 682.0, 669.0, 663.0], 'pointer_table:': [7.0, 7.0, 7.0, 7.0, 7.0, 7.0, 7.0, 7.0, 7.0]}
Configuration: nbodies = 1000000, ntimesteps = 1, dtime = 0.025000 eps = 0.050000, tol = 0.500000
Time step 0:
the depth of the tree is: 19, and the number of nodes is: 1479892.
Time for asynchronous transfer and execute (ms): 10.034208
SPLICE_DEPTH = 1, DEPTH_STAT = 8.
@ extra: 71 ms
@ build_tree: 677 ms
@ compute_bb: 25 ms
@ compute_cofm: 204 ms
@ force_calc: 6452 ms
@ init_kernel: 3005 ms
@ gpu_copy_tree_to: 340 ms
@ kernel: 2385 ms
@ gpu_copy_tree_from: 102 ms
@ build_tree_gpu: 549 ms
@ pointer_table:  7 ms
@ adv_point: 66 ms
@ read_input: 3368 ms
@ overall: 10945 ms
Collected results into ../../../results/depth_tmp/bh_Hybrid_Sched_BarnesHutPlummer1M.in_1_unsorted.stats

Loading data from ../../../results/depth_tmp/bh_Hybrid_Sched_BarnesHutPlummer1M.in_1_unsorted.stats...
{'build_tree_gpu:': [533.0, 566.0, 549.0, 526.0, 540.0, 541.0, 544.0, 534.0, 547.0, 549.0], 'gpu_copy_tree_from:': [102.0, 144.0, 121.0, 104.0, 146.0, 145.0, 102.0, 142.0, 118.0, 102.0], 'gpu_copy_tree_to:': [296.0, 288.0, 317.0, 315.0, 304.0, 358.0, 290.0, 329.0, 345.0, 340.0], 'init_kernel:': [2577.0, 2538.0, 2597.0, 2570.0, 2624.0, 2684.0, 3247.0, 2614.0, 2722.0, 3005.0], 'read_input:': [3473.0, 3557.0, 3618.0, 3501.0, 3573.0, 3556.0, 3369.0, 3593.0, 3604.0, 3368.0], 'kernel:': [2384.0, 2386.0, 2387.0, 2390.0, 2386.0, 2387.0, 2389.0, 2385.0, 2387.0, 2385.0], 'overall:': [10545.0, 10812.0, 10855.0, 10575.0, 10906.0, 11036.0, 11142.0, 10921.0, 11014.0, 10945.0], 'adv_point:': [61.0, 109.0, 87.0, 61.0, 109.0, 108.0, 65.0, 108.0, 87.0, 66.0], 'compute_cofm:': [201.0, 203.0, 202.0, 197.0, 199.0, 200.0, 204.0, 200.0, 202.0, 204.0], 'compute_bb:': [25.0, 25.0, 25.0, 25.0, 25.0, 25.0, 25.0, 25.0, 25.0, 25.0], 'force_calc:': [5960.0, 5990.0, 6039.0, 5973.0, 6075.0, 6221.0, 6644.0, 6079.0, 6225.0, 6452.0], 'extra:': [68.0, 67.0, 69.0, 69.0, 75.0, 105.0, 72.0, 75.0, 107.0, 71.0], 'build_tree:': [674.0, 676.0, 670.0, 662.0, 671.0, 671.0, 682.0, 669.0, 663.0, 677.0], 'pointer_table:': [7.0, 7.0, 7.0, 7.0, 7.0, 7.0, 7.0, 7.0, 7.0, 7.0]}
Configuration: nbodies = 1000000, ntimesteps = 1, dtime = 0.025000 eps = 0.050000, tol = 0.500000
Time step 0:
the depth of the tree is: 19, and the number of nodes is: 1479892.
Time for asynchronous transfer and execute (ms): 11.505024
SPLICE_DEPTH = 1, DEPTH_STAT = 8.
@ extra: 73 ms
@ build_tree: 684 ms
@ compute_bb: 25 ms
@ compute_cofm: 196 ms
@ force_calc: 6011 ms
@ init_kernel: 2572 ms
@ gpu_copy_tree_to: 333 ms
@ kernel: 2385 ms
@ gpu_copy_tree_from: 118 ms
@ build_tree_gpu: 529 ms
@ pointer_table:  7 ms
@ adv_point: 87 ms
@ read_input: 3598 ms
@ overall: 10809 ms
Collected results into ../../../results/depth_tmp/bh_Hybrid_Sched_BarnesHutPlummer1M.in_1_unsorted.stats

Loading data from ../../../results/depth_tmp/bh_Hybrid_Sched_BarnesHutPlummer1M.in_1_unsorted.stats...
{'build_tree_gpu:': [533.0, 566.0, 549.0, 526.0, 540.0, 541.0, 544.0, 534.0, 547.0, 549.0, 529.0], 'gpu_copy_tree_from:': [102.0, 144.0, 121.0, 104.0, 146.0, 145.0, 102.0, 142.0, 118.0, 102.0, 118.0], 'gpu_copy_tree_to:': [296.0, 288.0, 317.0, 315.0, 304.0, 358.0, 290.0, 329.0, 345.0, 340.0, 333.0], 'init_kernel:': [2577.0, 2538.0, 2597.0, 2570.0, 2624.0, 2684.0, 3247.0, 2614.0, 2722.0, 3005.0, 2572.0], 'compute_cofm:': [201.0, 203.0, 202.0, 197.0, 199.0, 200.0, 204.0, 200.0, 202.0, 204.0, 196.0], 'kernel:': [2384.0, 2386.0, 2387.0, 2390.0, 2386.0, 2387.0, 2389.0, 2385.0, 2387.0, 2385.0, 2385.0], 'overall:': [10545.0, 10812.0, 10855.0, 10575.0, 10906.0, 11036.0, 11142.0, 10921.0, 11014.0, 10945.0, 10809.0], 'adv_point:': [61.0, 109.0, 87.0, 61.0, 109.0, 108.0, 65.0, 108.0, 87.0, 66.0, 87.0], 'read_input:': [3473.0, 3557.0, 3618.0, 3501.0, 3573.0, 3556.0, 3369.0, 3593.0, 3604.0, 3368.0, 3598.0], 'compute_bb:': [25.0, 25.0, 25.0, 25.0, 25.0, 25.0, 25.0, 25.0, 25.0, 25.0, 25.0], 'force_calc:': [5960.0, 5990.0, 6039.0, 5973.0, 6075.0, 6221.0, 6644.0, 6079.0, 6225.0, 6452.0, 6011.0], 'extra:': [68.0, 67.0, 69.0, 69.0, 75.0, 105.0, 72.0, 75.0, 107.0, 71.0, 73.0], 'build_tree:': [674.0, 676.0, 670.0, 662.0, 671.0, 671.0, 682.0, 669.0, 663.0, 677.0, 684.0], 'pointer_table:': [7.0, 7.0, 7.0, 7.0, 7.0, 7.0, 7.0, 7.0, 7.0, 7.0, 7.0]}
Configuration: nbodies = 1000000, ntimesteps = 1, dtime = 0.025000 eps = 0.050000, tol = 0.500000
Time step 0:
the depth of the tree is: 19, and the number of nodes is: 1479892.
Time for asynchronous transfer and execute (ms): 11.679168
SPLICE_DEPTH = 1, DEPTH_STAT = 8.
@ extra: 74 ms
@ build_tree: 674 ms
@ compute_bb: 26 ms
@ compute_cofm: 199 ms
@ force_calc: 5992 ms
@ init_kernel: 2545 ms
@ gpu_copy_tree_to: 318 ms
@ kernel: 2389 ms
@ gpu_copy_tree_from: 121 ms
@ build_tree_gpu: 545 ms
@ pointer_table:  7 ms
@ adv_point: 87 ms
@ read_input: 3582 ms
@ overall: 10773 ms
Collected results into ../../../results/depth_tmp/bh_Hybrid_Sched_BarnesHutPlummer1M.in_1_unsorted.stats

Loading data from ../../../results/depth_tmp/bh_Hybrid_Sched_BarnesHutPlummer1M.in_1_unsorted.stats...
{'build_tree_gpu:': [533.0, 566.0, 549.0, 526.0, 540.0, 541.0, 544.0, 534.0, 547.0, 549.0, 529.0, 545.0], 'gpu_copy_tree_from:': [102.0, 144.0, 121.0, 104.0, 146.0, 145.0, 102.0, 142.0, 118.0, 102.0, 118.0, 121.0], 'gpu_copy_tree_to:': [296.0, 288.0, 317.0, 315.0, 304.0, 358.0, 290.0, 329.0, 345.0, 340.0, 333.0, 318.0], 'init_kernel:': [2577.0, 2538.0, 2597.0, 2570.0, 2624.0, 2684.0, 3247.0, 2614.0, 2722.0, 3005.0, 2572.0, 2545.0], 'read_input:': [3473.0, 3557.0, 3618.0, 3501.0, 3573.0, 3556.0, 3369.0, 3593.0, 3604.0, 3368.0, 3598.0, 3582.0], 'kernel:': [2384.0, 2386.0, 2387.0, 2390.0, 2386.0, 2387.0, 2389.0, 2385.0, 2387.0, 2385.0, 2385.0, 2389.0], 'overall:': [10545.0, 10812.0, 10855.0, 10575.0, 10906.0, 11036.0, 11142.0, 10921.0, 11014.0, 10945.0, 10809.0, 10773.0], 'adv_point:': [61.0, 109.0, 87.0, 61.0, 109.0, 108.0, 65.0, 108.0, 87.0, 66.0, 87.0, 87.0], 'compute_cofm:': [201.0, 203.0, 202.0, 197.0, 199.0, 200.0, 204.0, 200.0, 202.0, 204.0, 196.0, 199.0], 'compute_bb:': [25.0, 25.0, 25.0, 25.0, 25.0, 25.0, 25.0, 25.0, 25.0, 25.0, 25.0, 26.0], 'force_calc:': [5960.0, 5990.0, 6039.0, 5973.0, 6075.0, 6221.0, 6644.0, 6079.0, 6225.0, 6452.0, 6011.0, 5992.0], 'extra:': [68.0, 67.0, 69.0, 69.0, 75.0, 105.0, 72.0, 75.0, 107.0, 71.0, 73.0, 74.0], 'build_tree:': [674.0, 676.0, 670.0, 662.0, 671.0, 671.0, 682.0, 669.0, 663.0, 677.0, 684.0, 674.0], 'pointer_table:': [7.0, 7.0, 7.0, 7.0, 7.0, 7.0, 7.0, 7.0, 7.0, 7.0, 7.0, 7.0]}
Configuration: nbodies = 1000000, ntimesteps = 1, dtime = 0.025000 eps = 0.050000, tol = 0.500000
Time step 0:
the depth of the tree is: 19, and the number of nodes is: 1479892.
Time for asynchronous transfer and execute (ms): 10.222816
SPLICE_DEPTH = 1, DEPTH_STAT = 8.
@ extra: 71 ms
@ build_tree: 678 ms
@ compute_bb: 25 ms
@ compute_cofm: 202 ms
@ force_calc: 6486 ms
@ init_kernel: 3088 ms
@ gpu_copy_tree_to: 289 ms
@ kernel: 2390 ms
@ gpu_copy_tree_from: 104 ms
@ build_tree_gpu: 544 ms
@ pointer_table:  7 ms
@ adv_point: 64 ms
@ read_input: 3788 ms
@ overall: 11402 ms
Collected results into ../../../results/depth_tmp/bh_Hybrid_Sched_BarnesHutPlummer1M.in_1_unsorted.stats

Loading data from ../../../results/depth_tmp/bh_Hybrid_Sched_BarnesHutPlummer1M.in_1_unsorted.stats...
{'build_tree_gpu:': [533.0, 566.0, 549.0, 526.0, 540.0, 541.0, 544.0, 534.0, 547.0, 549.0, 529.0, 545.0, 544.0], 'gpu_copy_tree_from:': [102.0, 144.0, 121.0, 104.0, 146.0, 145.0, 102.0, 142.0, 118.0, 102.0, 118.0, 121.0, 104.0], 'gpu_copy_tree_to:': [296.0, 288.0, 317.0, 315.0, 304.0, 358.0, 290.0, 329.0, 345.0, 340.0, 333.0, 318.0, 289.0], 'init_kernel:': [2577.0, 2538.0, 2597.0, 2570.0, 2624.0, 2684.0, 3247.0, 2614.0, 2722.0, 3005.0, 2572.0, 2545.0, 3088.0], 'compute_cofm:': [201.0, 203.0, 202.0, 197.0, 199.0, 200.0, 204.0, 200.0, 202.0, 204.0, 196.0, 199.0, 202.0], 'kernel:': [2384.0, 2386.0, 2387.0, 2390.0, 2386.0, 2387.0, 2389.0, 2385.0, 2387.0, 2385.0, 2385.0, 2389.0, 2390.0], 'overall:': [10545.0, 10812.0, 10855.0, 10575.0, 10906.0, 11036.0, 11142.0, 10921.0, 11014.0, 10945.0, 10809.0, 10773.0, 11402.0], 'adv_point:': [61.0, 109.0, 87.0, 61.0, 109.0, 108.0, 65.0, 108.0, 87.0, 66.0, 87.0, 87.0, 64.0], 'read_input:': [3473.0, 3557.0, 3618.0, 3501.0, 3573.0, 3556.0, 3369.0, 3593.0, 3604.0, 3368.0, 3598.0, 3582.0, 3788.0], 'compute_bb:': [25.0, 25.0, 25.0, 25.0, 25.0, 25.0, 25.0, 25.0, 25.0, 25.0, 25.0, 26.0, 25.0], 'force_calc:': [5960.0, 5990.0, 6039.0, 5973.0, 6075.0, 6221.0, 6644.0, 6079.0, 6225.0, 6452.0, 6011.0, 5992.0, 6486.0], 'extra:': [68.0, 67.0, 69.0, 69.0, 75.0, 105.0, 72.0, 75.0, 107.0, 71.0, 73.0, 74.0, 71.0], 'build_tree:': [674.0, 676.0, 670.0, 662.0, 671.0, 671.0, 682.0, 669.0, 663.0, 677.0, 684.0, 674.0, 678.0], 'pointer_table:': [7.0, 7.0, 7.0, 7.0, 7.0, 7.0, 7.0, 7.0, 7.0, 7.0, 7.0, 7.0, 7.0]}
Configuration: nbodies = 1000000, ntimesteps = 1, dtime = 0.025000 eps = 0.050000, tol = 0.500000
Time step 0:
the depth of the tree is: 19, and the number of nodes is: 1479892.
Time for asynchronous transfer and execute (ms): 9.936000
SPLICE_DEPTH = 1, DEPTH_STAT = 8.
@ extra: 73 ms
@ build_tree: 669 ms
@ compute_bb: 25 ms
@ compute_cofm: 198 ms
@ force_calc: 6079 ms
@ init_kernel: 2615 ms
@ gpu_copy_tree_to: 325 ms
@ kernel: 2387 ms
@ gpu_copy_tree_from: 144 ms
@ build_tree_gpu: 536 ms
@ pointer_table:  7 ms
@ adv_point: 107 ms
@ read_input: 3592 ms
@ overall: 10924 ms
Collected results into ../../../results/depth_tmp/bh_Hybrid_Sched_BarnesHutPlummer1M.in_1_unsorted.stats

Loading data from ../../../results/depth_tmp/bh_Hybrid_Sched_BarnesHutPlummer1M.in_1_unsorted.stats...
{'build_tree_gpu:': [533.0, 566.0, 549.0, 526.0, 540.0, 541.0, 544.0, 534.0, 547.0, 549.0, 529.0, 545.0, 544.0, 536.0], 'gpu_copy_tree_from:': [102.0, 144.0, 121.0, 104.0, 146.0, 145.0, 102.0, 142.0, 118.0, 102.0, 118.0, 121.0, 104.0, 144.0], 'gpu_copy_tree_to:': [296.0, 288.0, 317.0, 315.0, 304.0, 358.0, 290.0, 329.0, 345.0, 340.0, 333.0, 318.0, 289.0, 325.0], 'init_kernel:': [2577.0, 2538.0, 2597.0, 2570.0, 2624.0, 2684.0, 3247.0, 2614.0, 2722.0, 3005.0, 2572.0, 2545.0, 3088.0, 2615.0], 'read_input:': [3473.0, 3557.0, 3618.0, 3501.0, 3573.0, 3556.0, 3369.0, 3593.0, 3604.0, 3368.0, 3598.0, 3582.0, 3788.0, 3592.0], 'kernel:': [2384.0, 2386.0, 2387.0, 2390.0, 2386.0, 2387.0, 2389.0, 2385.0, 2387.0, 2385.0, 2385.0, 2389.0, 2390.0, 2387.0], 'overall:': [10545.0, 10812.0, 10855.0, 10575.0, 10906.0, 11036.0, 11142.0, 10921.0, 11014.0, 10945.0, 10809.0, 10773.0, 11402.0, 10924.0], 'adv_point:': [61.0, 109.0, 87.0, 61.0, 109.0, 108.0, 65.0, 108.0, 87.0, 66.0, 87.0, 87.0, 64.0, 107.0], 'compute_cofm:': [201.0, 203.0, 202.0, 197.0, 199.0, 200.0, 204.0, 200.0, 202.0, 204.0, 196.0, 199.0, 202.0, 198.0], 'compute_bb:': [25.0, 25.0, 25.0, 25.0, 25.0, 25.0, 25.0, 25.0, 25.0, 25.0, 25.0, 26.0, 25.0, 25.0], 'force_calc:': [5960.0, 5990.0, 6039.0, 5973.0, 6075.0, 6221.0, 6644.0, 6079.0, 6225.0, 6452.0, 6011.0, 5992.0, 6486.0, 6079.0], 'extra:': [68.0, 67.0, 69.0, 69.0, 75.0, 105.0, 72.0, 75.0, 107.0, 71.0, 73.0, 74.0, 71.0, 73.0], 'build_tree:': [674.0, 676.0, 670.0, 662.0, 671.0, 671.0, 682.0, 669.0, 663.0, 677.0, 684.0, 674.0, 678.0, 669.0], 'pointer_table:': [7.0, 7.0, 7.0, 7.0, 7.0, 7.0, 7.0, 7.0, 7.0, 7.0, 7.0, 7.0, 7.0, 7.0]}
Configuration: nbodies = 1000000, ntimesteps = 1, dtime = 0.025000 eps = 0.050000, tol = 0.500000
Time step 0:
the depth of the tree is: 19, and the number of nodes is: 1479892.
Time for asynchronous transfer and execute (ms): 17.000416
SPLICE_DEPTH = 1, DEPTH_STAT = 8.
@ extra: 110 ms
@ build_tree: 666 ms
@ compute_bb: 25 ms
@ compute_cofm: 199 ms
@ force_calc: 6150 ms
@ init_kernel: 2617 ms
@ gpu_copy_tree_to: 362 ms
@ kernel: 2385 ms
@ gpu_copy_tree_from: 142 ms
@ build_tree_gpu: 535 ms
@ pointer_table:  7 ms
@ adv_point: 106 ms
@ read_input: 3493 ms
@ overall: 10887 ms
Collected results into ../../../results/depth_tmp/bh_Hybrid_Sched_BarnesHutPlummer1M.in_1_unsorted.stats

