Results wll be collected to ../../../results/depth_tmp/bh_Hybrid_Sched_BarnesHutPlummer200K.in_1_unsorted.stats...
Configuration: nbodies = 200000, ntimesteps = 1, dtime = 0.025000 eps = 0.050000, tol = 0.500000
Time step 0:
the depth of the tree is: 18, and the number of nodes is: 296357.
Time for asynchronous transfer and execute (ms): 4.700992
SPLICE_DEPTH = 1, DEPTH_STAT = 8.
@ extra: 31 ms
@ build_tree: 103 ms
@ compute_bb:  5 ms
@ compute_cofm: 39 ms
@ force_calc: 3186 ms
@ init_kernel: 2567 ms
@ gpu_copy_tree_to: 66 ms
@ kernel: 392 ms
@ gpu_copy_tree_from: 23 ms
@ build_tree_gpu: 106 ms
@ pointer_table:  2 ms
@ adv_point: 13 ms
@ read_input: 926 ms
@ overall: 4303 ms
Collected results into ../../../results/depth_tmp/bh_Hybrid_Sched_BarnesHutPlummer200K.in_1_unsorted.stats

Loading data from ../../../results/depth_tmp/bh_Hybrid_Sched_BarnesHutPlummer200K.in_1_unsorted.stats...
{'build_tree_gpu:': [106.0], 'gpu_copy_tree_from:': [23.0], 'gpu_copy_tree_to:': [66.0], 'init_kernel:': [2567.0], 'compute_cofm:': [39.0], 'kernel:': [392.0], 'overall:': [4303.0], 'adv_point:': [13.0], 'read_input:': [926.0], 'compute_bb:': [5.0], 'force_calc:': [3186.0], 'extra:': [31.0], 'build_tree:': [103.0], 'pointer_table:': [2.0]}
Configuration: nbodies = 200000, ntimesteps = 1, dtime = 0.025000 eps = 0.050000, tol = 0.500000
Time step 0:
the depth of the tree is: 18, and the number of nodes is: 296357.
Time for asynchronous transfer and execute (ms): 4.772384
SPLICE_DEPTH = 1, DEPTH_STAT = 8.
@ extra: 31 ms
@ build_tree: 104 ms
@ compute_bb:  5 ms
@ compute_cofm: 40 ms
@ force_calc: 3249 ms
@ init_kernel: 2617 ms
@ gpu_copy_tree_to: 69 ms
@ kernel: 393 ms
@ gpu_copy_tree_from: 32 ms
@ build_tree_gpu: 108 ms
@ pointer_table:  2 ms
@ adv_point: 22 ms
@ read_input: 912 ms
@ overall: 4381 ms
Collected results into ../../../results/depth_tmp/bh_Hybrid_Sched_BarnesHutPlummer200K.in_1_unsorted.stats

Loading data from ../../../results/depth_tmp/bh_Hybrid_Sched_BarnesHutPlummer200K.in_1_unsorted.stats...
{'build_tree_gpu:': [106.0, 108.0], 'gpu_copy_tree_from:': [23.0, 32.0], 'gpu_copy_tree_to:': [66.0, 69.0], 'init_kernel:': [2567.0, 2617.0], 'read_input:': [926.0, 912.0], 'kernel:': [392.0, 393.0], 'overall:': [4303.0, 4381.0], 'adv_point:': [13.0, 22.0], 'compute_cofm:': [39.0, 40.0], 'compute_bb:': [5.0, 5.0], 'force_calc:': [3186.0, 3249.0], 'extra:': [31.0, 31.0], 'build_tree:': [103.0, 104.0], 'pointer_table:': [2.0, 2.0]}
Configuration: nbodies = 200000, ntimesteps = 1, dtime = 0.025000 eps = 0.050000, tol = 0.500000
Time step 0:
the depth of the tree is: 18, and the number of nodes is: 296357.
Time for asynchronous transfer and execute (ms): 3.434688
SPLICE_DEPTH = 1, DEPTH_STAT = 8.
@ extra: 21 ms
@ build_tree: 105 ms
@ compute_bb:  5 ms
@ compute_cofm: 40 ms
@ force_calc: 3285 ms
@ init_kernel: 2681 ms
@ gpu_copy_tree_to: 53 ms
@ kernel: 392 ms
@ gpu_copy_tree_from: 30 ms
@ build_tree_gpu: 108 ms
@ pointer_table:  2 ms
@ adv_point: 22 ms
@ read_input: 836 ms
@ overall: 4341 ms
Collected results into ../../../results/depth_tmp/bh_Hybrid_Sched_BarnesHutPlummer200K.in_1_unsorted.stats

Loading data from ../../../results/depth_tmp/bh_Hybrid_Sched_BarnesHutPlummer200K.in_1_unsorted.stats...
{'build_tree_gpu:': [106.0, 108.0, 108.0], 'gpu_copy_tree_from:': [23.0, 32.0, 30.0], 'gpu_copy_tree_to:': [66.0, 69.0, 53.0], 'init_kernel:': [2567.0, 2617.0, 2681.0], 'compute_cofm:': [39.0, 40.0, 40.0], 'kernel:': [392.0, 393.0, 392.0], 'overall:': [4303.0, 4381.0, 4341.0], 'adv_point:': [13.0, 22.0, 22.0], 'read_input:': [926.0, 912.0, 836.0], 'compute_bb:': [5.0, 5.0, 5.0], 'force_calc:': [3186.0, 3249.0, 3285.0], 'extra:': [31.0, 31.0, 21.0], 'build_tree:': [103.0, 104.0, 105.0], 'pointer_table:': [2.0, 2.0, 2.0]}
Configuration: nbodies = 200000, ntimesteps = 1, dtime = 0.025000 eps = 0.050000, tol = 0.500000
Time step 0:
the depth of the tree is: 18, and the number of nodes is: 296357.
Time for asynchronous transfer and execute (ms): 4.777856
SPLICE_DEPTH = 1, DEPTH_STAT = 8.
@ extra: 31 ms
@ build_tree: 103 ms
@ compute_bb:  5 ms
@ compute_cofm: 39 ms
@ force_calc: 3159 ms
@ init_kernel: 2536 ms
@ gpu_copy_tree_to: 68 ms
@ kernel: 393 ms
@ gpu_copy_tree_from: 26 ms
@ build_tree_gpu: 105 ms
@ pointer_table:  2 ms
@ adv_point: 17 ms
@ read_input: 907 ms
@ overall: 4270 ms
Collected results into ../../../results/depth_tmp/bh_Hybrid_Sched_BarnesHutPlummer200K.in_1_unsorted.stats

Loading data from ../../../results/depth_tmp/bh_Hybrid_Sched_BarnesHutPlummer200K.in_1_unsorted.stats...
{'build_tree_gpu:': [106.0, 108.0, 108.0, 105.0], 'gpu_copy_tree_from:': [23.0, 32.0, 30.0, 26.0], 'gpu_copy_tree_to:': [66.0, 69.0, 53.0, 68.0], 'init_kernel:': [2567.0, 2617.0, 2681.0, 2536.0], 'read_input:': [926.0, 912.0, 836.0, 907.0], 'kernel:': [392.0, 393.0, 392.0, 393.0], 'overall:': [4303.0, 4381.0, 4341.0, 4270.0], 'adv_point:': [13.0, 22.0, 22.0, 17.0], 'compute_cofm:': [39.0, 40.0, 40.0, 39.0], 'compute_bb:': [5.0, 5.0, 5.0, 5.0], 'force_calc:': [3186.0, 3249.0, 3285.0, 3159.0], 'extra:': [31.0, 31.0, 21.0, 31.0], 'build_tree:': [103.0, 104.0, 105.0, 103.0], 'pointer_table:': [2.0, 2.0, 2.0, 2.0]}
Configuration: nbodies = 200000, ntimesteps = 1, dtime = 0.025000 eps = 0.050000, tol = 0.500000
Time step 0:
the depth of the tree is: 18, and the number of nodes is: 296357.
Time for asynchronous transfer and execute (ms): 4.758208
SPLICE_DEPTH = 1, DEPTH_STAT = 8.
@ extra: 31 ms
@ build_tree: 103 ms
@ compute_bb:  5 ms
@ compute_cofm: 39 ms
@ force_calc: 3167 ms
@ init_kernel: 2536 ms
@ gpu_copy_tree_to: 69 ms
@ kernel: 391 ms
@ gpu_copy_tree_from: 32 ms
@ build_tree_gpu: 107 ms
@ pointer_table:  2 ms
@ adv_point: 21 ms
@ read_input: 900 ms
@ overall: 4284 ms
Collected results into ../../../results/depth_tmp/bh_Hybrid_Sched_BarnesHutPlummer200K.in_1_unsorted.stats

Loading data from ../../../results/depth_tmp/bh_Hybrid_Sched_BarnesHutPlummer200K.in_1_unsorted.stats...
{'build_tree_gpu:': [106.0, 108.0, 108.0, 105.0, 107.0], 'gpu_copy_tree_from:': [23.0, 32.0, 30.0, 26.0, 32.0], 'gpu_copy_tree_to:': [66.0, 69.0, 53.0, 68.0, 69.0], 'init_kernel:': [2567.0, 2617.0, 2681.0, 2536.0, 2536.0], 'compute_cofm:': [39.0, 40.0, 40.0, 39.0, 39.0], 'kernel:': [392.0, 393.0, 392.0, 393.0, 391.0], 'overall:': [4303.0, 4381.0, 4341.0, 4270.0, 4284.0], 'adv_point:': [13.0, 22.0, 22.0, 17.0, 21.0], 'read_input:': [926.0, 912.0, 836.0, 907.0, 900.0], 'compute_bb:': [5.0, 5.0, 5.0, 5.0, 5.0], 'force_calc:': [3186.0, 3249.0, 3285.0, 3159.0, 3167.0], 'extra:': [31.0, 31.0, 21.0, 31.0, 31.0], 'build_tree:': [103.0, 104.0, 105.0, 103.0, 103.0], 'pointer_table:': [2.0, 2.0, 2.0, 2.0, 2.0]}
Configuration: nbodies = 200000, ntimesteps = 1, dtime = 0.025000 eps = 0.050000, tol = 0.500000
Time step 0:
the depth of the tree is: 18, and the number of nodes is: 296357.
Time for asynchronous transfer and execute (ms): 3.437216
SPLICE_DEPTH = 1, DEPTH_STAT = 8.
@ extra: 21 ms
@ build_tree: 103 ms
@ compute_bb:  6 ms
@ compute_cofm: 39 ms
@ force_calc: 3168 ms
@ init_kernel: 2566 ms
@ gpu_copy_tree_to: 52 ms
@ kernel: 394 ms
@ gpu_copy_tree_from: 30 ms
@ build_tree_gpu: 105 ms
@ pointer_table:  2 ms
@ adv_point: 21 ms
@ read_input: 875 ms
@ overall: 4259 ms
Collected results into ../../../results/depth_tmp/bh_Hybrid_Sched_BarnesHutPlummer200K.in_1_unsorted.stats

Loading data from ../../../results/depth_tmp/bh_Hybrid_Sched_BarnesHutPlummer200K.in_1_unsorted.stats...
{'build_tree_gpu:': [106.0, 108.0, 108.0, 105.0, 107.0, 105.0], 'gpu_copy_tree_from:': [23.0, 32.0, 30.0, 26.0, 32.0, 30.0], 'gpu_copy_tree_to:': [66.0, 69.0, 53.0, 68.0, 69.0, 52.0], 'init_kernel:': [2567.0, 2617.0, 2681.0, 2536.0, 2536.0, 2566.0], 'read_input:': [926.0, 912.0, 836.0, 907.0, 900.0, 875.0], 'kernel:': [392.0, 393.0, 392.0, 393.0, 391.0, 394.0], 'overall:': [4303.0, 4381.0, 4341.0, 4270.0, 4284.0, 4259.0], 'adv_point:': [13.0, 22.0, 22.0, 17.0, 21.0, 21.0], 'compute_cofm:': [39.0, 40.0, 40.0, 39.0, 39.0, 39.0], 'compute_bb:': [5.0, 5.0, 5.0, 5.0, 5.0, 6.0], 'force_calc:': [3186.0, 3249.0, 3285.0, 3159.0, 3167.0, 3168.0], 'extra:': [31.0, 31.0, 21.0, 31.0, 31.0, 21.0], 'build_tree:': [103.0, 104.0, 105.0, 103.0, 103.0, 103.0], 'pointer_table:': [2.0, 2.0, 2.0, 2.0, 2.0, 2.0]}
Configuration: nbodies = 200000, ntimesteps = 1, dtime = 0.025000 eps = 0.050000, tol = 0.500000
Time step 0:
the depth of the tree is: 18, and the number of nodes is: 296357.
Time for asynchronous transfer and execute (ms): 4.719520
SPLICE_DEPTH = 1, DEPTH_STAT = 8.
@ extra: 31 ms
@ build_tree: 101 ms
@ compute_bb:  5 ms
@ compute_cofm: 39 ms
@ force_calc: 3467 ms
@ init_kernel: 2846 ms
@ gpu_copy_tree_to: 68 ms
@ kernel: 391 ms
@ gpu_copy_tree_from: 26 ms
@ build_tree_gpu: 105 ms
@ pointer_table:  2 ms
@ adv_point: 16 ms
@ read_input: 869 ms
@ overall: 4538 ms
Collected results into ../../../results/depth_tmp/bh_Hybrid_Sched_BarnesHutPlummer200K.in_1_unsorted.stats

Loading data from ../../../results/depth_tmp/bh_Hybrid_Sched_BarnesHutPlummer200K.in_1_unsorted.stats...
{'build_tree_gpu:': [106.0, 108.0, 108.0, 105.0, 107.0, 105.0, 105.0], 'gpu_copy_tree_from:': [23.0, 32.0, 30.0, 26.0, 32.0, 30.0, 26.0], 'gpu_copy_tree_to:': [66.0, 69.0, 53.0, 68.0, 69.0, 52.0, 68.0], 'init_kernel:': [2567.0, 2617.0, 2681.0, 2536.0, 2536.0, 2566.0, 2846.0], 'compute_cofm:': [39.0, 40.0, 40.0, 39.0, 39.0, 39.0, 39.0], 'kernel:': [392.0, 393.0, 392.0, 393.0, 391.0, 394.0, 391.0], 'overall:': [4303.0, 4381.0, 4341.0, 4270.0, 4284.0, 4259.0, 4538.0], 'adv_point:': [13.0, 22.0, 22.0, 17.0, 21.0, 21.0, 16.0], 'read_input:': [926.0, 912.0, 836.0, 907.0, 900.0, 875.0, 869.0], 'compute_bb:': [5.0, 5.0, 5.0, 5.0, 5.0, 6.0, 5.0], 'force_calc:': [3186.0, 3249.0, 3285.0, 3159.0, 3167.0, 3168.0, 3467.0], 'extra:': [31.0, 31.0, 21.0, 31.0, 31.0, 21.0, 31.0], 'build_tree:': [103.0, 104.0, 105.0, 103.0, 103.0, 103.0, 101.0], 'pointer_table:': [2.0, 2.0, 2.0, 2.0, 2.0, 2.0, 2.0]}
Configuration: nbodies = 200000, ntimesteps = 1, dtime = 0.025000 eps = 0.050000, tol = 0.500000
Time step 0:
the depth of the tree is: 18, and the number of nodes is: 296357.
Time for asynchronous transfer and execute (ms): 4.795296
SPLICE_DEPTH = 1, DEPTH_STAT = 8.
@ extra: 31 ms
@ build_tree: 104 ms
@ compute_bb:  5 ms
@ compute_cofm: 40 ms
@ force_calc: 3377 ms
@ init_kernel: 2743 ms
@ gpu_copy_tree_to: 69 ms
@ kernel: 392 ms
@ gpu_copy_tree_from: 32 ms
@ build_tree_gpu: 109 ms
@ pointer_table:  2 ms
@ adv_point: 22 ms
@ read_input: 818 ms
@ overall: 4414 ms
Collected results into ../../../results/depth_tmp/bh_Hybrid_Sched_BarnesHutPlummer200K.in_1_unsorted.stats

Loading data from ../../../results/depth_tmp/bh_Hybrid_Sched_BarnesHutPlummer200K.in_1_unsorted.stats...
{'build_tree_gpu:': [106.0, 108.0, 108.0, 105.0, 107.0, 105.0, 105.0, 109.0], 'gpu_copy_tree_from:': [23.0, 32.0, 30.0, 26.0, 32.0, 30.0, 26.0, 32.0], 'gpu_copy_tree_to:': [66.0, 69.0, 53.0, 68.0, 69.0, 52.0, 68.0, 69.0], 'init_kernel:': [2567.0, 2617.0, 2681.0, 2536.0, 2536.0, 2566.0, 2846.0, 2743.0], 'read_input:': [926.0, 912.0, 836.0, 907.0, 900.0, 875.0, 869.0, 818.0], 'kernel:': [392.0, 393.0, 392.0, 393.0, 391.0, 394.0, 391.0, 392.0], 'overall:': [4303.0, 4381.0, 4341.0, 4270.0, 4284.0, 4259.0, 4538.0, 4414.0], 'adv_point:': [13.0, 22.0, 22.0, 17.0, 21.0, 21.0, 16.0, 22.0], 'compute_cofm:': [39.0, 40.0, 40.0, 39.0, 39.0, 39.0, 39.0, 40.0], 'compute_bb:': [5.0, 5.0, 5.0, 5.0, 5.0, 6.0, 5.0, 5.0], 'force_calc:': [3186.0, 3249.0, 3285.0, 3159.0, 3167.0, 3168.0, 3467.0, 3377.0], 'extra:': [31.0, 31.0, 21.0, 31.0, 31.0, 21.0, 31.0, 31.0], 'build_tree:': [103.0, 104.0, 105.0, 103.0, 103.0, 103.0, 101.0, 104.0], 'pointer_table:': [2.0, 2.0, 2.0, 2.0, 2.0, 2.0, 2.0, 2.0]}
Configuration: nbodies = 200000, ntimesteps = 1, dtime = 0.025000 eps = 0.050000, tol = 0.500000
Time step 0:
the depth of the tree is: 18, and the number of nodes is: 296357.
Time for asynchronous transfer and execute (ms): 4.777280
SPLICE_DEPTH = 1, DEPTH_STAT = 8.
@ extra: 31 ms
@ build_tree: 103 ms
@ compute_bb:  5 ms
@ compute_cofm: 39 ms
@ force_calc: 3259 ms
@ init_kernel: 2630 ms
@ gpu_copy_tree_to: 69 ms
@ kernel: 390 ms
@ gpu_copy_tree_from: 32 ms
@ build_tree_gpu: 107 ms
@ pointer_table:  2 ms
@ adv_point: 21 ms
@ read_input: 860 ms
@ overall: 4337 ms
Collected results into ../../../results/depth_tmp/bh_Hybrid_Sched_BarnesHutPlummer200K.in_1_unsorted.stats

Loading data from ../../../results/depth_tmp/bh_Hybrid_Sched_BarnesHutPlummer200K.in_1_unsorted.stats...
{'build_tree_gpu:': [106.0, 108.0, 108.0, 105.0, 107.0, 105.0, 105.0, 109.0, 107.0], 'gpu_copy_tree_from:': [23.0, 32.0, 30.0, 26.0, 32.0, 30.0, 26.0, 32.0, 32.0], 'gpu_copy_tree_to:': [66.0, 69.0, 53.0, 68.0, 69.0, 52.0, 68.0, 69.0, 69.0], 'init_kernel:': [2567.0, 2617.0, 2681.0, 2536.0, 2536.0, 2566.0, 2846.0, 2743.0, 2630.0], 'compute_cofm:': [39.0, 40.0, 40.0, 39.0, 39.0, 39.0, 39.0, 40.0, 39.0], 'kernel:': [392.0, 393.0, 392.0, 393.0, 391.0, 394.0, 391.0, 392.0, 390.0], 'overall:': [4303.0, 4381.0, 4341.0, 4270.0, 4284.0, 4259.0, 4538.0, 4414.0, 4337.0], 'adv_point:': [13.0, 22.0, 22.0, 17.0, 21.0, 21.0, 16.0, 22.0, 21.0], 'read_input:': [926.0, 912.0, 836.0, 907.0, 900.0, 875.0, 869.0, 818.0, 860.0], 'compute_bb:': [5.0, 5.0, 5.0, 5.0, 5.0, 6.0, 5.0, 5.0, 5.0], 'force_calc:': [3186.0, 3249.0, 3285.0, 3159.0, 3167.0, 3168.0, 3467.0, 3377.0, 3259.0], 'extra:': [31.0, 31.0, 21.0, 31.0, 31.0, 21.0, 31.0, 31.0, 31.0], 'build_tree:': [103.0, 104.0, 105.0, 103.0, 103.0, 103.0, 101.0, 104.0, 103.0], 'pointer_table:': [2.0, 2.0, 2.0, 2.0, 2.0, 2.0, 2.0, 2.0, 2.0]}
Configuration: nbodies = 200000, ntimesteps = 1, dtime = 0.025000 eps = 0.050000, tol = 0.500000
Time step 0:
the depth of the tree is: 18, and the number of nodes is: 296357.
Time for asynchronous transfer and execute (ms): 4.814304
SPLICE_DEPTH = 1, DEPTH_STAT = 8.
@ extra: 31 ms
@ build_tree: 104 ms
@ compute_bb:  5 ms
@ compute_cofm: 40 ms
@ force_calc: 3164 ms
@ init_kernel: 2531 ms
@ gpu_copy_tree_to: 69 ms
@ kernel: 392 ms
@ gpu_copy_tree_from: 32 ms
@ build_tree_gpu: 109 ms
@ pointer_table:  2 ms
@ adv_point: 22 ms
@ read_input: 811 ms
@ overall: 4195 ms
Collected results into ../../../results/depth_tmp/bh_Hybrid_Sched_BarnesHutPlummer200K.in_1_unsorted.stats

Loading data from ../../../results/depth_tmp/bh_Hybrid_Sched_BarnesHutPlummer200K.in_1_unsorted.stats...
{'build_tree_gpu:': [106.0, 108.0, 108.0, 105.0, 107.0, 105.0, 105.0, 109.0, 107.0, 109.0], 'gpu_copy_tree_from:': [23.0, 32.0, 30.0, 26.0, 32.0, 30.0, 26.0, 32.0, 32.0, 32.0], 'gpu_copy_tree_to:': [66.0, 69.0, 53.0, 68.0, 69.0, 52.0, 68.0, 69.0, 69.0, 69.0], 'init_kernel:': [2567.0, 2617.0, 2681.0, 2536.0, 2536.0, 2566.0, 2846.0, 2743.0, 2630.0, 2531.0], 'read_input:': [926.0, 912.0, 836.0, 907.0, 900.0, 875.0, 869.0, 818.0, 860.0, 811.0], 'kernel:': [392.0, 393.0, 392.0, 393.0, 391.0, 394.0, 391.0, 392.0, 390.0, 392.0], 'overall:': [4303.0, 4381.0, 4341.0, 4270.0, 4284.0, 4259.0, 4538.0, 4414.0, 4337.0, 4195.0], 'adv_point:': [13.0, 22.0, 22.0, 17.0, 21.0, 21.0, 16.0, 22.0, 21.0, 22.0], 'compute_cofm:': [39.0, 40.0, 40.0, 39.0, 39.0, 39.0, 39.0, 40.0, 39.0, 40.0], 'compute_bb:': [5.0, 5.0, 5.0, 5.0, 5.0, 6.0, 5.0, 5.0, 5.0, 5.0], 'force_calc:': [3186.0, 3249.0, 3285.0, 3159.0, 3167.0, 3168.0, 3467.0, 3377.0, 3259.0, 3164.0], 'extra:': [31.0, 31.0, 21.0, 31.0, 31.0, 21.0, 31.0, 31.0, 31.0, 31.0], 'build_tree:': [103.0, 104.0, 105.0, 103.0, 103.0, 103.0, 101.0, 104.0, 103.0, 104.0], 'pointer_table:': [2.0, 2.0, 2.0, 2.0, 2.0, 2.0, 2.0, 2.0, 2.0, 2.0]}
Configuration: nbodies = 200000, ntimesteps = 1, dtime = 0.025000 eps = 0.050000, tol = 0.500000
Time step 0:
the depth of the tree is: 18, and the number of nodes is: 296357.
Time for asynchronous transfer and execute (ms): 4.773920
SPLICE_DEPTH = 1, DEPTH_STAT = 8.
@ extra: 31 ms
@ build_tree: 103 ms
@ compute_bb:  5 ms
@ compute_cofm: 39 ms
@ force_calc: 3218 ms
@ init_kernel: 2589 ms
@ gpu_copy_tree_to: 69 ms
@ kernel: 391 ms
@ gpu_copy_tree_from: 32 ms
@ build_tree_gpu: 107 ms
@ pointer_table:  2 ms
@ adv_point: 21 ms
@ read_input: 836 ms
@ overall: 4272 ms
Collected results into ../../../results/depth_tmp/bh_Hybrid_Sched_BarnesHutPlummer200K.in_1_unsorted.stats

Loading data from ../../../results/depth_tmp/bh_Hybrid_Sched_BarnesHutPlummer200K.in_1_unsorted.stats...
{'build_tree_gpu:': [106.0, 108.0, 108.0, 105.0, 107.0, 105.0, 105.0, 109.0, 107.0, 109.0, 107.0], 'gpu_copy_tree_from:': [23.0, 32.0, 30.0, 26.0, 32.0, 30.0, 26.0, 32.0, 32.0, 32.0, 32.0], 'gpu_copy_tree_to:': [66.0, 69.0, 53.0, 68.0, 69.0, 52.0, 68.0, 69.0, 69.0, 69.0, 69.0], 'init_kernel:': [2567.0, 2617.0, 2681.0, 2536.0, 2536.0, 2566.0, 2846.0, 2743.0, 2630.0, 2531.0, 2589.0], 'compute_cofm:': [39.0, 40.0, 40.0, 39.0, 39.0, 39.0, 39.0, 40.0, 39.0, 40.0, 39.0], 'kernel:': [392.0, 393.0, 392.0, 393.0, 391.0, 394.0, 391.0, 392.0, 390.0, 392.0, 391.0], 'overall:': [4303.0, 4381.0, 4341.0, 4270.0, 4284.0, 4259.0, 4538.0, 4414.0, 4337.0, 4195.0, 4272.0], 'adv_point:': [13.0, 22.0, 22.0, 17.0, 21.0, 21.0, 16.0, 22.0, 21.0, 22.0, 21.0], 'read_input:': [926.0, 912.0, 836.0, 907.0, 900.0, 875.0, 869.0, 818.0, 860.0, 811.0, 836.0], 'compute_bb:': [5.0, 5.0, 5.0, 5.0, 5.0, 6.0, 5.0, 5.0, 5.0, 5.0, 5.0], 'force_calc:': [3186.0, 3249.0, 3285.0, 3159.0, 3167.0, 3168.0, 3467.0, 3377.0, 3259.0, 3164.0, 3218.0], 'extra:': [31.0, 31.0, 21.0, 31.0, 31.0, 21.0, 31.0, 31.0, 31.0, 31.0, 31.0], 'build_tree:': [103.0, 104.0, 105.0, 103.0, 103.0, 103.0, 101.0, 104.0, 103.0, 104.0, 103.0], 'pointer_table:': [2.0, 2.0, 2.0, 2.0, 2.0, 2.0, 2.0, 2.0, 2.0, 2.0, 2.0]}
Configuration: nbodies = 200000, ntimesteps = 1, dtime = 0.025000 eps = 0.050000, tol = 0.500000
Time step 0:
the depth of the tree is: 18, and the number of nodes is: 296357.
Time for asynchronous transfer and execute (ms): 4.782816
SPLICE_DEPTH = 1, DEPTH_STAT = 8.
@ extra: 31 ms
@ build_tree: 102 ms
@ compute_bb:  5 ms
@ compute_cofm: 39 ms
@ force_calc: 3191 ms
@ init_kernel: 2572 ms
@ gpu_copy_tree_to: 68 ms
@ kernel: 391 ms
@ gpu_copy_tree_from: 26 ms
@ build_tree_gpu: 105 ms
@ pointer_table:  2 ms
@ adv_point: 16 ms
@ read_input: 822 ms
@ overall: 4216 ms
Collected results into ../../../results/depth_tmp/bh_Hybrid_Sched_BarnesHutPlummer200K.in_1_unsorted.stats

Loading data from ../../../results/depth_tmp/bh_Hybrid_Sched_BarnesHutPlummer200K.in_1_unsorted.stats...
{'build_tree_gpu:': [106.0, 108.0, 108.0, 105.0, 107.0, 105.0, 105.0, 109.0, 107.0, 109.0, 107.0, 105.0], 'gpu_copy_tree_from:': [23.0, 32.0, 30.0, 26.0, 32.0, 30.0, 26.0, 32.0, 32.0, 32.0, 32.0, 26.0], 'gpu_copy_tree_to:': [66.0, 69.0, 53.0, 68.0, 69.0, 52.0, 68.0, 69.0, 69.0, 69.0, 69.0, 68.0], 'init_kernel:': [2567.0, 2617.0, 2681.0, 2536.0, 2536.0, 2566.0, 2846.0, 2743.0, 2630.0, 2531.0, 2589.0, 2572.0], 'read_input:': [926.0, 912.0, 836.0, 907.0, 900.0, 875.0, 869.0, 818.0, 860.0, 811.0, 836.0, 822.0], 'kernel:': [392.0, 393.0, 392.0, 393.0, 391.0, 394.0, 391.0, 392.0, 390.0, 392.0, 391.0, 391.0], 'overall:': [4303.0, 4381.0, 4341.0, 4270.0, 4284.0, 4259.0, 4538.0, 4414.0, 4337.0, 4195.0, 4272.0, 4216.0], 'adv_point:': [13.0, 22.0, 22.0, 17.0, 21.0, 21.0, 16.0, 22.0, 21.0, 22.0, 21.0, 16.0], 'compute_cofm:': [39.0, 40.0, 40.0, 39.0, 39.0, 39.0, 39.0, 40.0, 39.0, 40.0, 39.0, 39.0], 'compute_bb:': [5.0, 5.0, 5.0, 5.0, 5.0, 6.0, 5.0, 5.0, 5.0, 5.0, 5.0, 5.0], 'force_calc:': [3186.0, 3249.0, 3285.0, 3159.0, 3167.0, 3168.0, 3467.0, 3377.0, 3259.0, 3164.0, 3218.0, 3191.0], 'extra:': [31.0, 31.0, 21.0, 31.0, 31.0, 21.0, 31.0, 31.0, 31.0, 31.0, 31.0, 31.0], 'build_tree:': [103.0, 104.0, 105.0, 103.0, 103.0, 103.0, 101.0, 104.0, 103.0, 104.0, 103.0, 102.0], 'pointer_table:': [2.0, 2.0, 2.0, 2.0, 2.0, 2.0, 2.0, 2.0, 2.0, 2.0, 2.0, 2.0]}
Configuration: nbodies = 200000, ntimesteps = 1, dtime = 0.025000 eps = 0.050000, tol = 0.500000
Time step 0:
the depth of the tree is: 18, and the number of nodes is: 296357.
Time for asynchronous transfer and execute (ms): 5.200928
SPLICE_DEPTH = 1, DEPTH_STAT = 8.
@ extra: 31 ms
@ build_tree: 103 ms
@ compute_bb:  5 ms
@ compute_cofm: 40 ms
@ force_calc: 3183 ms
@ init_kernel: 2549 ms
@ gpu_copy_tree_to: 71 ms
@ kernel: 392 ms
@ gpu_copy_tree_from: 32 ms
@ build_tree_gpu: 108 ms
@ pointer_table:  2 ms
@ adv_point: 21 ms
@ read_input: 845 ms
@ overall: 4245 ms
Collected results into ../../../results/depth_tmp/bh_Hybrid_Sched_BarnesHutPlummer200K.in_1_unsorted.stats

Loading data from ../../../results/depth_tmp/bh_Hybrid_Sched_BarnesHutPlummer200K.in_1_unsorted.stats...
{'build_tree_gpu:': [106.0, 108.0, 108.0, 105.0, 107.0, 105.0, 105.0, 109.0, 107.0, 109.0, 107.0, 105.0, 108.0], 'gpu_copy_tree_from:': [23.0, 32.0, 30.0, 26.0, 32.0, 30.0, 26.0, 32.0, 32.0, 32.0, 32.0, 26.0, 32.0], 'gpu_copy_tree_to:': [66.0, 69.0, 53.0, 68.0, 69.0, 52.0, 68.0, 69.0, 69.0, 69.0, 69.0, 68.0, 71.0], 'init_kernel:': [2567.0, 2617.0, 2681.0, 2536.0, 2536.0, 2566.0, 2846.0, 2743.0, 2630.0, 2531.0, 2589.0, 2572.0, 2549.0], 'compute_cofm:': [39.0, 40.0, 40.0, 39.0, 39.0, 39.0, 39.0, 40.0, 39.0, 40.0, 39.0, 39.0, 40.0], 'kernel:': [392.0, 393.0, 392.0, 393.0, 391.0, 394.0, 391.0, 392.0, 390.0, 392.0, 391.0, 391.0, 392.0], 'overall:': [4303.0, 4381.0, 4341.0, 4270.0, 4284.0, 4259.0, 4538.0, 4414.0, 4337.0, 4195.0, 4272.0, 4216.0, 4245.0], 'adv_point:': [13.0, 22.0, 22.0, 17.0, 21.0, 21.0, 16.0, 22.0, 21.0, 22.0, 21.0, 16.0, 21.0], 'read_input:': [926.0, 912.0, 836.0, 907.0, 900.0, 875.0, 869.0, 818.0, 860.0, 811.0, 836.0, 822.0, 845.0], 'compute_bb:': [5.0, 5.0, 5.0, 5.0, 5.0, 6.0, 5.0, 5.0, 5.0, 5.0, 5.0, 5.0, 5.0], 'force_calc:': [3186.0, 3249.0, 3285.0, 3159.0, 3167.0, 3168.0, 3467.0, 3377.0, 3259.0, 3164.0, 3218.0, 3191.0, 3183.0], 'extra:': [31.0, 31.0, 21.0, 31.0, 31.0, 21.0, 31.0, 31.0, 31.0, 31.0, 31.0, 31.0, 31.0], 'build_tree:': [103.0, 104.0, 105.0, 103.0, 103.0, 103.0, 101.0, 104.0, 103.0, 104.0, 103.0, 102.0, 103.0], 'pointer_table:': [2.0, 2.0, 2.0, 2.0, 2.0, 2.0, 2.0, 2.0, 2.0, 2.0, 2.0, 2.0, 2.0]}
Configuration: nbodies = 200000, ntimesteps = 1, dtime = 0.025000 eps = 0.050000, tol = 0.500000
Time step 0:
the depth of the tree is: 18, and the number of nodes is: 296357.
Time for asynchronous transfer and execute (ms): 4.755200
SPLICE_DEPTH = 1, DEPTH_STAT = 8.
@ extra: 31 ms
@ build_tree: 103 ms
@ compute_bb:  5 ms
@ compute_cofm: 39 ms
@ force_calc: 3370 ms
@ init_kernel: 2739 ms
@ gpu_copy_tree_to: 69 ms
@ kernel: 391 ms
@ gpu_copy_tree_from: 32 ms
@ build_tree_gpu: 107 ms
@ pointer_table:  2 ms
@ adv_point: 21 ms
@ read_input: 836 ms
@ overall: 4423 ms
Collected results into ../../../results/depth_tmp/bh_Hybrid_Sched_BarnesHutPlummer200K.in_1_unsorted.stats

Loading data from ../../../results/depth_tmp/bh_Hybrid_Sched_BarnesHutPlummer200K.in_1_unsorted.stats...
{'build_tree_gpu:': [106.0, 108.0, 108.0, 105.0, 107.0, 105.0, 105.0, 109.0, 107.0, 109.0, 107.0, 105.0, 108.0, 107.0], 'gpu_copy_tree_from:': [23.0, 32.0, 30.0, 26.0, 32.0, 30.0, 26.0, 32.0, 32.0, 32.0, 32.0, 26.0, 32.0, 32.0], 'gpu_copy_tree_to:': [66.0, 69.0, 53.0, 68.0, 69.0, 52.0, 68.0, 69.0, 69.0, 69.0, 69.0, 68.0, 71.0, 69.0], 'init_kernel:': [2567.0, 2617.0, 2681.0, 2536.0, 2536.0, 2566.0, 2846.0, 2743.0, 2630.0, 2531.0, 2589.0, 2572.0, 2549.0, 2739.0], 'read_input:': [926.0, 912.0, 836.0, 907.0, 900.0, 875.0, 869.0, 818.0, 860.0, 811.0, 836.0, 822.0, 845.0, 836.0], 'kernel:': [392.0, 393.0, 392.0, 393.0, 391.0, 394.0, 391.0, 392.0, 390.0, 392.0, 391.0, 391.0, 392.0, 391.0], 'overall:': [4303.0, 4381.0, 4341.0, 4270.0, 4284.0, 4259.0, 4538.0, 4414.0, 4337.0, 4195.0, 4272.0, 4216.0, 4245.0, 4423.0], 'adv_point:': [13.0, 22.0, 22.0, 17.0, 21.0, 21.0, 16.0, 22.0, 21.0, 22.0, 21.0, 16.0, 21.0, 21.0], 'compute_cofm:': [39.0, 40.0, 40.0, 39.0, 39.0, 39.0, 39.0, 40.0, 39.0, 40.0, 39.0, 39.0, 40.0, 39.0], 'compute_bb:': [5.0, 5.0, 5.0, 5.0, 5.0, 6.0, 5.0, 5.0, 5.0, 5.0, 5.0, 5.0, 5.0, 5.0], 'force_calc:': [3186.0, 3249.0, 3285.0, 3159.0, 3167.0, 3168.0, 3467.0, 3377.0, 3259.0, 3164.0, 3218.0, 3191.0, 3183.0, 3370.0], 'extra:': [31.0, 31.0, 21.0, 31.0, 31.0, 21.0, 31.0, 31.0, 31.0, 31.0, 31.0, 31.0, 31.0, 31.0], 'build_tree:': [103.0, 104.0, 105.0, 103.0, 103.0, 103.0, 101.0, 104.0, 103.0, 104.0, 103.0, 102.0, 103.0, 103.0], 'pointer_table:': [2.0, 2.0, 2.0, 2.0, 2.0, 2.0, 2.0, 2.0, 2.0, 2.0, 2.0, 2.0, 2.0, 2.0]}
Configuration: nbodies = 200000, ntimesteps = 1, dtime = 0.025000 eps = 0.050000, tol = 0.500000
Time step 0:
the depth of the tree is: 18, and the number of nodes is: 296357.
Time for asynchronous transfer and execute (ms): 4.739264
SPLICE_DEPTH = 1, DEPTH_STAT = 8.
@ extra: 31 ms
@ build_tree: 103 ms
@ compute_bb:  5 ms
@ compute_cofm: 39 ms
@ force_calc: 3217 ms
@ init_kernel: 2597 ms
@ gpu_copy_tree_to: 66 ms
@ kernel: 394 ms
@ gpu_copy_tree_from: 23 ms
@ build_tree_gpu: 106 ms
@ pointer_table:  2 ms
@ adv_point: 13 ms
@ read_input: 677 ms
@ overall: 4085 ms
Collected results into ../../../results/depth_tmp/bh_Hybrid_Sched_BarnesHutPlummer200K.in_1_unsorted.stats

