Results wll be collected to ../../../results/depth_tmp/bt_Hybrid_Sched_random.7d_11_unsorted.stats...
configuration: sort_flag=0, check_flag = 0, verbose_flag=0, K=5, input_file=../../../input/pc/random.7d, npoints=200000, nsearchpoints=200000, DIM = 7, SPLICE_DEPTH = 11
read done!
construct done!
The max depth is 26, the nodes number is 399999.
the number of nodes is 399999, the depth is 26
npoints = 200000, DEPTH_STAT = 2048, nMatrixSize = 409600000.
Time for asynchronous transfer and execute (ms): 11628.841797
The ratio is 0.000000.
@ read_data: 1563 ms
@ build_tree: 610 ms
@ extra: 12160 ms
@ sort:  0 ms
@ kernel: 808 ms
@ traversal: 12977 ms
Collected results into ../../../results/depth_tmp/bt_Hybrid_Sched_random.7d_11_unsorted.stats

Loading data from ../../../results/depth_tmp/bt_Hybrid_Sched_random.7d_11_unsorted.stats...
{'traversal:': [12977.0], 'kernel:': [808.0], 'read_data:': [1563.0], 'sort:': [0.0], 'extra:': [12160.0], 'build_tree:': [610.0]}
configuration: sort_flag=0, check_flag = 0, verbose_flag=0, K=5, input_file=../../../input/pc/random.7d, npoints=200000, nsearchpoints=200000, DIM = 7, SPLICE_DEPTH = 11
read done!
construct done!
The max depth is 26, the nodes number is 399999.
the number of nodes is 399999, the depth is 26
npoints = 200000, DEPTH_STAT = 2048, nMatrixSize = 409600000.
Time for asynchronous transfer and execute (ms): 11626.839844
The ratio is 0.000000.
@ read_data: 1598 ms
@ build_tree: 608 ms
@ extra: 12165 ms
@ sort:  0 ms
@ kernel: 806 ms
@ traversal: 12977 ms
Collected results into ../../../results/depth_tmp/bt_Hybrid_Sched_random.7d_11_unsorted.stats

Loading data from ../../../results/depth_tmp/bt_Hybrid_Sched_random.7d_11_unsorted.stats...
{'traversal:': [12977.0, 12977.0], 'kernel:': [808.0, 806.0], 'read_data:': [1563.0, 1598.0], 'sort:': [0.0, 0.0], 'extra:': [12160.0, 12165.0], 'build_tree:': [610.0, 608.0]}
configuration: sort_flag=0, check_flag = 0, verbose_flag=0, K=5, input_file=../../../input/pc/random.7d, npoints=200000, nsearchpoints=200000, DIM = 7, SPLICE_DEPTH = 11
read done!
construct done!
The max depth is 26, the nodes number is 399999.
the number of nodes is 399999, the depth is 26
npoints = 200000, DEPTH_STAT = 2048, nMatrixSize = 409600000.
Time for asynchronous transfer and execute (ms): 11665.477539
The ratio is 0.000000.
@ read_data: 1673 ms
@ build_tree: 612 ms
@ extra: 12198 ms
@ sort:  0 ms
@ kernel: 809 ms
@ traversal: 13016 ms
Collected results into ../../../results/depth_tmp/bt_Hybrid_Sched_random.7d_11_unsorted.stats

Loading data from ../../../results/depth_tmp/bt_Hybrid_Sched_random.7d_11_unsorted.stats...
{'traversal:': [12977.0, 12977.0, 13016.0], 'kernel:': [808.0, 806.0, 809.0], 'read_data:': [1563.0, 1598.0, 1673.0], 'sort:': [0.0, 0.0, 0.0], 'extra:': [12160.0, 12165.0, 12198.0], 'build_tree:': [610.0, 608.0, 612.0]}
configuration: sort_flag=0, check_flag = 0, verbose_flag=0, K=5, input_file=../../../input/pc/random.7d, npoints=200000, nsearchpoints=200000, DIM = 7, SPLICE_DEPTH = 11
read done!
construct done!
The max depth is 26, the nodes number is 399999.
the number of nodes is 399999, the depth is 26
npoints = 200000, DEPTH_STAT = 2048, nMatrixSize = 409600000.
Time for asynchronous transfer and execute (ms): 11641.282227
The ratio is 0.000000.
@ read_data: 1658 ms
@ build_tree: 607 ms
@ extra: 12172 ms
@ sort:  0 ms
@ kernel: 805 ms
@ traversal: 12986 ms
Collected results into ../../../results/depth_tmp/bt_Hybrid_Sched_random.7d_11_unsorted.stats

Loading data from ../../../results/depth_tmp/bt_Hybrid_Sched_random.7d_11_unsorted.stats...
{'traversal:': [12977.0, 12977.0, 13016.0, 12986.0], 'kernel:': [808.0, 806.0, 809.0, 805.0], 'read_data:': [1563.0, 1598.0, 1673.0, 1658.0], 'sort:': [0.0, 0.0, 0.0, 0.0], 'extra:': [12160.0, 12165.0, 12198.0, 12172.0], 'build_tree:': [610.0, 608.0, 612.0, 607.0]}
configuration: sort_flag=0, check_flag = 0, verbose_flag=0, K=5, input_file=../../../input/pc/random.7d, npoints=200000, nsearchpoints=200000, DIM = 7, SPLICE_DEPTH = 11
read done!
construct done!
The max depth is 26, the nodes number is 399999.
the number of nodes is 399999, the depth is 26
npoints = 200000, DEPTH_STAT = 2048, nMatrixSize = 409600000.
Time for asynchronous transfer and execute (ms): 11753.082031
The ratio is 0.000000.
@ read_data: 1572 ms
@ build_tree: 610 ms
@ extra: 12285 ms
@ sort:  0 ms
@ kernel: 811 ms
@ traversal: 13107 ms
Collected results into ../../../results/depth_tmp/bt_Hybrid_Sched_random.7d_11_unsorted.stats

Loading data from ../../../results/depth_tmp/bt_Hybrid_Sched_random.7d_11_unsorted.stats...
{'traversal:': [12977.0, 12977.0, 13016.0, 12986.0, 13107.0], 'kernel:': [808.0, 806.0, 809.0, 805.0, 811.0], 'read_data:': [1563.0, 1598.0, 1673.0, 1658.0, 1572.0], 'sort:': [0.0, 0.0, 0.0, 0.0, 0.0], 'extra:': [12160.0, 12165.0, 12198.0, 12172.0, 12285.0], 'build_tree:': [610.0, 608.0, 612.0, 607.0, 610.0]}
configuration: sort_flag=0, check_flag = 0, verbose_flag=0, K=5, input_file=../../../input/pc/random.7d, npoints=200000, nsearchpoints=200000, DIM = 7, SPLICE_DEPTH = 11
read done!
construct done!
The max depth is 26, the nodes number is 399999.
the number of nodes is 399999, the depth is 26
npoints = 200000, DEPTH_STAT = 2048, nMatrixSize = 409600000.
Time for asynchronous transfer and execute (ms): 11648.010742
The ratio is 0.000000.
@ read_data: 1639 ms
@ build_tree: 608 ms
@ extra: 12180 ms
@ sort:  0 ms
@ kernel: 808 ms
@ traversal: 13000 ms
Collected results into ../../../results/depth_tmp/bt_Hybrid_Sched_random.7d_11_unsorted.stats

Loading data from ../../../results/depth_tmp/bt_Hybrid_Sched_random.7d_11_unsorted.stats...
{'traversal:': [12977.0, 12977.0, 13016.0, 12986.0, 13107.0, 13000.0], 'kernel:': [808.0, 806.0, 809.0, 805.0, 811.0, 808.0], 'read_data:': [1563.0, 1598.0, 1673.0, 1658.0, 1572.0, 1639.0], 'sort:': [0.0, 0.0, 0.0, 0.0, 0.0, 0.0], 'extra:': [12160.0, 12165.0, 12198.0, 12172.0, 12285.0, 12180.0], 'build_tree:': [610.0, 608.0, 612.0, 607.0, 610.0, 608.0]}
configuration: sort_flag=0, check_flag = 0, verbose_flag=0, K=5, input_file=../../../input/pc/random.7d, npoints=200000, nsearchpoints=200000, DIM = 7, SPLICE_DEPTH = 11
read done!
construct done!
The max depth is 26, the nodes number is 399999.
the number of nodes is 399999, the depth is 26
npoints = 200000, DEPTH_STAT = 2048, nMatrixSize = 409600000.
Time for asynchronous transfer and execute (ms): 11648.056641
The ratio is 0.000000.
@ read_data: 1552 ms
@ build_tree: 609 ms
@ extra: 12181 ms
@ sort:  0 ms
@ kernel: 819 ms
@ traversal: 13009 ms
Collected results into ../../../results/depth_tmp/bt_Hybrid_Sched_random.7d_11_unsorted.stats

Loading data from ../../../results/depth_tmp/bt_Hybrid_Sched_random.7d_11_unsorted.stats...
{'traversal:': [12977.0, 12977.0, 13016.0, 12986.0, 13107.0, 13000.0, 13009.0], 'kernel:': [808.0, 806.0, 809.0, 805.0, 811.0, 808.0, 819.0], 'read_data:': [1563.0, 1598.0, 1673.0, 1658.0, 1572.0, 1639.0, 1552.0], 'sort:': [0.0, 0.0, 0.0, 0.0, 0.0, 0.0, 0.0], 'extra:': [12160.0, 12165.0, 12198.0, 12172.0, 12285.0, 12180.0, 12181.0], 'build_tree:': [610.0, 608.0, 612.0, 607.0, 610.0, 608.0, 609.0]}
configuration: sort_flag=0, check_flag = 0, verbose_flag=0, K=5, input_file=../../../input/pc/random.7d, npoints=200000, nsearchpoints=200000, DIM = 7, SPLICE_DEPTH = 11
read done!
construct done!
The max depth is 26, the nodes number is 399999.
the number of nodes is 399999, the depth is 26
npoints = 200000, DEPTH_STAT = 2048, nMatrixSize = 409600000.
Time for asynchronous transfer and execute (ms): 11666.527344
The ratio is 0.000000.
@ read_data: 1631 ms
@ build_tree: 609 ms
@ extra: 12199 ms
@ sort:  0 ms
@ kernel: 819 ms
@ traversal: 13025 ms
Collected results into ../../../results/depth_tmp/bt_Hybrid_Sched_random.7d_11_unsorted.stats

Loading data from ../../../results/depth_tmp/bt_Hybrid_Sched_random.7d_11_unsorted.stats...
{'traversal:': [12977.0, 12977.0, 13016.0, 12986.0, 13107.0, 13000.0, 13009.0, 13025.0], 'kernel:': [808.0, 806.0, 809.0, 805.0, 811.0, 808.0, 819.0, 819.0], 'read_data:': [1563.0, 1598.0, 1673.0, 1658.0, 1572.0, 1639.0, 1552.0, 1631.0], 'sort:': [0.0, 0.0, 0.0, 0.0, 0.0, 0.0, 0.0, 0.0], 'extra:': [12160.0, 12165.0, 12198.0, 12172.0, 12285.0, 12180.0, 12181.0, 12199.0], 'build_tree:': [610.0, 608.0, 612.0, 607.0, 610.0, 608.0, 609.0, 609.0]}
configuration: sort_flag=0, check_flag = 0, verbose_flag=0, K=5, input_file=../../../input/pc/random.7d, npoints=200000, nsearchpoints=200000, DIM = 7, SPLICE_DEPTH = 11
read done!
construct done!
The max depth is 26, the nodes number is 399999.
the number of nodes is 399999, the depth is 26
npoints = 200000, DEPTH_STAT = 2048, nMatrixSize = 409600000.
Time for asynchronous transfer and execute (ms): 11643.415039
The ratio is 0.000000.
@ read_data: 1601 ms
@ build_tree: 608 ms
@ extra: 12177 ms
@ sort:  0 ms
@ kernel: 814 ms
@ traversal: 13000 ms
Collected results into ../../../results/depth_tmp/bt_Hybrid_Sched_random.7d_11_unsorted.stats

Loading data from ../../../results/depth_tmp/bt_Hybrid_Sched_random.7d_11_unsorted.stats...
{'traversal:': [12977.0, 12977.0, 13016.0, 12986.0, 13107.0, 13000.0, 13009.0, 13025.0, 13000.0], 'kernel:': [808.0, 806.0, 809.0, 805.0, 811.0, 808.0, 819.0, 819.0, 814.0], 'read_data:': [1563.0, 1598.0, 1673.0, 1658.0, 1572.0, 1639.0, 1552.0, 1631.0, 1601.0], 'sort:': [0.0, 0.0, 0.0, 0.0, 0.0, 0.0, 0.0, 0.0, 0.0], 'extra:': [12160.0, 12165.0, 12198.0, 12172.0, 12285.0, 12180.0, 12181.0, 12199.0, 12177.0], 'build_tree:': [610.0, 608.0, 612.0, 607.0, 610.0, 608.0, 609.0, 609.0, 608.0]}
configuration: sort_flag=0, check_flag = 0, verbose_flag=0, K=5, input_file=../../../input/pc/random.7d, npoints=200000, nsearchpoints=200000, DIM = 7, SPLICE_DEPTH = 11
read done!
construct done!
The max depth is 26, the nodes number is 399999.
the number of nodes is 399999, the depth is 26
npoints = 200000, DEPTH_STAT = 2048, nMatrixSize = 409600000.
Time for asynchronous transfer and execute (ms): 11647.131836
The ratio is 0.000000.
@ read_data: 1578 ms
@ build_tree: 609 ms
@ extra: 12183 ms
@ sort:  0 ms
@ kernel: 810 ms
@ traversal: 13002 ms
Collected results into ../../../results/depth_tmp/bt_Hybrid_Sched_random.7d_11_unsorted.stats

Loading data from ../../../results/depth_tmp/bt_Hybrid_Sched_random.7d_11_unsorted.stats...
{'traversal:': [12977.0, 12977.0, 13016.0, 12986.0, 13107.0, 13000.0, 13009.0, 13025.0, 13000.0, 13002.0], 'kernel:': [808.0, 806.0, 809.0, 805.0, 811.0, 808.0, 819.0, 819.0, 814.0, 810.0], 'read_data:': [1563.0, 1598.0, 1673.0, 1658.0, 1572.0, 1639.0, 1552.0, 1631.0, 1601.0, 1578.0], 'sort:': [0.0, 0.0, 0.0, 0.0, 0.0, 0.0, 0.0, 0.0, 0.0, 0.0], 'extra:': [12160.0, 12165.0, 12198.0, 12172.0, 12285.0, 12180.0, 12181.0, 12199.0, 12177.0, 12183.0], 'build_tree:': [610.0, 608.0, 612.0, 607.0, 610.0, 608.0, 609.0, 609.0, 608.0, 609.0]}
configuration: sort_flag=0, check_flag = 0, verbose_flag=0, K=5, input_file=../../../input/pc/random.7d, npoints=200000, nsearchpoints=200000, DIM = 7, SPLICE_DEPTH = 11
read done!
construct done!
The max depth is 26, the nodes number is 399999.
the number of nodes is 399999, the depth is 26
npoints = 200000, DEPTH_STAT = 2048, nMatrixSize = 409600000.
Time for asynchronous transfer and execute (ms): 11679.694336
The ratio is 0.000000.
@ read_data: 1631 ms
@ build_tree: 609 ms
@ extra: 12214 ms
@ sort:  0 ms
@ kernel: 805 ms
@ traversal: 13029 ms
Collected results into ../../../results/depth_tmp/bt_Hybrid_Sched_random.7d_11_unsorted.stats

Loading data from ../../../results/depth_tmp/bt_Hybrid_Sched_random.7d_11_unsorted.stats...
{'traversal:': [12977.0, 12977.0, 13016.0, 12986.0, 13107.0, 13000.0, 13009.0, 13025.0, 13000.0, 13002.0, 13029.0], 'kernel:': [808.0, 806.0, 809.0, 805.0, 811.0, 808.0, 819.0, 819.0, 814.0, 810.0, 805.0], 'read_data:': [1563.0, 1598.0, 1673.0, 1658.0, 1572.0, 1639.0, 1552.0, 1631.0, 1601.0, 1578.0, 1631.0], 'sort:': [0.0, 0.0, 0.0, 0.0, 0.0, 0.0, 0.0, 0.0, 0.0, 0.0, 0.0], 'extra:': [12160.0, 12165.0, 12198.0, 12172.0, 12285.0, 12180.0, 12181.0, 12199.0, 12177.0, 12183.0, 12214.0], 'build_tree:': [610.0, 608.0, 612.0, 607.0, 610.0, 608.0, 609.0, 609.0, 608.0, 609.0, 609.0]}
configuration: sort_flag=0, check_flag = 0, verbose_flag=0, K=5, input_file=../../../input/pc/random.7d, npoints=200000, nsearchpoints=200000, DIM = 7, SPLICE_DEPTH = 11
read done!
construct done!
The max depth is 26, the nodes number is 399999.
the number of nodes is 399999, the depth is 26
npoints = 200000, DEPTH_STAT = 2048, nMatrixSize = 409600000.
Time for asynchronous transfer and execute (ms): 11664.273438
The ratio is 0.000000.
@ read_data: 1639 ms
@ build_tree: 608 ms
@ extra: 12198 ms
@ sort:  0 ms
@ kernel: 806 ms
@ traversal: 13014 ms
Collected results into ../../../results/depth_tmp/bt_Hybrid_Sched_random.7d_11_unsorted.stats

Loading data from ../../../results/depth_tmp/bt_Hybrid_Sched_random.7d_11_unsorted.stats...
{'traversal:': [12977.0, 12977.0, 13016.0, 12986.0, 13107.0, 13000.0, 13009.0, 13025.0, 13000.0, 13002.0, 13029.0, 13014.0], 'kernel:': [808.0, 806.0, 809.0, 805.0, 811.0, 808.0, 819.0, 819.0, 814.0, 810.0, 805.0, 806.0], 'read_data:': [1563.0, 1598.0, 1673.0, 1658.0, 1572.0, 1639.0, 1552.0, 1631.0, 1601.0, 1578.0, 1631.0, 1639.0], 'sort:': [0.0, 0.0, 0.0, 0.0, 0.0, 0.0, 0.0, 0.0, 0.0, 0.0, 0.0, 0.0], 'extra:': [12160.0, 12165.0, 12198.0, 12172.0, 12285.0, 12180.0, 12181.0, 12199.0, 12177.0, 12183.0, 12214.0, 12198.0], 'build_tree:': [610.0, 608.0, 612.0, 607.0, 610.0, 608.0, 609.0, 609.0, 608.0, 609.0, 609.0, 608.0]}
configuration: sort_flag=0, check_flag = 0, verbose_flag=0, K=5, input_file=../../../input/pc/random.7d, npoints=200000, nsearchpoints=200000, DIM = 7, SPLICE_DEPTH = 11
read done!
construct done!
The max depth is 26, the nodes number is 399999.
the number of nodes is 399999, the depth is 26
npoints = 200000, DEPTH_STAT = 2048, nMatrixSize = 409600000.
Time for asynchronous transfer and execute (ms): 11656.667969
The ratio is 0.000000.
@ read_data: 1611 ms
@ build_tree: 611 ms
@ extra: 12189 ms
@ sort:  0 ms
@ kernel: 808 ms
@ traversal: 13006 ms
Collected results into ../../../results/depth_tmp/bt_Hybrid_Sched_random.7d_11_unsorted.stats

Loading data from ../../../results/depth_tmp/bt_Hybrid_Sched_random.7d_11_unsorted.stats...
{'traversal:': [12977.0, 12977.0, 13016.0, 12986.0, 13107.0, 13000.0, 13009.0, 13025.0, 13000.0, 13002.0, 13029.0, 13014.0, 13006.0], 'kernel:': [808.0, 806.0, 809.0, 805.0, 811.0, 808.0, 819.0, 819.0, 814.0, 810.0, 805.0, 806.0, 808.0], 'read_data:': [1563.0, 1598.0, 1673.0, 1658.0, 1572.0, 1639.0, 1552.0, 1631.0, 1601.0, 1578.0, 1631.0, 1639.0, 1611.0], 'sort:': [0.0, 0.0, 0.0, 0.0, 0.0, 0.0, 0.0, 0.0, 0.0, 0.0, 0.0, 0.0, 0.0], 'extra:': [12160.0, 12165.0, 12198.0, 12172.0, 12285.0, 12180.0, 12181.0, 12199.0, 12177.0, 12183.0, 12214.0, 12198.0, 12189.0], 'build_tree:': [610.0, 608.0, 612.0, 607.0, 610.0, 608.0, 609.0, 609.0, 608.0, 609.0, 609.0, 608.0, 611.0]}
configuration: sort_flag=0, check_flag = 0, verbose_flag=0, K=5, input_file=../../../input/pc/random.7d, npoints=200000, nsearchpoints=200000, DIM = 7, SPLICE_DEPTH = 11
read done!
construct done!
The max depth is 26, the nodes number is 399999.
the number of nodes is 399999, the depth is 26
npoints = 200000, DEPTH_STAT = 2048, nMatrixSize = 409600000.
Time for asynchronous transfer and execute (ms): 11675.406250
The ratio is 0.000000.
@ read_data: 1573 ms
@ build_tree: 621 ms
@ extra: 12209 ms
@ sort:  0 ms
@ kernel: 809 ms
@ traversal: 13028 ms
Collected results into ../../../results/depth_tmp/bt_Hybrid_Sched_random.7d_11_unsorted.stats

Loading data from ../../../results/depth_tmp/bt_Hybrid_Sched_random.7d_11_unsorted.stats...
{'traversal:': [12977.0, 12977.0, 13016.0, 12986.0, 13107.0, 13000.0, 13009.0, 13025.0, 13000.0, 13002.0, 13029.0, 13014.0, 13006.0, 13028.0], 'kernel:': [808.0, 806.0, 809.0, 805.0, 811.0, 808.0, 819.0, 819.0, 814.0, 810.0, 805.0, 806.0, 808.0, 809.0], 'read_data:': [1563.0, 1598.0, 1673.0, 1658.0, 1572.0, 1639.0, 1552.0, 1631.0, 1601.0, 1578.0, 1631.0, 1639.0, 1611.0, 1573.0], 'sort:': [0.0, 0.0, 0.0, 0.0, 0.0, 0.0, 0.0, 0.0, 0.0, 0.0, 0.0, 0.0, 0.0, 0.0], 'extra:': [12160.0, 12165.0, 12198.0, 12172.0, 12285.0, 12180.0, 12181.0, 12199.0, 12177.0, 12183.0, 12214.0, 12198.0, 12189.0, 12209.0], 'build_tree:': [610.0, 608.0, 612.0, 607.0, 610.0, 608.0, 609.0, 609.0, 608.0, 609.0, 609.0, 608.0, 611.0, 621.0]}
configuration: sort_flag=0, check_flag = 0, verbose_flag=0, K=5, input_file=../../../input/pc/random.7d, npoints=200000, nsearchpoints=200000, DIM = 7, SPLICE_DEPTH = 11
read done!
construct done!
The max depth is 26, the nodes number is 399999.
the number of nodes is 399999, the depth is 26
npoints = 200000, DEPTH_STAT = 2048, nMatrixSize = 409600000.
Time for asynchronous transfer and execute (ms): 11658.402344
The ratio is 0.000000.
@ read_data: 1636 ms
@ build_tree: 607 ms
@ extra: 12192 ms
@ sort:  0 ms
@ kernel: 806 ms
@ traversal: 13008 ms
Collected results into ../../../results/depth_tmp/bt_Hybrid_Sched_random.7d_11_unsorted.stats

