Results wll be collected to ../../../results/depth_tmp/bt_Hybrid_Sched_random.7d_6_unsorted.stats...
configuration: sort_flag=0, check_flag = 0, verbose_flag=0, K=5, input_file=../../../input/pc/random.7d, npoints=200000, nsearchpoints=200000, DIM = 7, SPLICE_DEPTH = 6
read done!
construct done!
The max depth is 26, the nodes number is 399999.
the number of nodes is 399999, the depth is 26
npoints = 200000, DEPTH_STAT = 64, nMatrixSize = 12800000.
Time for asynchronous transfer and execute (ms): 185.736359
The ratio is 0.000000.
@ read_data: 1585 ms
@ build_tree: 609 ms
@ extra: 259 ms
@ sort:  0 ms
@ kernel: 1220 ms
@ traversal: 1488 ms
Collected results into ../../../results/depth_tmp/bt_Hybrid_Sched_random.7d_6_unsorted.stats

Loading data from ../../../results/depth_tmp/bt_Hybrid_Sched_random.7d_6_unsorted.stats...
{'traversal:': [1488.0], 'kernel:': [1220.0], 'read_data:': [1585.0], 'sort:': [0.0], 'extra:': [259.0], 'build_tree:': [609.0]}
configuration: sort_flag=0, check_flag = 0, verbose_flag=0, K=5, input_file=../../../input/pc/random.7d, npoints=200000, nsearchpoints=200000, DIM = 7, SPLICE_DEPTH = 6
read done!
construct done!
The max depth is 26, the nodes number is 399999.
the number of nodes is 399999, the depth is 26
npoints = 200000, DEPTH_STAT = 64, nMatrixSize = 12800000.
Time for asynchronous transfer and execute (ms): 190.570908
The ratio is 0.000000.
@ read_data: 1546 ms
@ build_tree: 609 ms
@ extra: 319 ms
@ sort:  0 ms
@ kernel: 1220 ms
@ traversal: 1548 ms
Collected results into ../../../results/depth_tmp/bt_Hybrid_Sched_random.7d_6_unsorted.stats

Loading data from ../../../results/depth_tmp/bt_Hybrid_Sched_random.7d_6_unsorted.stats...
{'traversal:': [1488.0, 1548.0], 'kernel:': [1220.0, 1220.0], 'read_data:': [1585.0, 1546.0], 'sort:': [0.0, 0.0], 'extra:': [259.0, 319.0], 'build_tree:': [609.0, 609.0]}
configuration: sort_flag=0, check_flag = 0, verbose_flag=0, K=5, input_file=../../../input/pc/random.7d, npoints=200000, nsearchpoints=200000, DIM = 7, SPLICE_DEPTH = 6
read done!
construct done!
The max depth is 26, the nodes number is 399999.
the number of nodes is 399999, the depth is 26
npoints = 200000, DEPTH_STAT = 64, nMatrixSize = 12800000.
Time for asynchronous transfer and execute (ms): 185.512573
The ratio is 0.000000.
@ read_data: 1611 ms
@ build_tree: 612 ms
@ extra: 259 ms
@ sort:  0 ms
@ kernel: 1219 ms
@ traversal: 1487 ms
Collected results into ../../../results/depth_tmp/bt_Hybrid_Sched_random.7d_6_unsorted.stats

Loading data from ../../../results/depth_tmp/bt_Hybrid_Sched_random.7d_6_unsorted.stats...
{'traversal:': [1488.0, 1548.0, 1487.0], 'kernel:': [1220.0, 1220.0, 1219.0], 'read_data:': [1585.0, 1546.0, 1611.0], 'sort:': [0.0, 0.0, 0.0], 'extra:': [259.0, 319.0, 259.0], 'build_tree:': [609.0, 609.0, 612.0]}
configuration: sort_flag=0, check_flag = 0, verbose_flag=0, K=5, input_file=../../../input/pc/random.7d, npoints=200000, nsearchpoints=200000, DIM = 7, SPLICE_DEPTH = 6
read done!
construct done!
The max depth is 26, the nodes number is 399999.
the number of nodes is 399999, the depth is 26
npoints = 200000, DEPTH_STAT = 64, nMatrixSize = 12800000.
Time for asynchronous transfer and execute (ms): 188.744095
The ratio is 0.000000.
@ read_data: 1556 ms
@ build_tree: 608 ms
@ extra: 262 ms
@ sort:  0 ms
@ kernel: 1216 ms
@ traversal: 1487 ms
Collected results into ../../../results/depth_tmp/bt_Hybrid_Sched_random.7d_6_unsorted.stats

Loading data from ../../../results/depth_tmp/bt_Hybrid_Sched_random.7d_6_unsorted.stats...
{'traversal:': [1488.0, 1548.0, 1487.0, 1487.0], 'kernel:': [1220.0, 1220.0, 1219.0, 1216.0], 'read_data:': [1585.0, 1546.0, 1611.0, 1556.0], 'sort:': [0.0, 0.0, 0.0, 0.0], 'extra:': [259.0, 319.0, 259.0, 262.0], 'build_tree:': [609.0, 609.0, 612.0, 608.0]}
configuration: sort_flag=0, check_flag = 0, verbose_flag=0, K=5, input_file=../../../input/pc/random.7d, npoints=200000, nsearchpoints=200000, DIM = 7, SPLICE_DEPTH = 6
read done!
construct done!
The max depth is 26, the nodes number is 399999.
the number of nodes is 399999, the depth is 26
npoints = 200000, DEPTH_STAT = 64, nMatrixSize = 12800000.
Time for asynchronous transfer and execute (ms): 191.241348
The ratio is 0.000000.
@ read_data: 1597 ms
@ build_tree: 609 ms
@ extra: 327 ms
@ sort:  0 ms
@ kernel: 1222 ms
@ traversal: 1559 ms
Collected results into ../../../results/depth_tmp/bt_Hybrid_Sched_random.7d_6_unsorted.stats

Loading data from ../../../results/depth_tmp/bt_Hybrid_Sched_random.7d_6_unsorted.stats...
{'traversal:': [1488.0, 1548.0, 1487.0, 1487.0, 1559.0], 'kernel:': [1220.0, 1220.0, 1219.0, 1216.0, 1222.0], 'read_data:': [1585.0, 1546.0, 1611.0, 1556.0, 1597.0], 'sort:': [0.0, 0.0, 0.0, 0.0, 0.0], 'extra:': [259.0, 319.0, 259.0, 262.0, 327.0], 'build_tree:': [609.0, 609.0, 612.0, 608.0, 609.0]}
configuration: sort_flag=0, check_flag = 0, verbose_flag=0, K=5, input_file=../../../input/pc/random.7d, npoints=200000, nsearchpoints=200000, DIM = 7, SPLICE_DEPTH = 6
read done!
construct done!
The max depth is 26, the nodes number is 399999.
the number of nodes is 399999, the depth is 26
npoints = 200000, DEPTH_STAT = 64, nMatrixSize = 12800000.
Time for asynchronous transfer and execute (ms): 191.095261
The ratio is 0.000000.
@ read_data: 1628 ms
@ build_tree: 614 ms
@ extra: 265 ms
@ sort:  0 ms
@ kernel: 1220 ms
@ traversal: 1497 ms
Collected results into ../../../results/depth_tmp/bt_Hybrid_Sched_random.7d_6_unsorted.stats

Loading data from ../../../results/depth_tmp/bt_Hybrid_Sched_random.7d_6_unsorted.stats...
{'traversal:': [1488.0, 1548.0, 1487.0, 1487.0, 1559.0, 1497.0], 'kernel:': [1220.0, 1220.0, 1219.0, 1216.0, 1222.0, 1220.0], 'read_data:': [1585.0, 1546.0, 1611.0, 1556.0, 1597.0, 1628.0], 'sort:': [0.0, 0.0, 0.0, 0.0, 0.0, 0.0], 'extra:': [259.0, 319.0, 259.0, 262.0, 327.0, 265.0], 'build_tree:': [609.0, 609.0, 612.0, 608.0, 609.0, 614.0]}
configuration: sort_flag=0, check_flag = 0, verbose_flag=0, K=5, input_file=../../../input/pc/random.7d, npoints=200000, nsearchpoints=200000, DIM = 7, SPLICE_DEPTH = 6
read done!
construct done!
The max depth is 26, the nodes number is 399999.
the number of nodes is 399999, the depth is 26
npoints = 200000, DEPTH_STAT = 64, nMatrixSize = 12800000.
Time for asynchronous transfer and execute (ms): 190.058594
The ratio is 0.000000.
@ read_data: 1586 ms
@ build_tree: 607 ms
@ extra: 326 ms
@ sort:  0 ms
@ kernel: 1216 ms
@ traversal: 1551 ms
Collected results into ../../../results/depth_tmp/bt_Hybrid_Sched_random.7d_6_unsorted.stats

Loading data from ../../../results/depth_tmp/bt_Hybrid_Sched_random.7d_6_unsorted.stats...
{'traversal:': [1488.0, 1548.0, 1487.0, 1487.0, 1559.0, 1497.0, 1551.0], 'kernel:': [1220.0, 1220.0, 1219.0, 1216.0, 1222.0, 1220.0, 1216.0], 'read_data:': [1585.0, 1546.0, 1611.0, 1556.0, 1597.0, 1628.0, 1586.0], 'sort:': [0.0, 0.0, 0.0, 0.0, 0.0, 0.0, 0.0], 'extra:': [259.0, 319.0, 259.0, 262.0, 327.0, 265.0, 326.0], 'build_tree:': [609.0, 609.0, 612.0, 608.0, 609.0, 614.0, 607.0]}
configuration: sort_flag=0, check_flag = 0, verbose_flag=0, K=5, input_file=../../../input/pc/random.7d, npoints=200000, nsearchpoints=200000, DIM = 7, SPLICE_DEPTH = 6
read done!
construct done!
The max depth is 26, the nodes number is 399999.
the number of nodes is 399999, the depth is 26
npoints = 200000, DEPTH_STAT = 64, nMatrixSize = 12800000.
Time for asynchronous transfer and execute (ms): 185.681625
The ratio is 0.000000.
@ read_data: 1630 ms
@ build_tree: 606 ms
@ extra: 259 ms
@ sort:  0 ms
@ kernel: 1228 ms
@ traversal: 1497 ms
Collected results into ../../../results/depth_tmp/bt_Hybrid_Sched_random.7d_6_unsorted.stats

Loading data from ../../../results/depth_tmp/bt_Hybrid_Sched_random.7d_6_unsorted.stats...
{'traversal:': [1488.0, 1548.0, 1487.0, 1487.0, 1559.0, 1497.0, 1551.0, 1497.0], 'kernel:': [1220.0, 1220.0, 1219.0, 1216.0, 1222.0, 1220.0, 1216.0, 1228.0], 'read_data:': [1585.0, 1546.0, 1611.0, 1556.0, 1597.0, 1628.0, 1586.0, 1630.0], 'sort:': [0.0, 0.0, 0.0, 0.0, 0.0, 0.0, 0.0, 0.0], 'extra:': [259.0, 319.0, 259.0, 262.0, 327.0, 265.0, 326.0, 259.0], 'build_tree:': [609.0, 609.0, 612.0, 608.0, 609.0, 614.0, 607.0, 606.0]}
configuration: sort_flag=0, check_flag = 0, verbose_flag=0, K=5, input_file=../../../input/pc/random.7d, npoints=200000, nsearchpoints=200000, DIM = 7, SPLICE_DEPTH = 6
read done!
construct done!
The max depth is 26, the nodes number is 399999.
the number of nodes is 399999, the depth is 26
npoints = 200000, DEPTH_STAT = 64, nMatrixSize = 12800000.
Time for asynchronous transfer and execute (ms): 190.827744
The ratio is 0.000000.
@ read_data: 1547 ms
@ build_tree: 621 ms
@ extra: 321 ms
@ sort:  0 ms
@ kernel: 1223 ms
@ traversal: 1553 ms
Collected results into ../../../results/depth_tmp/bt_Hybrid_Sched_random.7d_6_unsorted.stats

Loading data from ../../../results/depth_tmp/bt_Hybrid_Sched_random.7d_6_unsorted.stats...
{'traversal:': [1488.0, 1548.0, 1487.0, 1487.0, 1559.0, 1497.0, 1551.0, 1497.0, 1553.0], 'kernel:': [1220.0, 1220.0, 1219.0, 1216.0, 1222.0, 1220.0, 1216.0, 1228.0, 1223.0], 'read_data:': [1585.0, 1546.0, 1611.0, 1556.0, 1597.0, 1628.0, 1586.0, 1630.0, 1547.0], 'sort:': [0.0, 0.0, 0.0, 0.0, 0.0, 0.0, 0.0, 0.0, 0.0], 'extra:': [259.0, 319.0, 259.0, 262.0, 327.0, 265.0, 326.0, 259.0, 321.0], 'build_tree:': [609.0, 609.0, 612.0, 608.0, 609.0, 614.0, 607.0, 606.0, 621.0]}
configuration: sort_flag=0, check_flag = 0, verbose_flag=0, K=5, input_file=../../../input/pc/random.7d, npoints=200000, nsearchpoints=200000, DIM = 7, SPLICE_DEPTH = 6
read done!
construct done!
The max depth is 26, the nodes number is 399999.
the number of nodes is 399999, the depth is 26
npoints = 200000, DEPTH_STAT = 64, nMatrixSize = 12800000.
Time for asynchronous transfer and execute (ms): 190.163940
The ratio is 0.000000.
@ read_data: 1620 ms
@ build_tree: 609 ms
@ extra: 263 ms
@ sort:  0 ms
@ kernel: 1220 ms
@ traversal: 1496 ms
Collected results into ../../../results/depth_tmp/bt_Hybrid_Sched_random.7d_6_unsorted.stats

Loading data from ../../../results/depth_tmp/bt_Hybrid_Sched_random.7d_6_unsorted.stats...
{'traversal:': [1488.0, 1548.0, 1487.0, 1487.0, 1559.0, 1497.0, 1551.0, 1497.0, 1553.0, 1496.0], 'kernel:': [1220.0, 1220.0, 1219.0, 1216.0, 1222.0, 1220.0, 1216.0, 1228.0, 1223.0, 1220.0], 'read_data:': [1585.0, 1546.0, 1611.0, 1556.0, 1597.0, 1628.0, 1586.0, 1630.0, 1547.0, 1620.0], 'sort:': [0.0, 0.0, 0.0, 0.0, 0.0, 0.0, 0.0, 0.0, 0.0, 0.0], 'extra:': [259.0, 319.0, 259.0, 262.0, 327.0, 265.0, 326.0, 259.0, 321.0, 263.0], 'build_tree:': [609.0, 609.0, 612.0, 608.0, 609.0, 614.0, 607.0, 606.0, 621.0, 609.0]}
configuration: sort_flag=0, check_flag = 0, verbose_flag=0, K=5, input_file=../../../input/pc/random.7d, npoints=200000, nsearchpoints=200000, DIM = 7, SPLICE_DEPTH = 6
read done!
construct done!
The max depth is 26, the nodes number is 399999.
the number of nodes is 399999, the depth is 26
npoints = 200000, DEPTH_STAT = 64, nMatrixSize = 12800000.
Time for asynchronous transfer and execute (ms): 190.546021
The ratio is 0.000000.
@ read_data: 1580 ms
@ build_tree: 610 ms
@ extra: 320 ms
@ sort:  0 ms
@ kernel: 1221 ms
@ traversal: 1550 ms
Collected results into ../../../results/depth_tmp/bt_Hybrid_Sched_random.7d_6_unsorted.stats

Loading data from ../../../results/depth_tmp/bt_Hybrid_Sched_random.7d_6_unsorted.stats...
{'traversal:': [1488.0, 1548.0, 1487.0, 1487.0, 1559.0, 1497.0, 1551.0, 1497.0, 1553.0, 1496.0, 1550.0], 'kernel:': [1220.0, 1220.0, 1219.0, 1216.0, 1222.0, 1220.0, 1216.0, 1228.0, 1223.0, 1220.0, 1221.0], 'read_data:': [1585.0, 1546.0, 1611.0, 1556.0, 1597.0, 1628.0, 1586.0, 1630.0, 1547.0, 1620.0, 1580.0], 'sort:': [0.0, 0.0, 0.0, 0.0, 0.0, 0.0, 0.0, 0.0, 0.0, 0.0, 0.0], 'extra:': [259.0, 319.0, 259.0, 262.0, 327.0, 265.0, 326.0, 259.0, 321.0, 263.0, 320.0], 'build_tree:': [609.0, 609.0, 612.0, 608.0, 609.0, 614.0, 607.0, 606.0, 621.0, 609.0, 610.0]}
configuration: sort_flag=0, check_flag = 0, verbose_flag=0, K=5, input_file=../../../input/pc/random.7d, npoints=200000, nsearchpoints=200000, DIM = 7, SPLICE_DEPTH = 6
read done!
construct done!
The max depth is 26, the nodes number is 399999.
the number of nodes is 399999, the depth is 26
npoints = 200000, DEPTH_STAT = 64, nMatrixSize = 12800000.
Time for asynchronous transfer and execute (ms): 186.571289
The ratio is 0.000000.
@ read_data: 1617 ms
@ build_tree: 611 ms
@ extra: 260 ms
@ sort:  0 ms
@ kernel: 1219 ms
@ traversal: 1488 ms
Collected results into ../../../results/depth_tmp/bt_Hybrid_Sched_random.7d_6_unsorted.stats

Loading data from ../../../results/depth_tmp/bt_Hybrid_Sched_random.7d_6_unsorted.stats...
{'traversal:': [1488.0, 1548.0, 1487.0, 1487.0, 1559.0, 1497.0, 1551.0, 1497.0, 1553.0, 1496.0, 1550.0, 1488.0], 'kernel:': [1220.0, 1220.0, 1219.0, 1216.0, 1222.0, 1220.0, 1216.0, 1228.0, 1223.0, 1220.0, 1221.0, 1219.0], 'read_data:': [1585.0, 1546.0, 1611.0, 1556.0, 1597.0, 1628.0, 1586.0, 1630.0, 1547.0, 1620.0, 1580.0, 1617.0], 'sort:': [0.0, 0.0, 0.0, 0.0, 0.0, 0.0, 0.0, 0.0, 0.0, 0.0, 0.0, 0.0], 'extra:': [259.0, 319.0, 259.0, 262.0, 327.0, 265.0, 326.0, 259.0, 321.0, 263.0, 320.0, 260.0], 'build_tree:': [609.0, 609.0, 612.0, 608.0, 609.0, 614.0, 607.0, 606.0, 621.0, 609.0, 610.0, 611.0]}
configuration: sort_flag=0, check_flag = 0, verbose_flag=0, K=5, input_file=../../../input/pc/random.7d, npoints=200000, nsearchpoints=200000, DIM = 7, SPLICE_DEPTH = 6
read done!
construct done!
The max depth is 26, the nodes number is 399999.
the number of nodes is 399999, the depth is 26
npoints = 200000, DEPTH_STAT = 64, nMatrixSize = 12800000.
Time for asynchronous transfer and execute (ms): 190.404358
The ratio is 0.000000.
@ read_data: 1679 ms
@ build_tree: 608 ms
@ extra: 326 ms
@ sort:  0 ms
@ kernel: 1225 ms
@ traversal: 1560 ms
Collected results into ../../../results/depth_tmp/bt_Hybrid_Sched_random.7d_6_unsorted.stats

Loading data from ../../../results/depth_tmp/bt_Hybrid_Sched_random.7d_6_unsorted.stats...
{'traversal:': [1488.0, 1548.0, 1487.0, 1487.0, 1559.0, 1497.0, 1551.0, 1497.0, 1553.0, 1496.0, 1550.0, 1488.0, 1560.0], 'kernel:': [1220.0, 1220.0, 1219.0, 1216.0, 1222.0, 1220.0, 1216.0, 1228.0, 1223.0, 1220.0, 1221.0, 1219.0, 1225.0], 'read_data:': [1585.0, 1546.0, 1611.0, 1556.0, 1597.0, 1628.0, 1586.0, 1630.0, 1547.0, 1620.0, 1580.0, 1617.0, 1679.0], 'sort:': [0.0, 0.0, 0.0, 0.0, 0.0, 0.0, 0.0, 0.0, 0.0, 0.0, 0.0, 0.0, 0.0], 'extra:': [259.0, 319.0, 259.0, 262.0, 327.0, 265.0, 326.0, 259.0, 321.0, 263.0, 320.0, 260.0, 326.0], 'build_tree:': [609.0, 609.0, 612.0, 608.0, 609.0, 614.0, 607.0, 606.0, 621.0, 609.0, 610.0, 611.0, 608.0]}
configuration: sort_flag=0, check_flag = 0, verbose_flag=0, K=5, input_file=../../../input/pc/random.7d, npoints=200000, nsearchpoints=200000, DIM = 7, SPLICE_DEPTH = 6
read done!
construct done!
The max depth is 26, the nodes number is 399999.
the number of nodes is 399999, the depth is 26
npoints = 200000, DEPTH_STAT = 64, nMatrixSize = 12800000.
Time for asynchronous transfer and execute (ms): 190.693787
The ratio is 0.000000.
@ read_data: 1588 ms
@ build_tree: 608 ms
@ extra: 327 ms
@ sort:  0 ms
@ kernel: 1219 ms
@ traversal: 1555 ms
Collected results into ../../../results/depth_tmp/bt_Hybrid_Sched_random.7d_6_unsorted.stats

Loading data from ../../../results/depth_tmp/bt_Hybrid_Sched_random.7d_6_unsorted.stats...
{'traversal:': [1488.0, 1548.0, 1487.0, 1487.0, 1559.0, 1497.0, 1551.0, 1497.0, 1553.0, 1496.0, 1550.0, 1488.0, 1560.0, 1555.0], 'kernel:': [1220.0, 1220.0, 1219.0, 1216.0, 1222.0, 1220.0, 1216.0, 1228.0, 1223.0, 1220.0, 1221.0, 1219.0, 1225.0, 1219.0], 'read_data:': [1585.0, 1546.0, 1611.0, 1556.0, 1597.0, 1628.0, 1586.0, 1630.0, 1547.0, 1620.0, 1580.0, 1617.0, 1679.0, 1588.0], 'sort:': [0.0, 0.0, 0.0, 0.0, 0.0, 0.0, 0.0, 0.0, 0.0, 0.0, 0.0, 0.0, 0.0, 0.0], 'extra:': [259.0, 319.0, 259.0, 262.0, 327.0, 265.0, 326.0, 259.0, 321.0, 263.0, 320.0, 260.0, 326.0, 327.0], 'build_tree:': [609.0, 609.0, 612.0, 608.0, 609.0, 614.0, 607.0, 606.0, 621.0, 609.0, 610.0, 611.0, 608.0, 608.0]}
configuration: sort_flag=0, check_flag = 0, verbose_flag=0, K=5, input_file=../../../input/pc/random.7d, npoints=200000, nsearchpoints=200000, DIM = 7, SPLICE_DEPTH = 6
read done!
construct done!
The max depth is 26, the nodes number is 399999.
the number of nodes is 399999, the depth is 26
npoints = 200000, DEPTH_STAT = 64, nMatrixSize = 12800000.
Time for asynchronous transfer and execute (ms): 191.218170
The ratio is 0.000000.
@ read_data: 1613 ms
@ build_tree: 609 ms
@ extra: 327 ms
@ sort:  0 ms
@ kernel: 1219 ms
@ traversal: 1555 ms
Collected results into ../../../results/depth_tmp/bt_Hybrid_Sched_random.7d_6_unsorted.stats

