Results wll be collected to ../../../results/depth_tmp/bt_Hybrid_Sched_mnist.7d_6_unsorted.stats...
configuration: sort_flag=0, check_flag = 0, verbose_flag=0, K=5, input_file=../../../input/pc/mnist.7d, npoints=200000, nsearchpoints=200000, DIM = 7, SPLICE_DEPTH = 6
read done!
construct done!
The max depth is 31, the nodes number is 399999.
the number of nodes is 399999, the depth is 31
npoints = 200000, DEPTH_STAT = 64, nMatrixSize = 12800000.
Time for asynchronous transfer and execute (ms): 134.267075
The ratio is 0.428605.
@ read_data: 1788 ms
@ build_tree: 661 ms
@ extra: 273 ms
@ sort:  0 ms
@ kernel: 1610 ms
@ traversal: 1893 ms
Collected results into ../../../results/depth_tmp/bt_Hybrid_Sched_mnist.7d_6_unsorted.stats

Loading data from ../../../results/depth_tmp/bt_Hybrid_Sched_mnist.7d_6_unsorted.stats...
{'traversal:': [1893.0], 'kernel:': [1610.0], 'read_data:': [1788.0], 'sort:': [0.0], 'extra:': [273.0], 'build_tree:': [661.0]}
configuration: sort_flag=0, check_flag = 0, verbose_flag=0, K=5, input_file=../../../input/pc/mnist.7d, npoints=200000, nsearchpoints=200000, DIM = 7, SPLICE_DEPTH = 6
read done!
construct done!
The max depth is 31, the nodes number is 399999.
the number of nodes is 399999, the depth is 31
npoints = 200000, DEPTH_STAT = 64, nMatrixSize = 12800000.
Time for asynchronous transfer and execute (ms): 134.231903
The ratio is 0.428605.
@ read_data: 1681 ms
@ build_tree: 673 ms
@ extra: 221 ms
@ sort:  0 ms
@ kernel: 1604 ms
@ traversal: 1834 ms
Collected results into ../../../results/depth_tmp/bt_Hybrid_Sched_mnist.7d_6_unsorted.stats

Loading data from ../../../results/depth_tmp/bt_Hybrid_Sched_mnist.7d_6_unsorted.stats...
{'traversal:': [1893.0, 1834.0], 'kernel:': [1610.0, 1604.0], 'read_data:': [1788.0, 1681.0], 'sort:': [0.0, 0.0], 'extra:': [273.0, 221.0], 'build_tree:': [661.0, 673.0]}
configuration: sort_flag=0, check_flag = 0, verbose_flag=0, K=5, input_file=../../../input/pc/mnist.7d, npoints=200000, nsearchpoints=200000, DIM = 7, SPLICE_DEPTH = 6
read done!
construct done!
The max depth is 31, the nodes number is 399999.
the number of nodes is 399999, the depth is 31
npoints = 200000, DEPTH_STAT = 64, nMatrixSize = 12800000.
Time for asynchronous transfer and execute (ms): 134.475906
The ratio is 0.428605.
@ read_data: 1759 ms
@ build_tree: 640 ms
@ extra: 273 ms
@ sort:  0 ms
@ kernel: 1607 ms
@ traversal: 1890 ms
Collected results into ../../../results/depth_tmp/bt_Hybrid_Sched_mnist.7d_6_unsorted.stats

Loading data from ../../../results/depth_tmp/bt_Hybrid_Sched_mnist.7d_6_unsorted.stats...
{'traversal:': [1893.0, 1834.0, 1890.0], 'kernel:': [1610.0, 1604.0, 1607.0], 'read_data:': [1788.0, 1681.0, 1759.0], 'sort:': [0.0, 0.0, 0.0], 'extra:': [273.0, 221.0, 273.0], 'build_tree:': [661.0, 673.0, 640.0]}
configuration: sort_flag=0, check_flag = 0, verbose_flag=0, K=5, input_file=../../../input/pc/mnist.7d, npoints=200000, nsearchpoints=200000, DIM = 7, SPLICE_DEPTH = 6
read done!
construct done!
The max depth is 31, the nodes number is 399999.
the number of nodes is 399999, the depth is 31
npoints = 200000, DEPTH_STAT = 64, nMatrixSize = 12800000.
Time for asynchronous transfer and execute (ms): 135.126434
The ratio is 0.428605.
@ read_data: 1657 ms
@ build_tree: 641 ms
@ extra: 274 ms
@ sort:  0 ms
@ kernel: 1605 ms
@ traversal: 1890 ms
Collected results into ../../../results/depth_tmp/bt_Hybrid_Sched_mnist.7d_6_unsorted.stats

Loading data from ../../../results/depth_tmp/bt_Hybrid_Sched_mnist.7d_6_unsorted.stats...
{'traversal:': [1893.0, 1834.0, 1890.0, 1890.0], 'kernel:': [1610.0, 1604.0, 1607.0, 1605.0], 'read_data:': [1788.0, 1681.0, 1759.0, 1657.0], 'sort:': [0.0, 0.0, 0.0, 0.0], 'extra:': [273.0, 221.0, 273.0, 274.0], 'build_tree:': [661.0, 673.0, 640.0, 641.0]}
configuration: sort_flag=0, check_flag = 0, verbose_flag=0, K=5, input_file=../../../input/pc/mnist.7d, npoints=200000, nsearchpoints=200000, DIM = 7, SPLICE_DEPTH = 6
read done!
construct done!
The max depth is 31, the nodes number is 399999.
the number of nodes is 399999, the depth is 31
npoints = 200000, DEPTH_STAT = 64, nMatrixSize = 12800000.
Time for asynchronous transfer and execute (ms): 130.648346
The ratio is 0.428605.
@ read_data: 1662 ms
@ build_tree: 639 ms
@ extra: 206 ms
@ sort:  0 ms
@ kernel: 1601 ms
@ traversal: 1817 ms
Collected results into ../../../results/depth_tmp/bt_Hybrid_Sched_mnist.7d_6_unsorted.stats

Loading data from ../../../results/depth_tmp/bt_Hybrid_Sched_mnist.7d_6_unsorted.stats...
{'traversal:': [1893.0, 1834.0, 1890.0, 1890.0, 1817.0], 'kernel:': [1610.0, 1604.0, 1607.0, 1605.0, 1601.0], 'read_data:': [1788.0, 1681.0, 1759.0, 1657.0, 1662.0], 'sort:': [0.0, 0.0, 0.0, 0.0, 0.0], 'extra:': [273.0, 221.0, 273.0, 274.0, 206.0], 'build_tree:': [661.0, 673.0, 640.0, 641.0, 639.0]}
configuration: sort_flag=0, check_flag = 0, verbose_flag=0, K=5, input_file=../../../input/pc/mnist.7d, npoints=200000, nsearchpoints=200000, DIM = 7, SPLICE_DEPTH = 6
read done!
construct done!
The max depth is 31, the nodes number is 399999.
the number of nodes is 399999, the depth is 31
npoints = 200000, DEPTH_STAT = 64, nMatrixSize = 12800000.
Time for asynchronous transfer and execute (ms): 135.381058
The ratio is 0.428605.
@ read_data: 1712 ms
@ build_tree: 666 ms
@ extra: 274 ms
@ sort:  0 ms
@ kernel: 1606 ms
@ traversal: 1890 ms
Collected results into ../../../results/depth_tmp/bt_Hybrid_Sched_mnist.7d_6_unsorted.stats

Loading data from ../../../results/depth_tmp/bt_Hybrid_Sched_mnist.7d_6_unsorted.stats...
{'traversal:': [1893.0, 1834.0, 1890.0, 1890.0, 1817.0, 1890.0], 'kernel:': [1610.0, 1604.0, 1607.0, 1605.0, 1601.0, 1606.0], 'read_data:': [1788.0, 1681.0, 1759.0, 1657.0, 1662.0, 1712.0], 'sort:': [0.0, 0.0, 0.0, 0.0, 0.0, 0.0], 'extra:': [273.0, 221.0, 273.0, 274.0, 206.0, 274.0], 'build_tree:': [661.0, 673.0, 640.0, 641.0, 639.0, 666.0]}
configuration: sort_flag=0, check_flag = 0, verbose_flag=0, K=5, input_file=../../../input/pc/mnist.7d, npoints=200000, nsearchpoints=200000, DIM = 7, SPLICE_DEPTH = 6
read done!
construct done!
The max depth is 31, the nodes number is 399999.
the number of nodes is 399999, the depth is 31
npoints = 200000, DEPTH_STAT = 64, nMatrixSize = 12800000.
Time for asynchronous transfer and execute (ms): 134.853241
The ratio is 0.428605.
@ read_data: 1676 ms
@ build_tree: 658 ms
@ extra: 214 ms
@ sort:  0 ms
@ kernel: 1605 ms
@ traversal: 1829 ms
Collected results into ../../../results/depth_tmp/bt_Hybrid_Sched_mnist.7d_6_unsorted.stats

Loading data from ../../../results/depth_tmp/bt_Hybrid_Sched_mnist.7d_6_unsorted.stats...
{'traversal:': [1893.0, 1834.0, 1890.0, 1890.0, 1817.0, 1890.0, 1829.0], 'kernel:': [1610.0, 1604.0, 1607.0, 1605.0, 1601.0, 1606.0, 1605.0], 'read_data:': [1788.0, 1681.0, 1759.0, 1657.0, 1662.0, 1712.0, 1676.0], 'sort:': [0.0, 0.0, 0.0, 0.0, 0.0, 0.0, 0.0], 'extra:': [273.0, 221.0, 273.0, 274.0, 206.0, 274.0, 214.0], 'build_tree:': [661.0, 673.0, 640.0, 641.0, 639.0, 666.0, 658.0]}
configuration: sort_flag=0, check_flag = 0, verbose_flag=0, K=5, input_file=../../../input/pc/mnist.7d, npoints=200000, nsearchpoints=200000, DIM = 7, SPLICE_DEPTH = 6
read done!
construct done!
The max depth is 31, the nodes number is 399999.
the number of nodes is 399999, the depth is 31
npoints = 200000, DEPTH_STAT = 64, nMatrixSize = 12800000.
Time for asynchronous transfer and execute (ms): 135.797562
The ratio is 0.428605.
@ read_data: 1738 ms
@ build_tree: 642 ms
@ extra: 275 ms
@ sort:  0 ms
@ kernel: 1601 ms
@ traversal: 1887 ms
Collected results into ../../../results/depth_tmp/bt_Hybrid_Sched_mnist.7d_6_unsorted.stats

Loading data from ../../../results/depth_tmp/bt_Hybrid_Sched_mnist.7d_6_unsorted.stats...
{'traversal:': [1893.0, 1834.0, 1890.0, 1890.0, 1817.0, 1890.0, 1829.0, 1887.0], 'kernel:': [1610.0, 1604.0, 1607.0, 1605.0, 1601.0, 1606.0, 1605.0, 1601.0], 'read_data:': [1788.0, 1681.0, 1759.0, 1657.0, 1662.0, 1712.0, 1676.0, 1738.0], 'sort:': [0.0, 0.0, 0.0, 0.0, 0.0, 0.0, 0.0, 0.0], 'extra:': [273.0, 221.0, 273.0, 274.0, 206.0, 274.0, 214.0, 275.0], 'build_tree:': [661.0, 673.0, 640.0, 641.0, 639.0, 666.0, 658.0, 642.0]}
configuration: sort_flag=0, check_flag = 0, verbose_flag=0, K=5, input_file=../../../input/pc/mnist.7d, npoints=200000, nsearchpoints=200000, DIM = 7, SPLICE_DEPTH = 6
read done!
construct done!
The max depth is 31, the nodes number is 399999.
the number of nodes is 399999, the depth is 31
npoints = 200000, DEPTH_STAT = 64, nMatrixSize = 12800000.
Time for asynchronous transfer and execute (ms): 134.871002
The ratio is 0.428605.
@ read_data: 1658 ms
@ build_tree: 640 ms
@ extra: 274 ms
@ sort:  0 ms
@ kernel: 1604 ms
@ traversal: 1884 ms
Collected results into ../../../results/depth_tmp/bt_Hybrid_Sched_mnist.7d_6_unsorted.stats

Loading data from ../../../results/depth_tmp/bt_Hybrid_Sched_mnist.7d_6_unsorted.stats...
{'traversal:': [1893.0, 1834.0, 1890.0, 1890.0, 1817.0, 1890.0, 1829.0, 1887.0, 1884.0], 'kernel:': [1610.0, 1604.0, 1607.0, 1605.0, 1601.0, 1606.0, 1605.0, 1601.0, 1604.0], 'read_data:': [1788.0, 1681.0, 1759.0, 1657.0, 1662.0, 1712.0, 1676.0, 1738.0, 1658.0], 'sort:': [0.0, 0.0, 0.0, 0.0, 0.0, 0.0, 0.0, 0.0, 0.0], 'extra:': [273.0, 221.0, 273.0, 274.0, 206.0, 274.0, 214.0, 275.0, 274.0], 'build_tree:': [661.0, 673.0, 640.0, 641.0, 639.0, 666.0, 658.0, 642.0, 640.0]}
configuration: sort_flag=0, check_flag = 0, verbose_flag=0, K=5, input_file=../../../input/pc/mnist.7d, npoints=200000, nsearchpoints=200000, DIM = 7, SPLICE_DEPTH = 6
read done!
construct done!
The max depth is 31, the nodes number is 399999.
the number of nodes is 399999, the depth is 31
npoints = 200000, DEPTH_STAT = 64, nMatrixSize = 12800000.
Time for asynchronous transfer and execute (ms): 134.079834
The ratio is 0.428605.
@ read_data: 1681 ms
@ build_tree: 646 ms
@ extra: 269 ms
@ sort:  0 ms
@ kernel: 1606 ms
@ traversal: 1885 ms
Collected results into ../../../results/depth_tmp/bt_Hybrid_Sched_mnist.7d_6_unsorted.stats

Loading data from ../../../results/depth_tmp/bt_Hybrid_Sched_mnist.7d_6_unsorted.stats...
{'traversal:': [1893.0, 1834.0, 1890.0, 1890.0, 1817.0, 1890.0, 1829.0, 1887.0, 1884.0, 1885.0], 'kernel:': [1610.0, 1604.0, 1607.0, 1605.0, 1601.0, 1606.0, 1605.0, 1601.0, 1604.0, 1606.0], 'read_data:': [1788.0, 1681.0, 1759.0, 1657.0, 1662.0, 1712.0, 1676.0, 1738.0, 1658.0, 1681.0], 'sort:': [0.0, 0.0, 0.0, 0.0, 0.0, 0.0, 0.0, 0.0, 0.0, 0.0], 'extra:': [273.0, 221.0, 273.0, 274.0, 206.0, 274.0, 214.0, 275.0, 274.0, 269.0], 'build_tree:': [661.0, 673.0, 640.0, 641.0, 639.0, 666.0, 658.0, 642.0, 640.0, 646.0]}
configuration: sort_flag=0, check_flag = 0, verbose_flag=0, K=5, input_file=../../../input/pc/mnist.7d, npoints=200000, nsearchpoints=200000, DIM = 7, SPLICE_DEPTH = 6
read done!
construct done!
The max depth is 31, the nodes number is 399999.
the number of nodes is 399999, the depth is 31
npoints = 200000, DEPTH_STAT = 64, nMatrixSize = 12800000.
Time for asynchronous transfer and execute (ms): 134.250458
The ratio is 0.428605.
@ read_data: 1708 ms
@ build_tree: 642 ms
@ extra: 229 ms
@ sort:  0 ms
@ kernel: 1608 ms
@ traversal: 1851 ms
Collected results into ../../../results/depth_tmp/bt_Hybrid_Sched_mnist.7d_6_unsorted.stats

Loading data from ../../../results/depth_tmp/bt_Hybrid_Sched_mnist.7d_6_unsorted.stats...
{'traversal:': [1893.0, 1834.0, 1890.0, 1890.0, 1817.0, 1890.0, 1829.0, 1887.0, 1884.0, 1885.0, 1851.0], 'kernel:': [1610.0, 1604.0, 1607.0, 1605.0, 1601.0, 1606.0, 1605.0, 1601.0, 1604.0, 1606.0, 1608.0], 'read_data:': [1788.0, 1681.0, 1759.0, 1657.0, 1662.0, 1712.0, 1676.0, 1738.0, 1658.0, 1681.0, 1708.0], 'sort:': [0.0, 0.0, 0.0, 0.0, 0.0, 0.0, 0.0, 0.0, 0.0, 0.0, 0.0], 'extra:': [273.0, 221.0, 273.0, 274.0, 206.0, 274.0, 214.0, 275.0, 274.0, 269.0, 229.0], 'build_tree:': [661.0, 673.0, 640.0, 641.0, 639.0, 666.0, 658.0, 642.0, 640.0, 646.0, 642.0]}
configuration: sort_flag=0, check_flag = 0, verbose_flag=0, K=5, input_file=../../../input/pc/mnist.7d, npoints=200000, nsearchpoints=200000, DIM = 7, SPLICE_DEPTH = 6
read done!
construct done!
The max depth is 31, the nodes number is 399999.
the number of nodes is 399999, the depth is 31
npoints = 200000, DEPTH_STAT = 64, nMatrixSize = 12800000.
Time for asynchronous transfer and execute (ms): 135.286850
The ratio is 0.428605.
@ read_data: 1714 ms
@ build_tree: 643 ms
@ extra: 266 ms
@ sort:  0 ms
@ kernel: 1605 ms
@ traversal: 1881 ms
Collected results into ../../../results/depth_tmp/bt_Hybrid_Sched_mnist.7d_6_unsorted.stats

Loading data from ../../../results/depth_tmp/bt_Hybrid_Sched_mnist.7d_6_unsorted.stats...
{'traversal:': [1893.0, 1834.0, 1890.0, 1890.0, 1817.0, 1890.0, 1829.0, 1887.0, 1884.0, 1885.0, 1851.0, 1881.0], 'kernel:': [1610.0, 1604.0, 1607.0, 1605.0, 1601.0, 1606.0, 1605.0, 1601.0, 1604.0, 1606.0, 1608.0, 1605.0], 'read_data:': [1788.0, 1681.0, 1759.0, 1657.0, 1662.0, 1712.0, 1676.0, 1738.0, 1658.0, 1681.0, 1708.0, 1714.0], 'sort:': [0.0, 0.0, 0.0, 0.0, 0.0, 0.0, 0.0, 0.0, 0.0, 0.0, 0.0, 0.0], 'extra:': [273.0, 221.0, 273.0, 274.0, 206.0, 274.0, 214.0, 275.0, 274.0, 269.0, 229.0, 266.0], 'build_tree:': [661.0, 673.0, 640.0, 641.0, 639.0, 666.0, 658.0, 642.0, 640.0, 646.0, 642.0, 643.0]}
configuration: sort_flag=0, check_flag = 0, verbose_flag=0, K=5, input_file=../../../input/pc/mnist.7d, npoints=200000, nsearchpoints=200000, DIM = 7, SPLICE_DEPTH = 6
read done!
construct done!
The max depth is 31, the nodes number is 399999.
the number of nodes is 399999, the depth is 31
npoints = 200000, DEPTH_STAT = 64, nMatrixSize = 12800000.
Time for asynchronous transfer and execute (ms): 134.652161
The ratio is 0.428605.
@ read_data: 1772 ms
@ build_tree: 644 ms
@ extra: 273 ms
@ sort:  0 ms
@ kernel: 1609 ms
@ traversal: 1889 ms
Collected results into ../../../results/depth_tmp/bt_Hybrid_Sched_mnist.7d_6_unsorted.stats

Loading data from ../../../results/depth_tmp/bt_Hybrid_Sched_mnist.7d_6_unsorted.stats...
{'traversal:': [1893.0, 1834.0, 1890.0, 1890.0, 1817.0, 1890.0, 1829.0, 1887.0, 1884.0, 1885.0, 1851.0, 1881.0, 1889.0], 'kernel:': [1610.0, 1604.0, 1607.0, 1605.0, 1601.0, 1606.0, 1605.0, 1601.0, 1604.0, 1606.0, 1608.0, 1605.0, 1609.0], 'read_data:': [1788.0, 1681.0, 1759.0, 1657.0, 1662.0, 1712.0, 1676.0, 1738.0, 1658.0, 1681.0, 1708.0, 1714.0, 1772.0], 'sort:': [0.0, 0.0, 0.0, 0.0, 0.0, 0.0, 0.0, 0.0, 0.0, 0.0, 0.0, 0.0, 0.0], 'extra:': [273.0, 221.0, 273.0, 274.0, 206.0, 274.0, 214.0, 275.0, 274.0, 269.0, 229.0, 266.0, 273.0], 'build_tree:': [661.0, 673.0, 640.0, 641.0, 639.0, 666.0, 658.0, 642.0, 640.0, 646.0, 642.0, 643.0, 644.0]}
configuration: sort_flag=0, check_flag = 0, verbose_flag=0, K=5, input_file=../../../input/pc/mnist.7d, npoints=200000, nsearchpoints=200000, DIM = 7, SPLICE_DEPTH = 6
read done!
construct done!
The max depth is 31, the nodes number is 399999.
the number of nodes is 399999, the depth is 31
npoints = 200000, DEPTH_STAT = 64, nMatrixSize = 12800000.
Time for asynchronous transfer and execute (ms): 137.728546
The ratio is 0.428605.
@ read_data: 1673 ms
@ build_tree: 639 ms
@ extra: 277 ms
@ sort:  0 ms
@ kernel: 1615 ms
@ traversal: 1905 ms
Collected results into ../../../results/depth_tmp/bt_Hybrid_Sched_mnist.7d_6_unsorted.stats

Loading data from ../../../results/depth_tmp/bt_Hybrid_Sched_mnist.7d_6_unsorted.stats...
{'traversal:': [1893.0, 1834.0, 1890.0, 1890.0, 1817.0, 1890.0, 1829.0, 1887.0, 1884.0, 1885.0, 1851.0, 1881.0, 1889.0, 1905.0], 'kernel:': [1610.0, 1604.0, 1607.0, 1605.0, 1601.0, 1606.0, 1605.0, 1601.0, 1604.0, 1606.0, 1608.0, 1605.0, 1609.0, 1615.0], 'read_data:': [1788.0, 1681.0, 1759.0, 1657.0, 1662.0, 1712.0, 1676.0, 1738.0, 1658.0, 1681.0, 1708.0, 1714.0, 1772.0, 1673.0], 'sort:': [0.0, 0.0, 0.0, 0.0, 0.0, 0.0, 0.0, 0.0, 0.0, 0.0, 0.0, 0.0, 0.0, 0.0], 'extra:': [273.0, 221.0, 273.0, 274.0, 206.0, 274.0, 214.0, 275.0, 274.0, 269.0, 229.0, 266.0, 273.0, 277.0], 'build_tree:': [661.0, 673.0, 640.0, 641.0, 639.0, 666.0, 658.0, 642.0, 640.0, 646.0, 642.0, 643.0, 644.0, 639.0]}
configuration: sort_flag=0, check_flag = 0, verbose_flag=0, K=5, input_file=../../../input/pc/mnist.7d, npoints=200000, nsearchpoints=200000, DIM = 7, SPLICE_DEPTH = 6
read done!
construct done!
The max depth is 31, the nodes number is 399999.
the number of nodes is 399999, the depth is 31
npoints = 200000, DEPTH_STAT = 64, nMatrixSize = 12800000.
Time for asynchronous transfer and execute (ms): 134.864029
The ratio is 0.428605.
@ read_data: 1649 ms
@ build_tree: 646 ms
@ extra: 247 ms
@ sort:  0 ms
@ kernel: 1610 ms
@ traversal: 1867 ms
Collected results into ../../../results/depth_tmp/bt_Hybrid_Sched_mnist.7d_6_unsorted.stats

