Results wll be collected to ../../../results/depth_tmp/bt_Hybrid_Sched_mnist.7d_12_unsorted.stats...
configuration: sort_flag=0, check_flag = 0, verbose_flag=0, K=5, input_file=../../../input/pc/mnist.7d, npoints=200000, nsearchpoints=200000, DIM = 7, SPLICE_DEPTH = 12
read done!
construct done!
The max depth is 31, the nodes number is 399999.
the number of nodes is 399999, the depth is 31
npoints = 200000, DEPTH_STAT = 3944, nMatrixSize = 788800000.
Time for asynchronous transfer and execute (ms): 18092.439453
The ratio is 0.428605.
@ read_data: 1699 ms
@ build_tree: 645 ms
@ extra: 19016 ms
@ sort:  0 ms
@ kernel: 1038 ms
@ traversal: 20061 ms
Collected results into ../../../results/depth_tmp/bt_Hybrid_Sched_mnist.7d_12_unsorted.stats

Loading data from ../../../results/depth_tmp/bt_Hybrid_Sched_mnist.7d_12_unsorted.stats...
{'traversal:': [20061.0], 'kernel:': [1038.0], 'read_data:': [1699.0], 'sort:': [0.0], 'extra:': [19016.0], 'build_tree:': [645.0]}
configuration: sort_flag=0, check_flag = 0, verbose_flag=0, K=5, input_file=../../../input/pc/mnist.7d, npoints=200000, nsearchpoints=200000, DIM = 7, SPLICE_DEPTH = 12
read done!
construct done!
The max depth is 31, the nodes number is 399999.
the number of nodes is 399999, the depth is 31
npoints = 200000, DEPTH_STAT = 3944, nMatrixSize = 788800000.
Time for asynchronous transfer and execute (ms): 18067.099609
The ratio is 0.428605.
@ read_data: 1739 ms
@ build_tree: 645 ms
@ extra: 18985 ms
@ sort:  0 ms
@ kernel: 1039 ms
@ traversal: 20033 ms
Collected results into ../../../results/depth_tmp/bt_Hybrid_Sched_mnist.7d_12_unsorted.stats

Loading data from ../../../results/depth_tmp/bt_Hybrid_Sched_mnist.7d_12_unsorted.stats...
{'traversal:': [20061.0, 20033.0], 'kernel:': [1038.0, 1039.0], 'read_data:': [1699.0, 1739.0], 'sort:': [0.0, 0.0], 'extra:': [19016.0, 18985.0], 'build_tree:': [645.0, 645.0]}
configuration: sort_flag=0, check_flag = 0, verbose_flag=0, K=5, input_file=../../../input/pc/mnist.7d, npoints=200000, nsearchpoints=200000, DIM = 7, SPLICE_DEPTH = 12
read done!
construct done!
The max depth is 31, the nodes number is 399999.
the number of nodes is 399999, the depth is 31
npoints = 200000, DEPTH_STAT = 3944, nMatrixSize = 788800000.
Time for asynchronous transfer and execute (ms): 18070.630859
The ratio is 0.428605.
@ read_data: 1773 ms
@ build_tree: 639 ms
@ extra: 18993 ms
@ sort:  0 ms
@ kernel: 1041 ms
@ traversal: 20043 ms
Collected results into ../../../results/depth_tmp/bt_Hybrid_Sched_mnist.7d_12_unsorted.stats

Loading data from ../../../results/depth_tmp/bt_Hybrid_Sched_mnist.7d_12_unsorted.stats...
{'traversal:': [20061.0, 20033.0, 20043.0], 'kernel:': [1038.0, 1039.0, 1041.0], 'read_data:': [1699.0, 1739.0, 1773.0], 'sort:': [0.0, 0.0, 0.0], 'extra:': [19016.0, 18985.0, 18993.0], 'build_tree:': [645.0, 645.0, 639.0]}
configuration: sort_flag=0, check_flag = 0, verbose_flag=0, K=5, input_file=../../../input/pc/mnist.7d, npoints=200000, nsearchpoints=200000, DIM = 7, SPLICE_DEPTH = 12
read done!
construct done!
The max depth is 31, the nodes number is 399999.
the number of nodes is 399999, the depth is 31
npoints = 200000, DEPTH_STAT = 3944, nMatrixSize = 788800000.
Time for asynchronous transfer and execute (ms): 18074.296875
The ratio is 0.428605.
@ read_data: 1702 ms
@ build_tree: 646 ms
@ extra: 18997 ms
@ sort:  0 ms
@ kernel: 1048 ms
@ traversal: 20054 ms
Collected results into ../../../results/depth_tmp/bt_Hybrid_Sched_mnist.7d_12_unsorted.stats

Loading data from ../../../results/depth_tmp/bt_Hybrid_Sched_mnist.7d_12_unsorted.stats...
{'traversal:': [20061.0, 20033.0, 20043.0, 20054.0], 'kernel:': [1038.0, 1039.0, 1041.0, 1048.0], 'read_data:': [1699.0, 1739.0, 1773.0, 1702.0], 'sort:': [0.0, 0.0, 0.0, 0.0], 'extra:': [19016.0, 18985.0, 18993.0, 18997.0], 'build_tree:': [645.0, 645.0, 639.0, 646.0]}
configuration: sort_flag=0, check_flag = 0, verbose_flag=0, K=5, input_file=../../../input/pc/mnist.7d, npoints=200000, nsearchpoints=200000, DIM = 7, SPLICE_DEPTH = 12
read done!
construct done!
The max depth is 31, the nodes number is 399999.
the number of nodes is 399999, the depth is 31
npoints = 200000, DEPTH_STAT = 3944, nMatrixSize = 788800000.
Time for asynchronous transfer and execute (ms): 18290.931641
The ratio is 0.428605.
@ read_data: 1683 ms
@ build_tree: 645 ms
@ extra: 19209 ms
@ sort:  0 ms
@ kernel: 1047 ms
@ traversal: 20268 ms
Collected results into ../../../results/depth_tmp/bt_Hybrid_Sched_mnist.7d_12_unsorted.stats

Loading data from ../../../results/depth_tmp/bt_Hybrid_Sched_mnist.7d_12_unsorted.stats...
{'traversal:': [20061.0, 20033.0, 20043.0, 20054.0, 20268.0], 'kernel:': [1038.0, 1039.0, 1041.0, 1048.0, 1047.0], 'read_data:': [1699.0, 1739.0, 1773.0, 1702.0, 1683.0], 'sort:': [0.0, 0.0, 0.0, 0.0, 0.0], 'extra:': [19016.0, 18985.0, 18993.0, 18997.0, 19209.0], 'build_tree:': [645.0, 645.0, 639.0, 646.0, 645.0]}
configuration: sort_flag=0, check_flag = 0, verbose_flag=0, K=5, input_file=../../../input/pc/mnist.7d, npoints=200000, nsearchpoints=200000, DIM = 7, SPLICE_DEPTH = 12
read done!
construct done!
The max depth is 31, the nodes number is 399999.
the number of nodes is 399999, the depth is 31
npoints = 200000, DEPTH_STAT = 3944, nMatrixSize = 788800000.
Time for asynchronous transfer and execute (ms): 18080.279297
The ratio is 0.428605.
@ read_data: 1726 ms
@ build_tree: 640 ms
@ extra: 19004 ms
@ sort:  0 ms
@ kernel: 1046 ms
@ traversal: 20060 ms
Collected results into ../../../results/depth_tmp/bt_Hybrid_Sched_mnist.7d_12_unsorted.stats

Loading data from ../../../results/depth_tmp/bt_Hybrid_Sched_mnist.7d_12_unsorted.stats...
{'traversal:': [20061.0, 20033.0, 20043.0, 20054.0, 20268.0, 20060.0], 'kernel:': [1038.0, 1039.0, 1041.0, 1048.0, 1047.0, 1046.0], 'read_data:': [1699.0, 1739.0, 1773.0, 1702.0, 1683.0, 1726.0], 'sort:': [0.0, 0.0, 0.0, 0.0, 0.0, 0.0], 'extra:': [19016.0, 18985.0, 18993.0, 18997.0, 19209.0, 19004.0], 'build_tree:': [645.0, 645.0, 639.0, 646.0, 645.0, 640.0]}
configuration: sort_flag=0, check_flag = 0, verbose_flag=0, K=5, input_file=../../../input/pc/mnist.7d, npoints=200000, nsearchpoints=200000, DIM = 7, SPLICE_DEPTH = 12
read done!
construct done!
The max depth is 31, the nodes number is 399999.
the number of nodes is 399999, the depth is 31
npoints = 200000, DEPTH_STAT = 3944, nMatrixSize = 788800000.
Time for asynchronous transfer and execute (ms): 18086.416016
The ratio is 0.428605.
@ read_data: 1652 ms
@ build_tree: 647 ms
@ extra: 19010 ms
@ sort:  0 ms
@ kernel: 1044 ms
@ traversal: 20063 ms
Collected results into ../../../results/depth_tmp/bt_Hybrid_Sched_mnist.7d_12_unsorted.stats

Loading data from ../../../results/depth_tmp/bt_Hybrid_Sched_mnist.7d_12_unsorted.stats...
{'traversal:': [20061.0, 20033.0, 20043.0, 20054.0, 20268.0, 20060.0, 20063.0], 'kernel:': [1038.0, 1039.0, 1041.0, 1048.0, 1047.0, 1046.0, 1044.0], 'read_data:': [1699.0, 1739.0, 1773.0, 1702.0, 1683.0, 1726.0, 1652.0], 'sort:': [0.0, 0.0, 0.0, 0.0, 0.0, 0.0, 0.0], 'extra:': [19016.0, 18985.0, 18993.0, 18997.0, 19209.0, 19004.0, 19010.0], 'build_tree:': [645.0, 645.0, 639.0, 646.0, 645.0, 640.0, 647.0]}
configuration: sort_flag=0, check_flag = 0, verbose_flag=0, K=5, input_file=../../../input/pc/mnist.7d, npoints=200000, nsearchpoints=200000, DIM = 7, SPLICE_DEPTH = 12
read done!
construct done!
The max depth is 31, the nodes number is 399999.
the number of nodes is 399999, the depth is 31
npoints = 200000, DEPTH_STAT = 3944, nMatrixSize = 788800000.
Time for asynchronous transfer and execute (ms): 18111.882812
The ratio is 0.428605.
@ read_data: 1720 ms
@ build_tree: 648 ms
@ extra: 19030 ms
@ sort:  0 ms
@ kernel: 1044 ms
@ traversal: 20083 ms
Collected results into ../../../results/depth_tmp/bt_Hybrid_Sched_mnist.7d_12_unsorted.stats

Loading data from ../../../results/depth_tmp/bt_Hybrid_Sched_mnist.7d_12_unsorted.stats...
{'traversal:': [20061.0, 20033.0, 20043.0, 20054.0, 20268.0, 20060.0, 20063.0, 20083.0], 'kernel:': [1038.0, 1039.0, 1041.0, 1048.0, 1047.0, 1046.0, 1044.0, 1044.0], 'read_data:': [1699.0, 1739.0, 1773.0, 1702.0, 1683.0, 1726.0, 1652.0, 1720.0], 'sort:': [0.0, 0.0, 0.0, 0.0, 0.0, 0.0, 0.0, 0.0], 'extra:': [19016.0, 18985.0, 18993.0, 18997.0, 19209.0, 19004.0, 19010.0, 19030.0], 'build_tree:': [645.0, 645.0, 639.0, 646.0, 645.0, 640.0, 647.0, 648.0]}
configuration: sort_flag=0, check_flag = 0, verbose_flag=0, K=5, input_file=../../../input/pc/mnist.7d, npoints=200000, nsearchpoints=200000, DIM = 7, SPLICE_DEPTH = 12
read done!
construct done!
The max depth is 31, the nodes number is 399999.
the number of nodes is 399999, the depth is 31
npoints = 200000, DEPTH_STAT = 3944, nMatrixSize = 788800000.
Time for asynchronous transfer and execute (ms): 18291.449219
The ratio is 0.428605.
@ read_data: 1670 ms
@ build_tree: 644 ms
@ extra: 19211 ms
@ sort:  0 ms
@ kernel: 1043 ms
@ traversal: 20266 ms
Collected results into ../../../results/depth_tmp/bt_Hybrid_Sched_mnist.7d_12_unsorted.stats

Loading data from ../../../results/depth_tmp/bt_Hybrid_Sched_mnist.7d_12_unsorted.stats...
{'traversal:': [20061.0, 20033.0, 20043.0, 20054.0, 20268.0, 20060.0, 20063.0, 20083.0, 20266.0], 'kernel:': [1038.0, 1039.0, 1041.0, 1048.0, 1047.0, 1046.0, 1044.0, 1044.0, 1043.0], 'read_data:': [1699.0, 1739.0, 1773.0, 1702.0, 1683.0, 1726.0, 1652.0, 1720.0, 1670.0], 'sort:': [0.0, 0.0, 0.0, 0.0, 0.0, 0.0, 0.0, 0.0, 0.0], 'extra:': [19016.0, 18985.0, 18993.0, 18997.0, 19209.0, 19004.0, 19010.0, 19030.0, 19211.0], 'build_tree:': [645.0, 645.0, 639.0, 646.0, 645.0, 640.0, 647.0, 648.0, 644.0]}
configuration: sort_flag=0, check_flag = 0, verbose_flag=0, K=5, input_file=../../../input/pc/mnist.7d, npoints=200000, nsearchpoints=200000, DIM = 7, SPLICE_DEPTH = 12
read done!
construct done!
The max depth is 31, the nodes number is 399999.
the number of nodes is 399999, the depth is 31
npoints = 200000, DEPTH_STAT = 3944, nMatrixSize = 788800000.
Time for asynchronous transfer and execute (ms): 18097.201172
The ratio is 0.428605.
@ read_data: 1768 ms
@ build_tree: 642 ms
@ extra: 19020 ms
@ sort:  0 ms
@ kernel: 1044 ms
@ traversal: 20070 ms
Collected results into ../../../results/depth_tmp/bt_Hybrid_Sched_mnist.7d_12_unsorted.stats

Loading data from ../../../results/depth_tmp/bt_Hybrid_Sched_mnist.7d_12_unsorted.stats...
{'traversal:': [20061.0, 20033.0, 20043.0, 20054.0, 20268.0, 20060.0, 20063.0, 20083.0, 20266.0, 20070.0], 'kernel:': [1038.0, 1039.0, 1041.0, 1048.0, 1047.0, 1046.0, 1044.0, 1044.0, 1043.0, 1044.0], 'read_data:': [1699.0, 1739.0, 1773.0, 1702.0, 1683.0, 1726.0, 1652.0, 1720.0, 1670.0, 1768.0], 'sort:': [0.0, 0.0, 0.0, 0.0, 0.0, 0.0, 0.0, 0.0, 0.0, 0.0], 'extra:': [19016.0, 18985.0, 18993.0, 18997.0, 19209.0, 19004.0, 19010.0, 19030.0, 19211.0, 19020.0], 'build_tree:': [645.0, 645.0, 639.0, 646.0, 645.0, 640.0, 647.0, 648.0, 644.0, 642.0]}
configuration: sort_flag=0, check_flag = 0, verbose_flag=0, K=5, input_file=../../../input/pc/mnist.7d, npoints=200000, nsearchpoints=200000, DIM = 7, SPLICE_DEPTH = 12
read done!
construct done!
The max depth is 31, the nodes number is 399999.
the number of nodes is 399999, the depth is 31
npoints = 200000, DEPTH_STAT = 3944, nMatrixSize = 788800000.
Time for asynchronous transfer and execute (ms): 18051.322266
The ratio is 0.428605.
@ read_data: 1664 ms
@ build_tree: 648 ms
@ extra: 18970 ms
@ sort:  0 ms
@ kernel: 1040 ms
@ traversal: 20019 ms
Collected results into ../../../results/depth_tmp/bt_Hybrid_Sched_mnist.7d_12_unsorted.stats

Loading data from ../../../results/depth_tmp/bt_Hybrid_Sched_mnist.7d_12_unsorted.stats...
{'traversal:': [20061.0, 20033.0, 20043.0, 20054.0, 20268.0, 20060.0, 20063.0, 20083.0, 20266.0, 20070.0, 20019.0], 'kernel:': [1038.0, 1039.0, 1041.0, 1048.0, 1047.0, 1046.0, 1044.0, 1044.0, 1043.0, 1044.0, 1040.0], 'read_data:': [1699.0, 1739.0, 1773.0, 1702.0, 1683.0, 1726.0, 1652.0, 1720.0, 1670.0, 1768.0, 1664.0], 'sort:': [0.0, 0.0, 0.0, 0.0, 0.0, 0.0, 0.0, 0.0, 0.0, 0.0, 0.0], 'extra:': [19016.0, 18985.0, 18993.0, 18997.0, 19209.0, 19004.0, 19010.0, 19030.0, 19211.0, 19020.0, 18970.0], 'build_tree:': [645.0, 645.0, 639.0, 646.0, 645.0, 640.0, 647.0, 648.0, 644.0, 642.0, 648.0]}
configuration: sort_flag=0, check_flag = 0, verbose_flag=0, K=5, input_file=../../../input/pc/mnist.7d, npoints=200000, nsearchpoints=200000, DIM = 7, SPLICE_DEPTH = 12
read done!
construct done!
The max depth is 31, the nodes number is 399999.
the number of nodes is 399999, the depth is 31
npoints = 200000, DEPTH_STAT = 3944, nMatrixSize = 788800000.
Time for asynchronous transfer and execute (ms): 18269.542969
The ratio is 0.428605.
@ read_data: 1766 ms
@ build_tree: 644 ms
@ extra: 19195 ms
@ sort:  0 ms
@ kernel: 1047 ms
@ traversal: 20254 ms
Collected results into ../../../results/depth_tmp/bt_Hybrid_Sched_mnist.7d_12_unsorted.stats

Loading data from ../../../results/depth_tmp/bt_Hybrid_Sched_mnist.7d_12_unsorted.stats...
{'traversal:': [20061.0, 20033.0, 20043.0, 20054.0, 20268.0, 20060.0, 20063.0, 20083.0, 20266.0, 20070.0, 20019.0, 20254.0], 'kernel:': [1038.0, 1039.0, 1041.0, 1048.0, 1047.0, 1046.0, 1044.0, 1044.0, 1043.0, 1044.0, 1040.0, 1047.0], 'read_data:': [1699.0, 1739.0, 1773.0, 1702.0, 1683.0, 1726.0, 1652.0, 1720.0, 1670.0, 1768.0, 1664.0, 1766.0], 'sort:': [0.0, 0.0, 0.0, 0.0, 0.0, 0.0, 0.0, 0.0, 0.0, 0.0, 0.0, 0.0], 'extra:': [19016.0, 18985.0, 18993.0, 18997.0, 19209.0, 19004.0, 19010.0, 19030.0, 19211.0, 19020.0, 18970.0, 19195.0], 'build_tree:': [645.0, 645.0, 639.0, 646.0, 645.0, 640.0, 647.0, 648.0, 644.0, 642.0, 648.0, 644.0]}
configuration: sort_flag=0, check_flag = 0, verbose_flag=0, K=5, input_file=../../../input/pc/mnist.7d, npoints=200000, nsearchpoints=200000, DIM = 7, SPLICE_DEPTH = 12
read done!
construct done!
The max depth is 31, the nodes number is 399999.
the number of nodes is 399999, the depth is 31
npoints = 200000, DEPTH_STAT = 3944, nMatrixSize = 788800000.
Time for asynchronous transfer and execute (ms): 18109.228516
The ratio is 0.428605.
@ read_data: 1736 ms
@ build_tree: 657 ms
@ extra: 19032 ms
@ sort:  0 ms
@ kernel: 1039 ms
@ traversal: 20081 ms
Collected results into ../../../results/depth_tmp/bt_Hybrid_Sched_mnist.7d_12_unsorted.stats

Loading data from ../../../results/depth_tmp/bt_Hybrid_Sched_mnist.7d_12_unsorted.stats...
{'traversal:': [20061.0, 20033.0, 20043.0, 20054.0, 20268.0, 20060.0, 20063.0, 20083.0, 20266.0, 20070.0, 20019.0, 20254.0, 20081.0], 'kernel:': [1038.0, 1039.0, 1041.0, 1048.0, 1047.0, 1046.0, 1044.0, 1044.0, 1043.0, 1044.0, 1040.0, 1047.0, 1039.0], 'read_data:': [1699.0, 1739.0, 1773.0, 1702.0, 1683.0, 1726.0, 1652.0, 1720.0, 1670.0, 1768.0, 1664.0, 1766.0, 1736.0], 'sort:': [0.0, 0.0, 0.0, 0.0, 0.0, 0.0, 0.0, 0.0, 0.0, 0.0, 0.0, 0.0, 0.0], 'extra:': [19016.0, 18985.0, 18993.0, 18997.0, 19209.0, 19004.0, 19010.0, 19030.0, 19211.0, 19020.0, 18970.0, 19195.0, 19032.0], 'build_tree:': [645.0, 645.0, 639.0, 646.0, 645.0, 640.0, 647.0, 648.0, 644.0, 642.0, 648.0, 644.0, 657.0]}
configuration: sort_flag=0, check_flag = 0, verbose_flag=0, K=5, input_file=../../../input/pc/mnist.7d, npoints=200000, nsearchpoints=200000, DIM = 7, SPLICE_DEPTH = 12
read done!
construct done!
The max depth is 31, the nodes number is 399999.
the number of nodes is 399999, the depth is 31
npoints = 200000, DEPTH_STAT = 3944, nMatrixSize = 788800000.
Time for asynchronous transfer and execute (ms): 18071.078125
The ratio is 0.428605.
@ read_data: 1708 ms
@ build_tree: 648 ms
@ extra: 18990 ms
@ sort:  0 ms
@ kernel: 1050 ms
@ traversal: 20049 ms
Collected results into ../../../results/depth_tmp/bt_Hybrid_Sched_mnist.7d_12_unsorted.stats

Loading data from ../../../results/depth_tmp/bt_Hybrid_Sched_mnist.7d_12_unsorted.stats...
{'traversal:': [20061.0, 20033.0, 20043.0, 20054.0, 20268.0, 20060.0, 20063.0, 20083.0, 20266.0, 20070.0, 20019.0, 20254.0, 20081.0, 20049.0], 'kernel:': [1038.0, 1039.0, 1041.0, 1048.0, 1047.0, 1046.0, 1044.0, 1044.0, 1043.0, 1044.0, 1040.0, 1047.0, 1039.0, 1050.0], 'read_data:': [1699.0, 1739.0, 1773.0, 1702.0, 1683.0, 1726.0, 1652.0, 1720.0, 1670.0, 1768.0, 1664.0, 1766.0, 1736.0, 1708.0], 'sort:': [0.0, 0.0, 0.0, 0.0, 0.0, 0.0, 0.0, 0.0, 0.0, 0.0, 0.0, 0.0, 0.0, 0.0], 'extra:': [19016.0, 18985.0, 18993.0, 18997.0, 19209.0, 19004.0, 19010.0, 19030.0, 19211.0, 19020.0, 18970.0, 19195.0, 19032.0, 18990.0], 'build_tree:': [645.0, 645.0, 639.0, 646.0, 645.0, 640.0, 647.0, 648.0, 644.0, 642.0, 648.0, 644.0, 657.0, 648.0]}
configuration: sort_flag=0, check_flag = 0, verbose_flag=0, K=5, input_file=../../../input/pc/mnist.7d, npoints=200000, nsearchpoints=200000, DIM = 7, SPLICE_DEPTH = 12
read done!
construct done!
The max depth is 31, the nodes number is 399999.
the number of nodes is 399999, the depth is 31
npoints = 200000, DEPTH_STAT = 3944, nMatrixSize = 788800000.
Time for asynchronous transfer and execute (ms): 18305.662109
The ratio is 0.428605.
@ read_data: 1717 ms
@ build_tree: 641 ms
@ extra: 19232 ms
@ sort:  0 ms
@ kernel: 1050 ms
@ traversal: 20294 ms
Collected results into ../../../results/depth_tmp/bt_Hybrid_Sched_mnist.7d_12_unsorted.stats

