Results wll be collected to ../../../results/depth_tmp/bt_Hybrid_Sched_mnist.7d_8_unsorted.stats...
configuration: sort_flag=0, check_flag = 0, verbose_flag=0, K=5, input_file=../../../input/pc/mnist.7d, npoints=200000, nsearchpoints=200000, DIM = 7, SPLICE_DEPTH = 8
read done!
construct done!
The max depth is 31, the nodes number is 399999.
the number of nodes is 399999, the depth is 31
npoints = 200000, DEPTH_STAT = 256, nMatrixSize = 51200000.
Time for asynchronous transfer and execute (ms): 740.938477
The ratio is 0.428605.
@ read_data: 1683 ms
@ build_tree: 646 ms
@ extra: 854 ms
@ sort:  0 ms
@ kernel: 1229 ms
@ traversal: 2093 ms
Collected results into ../../../results/depth_tmp/bt_Hybrid_Sched_mnist.7d_8_unsorted.stats

Loading data from ../../../results/depth_tmp/bt_Hybrid_Sched_mnist.7d_8_unsorted.stats...
{'traversal:': [2093.0], 'kernel:': [1229.0], 'read_data:': [1683.0], 'sort:': [0.0], 'extra:': [854.0], 'build_tree:': [646.0]}
configuration: sort_flag=0, check_flag = 0, verbose_flag=0, K=5, input_file=../../../input/pc/mnist.7d, npoints=200000, nsearchpoints=200000, DIM = 7, SPLICE_DEPTH = 8
read done!
construct done!
The max depth is 31, the nodes number is 399999.
the number of nodes is 399999, the depth is 31
npoints = 200000, DEPTH_STAT = 256, nMatrixSize = 51200000.
Time for asynchronous transfer and execute (ms): 741.990417
The ratio is 0.428605.
@ read_data: 1685 ms
@ build_tree: 646 ms
@ extra: 856 ms
@ sort:  0 ms
@ kernel: 1234 ms
@ traversal: 2099 ms
Collected results into ../../../results/depth_tmp/bt_Hybrid_Sched_mnist.7d_8_unsorted.stats

Loading data from ../../../results/depth_tmp/bt_Hybrid_Sched_mnist.7d_8_unsorted.stats...
{'traversal:': [2093.0, 2099.0], 'kernel:': [1229.0, 1234.0], 'read_data:': [1683.0, 1685.0], 'sort:': [0.0, 0.0], 'extra:': [854.0, 856.0], 'build_tree:': [646.0, 646.0]}
configuration: sort_flag=0, check_flag = 0, verbose_flag=0, K=5, input_file=../../../input/pc/mnist.7d, npoints=200000, nsearchpoints=200000, DIM = 7, SPLICE_DEPTH = 8
read done!
construct done!
The max depth is 31, the nodes number is 399999.
the number of nodes is 399999, the depth is 31
npoints = 200000, DEPTH_STAT = 256, nMatrixSize = 51200000.
Time for asynchronous transfer and execute (ms): 742.281006
The ratio is 0.428605.
@ read_data: 1656 ms
@ build_tree: 646 ms
@ extra: 856 ms
@ sort:  0 ms
@ kernel: 1229 ms
@ traversal: 2094 ms
Collected results into ../../../results/depth_tmp/bt_Hybrid_Sched_mnist.7d_8_unsorted.stats

Loading data from ../../../results/depth_tmp/bt_Hybrid_Sched_mnist.7d_8_unsorted.stats...
{'traversal:': [2093.0, 2099.0, 2094.0], 'kernel:': [1229.0, 1234.0, 1229.0], 'read_data:': [1683.0, 1685.0, 1656.0], 'sort:': [0.0, 0.0, 0.0], 'extra:': [854.0, 856.0, 856.0], 'build_tree:': [646.0, 646.0, 646.0]}
configuration: sort_flag=0, check_flag = 0, verbose_flag=0, K=5, input_file=../../../input/pc/mnist.7d, npoints=200000, nsearchpoints=200000, DIM = 7, SPLICE_DEPTH = 8
read done!
construct done!
The max depth is 31, the nodes number is 399999.
the number of nodes is 399999, the depth is 31
npoints = 200000, DEPTH_STAT = 256, nMatrixSize = 51200000.
Time for asynchronous transfer and execute (ms): 740.767639
The ratio is 0.428605.
@ read_data: 1748 ms
@ build_tree: 642 ms
@ extra: 854 ms
@ sort:  0 ms
@ kernel: 1234 ms
@ traversal: 2098 ms
Collected results into ../../../results/depth_tmp/bt_Hybrid_Sched_mnist.7d_8_unsorted.stats

Loading data from ../../../results/depth_tmp/bt_Hybrid_Sched_mnist.7d_8_unsorted.stats...
{'traversal:': [2093.0, 2099.0, 2094.0, 2098.0], 'kernel:': [1229.0, 1234.0, 1229.0, 1234.0], 'read_data:': [1683.0, 1685.0, 1656.0, 1748.0], 'sort:': [0.0, 0.0, 0.0, 0.0], 'extra:': [854.0, 856.0, 856.0, 854.0], 'build_tree:': [646.0, 646.0, 646.0, 642.0]}
configuration: sort_flag=0, check_flag = 0, verbose_flag=0, K=5, input_file=../../../input/pc/mnist.7d, npoints=200000, nsearchpoints=200000, DIM = 7, SPLICE_DEPTH = 8
read done!
construct done!
The max depth is 31, the nodes number is 399999.
the number of nodes is 399999, the depth is 31
npoints = 200000, DEPTH_STAT = 256, nMatrixSize = 51200000.
Time for asynchronous transfer and execute (ms): 740.574280
The ratio is 0.428605.
@ read_data: 1693 ms
@ build_tree: 645 ms
@ extra: 854 ms
@ sort:  0 ms
@ kernel: 1223 ms
@ traversal: 2087 ms
Collected results into ../../../results/depth_tmp/bt_Hybrid_Sched_mnist.7d_8_unsorted.stats

Loading data from ../../../results/depth_tmp/bt_Hybrid_Sched_mnist.7d_8_unsorted.stats...
{'traversal:': [2093.0, 2099.0, 2094.0, 2098.0, 2087.0], 'kernel:': [1229.0, 1234.0, 1229.0, 1234.0, 1223.0], 'read_data:': [1683.0, 1685.0, 1656.0, 1748.0, 1693.0], 'sort:': [0.0, 0.0, 0.0, 0.0, 0.0], 'extra:': [854.0, 856.0, 856.0, 854.0, 854.0], 'build_tree:': [646.0, 646.0, 646.0, 642.0, 645.0]}
configuration: sort_flag=0, check_flag = 0, verbose_flag=0, K=5, input_file=../../../input/pc/mnist.7d, npoints=200000, nsearchpoints=200000, DIM = 7, SPLICE_DEPTH = 8
read done!
construct done!
The max depth is 31, the nodes number is 399999.
the number of nodes is 399999, the depth is 31
npoints = 200000, DEPTH_STAT = 256, nMatrixSize = 51200000.
Time for asynchronous transfer and execute (ms): 743.927979
The ratio is 0.428605.
@ read_data: 1704 ms
@ build_tree: 641 ms
@ extra: 858 ms
@ sort:  0 ms
@ kernel: 1240 ms
@ traversal: 2108 ms
Collected results into ../../../results/depth_tmp/bt_Hybrid_Sched_mnist.7d_8_unsorted.stats

Loading data from ../../../results/depth_tmp/bt_Hybrid_Sched_mnist.7d_8_unsorted.stats...
{'traversal:': [2093.0, 2099.0, 2094.0, 2098.0, 2087.0, 2108.0], 'kernel:': [1229.0, 1234.0, 1229.0, 1234.0, 1223.0, 1240.0], 'read_data:': [1683.0, 1685.0, 1656.0, 1748.0, 1693.0, 1704.0], 'sort:': [0.0, 0.0, 0.0, 0.0, 0.0, 0.0], 'extra:': [854.0, 856.0, 856.0, 854.0, 854.0, 858.0], 'build_tree:': [646.0, 646.0, 646.0, 642.0, 645.0, 641.0]}
configuration: sort_flag=0, check_flag = 0, verbose_flag=0, K=5, input_file=../../../input/pc/mnist.7d, npoints=200000, nsearchpoints=200000, DIM = 7, SPLICE_DEPTH = 8
read done!
construct done!
The max depth is 31, the nodes number is 399999.
the number of nodes is 399999, the depth is 31
npoints = 200000, DEPTH_STAT = 256, nMatrixSize = 51200000.
Time for asynchronous transfer and execute (ms): 741.531250
The ratio is 0.428605.
@ read_data: 1667 ms
@ build_tree: 652 ms
@ extra: 855 ms
@ sort:  0 ms
@ kernel: 1239 ms
@ traversal: 2100 ms
Collected results into ../../../results/depth_tmp/bt_Hybrid_Sched_mnist.7d_8_unsorted.stats

Loading data from ../../../results/depth_tmp/bt_Hybrid_Sched_mnist.7d_8_unsorted.stats...
{'traversal:': [2093.0, 2099.0, 2094.0, 2098.0, 2087.0, 2108.0, 2100.0], 'kernel:': [1229.0, 1234.0, 1229.0, 1234.0, 1223.0, 1240.0, 1239.0], 'read_data:': [1683.0, 1685.0, 1656.0, 1748.0, 1693.0, 1704.0, 1667.0], 'sort:': [0.0, 0.0, 0.0, 0.0, 0.0, 0.0, 0.0], 'extra:': [854.0, 856.0, 856.0, 854.0, 854.0, 858.0, 855.0], 'build_tree:': [646.0, 646.0, 646.0, 642.0, 645.0, 641.0, 652.0]}
configuration: sort_flag=0, check_flag = 0, verbose_flag=0, K=5, input_file=../../../input/pc/mnist.7d, npoints=200000, nsearchpoints=200000, DIM = 7, SPLICE_DEPTH = 8
read done!
construct done!
The max depth is 31, the nodes number is 399999.
the number of nodes is 399999, the depth is 31
npoints = 200000, DEPTH_STAT = 256, nMatrixSize = 51200000.
Time for asynchronous transfer and execute (ms): 742.338440
The ratio is 0.428605.
@ read_data: 1741 ms
@ build_tree: 646 ms
@ extra: 856 ms
@ sort:  0 ms
@ kernel: 1232 ms
@ traversal: 2098 ms
Collected results into ../../../results/depth_tmp/bt_Hybrid_Sched_mnist.7d_8_unsorted.stats

Loading data from ../../../results/depth_tmp/bt_Hybrid_Sched_mnist.7d_8_unsorted.stats...
{'traversal:': [2093.0, 2099.0, 2094.0, 2098.0, 2087.0, 2108.0, 2100.0, 2098.0], 'kernel:': [1229.0, 1234.0, 1229.0, 1234.0, 1223.0, 1240.0, 1239.0, 1232.0], 'read_data:': [1683.0, 1685.0, 1656.0, 1748.0, 1693.0, 1704.0, 1667.0, 1741.0], 'sort:': [0.0, 0.0, 0.0, 0.0, 0.0, 0.0, 0.0, 0.0], 'extra:': [854.0, 856.0, 856.0, 854.0, 854.0, 858.0, 855.0, 856.0], 'build_tree:': [646.0, 646.0, 646.0, 642.0, 645.0, 641.0, 652.0, 646.0]}
configuration: sort_flag=0, check_flag = 0, verbose_flag=0, K=5, input_file=../../../input/pc/mnist.7d, npoints=200000, nsearchpoints=200000, DIM = 7, SPLICE_DEPTH = 8
read done!
construct done!
The max depth is 31, the nodes number is 399999.
the number of nodes is 399999, the depth is 31
npoints = 200000, DEPTH_STAT = 256, nMatrixSize = 51200000.
Time for asynchronous transfer and execute (ms): 745.488708
The ratio is 0.428605.
@ read_data: 1675 ms
@ build_tree: 645 ms
@ extra: 860 ms
@ sort:  0 ms
@ kernel: 1236 ms
@ traversal: 2107 ms
Collected results into ../../../results/depth_tmp/bt_Hybrid_Sched_mnist.7d_8_unsorted.stats

Loading data from ../../../results/depth_tmp/bt_Hybrid_Sched_mnist.7d_8_unsorted.stats...
{'traversal:': [2093.0, 2099.0, 2094.0, 2098.0, 2087.0, 2108.0, 2100.0, 2098.0, 2107.0], 'kernel:': [1229.0, 1234.0, 1229.0, 1234.0, 1223.0, 1240.0, 1239.0, 1232.0, 1236.0], 'read_data:': [1683.0, 1685.0, 1656.0, 1748.0, 1693.0, 1704.0, 1667.0, 1741.0, 1675.0], 'sort:': [0.0, 0.0, 0.0, 0.0, 0.0, 0.0, 0.0, 0.0, 0.0], 'extra:': [854.0, 856.0, 856.0, 854.0, 854.0, 858.0, 855.0, 856.0, 860.0], 'build_tree:': [646.0, 646.0, 646.0, 642.0, 645.0, 641.0, 652.0, 646.0, 645.0]}
configuration: sort_flag=0, check_flag = 0, verbose_flag=0, K=5, input_file=../../../input/pc/mnist.7d, npoints=200000, nsearchpoints=200000, DIM = 7, SPLICE_DEPTH = 8
read done!
construct done!
The max depth is 31, the nodes number is 399999.
the number of nodes is 399999, the depth is 31
npoints = 200000, DEPTH_STAT = 256, nMatrixSize = 51200000.
Time for asynchronous transfer and execute (ms): 743.356445
The ratio is 0.428605.
@ read_data: 1676 ms
@ build_tree: 644 ms
@ extra: 857 ms
@ sort:  0 ms
@ kernel: 1244 ms
@ traversal: 2113 ms
Collected results into ../../../results/depth_tmp/bt_Hybrid_Sched_mnist.7d_8_unsorted.stats

Loading data from ../../../results/depth_tmp/bt_Hybrid_Sched_mnist.7d_8_unsorted.stats...
{'traversal:': [2093.0, 2099.0, 2094.0, 2098.0, 2087.0, 2108.0, 2100.0, 2098.0, 2107.0, 2113.0], 'kernel:': [1229.0, 1234.0, 1229.0, 1234.0, 1223.0, 1240.0, 1239.0, 1232.0, 1236.0, 1244.0], 'read_data:': [1683.0, 1685.0, 1656.0, 1748.0, 1693.0, 1704.0, 1667.0, 1741.0, 1675.0, 1676.0], 'sort:': [0.0, 0.0, 0.0, 0.0, 0.0, 0.0, 0.0, 0.0, 0.0, 0.0], 'extra:': [854.0, 856.0, 856.0, 854.0, 854.0, 858.0, 855.0, 856.0, 860.0, 857.0], 'build_tree:': [646.0, 646.0, 646.0, 642.0, 645.0, 641.0, 652.0, 646.0, 645.0, 644.0]}
configuration: sort_flag=0, check_flag = 0, verbose_flag=0, K=5, input_file=../../../input/pc/mnist.7d, npoints=200000, nsearchpoints=200000, DIM = 7, SPLICE_DEPTH = 8
read done!
construct done!
The max depth is 31, the nodes number is 399999.
the number of nodes is 399999, the depth is 31
npoints = 200000, DEPTH_STAT = 256, nMatrixSize = 51200000.
Time for asynchronous transfer and execute (ms): 741.281189
The ratio is 0.428605.
@ read_data: 1663 ms
@ build_tree: 636 ms
@ extra: 855 ms
@ sort:  0 ms
@ kernel: 1239 ms
@ traversal: 2102 ms
Collected results into ../../../results/depth_tmp/bt_Hybrid_Sched_mnist.7d_8_unsorted.stats

Loading data from ../../../results/depth_tmp/bt_Hybrid_Sched_mnist.7d_8_unsorted.stats...
{'traversal:': [2093.0, 2099.0, 2094.0, 2098.0, 2087.0, 2108.0, 2100.0, 2098.0, 2107.0, 2113.0, 2102.0], 'kernel:': [1229.0, 1234.0, 1229.0, 1234.0, 1223.0, 1240.0, 1239.0, 1232.0, 1236.0, 1244.0, 1239.0], 'read_data:': [1683.0, 1685.0, 1656.0, 1748.0, 1693.0, 1704.0, 1667.0, 1741.0, 1675.0, 1676.0, 1663.0], 'sort:': [0.0, 0.0, 0.0, 0.0, 0.0, 0.0, 0.0, 0.0, 0.0, 0.0, 0.0], 'extra:': [854.0, 856.0, 856.0, 854.0, 854.0, 858.0, 855.0, 856.0, 860.0, 857.0, 855.0], 'build_tree:': [646.0, 646.0, 646.0, 642.0, 645.0, 641.0, 652.0, 646.0, 645.0, 644.0, 636.0]}
configuration: sort_flag=0, check_flag = 0, verbose_flag=0, K=5, input_file=../../../input/pc/mnist.7d, npoints=200000, nsearchpoints=200000, DIM = 7, SPLICE_DEPTH = 8
read done!
construct done!
The max depth is 31, the nodes number is 399999.
the number of nodes is 399999, the depth is 31
npoints = 200000, DEPTH_STAT = 256, nMatrixSize = 51200000.
Time for asynchronous transfer and execute (ms): 744.138916
The ratio is 0.428605.
@ read_data: 1757 ms
@ build_tree: 641 ms
@ extra: 858 ms
@ sort:  0 ms
@ kernel: 1245 ms
@ traversal: 2112 ms
Collected results into ../../../results/depth_tmp/bt_Hybrid_Sched_mnist.7d_8_unsorted.stats

Loading data from ../../../results/depth_tmp/bt_Hybrid_Sched_mnist.7d_8_unsorted.stats...
{'traversal:': [2093.0, 2099.0, 2094.0, 2098.0, 2087.0, 2108.0, 2100.0, 2098.0, 2107.0, 2113.0, 2102.0, 2112.0], 'kernel:': [1229.0, 1234.0, 1229.0, 1234.0, 1223.0, 1240.0, 1239.0, 1232.0, 1236.0, 1244.0, 1239.0, 1245.0], 'read_data:': [1683.0, 1685.0, 1656.0, 1748.0, 1693.0, 1704.0, 1667.0, 1741.0, 1675.0, 1676.0, 1663.0, 1757.0], 'sort:': [0.0, 0.0, 0.0, 0.0, 0.0, 0.0, 0.0, 0.0, 0.0, 0.0, 0.0, 0.0], 'extra:': [854.0, 856.0, 856.0, 854.0, 854.0, 858.0, 855.0, 856.0, 860.0, 857.0, 855.0, 858.0], 'build_tree:': [646.0, 646.0, 646.0, 642.0, 645.0, 641.0, 652.0, 646.0, 645.0, 644.0, 636.0, 641.0]}
configuration: sort_flag=0, check_flag = 0, verbose_flag=0, K=5, input_file=../../../input/pc/mnist.7d, npoints=200000, nsearchpoints=200000, DIM = 7, SPLICE_DEPTH = 8
read done!
construct done!
The max depth is 31, the nodes number is 399999.
the number of nodes is 399999, the depth is 31
npoints = 200000, DEPTH_STAT = 256, nMatrixSize = 51200000.
Time for asynchronous transfer and execute (ms): 741.993469
The ratio is 0.428605.
@ read_data: 1669 ms
@ build_tree: 641 ms
@ extra: 856 ms
@ sort:  0 ms
@ kernel: 1236 ms
@ traversal: 2102 ms
Collected results into ../../../results/depth_tmp/bt_Hybrid_Sched_mnist.7d_8_unsorted.stats

Loading data from ../../../results/depth_tmp/bt_Hybrid_Sched_mnist.7d_8_unsorted.stats...
{'traversal:': [2093.0, 2099.0, 2094.0, 2098.0, 2087.0, 2108.0, 2100.0, 2098.0, 2107.0, 2113.0, 2102.0, 2112.0, 2102.0], 'kernel:': [1229.0, 1234.0, 1229.0, 1234.0, 1223.0, 1240.0, 1239.0, 1232.0, 1236.0, 1244.0, 1239.0, 1245.0, 1236.0], 'read_data:': [1683.0, 1685.0, 1656.0, 1748.0, 1693.0, 1704.0, 1667.0, 1741.0, 1675.0, 1676.0, 1663.0, 1757.0, 1669.0], 'sort:': [0.0, 0.0, 0.0, 0.0, 0.0, 0.0, 0.0, 0.0, 0.0, 0.0, 0.0, 0.0, 0.0], 'extra:': [854.0, 856.0, 856.0, 854.0, 854.0, 858.0, 855.0, 856.0, 860.0, 857.0, 855.0, 858.0, 856.0], 'build_tree:': [646.0, 646.0, 646.0, 642.0, 645.0, 641.0, 652.0, 646.0, 645.0, 644.0, 636.0, 641.0, 641.0]}
configuration: sort_flag=0, check_flag = 0, verbose_flag=0, K=5, input_file=../../../input/pc/mnist.7d, npoints=200000, nsearchpoints=200000, DIM = 7, SPLICE_DEPTH = 8
read done!
construct done!
The max depth is 31, the nodes number is 399999.
the number of nodes is 399999, the depth is 31
npoints = 200000, DEPTH_STAT = 256, nMatrixSize = 51200000.
Time for asynchronous transfer and execute (ms): 741.035156
The ratio is 0.428605.
@ read_data: 1682 ms
@ build_tree: 640 ms
@ extra: 855 ms
@ sort:  0 ms
@ kernel: 1240 ms
@ traversal: 2105 ms
Collected results into ../../../results/depth_tmp/bt_Hybrid_Sched_mnist.7d_8_unsorted.stats

Loading data from ../../../results/depth_tmp/bt_Hybrid_Sched_mnist.7d_8_unsorted.stats...
{'traversal:': [2093.0, 2099.0, 2094.0, 2098.0, 2087.0, 2108.0, 2100.0, 2098.0, 2107.0, 2113.0, 2102.0, 2112.0, 2102.0, 2105.0], 'kernel:': [1229.0, 1234.0, 1229.0, 1234.0, 1223.0, 1240.0, 1239.0, 1232.0, 1236.0, 1244.0, 1239.0, 1245.0, 1236.0, 1240.0], 'read_data:': [1683.0, 1685.0, 1656.0, 1748.0, 1693.0, 1704.0, 1667.0, 1741.0, 1675.0, 1676.0, 1663.0, 1757.0, 1669.0, 1682.0], 'sort:': [0.0, 0.0, 0.0, 0.0, 0.0, 0.0, 0.0, 0.0, 0.0, 0.0, 0.0, 0.0, 0.0, 0.0], 'extra:': [854.0, 856.0, 856.0, 854.0, 854.0, 858.0, 855.0, 856.0, 860.0, 857.0, 855.0, 858.0, 856.0, 855.0], 'build_tree:': [646.0, 646.0, 646.0, 642.0, 645.0, 641.0, 652.0, 646.0, 645.0, 644.0, 636.0, 641.0, 641.0, 640.0]}
configuration: sort_flag=0, check_flag = 0, verbose_flag=0, K=5, input_file=../../../input/pc/mnist.7d, npoints=200000, nsearchpoints=200000, DIM = 7, SPLICE_DEPTH = 8
read done!
construct done!
The max depth is 31, the nodes number is 399999.
the number of nodes is 399999, the depth is 31
npoints = 200000, DEPTH_STAT = 256, nMatrixSize = 51200000.
Time for asynchronous transfer and execute (ms): 742.884216
The ratio is 0.428605.
@ read_data: 1659 ms
@ build_tree: 640 ms
@ extra: 856 ms
@ sort:  0 ms
@ kernel: 1245 ms
@ traversal: 2110 ms
Collected results into ../../../results/depth_tmp/bt_Hybrid_Sched_mnist.7d_8_unsorted.stats

