Results wll be collected to ../../../results/depth_tmp/knn_Hybrid_Sched_geocity.txt_5_unsorted.stats...
configuration: sort_flag=0, check_flag = 0, verbose_flag=0, K=8, input_file=../../../input/pc/geocity.txt, npoints=200000, nsearchpoints=200000
The tree nnodes is 200000, depth is 17
npoints = 200000, DEPTH_STAT = 32, nMatrixSize = 6400000.
Time for asynchronous transfer and execute (ms): 33.214977
@ construct_tree: 755 ms
@ gpu_build_tree: 18 ms
@ init_kernel: 2607 ms
@ gpu_copy_tree_to: 11 ms
@ extra: 204 ms
@ kernel: 277 ms
@ gpu_copy_tree_from: 13 ms
@ traversal_time: 3131 ms
@ runtime: 3886 ms
Collected results into ../../../results/depth_tmp/knn_Hybrid_Sched_geocity.txt_5_unsorted.stats

Loading data from ../../../results/depth_tmp/knn_Hybrid_Sched_geocity.txt_5_unsorted.stats...
{'traversal_time:': [3131.0], 'gpu_copy_tree_from:': [13.0], 'gpu_copy_tree_to:': [11.0], 'construct_tree:': [755.0], 'init_kernel:': [2607.0], 'gpu_build_tree:': [18.0], 'kernel:': [277.0], 'runtime:': [3886.0], 'extra:': [204.0]}
configuration: sort_flag=0, check_flag = 0, verbose_flag=0, K=8, input_file=../../../input/pc/geocity.txt, npoints=200000, nsearchpoints=200000
The tree nnodes is 200000, depth is 17
npoints = 200000, DEPTH_STAT = 32, nMatrixSize = 6400000.
Time for asynchronous transfer and execute (ms): 33.809536
@ construct_tree: 751 ms
@ gpu_build_tree: 18 ms
@ init_kernel: 2586 ms
@ gpu_copy_tree_to: 11 ms
@ extra: 205 ms
@ kernel: 276 ms
@ gpu_copy_tree_from: 13 ms
@ traversal_time: 3109 ms
@ runtime: 3860 ms
Collected results into ../../../results/depth_tmp/knn_Hybrid_Sched_geocity.txt_5_unsorted.stats

Loading data from ../../../results/depth_tmp/knn_Hybrid_Sched_geocity.txt_5_unsorted.stats...
{'traversal_time:': [3131.0, 3109.0], 'gpu_copy_tree_from:': [13.0, 13.0], 'gpu_copy_tree_to:': [11.0, 11.0], 'construct_tree:': [755.0, 751.0], 'init_kernel:': [2607.0, 2586.0], 'gpu_build_tree:': [18.0, 18.0], 'kernel:': [277.0, 276.0], 'runtime:': [3886.0, 3860.0], 'extra:': [204.0, 205.0]}
configuration: sort_flag=0, check_flag = 0, verbose_flag=0, K=8, input_file=../../../input/pc/geocity.txt, npoints=200000, nsearchpoints=200000
The tree nnodes is 200000, depth is 17
npoints = 200000, DEPTH_STAT = 32, nMatrixSize = 6400000.
Time for asynchronous transfer and execute (ms): 34.159554
@ construct_tree: 756 ms
@ gpu_build_tree: 17 ms
@ init_kernel: 2751 ms
@ gpu_copy_tree_to: 12 ms
@ extra: 205 ms
@ kernel: 277 ms
@ gpu_copy_tree_from: 14 ms
@ traversal_time: 3276 ms
@ runtime: 4032 ms
Collected results into ../../../results/depth_tmp/knn_Hybrid_Sched_geocity.txt_5_unsorted.stats

Loading data from ../../../results/depth_tmp/knn_Hybrid_Sched_geocity.txt_5_unsorted.stats...
{'traversal_time:': [3131.0, 3109.0, 3276.0], 'gpu_copy_tree_from:': [13.0, 13.0, 14.0], 'gpu_copy_tree_to:': [11.0, 11.0, 12.0], 'construct_tree:': [755.0, 751.0, 756.0], 'init_kernel:': [2607.0, 2586.0, 2751.0], 'gpu_build_tree:': [18.0, 18.0, 17.0], 'kernel:': [277.0, 276.0, 277.0], 'runtime:': [3886.0, 3860.0, 4032.0], 'extra:': [204.0, 205.0, 205.0]}
configuration: sort_flag=0, check_flag = 0, verbose_flag=0, K=8, input_file=../../../input/pc/geocity.txt, npoints=200000, nsearchpoints=200000
The tree nnodes is 200000, depth is 17
npoints = 200000, DEPTH_STAT = 32, nMatrixSize = 6400000.
Time for asynchronous transfer and execute (ms): 34.344032
@ construct_tree: 755 ms
@ gpu_build_tree: 17 ms
@ init_kernel: 2796 ms
@ gpu_copy_tree_to: 12 ms
@ extra: 205 ms
@ kernel: 277 ms
@ gpu_copy_tree_from: 14 ms
@ traversal_time: 3321 ms
@ runtime: 4076 ms
Collected results into ../../../results/depth_tmp/knn_Hybrid_Sched_geocity.txt_5_unsorted.stats

Loading data from ../../../results/depth_tmp/knn_Hybrid_Sched_geocity.txt_5_unsorted.stats...
{'traversal_time:': [3131.0, 3109.0, 3276.0, 3321.0], 'gpu_copy_tree_from:': [13.0, 13.0, 14.0, 14.0], 'gpu_copy_tree_to:': [11.0, 11.0, 12.0, 12.0], 'construct_tree:': [755.0, 751.0, 756.0, 755.0], 'init_kernel:': [2607.0, 2586.0, 2751.0, 2796.0], 'gpu_build_tree:': [18.0, 18.0, 17.0, 17.0], 'kernel:': [277.0, 276.0, 277.0, 277.0], 'runtime:': [3886.0, 3860.0, 4032.0, 4076.0], 'extra:': [204.0, 205.0, 205.0, 205.0]}
configuration: sort_flag=0, check_flag = 0, verbose_flag=0, K=8, input_file=../../../input/pc/geocity.txt, npoints=200000, nsearchpoints=200000
The tree nnodes is 200000, depth is 17
npoints = 200000, DEPTH_STAT = 32, nMatrixSize = 6400000.
Time for asynchronous transfer and execute (ms): 33.975807
@ construct_tree: 752 ms
@ gpu_build_tree: 17 ms
@ init_kernel: 2745 ms
@ gpu_copy_tree_to: 11 ms
@ extra: 205 ms
@ kernel: 276 ms
@ gpu_copy_tree_from: 14 ms
@ traversal_time: 3268 ms
@ runtime: 4020 ms
Collected results into ../../../results/depth_tmp/knn_Hybrid_Sched_geocity.txt_5_unsorted.stats

Loading data from ../../../results/depth_tmp/knn_Hybrid_Sched_geocity.txt_5_unsorted.stats...
{'traversal_time:': [3131.0, 3109.0, 3276.0, 3321.0, 3268.0], 'gpu_copy_tree_from:': [13.0, 13.0, 14.0, 14.0, 14.0], 'gpu_copy_tree_to:': [11.0, 11.0, 12.0, 12.0, 11.0], 'construct_tree:': [755.0, 751.0, 756.0, 755.0, 752.0], 'init_kernel:': [2607.0, 2586.0, 2751.0, 2796.0, 2745.0], 'gpu_build_tree:': [18.0, 18.0, 17.0, 17.0, 17.0], 'kernel:': [277.0, 276.0, 277.0, 277.0, 276.0], 'runtime:': [3886.0, 3860.0, 4032.0, 4076.0, 4020.0], 'extra:': [204.0, 205.0, 205.0, 205.0, 205.0]}
configuration: sort_flag=0, check_flag = 0, verbose_flag=0, K=8, input_file=../../../input/pc/geocity.txt, npoints=200000, nsearchpoints=200000
The tree nnodes is 200000, depth is 17
npoints = 200000, DEPTH_STAT = 32, nMatrixSize = 6400000.
Time for asynchronous transfer and execute (ms): 34.153503
@ construct_tree: 753 ms
@ gpu_build_tree: 17 ms
@ init_kernel: 2662 ms
@ gpu_copy_tree_to: 11 ms
@ extra: 204 ms
@ kernel: 277 ms
@ gpu_copy_tree_from: 14 ms
@ traversal_time: 3186 ms
@ runtime: 3939 ms
Collected results into ../../../results/depth_tmp/knn_Hybrid_Sched_geocity.txt_5_unsorted.stats

Loading data from ../../../results/depth_tmp/knn_Hybrid_Sched_geocity.txt_5_unsorted.stats...
{'traversal_time:': [3131.0, 3109.0, 3276.0, 3321.0, 3268.0, 3186.0], 'gpu_copy_tree_from:': [13.0, 13.0, 14.0, 14.0, 14.0, 14.0], 'gpu_copy_tree_to:': [11.0, 11.0, 12.0, 12.0, 11.0, 11.0], 'construct_tree:': [755.0, 751.0, 756.0, 755.0, 752.0, 753.0], 'init_kernel:': [2607.0, 2586.0, 2751.0, 2796.0, 2745.0, 2662.0], 'gpu_build_tree:': [18.0, 18.0, 17.0, 17.0, 17.0, 17.0], 'kernel:': [277.0, 276.0, 277.0, 277.0, 276.0, 277.0], 'runtime:': [3886.0, 3860.0, 4032.0, 4076.0, 4020.0, 3939.0], 'extra:': [204.0, 205.0, 205.0, 205.0, 205.0, 204.0]}
configuration: sort_flag=0, check_flag = 0, verbose_flag=0, K=8, input_file=../../../input/pc/geocity.txt, npoints=200000, nsearchpoints=200000
The tree nnodes is 200000, depth is 17
npoints = 200000, DEPTH_STAT = 32, nMatrixSize = 6400000.
Time for asynchronous transfer and execute (ms): 33.983746
@ construct_tree: 754 ms
@ gpu_build_tree: 18 ms
@ init_kernel: 2651 ms
@ gpu_copy_tree_to: 11 ms
@ extra: 205 ms
@ kernel: 277 ms
@ gpu_copy_tree_from: 13 ms
@ traversal_time: 3175 ms
@ runtime: 3929 ms
Collected results into ../../../results/depth_tmp/knn_Hybrid_Sched_geocity.txt_5_unsorted.stats

Loading data from ../../../results/depth_tmp/knn_Hybrid_Sched_geocity.txt_5_unsorted.stats...
{'traversal_time:': [3131.0, 3109.0, 3276.0, 3321.0, 3268.0, 3186.0, 3175.0], 'gpu_copy_tree_from:': [13.0, 13.0, 14.0, 14.0, 14.0, 14.0, 13.0], 'gpu_copy_tree_to:': [11.0, 11.0, 12.0, 12.0, 11.0, 11.0, 11.0], 'construct_tree:': [755.0, 751.0, 756.0, 755.0, 752.0, 753.0, 754.0], 'init_kernel:': [2607.0, 2586.0, 2751.0, 2796.0, 2745.0, 2662.0, 2651.0], 'gpu_build_tree:': [18.0, 18.0, 17.0, 17.0, 17.0, 17.0, 18.0], 'kernel:': [277.0, 276.0, 277.0, 277.0, 276.0, 277.0, 277.0], 'runtime:': [3886.0, 3860.0, 4032.0, 4076.0, 4020.0, 3939.0, 3929.0], 'extra:': [204.0, 205.0, 205.0, 205.0, 205.0, 204.0, 205.0]}
configuration: sort_flag=0, check_flag = 0, verbose_flag=0, K=8, input_file=../../../input/pc/geocity.txt, npoints=200000, nsearchpoints=200000
The tree nnodes is 200000, depth is 17
npoints = 200000, DEPTH_STAT = 32, nMatrixSize = 6400000.
Time for asynchronous transfer and execute (ms): 34.211872
@ construct_tree: 754 ms
@ gpu_build_tree: 18 ms
@ init_kernel: 2717 ms
@ gpu_copy_tree_to: 11 ms
@ extra: 202 ms
@ kernel: 277 ms
@ gpu_copy_tree_from: 12 ms
@ traversal_time: 3238 ms
@ runtime: 3991 ms
Collected results into ../../../results/depth_tmp/knn_Hybrid_Sched_geocity.txt_5_unsorted.stats

Loading data from ../../../results/depth_tmp/knn_Hybrid_Sched_geocity.txt_5_unsorted.stats...
{'traversal_time:': [3131.0, 3109.0, 3276.0, 3321.0, 3268.0, 3186.0, 3175.0, 3238.0], 'gpu_copy_tree_from:': [13.0, 13.0, 14.0, 14.0, 14.0, 14.0, 13.0, 12.0], 'gpu_copy_tree_to:': [11.0, 11.0, 12.0, 12.0, 11.0, 11.0, 11.0, 11.0], 'construct_tree:': [755.0, 751.0, 756.0, 755.0, 752.0, 753.0, 754.0, 754.0], 'init_kernel:': [2607.0, 2586.0, 2751.0, 2796.0, 2745.0, 2662.0, 2651.0, 2717.0], 'gpu_build_tree:': [18.0, 18.0, 17.0, 17.0, 17.0, 17.0, 18.0, 18.0], 'kernel:': [277.0, 276.0, 277.0, 277.0, 276.0, 277.0, 277.0, 277.0], 'runtime:': [3886.0, 3860.0, 4032.0, 4076.0, 4020.0, 3939.0, 3929.0, 3991.0], 'extra:': [204.0, 205.0, 205.0, 205.0, 205.0, 204.0, 205.0, 202.0]}
configuration: sort_flag=0, check_flag = 0, verbose_flag=0, K=8, input_file=../../../input/pc/geocity.txt, npoints=200000, nsearchpoints=200000
The tree nnodes is 200000, depth is 17
npoints = 200000, DEPTH_STAT = 32, nMatrixSize = 6400000.
Time for asynchronous transfer and execute (ms): 34.169537
@ construct_tree: 755 ms
@ gpu_build_tree: 18 ms
@ init_kernel: 2579 ms
@ gpu_copy_tree_to: 11 ms
@ extra: 204 ms
@ kernel: 278 ms
@ gpu_copy_tree_from: 14 ms
@ traversal_time: 3104 ms
@ runtime: 3859 ms
Collected results into ../../../results/depth_tmp/knn_Hybrid_Sched_geocity.txt_5_unsorted.stats

Loading data from ../../../results/depth_tmp/knn_Hybrid_Sched_geocity.txt_5_unsorted.stats...
{'traversal_time:': [3131.0, 3109.0, 3276.0, 3321.0, 3268.0, 3186.0, 3175.0, 3238.0, 3104.0], 'gpu_copy_tree_from:': [13.0, 13.0, 14.0, 14.0, 14.0, 14.0, 13.0, 12.0, 14.0], 'gpu_copy_tree_to:': [11.0, 11.0, 12.0, 12.0, 11.0, 11.0, 11.0, 11.0, 11.0], 'construct_tree:': [755.0, 751.0, 756.0, 755.0, 752.0, 753.0, 754.0, 754.0, 755.0], 'init_kernel:': [2607.0, 2586.0, 2751.0, 2796.0, 2745.0, 2662.0, 2651.0, 2717.0, 2579.0], 'gpu_build_tree:': [18.0, 18.0, 17.0, 17.0, 17.0, 17.0, 18.0, 18.0, 18.0], 'kernel:': [277.0, 276.0, 277.0, 277.0, 276.0, 277.0, 277.0, 277.0, 278.0], 'runtime:': [3886.0, 3860.0, 4032.0, 4076.0, 4020.0, 3939.0, 3929.0, 3991.0, 3859.0], 'extra:': [204.0, 205.0, 205.0, 205.0, 205.0, 204.0, 205.0, 202.0, 204.0]}
configuration: sort_flag=0, check_flag = 0, verbose_flag=0, K=8, input_file=../../../input/pc/geocity.txt, npoints=200000, nsearchpoints=200000
The tree nnodes is 200000, depth is 17
npoints = 200000, DEPTH_STAT = 32, nMatrixSize = 6400000.
Time for asynchronous transfer and execute (ms): 33.435520
@ construct_tree: 754 ms
@ gpu_build_tree: 17 ms
@ init_kernel: 2629 ms
@ gpu_copy_tree_to: 11 ms
@ extra: 204 ms
@ kernel: 275 ms
@ gpu_copy_tree_from: 14 ms
@ traversal_time: 3151 ms
@ runtime: 3905 ms
Collected results into ../../../results/depth_tmp/knn_Hybrid_Sched_geocity.txt_5_unsorted.stats

Loading data from ../../../results/depth_tmp/knn_Hybrid_Sched_geocity.txt_5_unsorted.stats...
{'traversal_time:': [3131.0, 3109.0, 3276.0, 3321.0, 3268.0, 3186.0, 3175.0, 3238.0, 3104.0, 3151.0], 'gpu_copy_tree_from:': [13.0, 13.0, 14.0, 14.0, 14.0, 14.0, 13.0, 12.0, 14.0, 14.0], 'gpu_copy_tree_to:': [11.0, 11.0, 12.0, 12.0, 11.0, 11.0, 11.0, 11.0, 11.0, 11.0], 'construct_tree:': [755.0, 751.0, 756.0, 755.0, 752.0, 753.0, 754.0, 754.0, 755.0, 754.0], 'init_kernel:': [2607.0, 2586.0, 2751.0, 2796.0, 2745.0, 2662.0, 2651.0, 2717.0, 2579.0, 2629.0], 'gpu_build_tree:': [18.0, 18.0, 17.0, 17.0, 17.0, 17.0, 18.0, 18.0, 18.0, 17.0], 'kernel:': [277.0, 276.0, 277.0, 277.0, 276.0, 277.0, 277.0, 277.0, 278.0, 275.0], 'runtime:': [3886.0, 3860.0, 4032.0, 4076.0, 4020.0, 3939.0, 3929.0, 3991.0, 3859.0, 3905.0], 'extra:': [204.0, 205.0, 205.0, 205.0, 205.0, 204.0, 205.0, 202.0, 204.0, 204.0]}
configuration: sort_flag=0, check_flag = 0, verbose_flag=0, K=8, input_file=../../../input/pc/geocity.txt, npoints=200000, nsearchpoints=200000
The tree nnodes is 200000, depth is 17
npoints = 200000, DEPTH_STAT = 32, nMatrixSize = 6400000.
Time for asynchronous transfer and execute (ms): 33.938625
@ construct_tree: 754 ms
@ gpu_build_tree: 18 ms
@ init_kernel: 2639 ms
@ gpu_copy_tree_to: 11 ms
@ extra: 205 ms
@ kernel: 277 ms
@ gpu_copy_tree_from: 14 ms
@ traversal_time: 3163 ms
@ runtime: 3917 ms
Collected results into ../../../results/depth_tmp/knn_Hybrid_Sched_geocity.txt_5_unsorted.stats

Loading data from ../../../results/depth_tmp/knn_Hybrid_Sched_geocity.txt_5_unsorted.stats...
{'traversal_time:': [3131.0, 3109.0, 3276.0, 3321.0, 3268.0, 3186.0, 3175.0, 3238.0, 3104.0, 3151.0, 3163.0], 'gpu_copy_tree_from:': [13.0, 13.0, 14.0, 14.0, 14.0, 14.0, 13.0, 12.0, 14.0, 14.0, 14.0], 'gpu_copy_tree_to:': [11.0, 11.0, 12.0, 12.0, 11.0, 11.0, 11.0, 11.0, 11.0, 11.0, 11.0], 'construct_tree:': [755.0, 751.0, 756.0, 755.0, 752.0, 753.0, 754.0, 754.0, 755.0, 754.0, 754.0], 'init_kernel:': [2607.0, 2586.0, 2751.0, 2796.0, 2745.0, 2662.0, 2651.0, 2717.0, 2579.0, 2629.0, 2639.0], 'gpu_build_tree:': [18.0, 18.0, 17.0, 17.0, 17.0, 17.0, 18.0, 18.0, 18.0, 17.0, 18.0], 'kernel:': [277.0, 276.0, 277.0, 277.0, 276.0, 277.0, 277.0, 277.0, 278.0, 275.0, 277.0], 'runtime:': [3886.0, 3860.0, 4032.0, 4076.0, 4020.0, 3939.0, 3929.0, 3991.0, 3859.0, 3905.0, 3917.0], 'extra:': [204.0, 205.0, 205.0, 205.0, 205.0, 204.0, 205.0, 202.0, 204.0, 204.0, 205.0]}
configuration: sort_flag=0, check_flag = 0, verbose_flag=0, K=8, input_file=../../../input/pc/geocity.txt, npoints=200000, nsearchpoints=200000
The tree nnodes is 200000, depth is 17
npoints = 200000, DEPTH_STAT = 32, nMatrixSize = 6400000.
Time for asynchronous transfer and execute (ms): 40.702911
@ construct_tree: 753 ms
@ gpu_build_tree: 17 ms
@ init_kernel: 2621 ms
@ gpu_copy_tree_to: 16 ms
@ extra: 211 ms
@ kernel: 277 ms
@ gpu_copy_tree_from: 17 ms
@ traversal_time: 3159 ms
@ runtime: 3912 ms
Collected results into ../../../results/depth_tmp/knn_Hybrid_Sched_geocity.txt_5_unsorted.stats

Loading data from ../../../results/depth_tmp/knn_Hybrid_Sched_geocity.txt_5_unsorted.stats...
{'traversal_time:': [3131.0, 3109.0, 3276.0, 3321.0, 3268.0, 3186.0, 3175.0, 3238.0, 3104.0, 3151.0, 3163.0, 3159.0], 'gpu_copy_tree_from:': [13.0, 13.0, 14.0, 14.0, 14.0, 14.0, 13.0, 12.0, 14.0, 14.0, 14.0, 17.0], 'gpu_copy_tree_to:': [11.0, 11.0, 12.0, 12.0, 11.0, 11.0, 11.0, 11.0, 11.0, 11.0, 11.0, 16.0], 'construct_tree:': [755.0, 751.0, 756.0, 755.0, 752.0, 753.0, 754.0, 754.0, 755.0, 754.0, 754.0, 753.0], 'init_kernel:': [2607.0, 2586.0, 2751.0, 2796.0, 2745.0, 2662.0, 2651.0, 2717.0, 2579.0, 2629.0, 2639.0, 2621.0], 'gpu_build_tree:': [18.0, 18.0, 17.0, 17.0, 17.0, 17.0, 18.0, 18.0, 18.0, 17.0, 18.0, 17.0], 'kernel:': [277.0, 276.0, 277.0, 277.0, 276.0, 277.0, 277.0, 277.0, 278.0, 275.0, 277.0, 277.0], 'runtime:': [3886.0, 3860.0, 4032.0, 4076.0, 4020.0, 3939.0, 3929.0, 3991.0, 3859.0, 3905.0, 3917.0, 3912.0], 'extra:': [204.0, 205.0, 205.0, 205.0, 205.0, 204.0, 205.0, 202.0, 204.0, 204.0, 205.0, 211.0]}
configuration: sort_flag=0, check_flag = 0, verbose_flag=0, K=8, input_file=../../../input/pc/geocity.txt, npoints=200000, nsearchpoints=200000
The tree nnodes is 200000, depth is 17
npoints = 200000, DEPTH_STAT = 32, nMatrixSize = 6400000.
Time for asynchronous transfer and execute (ms): 34.164513
@ construct_tree: 753 ms
@ gpu_build_tree: 17 ms
@ init_kernel: 2644 ms
@ gpu_copy_tree_to: 12 ms
@ extra: 204 ms
@ kernel: 277 ms
@ gpu_copy_tree_from: 12 ms
@ traversal_time: 3168 ms
@ runtime: 3921 ms
Collected results into ../../../results/depth_tmp/knn_Hybrid_Sched_geocity.txt_5_unsorted.stats

Loading data from ../../../results/depth_tmp/knn_Hybrid_Sched_geocity.txt_5_unsorted.stats...
{'traversal_time:': [3131.0, 3109.0, 3276.0, 3321.0, 3268.0, 3186.0, 3175.0, 3238.0, 3104.0, 3151.0, 3163.0, 3159.0, 3168.0], 'gpu_copy_tree_from:': [13.0, 13.0, 14.0, 14.0, 14.0, 14.0, 13.0, 12.0, 14.0, 14.0, 14.0, 17.0, 12.0], 'gpu_copy_tree_to:': [11.0, 11.0, 12.0, 12.0, 11.0, 11.0, 11.0, 11.0, 11.0, 11.0, 11.0, 16.0, 12.0], 'construct_tree:': [755.0, 751.0, 756.0, 755.0, 752.0, 753.0, 754.0, 754.0, 755.0, 754.0, 754.0, 753.0, 753.0], 'init_kernel:': [2607.0, 2586.0, 2751.0, 2796.0, 2745.0, 2662.0, 2651.0, 2717.0, 2579.0, 2629.0, 2639.0, 2621.0, 2644.0], 'gpu_build_tree:': [18.0, 18.0, 17.0, 17.0, 17.0, 17.0, 18.0, 18.0, 18.0, 17.0, 18.0, 17.0, 17.0], 'kernel:': [277.0, 276.0, 277.0, 277.0, 276.0, 277.0, 277.0, 277.0, 278.0, 275.0, 277.0, 277.0, 277.0], 'runtime:': [3886.0, 3860.0, 4032.0, 4076.0, 4020.0, 3939.0, 3929.0, 3991.0, 3859.0, 3905.0, 3917.0, 3912.0, 3921.0], 'extra:': [204.0, 205.0, 205.0, 205.0, 205.0, 204.0, 205.0, 202.0, 204.0, 204.0, 205.0, 211.0, 204.0]}
configuration: sort_flag=0, check_flag = 0, verbose_flag=0, K=8, input_file=../../../input/pc/geocity.txt, npoints=200000, nsearchpoints=200000
The tree nnodes is 200000, depth is 17
npoints = 200000, DEPTH_STAT = 32, nMatrixSize = 6400000.
Time for asynchronous transfer and execute (ms): 33.678688
@ construct_tree: 752 ms
@ gpu_build_tree: 18 ms
@ init_kernel: 2568 ms
@ gpu_copy_tree_to: 11 ms
@ extra: 204 ms
@ kernel: 277 ms
@ gpu_copy_tree_from: 13 ms
@ traversal_time: 3091 ms
@ runtime: 3843 ms
Collected results into ../../../results/depth_tmp/knn_Hybrid_Sched_geocity.txt_5_unsorted.stats

Loading data from ../../../results/depth_tmp/knn_Hybrid_Sched_geocity.txt_5_unsorted.stats...
{'traversal_time:': [3131.0, 3109.0, 3276.0, 3321.0, 3268.0, 3186.0, 3175.0, 3238.0, 3104.0, 3151.0, 3163.0, 3159.0, 3168.0, 3091.0], 'gpu_copy_tree_from:': [13.0, 13.0, 14.0, 14.0, 14.0, 14.0, 13.0, 12.0, 14.0, 14.0, 14.0, 17.0, 12.0, 13.0], 'gpu_copy_tree_to:': [11.0, 11.0, 12.0, 12.0, 11.0, 11.0, 11.0, 11.0, 11.0, 11.0, 11.0, 16.0, 12.0, 11.0], 'construct_tree:': [755.0, 751.0, 756.0, 755.0, 752.0, 753.0, 754.0, 754.0, 755.0, 754.0, 754.0, 753.0, 753.0, 752.0], 'init_kernel:': [2607.0, 2586.0, 2751.0, 2796.0, 2745.0, 2662.0, 2651.0, 2717.0, 2579.0, 2629.0, 2639.0, 2621.0, 2644.0, 2568.0], 'gpu_build_tree:': [18.0, 18.0, 17.0, 17.0, 17.0, 17.0, 18.0, 18.0, 18.0, 17.0, 18.0, 17.0, 17.0, 18.0], 'kernel:': [277.0, 276.0, 277.0, 277.0, 276.0, 277.0, 277.0, 277.0, 278.0, 275.0, 277.0, 277.0, 277.0, 277.0], 'runtime:': [3886.0, 3860.0, 4032.0, 4076.0, 4020.0, 3939.0, 3929.0, 3991.0, 3859.0, 3905.0, 3917.0, 3912.0, 3921.0, 3843.0], 'extra:': [204.0, 205.0, 205.0, 205.0, 205.0, 204.0, 205.0, 202.0, 204.0, 204.0, 205.0, 211.0, 204.0, 204.0]}
configuration: sort_flag=0, check_flag = 0, verbose_flag=0, K=8, input_file=../../../input/pc/geocity.txt, npoints=200000, nsearchpoints=200000
The tree nnodes is 200000, depth is 17
npoints = 200000, DEPTH_STAT = 32, nMatrixSize = 6400000.
Time for asynchronous transfer and execute (ms): 33.864864
@ construct_tree: 752 ms
@ gpu_build_tree: 18 ms
@ init_kernel: 2629 ms
@ gpu_copy_tree_to: 11 ms
@ extra: 204 ms
@ kernel: 277 ms
@ gpu_copy_tree_from: 12 ms
@ traversal_time: 3151 ms
@ runtime: 3903 ms
Collected results into ../../../results/depth_tmp/knn_Hybrid_Sched_geocity.txt_5_unsorted.stats

