Results wll be collected to ../../../results/depth_tmp/knn_Hybrid_Sched_covtype.7d_11_unsorted.stats...
configuration: sort_flag=0, check_flag = 0, verbose_flag=0, K=8, input_file=../../../input/pc/covtype.7d, npoints=200000, nsearchpoints=200000
The tree nnodes is 200000, depth is 17
npoints = 200000, DEPTH_STAT = 2048, nMatrixSize = 409600000.
Time for asynchronous transfer and execute (ms): 1412.898804
@ construct_tree: 874 ms
@ gpu_build_tree: 26 ms
@ init_kernel: 2606 ms
@ gpu_copy_tree_to: 16 ms
@ extra: 1757 ms
@ kernel: 2423 ms
@ gpu_copy_tree_from: 13 ms
@ traversal_time: 6841 ms
@ runtime: 7715 ms
Collected results into ../../../results/depth_tmp/knn_Hybrid_Sched_covtype.7d_11_unsorted.stats

Loading data from ../../../results/depth_tmp/knn_Hybrid_Sched_covtype.7d_11_unsorted.stats...
{'traversal_time:': [6841.0], 'gpu_copy_tree_from:': [13.0], 'gpu_copy_tree_to:': [16.0], 'construct_tree:': [874.0], 'init_kernel:': [2606.0], 'gpu_build_tree:': [26.0], 'kernel:': [2423.0], 'runtime:': [7715.0], 'extra:': [1757.0]}
configuration: sort_flag=0, check_flag = 0, verbose_flag=0, K=8, input_file=../../../input/pc/covtype.7d, npoints=200000, nsearchpoints=200000
The tree nnodes is 200000, depth is 17
npoints = 200000, DEPTH_STAT = 2048, nMatrixSize = 409600000.
Time for asynchronous transfer and execute (ms): 1377.552368
@ construct_tree: 873 ms
@ gpu_build_tree: 26 ms
@ init_kernel: 2652 ms
@ gpu_copy_tree_to: 17 ms
@ extra: 1722 ms
@ kernel: 2417 ms
@ gpu_copy_tree_from: 13 ms
@ traversal_time: 6846 ms
@ runtime: 7719 ms
Collected results into ../../../results/depth_tmp/knn_Hybrid_Sched_covtype.7d_11_unsorted.stats

Loading data from ../../../results/depth_tmp/knn_Hybrid_Sched_covtype.7d_11_unsorted.stats...
{'traversal_time:': [6841.0, 6846.0], 'gpu_copy_tree_from:': [13.0, 13.0], 'gpu_copy_tree_to:': [16.0, 17.0], 'construct_tree:': [874.0, 873.0], 'init_kernel:': [2606.0, 2652.0], 'gpu_build_tree:': [26.0, 26.0], 'kernel:': [2423.0, 2417.0], 'runtime:': [7715.0, 7719.0], 'extra:': [1757.0, 1722.0]}
configuration: sort_flag=0, check_flag = 0, verbose_flag=0, K=8, input_file=../../../input/pc/covtype.7d, npoints=200000, nsearchpoints=200000
The tree nnodes is 200000, depth is 17
npoints = 200000, DEPTH_STAT = 2048, nMatrixSize = 409600000.
Time for asynchronous transfer and execute (ms): 1438.095215
@ construct_tree: 875 ms
@ gpu_build_tree: 27 ms
@ init_kernel: 2650 ms
@ gpu_copy_tree_to: 17 ms
@ extra: 1782 ms
@ kernel: 2418 ms
@ gpu_copy_tree_from: 12 ms
@ traversal_time: 6906 ms
@ runtime: 7781 ms
Collected results into ../../../results/depth_tmp/knn_Hybrid_Sched_covtype.7d_11_unsorted.stats

Loading data from ../../../results/depth_tmp/knn_Hybrid_Sched_covtype.7d_11_unsorted.stats...
{'traversal_time:': [6841.0, 6846.0, 6906.0], 'gpu_copy_tree_from:': [13.0, 13.0, 12.0], 'gpu_copy_tree_to:': [16.0, 17.0, 17.0], 'construct_tree:': [874.0, 873.0, 875.0], 'init_kernel:': [2606.0, 2652.0, 2650.0], 'gpu_build_tree:': [26.0, 26.0, 27.0], 'kernel:': [2423.0, 2417.0, 2418.0], 'runtime:': [7715.0, 7719.0, 7781.0], 'extra:': [1757.0, 1722.0, 1782.0]}
configuration: sort_flag=0, check_flag = 0, verbose_flag=0, K=8, input_file=../../../input/pc/covtype.7d, npoints=200000, nsearchpoints=200000
The tree nnodes is 200000, depth is 17
npoints = 200000, DEPTH_STAT = 2048, nMatrixSize = 409600000.
Time for asynchronous transfer and execute (ms): 1389.952881
@ construct_tree: 873 ms
@ gpu_build_tree: 26 ms
@ init_kernel: 2614 ms
@ gpu_copy_tree_to: 16 ms
@ extra: 1735 ms
@ kernel: 2422 ms
@ gpu_copy_tree_from: 13 ms
@ traversal_time: 6827 ms
@ runtime: 7700 ms
Collected results into ../../../results/depth_tmp/knn_Hybrid_Sched_covtype.7d_11_unsorted.stats

Loading data from ../../../results/depth_tmp/knn_Hybrid_Sched_covtype.7d_11_unsorted.stats...
{'traversal_time:': [6841.0, 6846.0, 6906.0, 6827.0], 'gpu_copy_tree_from:': [13.0, 13.0, 12.0, 13.0], 'gpu_copy_tree_to:': [16.0, 17.0, 17.0, 16.0], 'construct_tree:': [874.0, 873.0, 875.0, 873.0], 'init_kernel:': [2606.0, 2652.0, 2650.0, 2614.0], 'gpu_build_tree:': [26.0, 26.0, 27.0, 26.0], 'kernel:': [2423.0, 2417.0, 2418.0, 2422.0], 'runtime:': [7715.0, 7719.0, 7781.0, 7700.0], 'extra:': [1757.0, 1722.0, 1782.0, 1735.0]}
configuration: sort_flag=0, check_flag = 0, verbose_flag=0, K=8, input_file=../../../input/pc/covtype.7d, npoints=200000, nsearchpoints=200000
The tree nnodes is 200000, depth is 17
npoints = 200000, DEPTH_STAT = 2048, nMatrixSize = 409600000.
Time for asynchronous transfer and execute (ms): 1935.253784
@ construct_tree: 874 ms
@ gpu_build_tree: 26 ms
@ init_kernel: 2725 ms
@ gpu_copy_tree_to: 24 ms
@ extra: 2279 ms
@ kernel: 2415 ms
@ gpu_copy_tree_from: 18 ms
@ traversal_time: 7488 ms
@ runtime: 8361 ms
Collected results into ../../../results/depth_tmp/knn_Hybrid_Sched_covtype.7d_11_unsorted.stats

Loading data from ../../../results/depth_tmp/knn_Hybrid_Sched_covtype.7d_11_unsorted.stats...
{'traversal_time:': [6841.0, 6846.0, 6906.0, 6827.0, 7488.0], 'gpu_copy_tree_from:': [13.0, 13.0, 12.0, 13.0, 18.0], 'gpu_copy_tree_to:': [16.0, 17.0, 17.0, 16.0, 24.0], 'construct_tree:': [874.0, 873.0, 875.0, 873.0, 874.0], 'init_kernel:': [2606.0, 2652.0, 2650.0, 2614.0, 2725.0], 'gpu_build_tree:': [26.0, 26.0, 27.0, 26.0, 26.0], 'kernel:': [2423.0, 2417.0, 2418.0, 2422.0, 2415.0], 'runtime:': [7715.0, 7719.0, 7781.0, 7700.0, 8361.0], 'extra:': [1757.0, 1722.0, 1782.0, 1735.0, 2279.0]}
configuration: sort_flag=0, check_flag = 0, verbose_flag=0, K=8, input_file=../../../input/pc/covtype.7d, npoints=200000, nsearchpoints=200000
The tree nnodes is 200000, depth is 17
npoints = 200000, DEPTH_STAT = 2048, nMatrixSize = 409600000.
Time for asynchronous transfer and execute (ms): 1923.891357
@ construct_tree: 877 ms
@ gpu_build_tree: 27 ms
@ init_kernel: 2644 ms
@ gpu_copy_tree_to: 24 ms
@ extra: 2268 ms
@ kernel: 2423 ms
@ gpu_copy_tree_from: 18 ms
@ traversal_time: 7404 ms
@ runtime: 8281 ms
Collected results into ../../../results/depth_tmp/knn_Hybrid_Sched_covtype.7d_11_unsorted.stats

Loading data from ../../../results/depth_tmp/knn_Hybrid_Sched_covtype.7d_11_unsorted.stats...
{'traversal_time:': [6841.0, 6846.0, 6906.0, 6827.0, 7488.0, 7404.0], 'gpu_copy_tree_from:': [13.0, 13.0, 12.0, 13.0, 18.0, 18.0], 'gpu_copy_tree_to:': [16.0, 17.0, 17.0, 16.0, 24.0, 24.0], 'construct_tree:': [874.0, 873.0, 875.0, 873.0, 874.0, 877.0], 'init_kernel:': [2606.0, 2652.0, 2650.0, 2614.0, 2725.0, 2644.0], 'gpu_build_tree:': [26.0, 26.0, 27.0, 26.0, 26.0, 27.0], 'kernel:': [2423.0, 2417.0, 2418.0, 2422.0, 2415.0, 2423.0], 'runtime:': [7715.0, 7719.0, 7781.0, 7700.0, 8361.0, 8281.0], 'extra:': [1757.0, 1722.0, 1782.0, 1735.0, 2279.0, 2268.0]}
configuration: sort_flag=0, check_flag = 0, verbose_flag=0, K=8, input_file=../../../input/pc/covtype.7d, npoints=200000, nsearchpoints=200000
The tree nnodes is 200000, depth is 17
npoints = 200000, DEPTH_STAT = 2048, nMatrixSize = 409600000.
Time for asynchronous transfer and execute (ms): 1442.069214
@ construct_tree: 869 ms
@ gpu_build_tree: 26 ms
@ init_kernel: 2633 ms
@ gpu_copy_tree_to: 16 ms
@ extra: 1787 ms
@ kernel: 2416 ms
@ gpu_copy_tree_from: 13 ms
@ traversal_time: 6890 ms
@ runtime: 7759 ms
Collected results into ../../../results/depth_tmp/knn_Hybrid_Sched_covtype.7d_11_unsorted.stats

Loading data from ../../../results/depth_tmp/knn_Hybrid_Sched_covtype.7d_11_unsorted.stats...
{'traversal_time:': [6841.0, 6846.0, 6906.0, 6827.0, 7488.0, 7404.0, 6890.0], 'gpu_copy_tree_from:': [13.0, 13.0, 12.0, 13.0, 18.0, 18.0, 13.0], 'gpu_copy_tree_to:': [16.0, 17.0, 17.0, 16.0, 24.0, 24.0, 16.0], 'construct_tree:': [874.0, 873.0, 875.0, 873.0, 874.0, 877.0, 869.0], 'init_kernel:': [2606.0, 2652.0, 2650.0, 2614.0, 2725.0, 2644.0, 2633.0], 'gpu_build_tree:': [26.0, 26.0, 27.0, 26.0, 26.0, 27.0, 26.0], 'kernel:': [2423.0, 2417.0, 2418.0, 2422.0, 2415.0, 2423.0, 2416.0], 'runtime:': [7715.0, 7719.0, 7781.0, 7700.0, 8361.0, 8281.0, 7759.0], 'extra:': [1757.0, 1722.0, 1782.0, 1735.0, 2279.0, 2268.0, 1787.0]}
configuration: sort_flag=0, check_flag = 0, verbose_flag=0, K=8, input_file=../../../input/pc/covtype.7d, npoints=200000, nsearchpoints=200000
The tree nnodes is 200000, depth is 17
npoints = 200000, DEPTH_STAT = 2048, nMatrixSize = 409600000.
Time for asynchronous transfer and execute (ms): 1430.801270
@ construct_tree: 872 ms
@ gpu_build_tree: 26 ms
@ init_kernel: 2623 ms
@ gpu_copy_tree_to: 16 ms
@ extra: 1775 ms
@ kernel: 2420 ms
@ gpu_copy_tree_from: 13 ms
@ traversal_time: 6873 ms
@ runtime: 7745 ms
Collected results into ../../../results/depth_tmp/knn_Hybrid_Sched_covtype.7d_11_unsorted.stats

Loading data from ../../../results/depth_tmp/knn_Hybrid_Sched_covtype.7d_11_unsorted.stats...
{'traversal_time:': [6841.0, 6846.0, 6906.0, 6827.0, 7488.0, 7404.0, 6890.0, 6873.0], 'gpu_copy_tree_from:': [13.0, 13.0, 12.0, 13.0, 18.0, 18.0, 13.0, 13.0], 'gpu_copy_tree_to:': [16.0, 17.0, 17.0, 16.0, 24.0, 24.0, 16.0, 16.0], 'construct_tree:': [874.0, 873.0, 875.0, 873.0, 874.0, 877.0, 869.0, 872.0], 'init_kernel:': [2606.0, 2652.0, 2650.0, 2614.0, 2725.0, 2644.0, 2633.0, 2623.0], 'gpu_build_tree:': [26.0, 26.0, 27.0, 26.0, 26.0, 27.0, 26.0, 26.0], 'kernel:': [2423.0, 2417.0, 2418.0, 2422.0, 2415.0, 2423.0, 2416.0, 2420.0], 'runtime:': [7715.0, 7719.0, 7781.0, 7700.0, 8361.0, 8281.0, 7759.0, 7745.0], 'extra:': [1757.0, 1722.0, 1782.0, 1735.0, 2279.0, 2268.0, 1787.0, 1775.0]}
configuration: sort_flag=0, check_flag = 0, verbose_flag=0, K=8, input_file=../../../input/pc/covtype.7d, npoints=200000, nsearchpoints=200000
The tree nnodes is 200000, depth is 17
npoints = 200000, DEPTH_STAT = 2048, nMatrixSize = 409600000.
Time for asynchronous transfer and execute (ms): 1432.174805
@ construct_tree: 875 ms
@ gpu_build_tree: 26 ms
@ init_kernel: 2748 ms
@ gpu_copy_tree_to: 17 ms
@ extra: 1776 ms
@ kernel: 2423 ms
@ gpu_copy_tree_from: 14 ms
@ traversal_time: 7004 ms
@ runtime: 7879 ms
Collected results into ../../../results/depth_tmp/knn_Hybrid_Sched_covtype.7d_11_unsorted.stats

Loading data from ../../../results/depth_tmp/knn_Hybrid_Sched_covtype.7d_11_unsorted.stats...
{'traversal_time:': [6841.0, 6846.0, 6906.0, 6827.0, 7488.0, 7404.0, 6890.0, 6873.0, 7004.0], 'gpu_copy_tree_from:': [13.0, 13.0, 12.0, 13.0, 18.0, 18.0, 13.0, 13.0, 14.0], 'gpu_copy_tree_to:': [16.0, 17.0, 17.0, 16.0, 24.0, 24.0, 16.0, 16.0, 17.0], 'construct_tree:': [874.0, 873.0, 875.0, 873.0, 874.0, 877.0, 869.0, 872.0, 875.0], 'init_kernel:': [2606.0, 2652.0, 2650.0, 2614.0, 2725.0, 2644.0, 2633.0, 2623.0, 2748.0], 'gpu_build_tree:': [26.0, 26.0, 27.0, 26.0, 26.0, 27.0, 26.0, 26.0, 26.0], 'kernel:': [2423.0, 2417.0, 2418.0, 2422.0, 2415.0, 2423.0, 2416.0, 2420.0, 2423.0], 'runtime:': [7715.0, 7719.0, 7781.0, 7700.0, 8361.0, 8281.0, 7759.0, 7745.0, 7879.0], 'extra:': [1757.0, 1722.0, 1782.0, 1735.0, 2279.0, 2268.0, 1787.0, 1775.0, 1776.0]}
configuration: sort_flag=0, check_flag = 0, verbose_flag=0, K=8, input_file=../../../input/pc/covtype.7d, npoints=200000, nsearchpoints=200000
The tree nnodes is 200000, depth is 17
npoints = 200000, DEPTH_STAT = 2048, nMatrixSize = 409600000.
Time for asynchronous transfer and execute (ms): 1415.825439
@ construct_tree: 874 ms
@ gpu_build_tree: 26 ms
@ init_kernel: 2575 ms
@ gpu_copy_tree_to: 16 ms
@ extra: 1761 ms
@ kernel: 2418 ms
@ gpu_copy_tree_from: 13 ms
@ traversal_time: 6809 ms
@ runtime: 7684 ms
Collected results into ../../../results/depth_tmp/knn_Hybrid_Sched_covtype.7d_11_unsorted.stats

Loading data from ../../../results/depth_tmp/knn_Hybrid_Sched_covtype.7d_11_unsorted.stats...
{'traversal_time:': [6841.0, 6846.0, 6906.0, 6827.0, 7488.0, 7404.0, 6890.0, 6873.0, 7004.0, 6809.0], 'gpu_copy_tree_from:': [13.0, 13.0, 12.0, 13.0, 18.0, 18.0, 13.0, 13.0, 14.0, 13.0], 'gpu_copy_tree_to:': [16.0, 17.0, 17.0, 16.0, 24.0, 24.0, 16.0, 16.0, 17.0, 16.0], 'construct_tree:': [874.0, 873.0, 875.0, 873.0, 874.0, 877.0, 869.0, 872.0, 875.0, 874.0], 'init_kernel:': [2606.0, 2652.0, 2650.0, 2614.0, 2725.0, 2644.0, 2633.0, 2623.0, 2748.0, 2575.0], 'gpu_build_tree:': [26.0, 26.0, 27.0, 26.0, 26.0, 27.0, 26.0, 26.0, 26.0, 26.0], 'kernel:': [2423.0, 2417.0, 2418.0, 2422.0, 2415.0, 2423.0, 2416.0, 2420.0, 2423.0, 2418.0], 'runtime:': [7715.0, 7719.0, 7781.0, 7700.0, 8361.0, 8281.0, 7759.0, 7745.0, 7879.0, 7684.0], 'extra:': [1757.0, 1722.0, 1782.0, 1735.0, 2279.0, 2268.0, 1787.0, 1775.0, 1776.0, 1761.0]}
configuration: sort_flag=0, check_flag = 0, verbose_flag=0, K=8, input_file=../../../input/pc/covtype.7d, npoints=200000, nsearchpoints=200000
The tree nnodes is 200000, depth is 17
npoints = 200000, DEPTH_STAT = 2048, nMatrixSize = 409600000.
Time for asynchronous transfer and execute (ms): 1371.227661
@ construct_tree: 872 ms
@ gpu_build_tree: 26 ms
@ init_kernel: 2741 ms
@ gpu_copy_tree_to: 17 ms
@ extra: 1715 ms
@ kernel: 2424 ms
@ gpu_copy_tree_from: 13 ms
@ traversal_time: 6936 ms
@ runtime: 7808 ms
Collected results into ../../../results/depth_tmp/knn_Hybrid_Sched_covtype.7d_11_unsorted.stats

Loading data from ../../../results/depth_tmp/knn_Hybrid_Sched_covtype.7d_11_unsorted.stats...
{'traversal_time:': [6841.0, 6846.0, 6906.0, 6827.0, 7488.0, 7404.0, 6890.0, 6873.0, 7004.0, 6809.0, 6936.0], 'gpu_copy_tree_from:': [13.0, 13.0, 12.0, 13.0, 18.0, 18.0, 13.0, 13.0, 14.0, 13.0, 13.0], 'gpu_copy_tree_to:': [16.0, 17.0, 17.0, 16.0, 24.0, 24.0, 16.0, 16.0, 17.0, 16.0, 17.0], 'construct_tree:': [874.0, 873.0, 875.0, 873.0, 874.0, 877.0, 869.0, 872.0, 875.0, 874.0, 872.0], 'init_kernel:': [2606.0, 2652.0, 2650.0, 2614.0, 2725.0, 2644.0, 2633.0, 2623.0, 2748.0, 2575.0, 2741.0], 'gpu_build_tree:': [26.0, 26.0, 27.0, 26.0, 26.0, 27.0, 26.0, 26.0, 26.0, 26.0, 26.0], 'kernel:': [2423.0, 2417.0, 2418.0, 2422.0, 2415.0, 2423.0, 2416.0, 2420.0, 2423.0, 2418.0, 2424.0], 'runtime:': [7715.0, 7719.0, 7781.0, 7700.0, 8361.0, 8281.0, 7759.0, 7745.0, 7879.0, 7684.0, 7808.0], 'extra:': [1757.0, 1722.0, 1782.0, 1735.0, 2279.0, 2268.0, 1787.0, 1775.0, 1776.0, 1761.0, 1715.0]}
configuration: sort_flag=0, check_flag = 0, verbose_flag=0, K=8, input_file=../../../input/pc/covtype.7d, npoints=200000, nsearchpoints=200000
The tree nnodes is 200000, depth is 17
npoints = 200000, DEPTH_STAT = 2048, nMatrixSize = 409600000.
Time for asynchronous transfer and execute (ms): 1364.698608
@ construct_tree: 874 ms
@ gpu_build_tree: 27 ms
@ init_kernel: 2728 ms
@ gpu_copy_tree_to: 16 ms
@ extra: 1710 ms
@ kernel: 2420 ms
@ gpu_copy_tree_from: 13 ms
@ traversal_time: 6914 ms
@ runtime: 7789 ms
Collected results into ../../../results/depth_tmp/knn_Hybrid_Sched_covtype.7d_11_unsorted.stats

Loading data from ../../../results/depth_tmp/knn_Hybrid_Sched_covtype.7d_11_unsorted.stats...
{'traversal_time:': [6841.0, 6846.0, 6906.0, 6827.0, 7488.0, 7404.0, 6890.0, 6873.0, 7004.0, 6809.0, 6936.0, 6914.0], 'gpu_copy_tree_from:': [13.0, 13.0, 12.0, 13.0, 18.0, 18.0, 13.0, 13.0, 14.0, 13.0, 13.0, 13.0], 'gpu_copy_tree_to:': [16.0, 17.0, 17.0, 16.0, 24.0, 24.0, 16.0, 16.0, 17.0, 16.0, 17.0, 16.0], 'construct_tree:': [874.0, 873.0, 875.0, 873.0, 874.0, 877.0, 869.0, 872.0, 875.0, 874.0, 872.0, 874.0], 'init_kernel:': [2606.0, 2652.0, 2650.0, 2614.0, 2725.0, 2644.0, 2633.0, 2623.0, 2748.0, 2575.0, 2741.0, 2728.0], 'gpu_build_tree:': [26.0, 26.0, 27.0, 26.0, 26.0, 27.0, 26.0, 26.0, 26.0, 26.0, 26.0, 27.0], 'kernel:': [2423.0, 2417.0, 2418.0, 2422.0, 2415.0, 2423.0, 2416.0, 2420.0, 2423.0, 2418.0, 2424.0, 2420.0], 'runtime:': [7715.0, 7719.0, 7781.0, 7700.0, 8361.0, 8281.0, 7759.0, 7745.0, 7879.0, 7684.0, 7808.0, 7789.0], 'extra:': [1757.0, 1722.0, 1782.0, 1735.0, 2279.0, 2268.0, 1787.0, 1775.0, 1776.0, 1761.0, 1715.0, 1710.0]}
configuration: sort_flag=0, check_flag = 0, verbose_flag=0, K=8, input_file=../../../input/pc/covtype.7d, npoints=200000, nsearchpoints=200000
The tree nnodes is 200000, depth is 17
npoints = 200000, DEPTH_STAT = 2048, nMatrixSize = 409600000.
Time for asynchronous transfer and execute (ms): 1919.491211
@ construct_tree: 872 ms
@ gpu_build_tree: 26 ms
@ init_kernel: 2699 ms
@ gpu_copy_tree_to: 20 ms
@ extra: 2264 ms
@ kernel: 2419 ms
@ gpu_copy_tree_from: 17 ms
@ traversal_time: 7445 ms
@ runtime: 8317 ms
Collected results into ../../../results/depth_tmp/knn_Hybrid_Sched_covtype.7d_11_unsorted.stats

Loading data from ../../../results/depth_tmp/knn_Hybrid_Sched_covtype.7d_11_unsorted.stats...
{'traversal_time:': [6841.0, 6846.0, 6906.0, 6827.0, 7488.0, 7404.0, 6890.0, 6873.0, 7004.0, 6809.0, 6936.0, 6914.0, 7445.0], 'gpu_copy_tree_from:': [13.0, 13.0, 12.0, 13.0, 18.0, 18.0, 13.0, 13.0, 14.0, 13.0, 13.0, 13.0, 17.0], 'gpu_copy_tree_to:': [16.0, 17.0, 17.0, 16.0, 24.0, 24.0, 16.0, 16.0, 17.0, 16.0, 17.0, 16.0, 20.0], 'construct_tree:': [874.0, 873.0, 875.0, 873.0, 874.0, 877.0, 869.0, 872.0, 875.0, 874.0, 872.0, 874.0, 872.0], 'init_kernel:': [2606.0, 2652.0, 2650.0, 2614.0, 2725.0, 2644.0, 2633.0, 2623.0, 2748.0, 2575.0, 2741.0, 2728.0, 2699.0], 'gpu_build_tree:': [26.0, 26.0, 27.0, 26.0, 26.0, 27.0, 26.0, 26.0, 26.0, 26.0, 26.0, 27.0, 26.0], 'kernel:': [2423.0, 2417.0, 2418.0, 2422.0, 2415.0, 2423.0, 2416.0, 2420.0, 2423.0, 2418.0, 2424.0, 2420.0, 2419.0], 'runtime:': [7715.0, 7719.0, 7781.0, 7700.0, 8361.0, 8281.0, 7759.0, 7745.0, 7879.0, 7684.0, 7808.0, 7789.0, 8317.0], 'extra:': [1757.0, 1722.0, 1782.0, 1735.0, 2279.0, 2268.0, 1787.0, 1775.0, 1776.0, 1761.0, 1715.0, 1710.0, 2264.0]}
configuration: sort_flag=0, check_flag = 0, verbose_flag=0, K=8, input_file=../../../input/pc/covtype.7d, npoints=200000, nsearchpoints=200000
The tree nnodes is 200000, depth is 17
npoints = 200000, DEPTH_STAT = 2048, nMatrixSize = 409600000.
Time for asynchronous transfer and execute (ms): 1920.768555
@ construct_tree: 872 ms
@ gpu_build_tree: 26 ms
@ init_kernel: 2565 ms
@ gpu_copy_tree_to: 19 ms
@ extra: 2264 ms
@ kernel: 2419 ms
@ gpu_copy_tree_from: 17 ms
@ traversal_time: 7310 ms
@ runtime: 8182 ms
Collected results into ../../../results/depth_tmp/knn_Hybrid_Sched_covtype.7d_11_unsorted.stats

Loading data from ../../../results/depth_tmp/knn_Hybrid_Sched_covtype.7d_11_unsorted.stats...
{'traversal_time:': [6841.0, 6846.0, 6906.0, 6827.0, 7488.0, 7404.0, 6890.0, 6873.0, 7004.0, 6809.0, 6936.0, 6914.0, 7445.0, 7310.0], 'gpu_copy_tree_from:': [13.0, 13.0, 12.0, 13.0, 18.0, 18.0, 13.0, 13.0, 14.0, 13.0, 13.0, 13.0, 17.0, 17.0], 'gpu_copy_tree_to:': [16.0, 17.0, 17.0, 16.0, 24.0, 24.0, 16.0, 16.0, 17.0, 16.0, 17.0, 16.0, 20.0, 19.0], 'construct_tree:': [874.0, 873.0, 875.0, 873.0, 874.0, 877.0, 869.0, 872.0, 875.0, 874.0, 872.0, 874.0, 872.0, 872.0], 'init_kernel:': [2606.0, 2652.0, 2650.0, 2614.0, 2725.0, 2644.0, 2633.0, 2623.0, 2748.0, 2575.0, 2741.0, 2728.0, 2699.0, 2565.0], 'gpu_build_tree:': [26.0, 26.0, 27.0, 26.0, 26.0, 27.0, 26.0, 26.0, 26.0, 26.0, 26.0, 27.0, 26.0, 26.0], 'kernel:': [2423.0, 2417.0, 2418.0, 2422.0, 2415.0, 2423.0, 2416.0, 2420.0, 2423.0, 2418.0, 2424.0, 2420.0, 2419.0, 2419.0], 'runtime:': [7715.0, 7719.0, 7781.0, 7700.0, 8361.0, 8281.0, 7759.0, 7745.0, 7879.0, 7684.0, 7808.0, 7789.0, 8317.0, 8182.0], 'extra:': [1757.0, 1722.0, 1782.0, 1735.0, 2279.0, 2268.0, 1787.0, 1775.0, 1776.0, 1761.0, 1715.0, 1710.0, 2264.0, 2264.0]}
configuration: sort_flag=0, check_flag = 0, verbose_flag=0, K=8, input_file=../../../input/pc/covtype.7d, npoints=200000, nsearchpoints=200000
The tree nnodes is 200000, depth is 17
npoints = 200000, DEPTH_STAT = 2048, nMatrixSize = 409600000.
Time for asynchronous transfer and execute (ms): 1434.276123
@ construct_tree: 871 ms
@ gpu_build_tree: 27 ms
@ init_kernel: 2767 ms
@ gpu_copy_tree_to: 16 ms
@ extra: 1781 ms
@ kernel: 2418 ms
@ gpu_copy_tree_from: 13 ms
@ traversal_time: 7022 ms
@ runtime: 7893 ms
Collected results into ../../../results/depth_tmp/knn_Hybrid_Sched_covtype.7d_11_unsorted.stats

