Results wll be collected to ../../../results/depth_tmp/knn_Hybrid_Sched_geocity.txt_10_unsorted.stats...
configuration: sort_flag=0, check_flag = 0, verbose_flag=0, K=8, input_file=../../../input/pc/geocity.txt, npoints=200000, nsearchpoints=200000
The tree nnodes is 200000, depth is 17
npoints = 200000, DEPTH_STAT = 1024, nMatrixSize = 204800000.
Time for asynchronous transfer and execute (ms): 709.151367
@ construct_tree: 754 ms
@ gpu_build_tree: 17 ms
@ init_kernel: 2583 ms
@ gpu_copy_tree_to: 12 ms
@ extra: 969 ms
@ kernel: 58 ms
@ gpu_copy_tree_from: 13 ms
@ traversal_time: 3652 ms
@ runtime: 4406 ms
Collected results into ../../../results/depth_tmp/knn_Hybrid_Sched_geocity.txt_10_unsorted.stats

Loading data from ../../../results/depth_tmp/knn_Hybrid_Sched_geocity.txt_10_unsorted.stats...
{'traversal_time:': [3652.0], 'gpu_copy_tree_from:': [13.0], 'gpu_copy_tree_to:': [12.0], 'construct_tree:': [754.0], 'init_kernel:': [2583.0], 'gpu_build_tree:': [17.0], 'kernel:': [58.0], 'runtime:': [4406.0], 'extra:': [969.0]}
configuration: sort_flag=0, check_flag = 0, verbose_flag=0, K=8, input_file=../../../input/pc/geocity.txt, npoints=200000, nsearchpoints=200000
The tree nnodes is 200000, depth is 17
npoints = 200000, DEPTH_STAT = 1024, nMatrixSize = 204800000.
Time for asynchronous transfer and execute (ms): 728.075195
@ construct_tree: 754 ms
@ gpu_build_tree: 17 ms
@ init_kernel: 2689 ms
@ gpu_copy_tree_to: 13 ms
@ extra: 988 ms
@ kernel: 57 ms
@ gpu_copy_tree_from: 14 ms
@ traversal_time: 3778 ms
@ runtime: 4532 ms
Collected results into ../../../results/depth_tmp/knn_Hybrid_Sched_geocity.txt_10_unsorted.stats

Loading data from ../../../results/depth_tmp/knn_Hybrid_Sched_geocity.txt_10_unsorted.stats...
{'traversal_time:': [3652.0, 3778.0], 'gpu_copy_tree_from:': [13.0, 14.0], 'gpu_copy_tree_to:': [12.0, 13.0], 'construct_tree:': [754.0, 754.0], 'init_kernel:': [2583.0, 2689.0], 'gpu_build_tree:': [17.0, 17.0], 'kernel:': [58.0, 57.0], 'runtime:': [4406.0, 4532.0], 'extra:': [969.0, 988.0]}
configuration: sort_flag=0, check_flag = 0, verbose_flag=0, K=8, input_file=../../../input/pc/geocity.txt, npoints=200000, nsearchpoints=200000
The tree nnodes is 200000, depth is 17
npoints = 200000, DEPTH_STAT = 1024, nMatrixSize = 204800000.
Time for asynchronous transfer and execute (ms): 688.945679
@ construct_tree: 752 ms
@ gpu_build_tree: 17 ms
@ init_kernel: 2621 ms
@ gpu_copy_tree_to: 12 ms
@ extra: 948 ms
@ kernel: 58 ms
@ gpu_copy_tree_from: 14 ms
@ traversal_time: 3671 ms
@ runtime: 4423 ms
Collected results into ../../../results/depth_tmp/knn_Hybrid_Sched_geocity.txt_10_unsorted.stats

Loading data from ../../../results/depth_tmp/knn_Hybrid_Sched_geocity.txt_10_unsorted.stats...
{'traversal_time:': [3652.0, 3778.0, 3671.0], 'gpu_copy_tree_from:': [13.0, 14.0, 14.0], 'gpu_copy_tree_to:': [12.0, 13.0, 12.0], 'construct_tree:': [754.0, 754.0, 752.0], 'init_kernel:': [2583.0, 2689.0, 2621.0], 'gpu_build_tree:': [17.0, 17.0, 17.0], 'kernel:': [58.0, 57.0, 58.0], 'runtime:': [4406.0, 4532.0, 4423.0], 'extra:': [969.0, 988.0, 948.0]}
configuration: sort_flag=0, check_flag = 0, verbose_flag=0, K=8, input_file=../../../input/pc/geocity.txt, npoints=200000, nsearchpoints=200000
The tree nnodes is 200000, depth is 17
npoints = 200000, DEPTH_STAT = 1024, nMatrixSize = 204800000.
Time for asynchronous transfer and execute (ms): 672.539001
@ construct_tree: 751 ms
@ gpu_build_tree: 17 ms
@ init_kernel: 2615 ms
@ gpu_copy_tree_to: 13 ms
@ extra: 933 ms
@ kernel: 57 ms
@ gpu_copy_tree_from: 13 ms
@ traversal_time: 3649 ms
@ runtime: 4400 ms
Collected results into ../../../results/depth_tmp/knn_Hybrid_Sched_geocity.txt_10_unsorted.stats

Loading data from ../../../results/depth_tmp/knn_Hybrid_Sched_geocity.txt_10_unsorted.stats...
{'traversal_time:': [3652.0, 3778.0, 3671.0, 3649.0], 'gpu_copy_tree_from:': [13.0, 14.0, 14.0, 13.0], 'gpu_copy_tree_to:': [12.0, 13.0, 12.0, 13.0], 'construct_tree:': [754.0, 754.0, 752.0, 751.0], 'init_kernel:': [2583.0, 2689.0, 2621.0, 2615.0], 'gpu_build_tree:': [17.0, 17.0, 17.0, 17.0], 'kernel:': [58.0, 57.0, 58.0, 57.0], 'runtime:': [4406.0, 4532.0, 4423.0, 4400.0], 'extra:': [969.0, 988.0, 948.0, 933.0]}
configuration: sort_flag=0, check_flag = 0, verbose_flag=0, K=8, input_file=../../../input/pc/geocity.txt, npoints=200000, nsearchpoints=200000
The tree nnodes is 200000, depth is 17
npoints = 200000, DEPTH_STAT = 1024, nMatrixSize = 204800000.
Time for asynchronous transfer and execute (ms): 739.579895
@ construct_tree: 756 ms
@ gpu_build_tree: 17 ms
@ init_kernel: 2753 ms
@ gpu_copy_tree_to: 13 ms
@ extra: 998 ms
@ kernel: 57 ms
@ gpu_copy_tree_from: 14 ms
@ traversal_time: 3852 ms
@ runtime: 4608 ms
Collected results into ../../../results/depth_tmp/knn_Hybrid_Sched_geocity.txt_10_unsorted.stats

Loading data from ../../../results/depth_tmp/knn_Hybrid_Sched_geocity.txt_10_unsorted.stats...
{'traversal_time:': [3652.0, 3778.0, 3671.0, 3649.0, 3852.0], 'gpu_copy_tree_from:': [13.0, 14.0, 14.0, 13.0, 14.0], 'gpu_copy_tree_to:': [12.0, 13.0, 12.0, 13.0, 13.0], 'construct_tree:': [754.0, 754.0, 752.0, 751.0, 756.0], 'init_kernel:': [2583.0, 2689.0, 2621.0, 2615.0, 2753.0], 'gpu_build_tree:': [17.0, 17.0, 17.0, 17.0, 17.0], 'kernel:': [58.0, 57.0, 58.0, 57.0, 57.0], 'runtime:': [4406.0, 4532.0, 4423.0, 4400.0, 4608.0], 'extra:': [969.0, 988.0, 948.0, 933.0, 998.0]}
configuration: sort_flag=0, check_flag = 0, verbose_flag=0, K=8, input_file=../../../input/pc/geocity.txt, npoints=200000, nsearchpoints=200000
The tree nnodes is 200000, depth is 17
npoints = 200000, DEPTH_STAT = 1024, nMatrixSize = 204800000.
Time for asynchronous transfer and execute (ms): 674.763855
@ construct_tree: 754 ms
@ gpu_build_tree: 17 ms
@ init_kernel: 2646 ms
@ gpu_copy_tree_to: 12 ms
@ extra: 934 ms
@ kernel: 58 ms
@ gpu_copy_tree_from: 13 ms
@ traversal_time: 3681 ms
@ runtime: 4435 ms
Collected results into ../../../results/depth_tmp/knn_Hybrid_Sched_geocity.txt_10_unsorted.stats

Loading data from ../../../results/depth_tmp/knn_Hybrid_Sched_geocity.txt_10_unsorted.stats...
{'traversal_time:': [3652.0, 3778.0, 3671.0, 3649.0, 3852.0, 3681.0], 'gpu_copy_tree_from:': [13.0, 14.0, 14.0, 13.0, 14.0, 13.0], 'gpu_copy_tree_to:': [12.0, 13.0, 12.0, 13.0, 13.0, 12.0], 'construct_tree:': [754.0, 754.0, 752.0, 751.0, 756.0, 754.0], 'init_kernel:': [2583.0, 2689.0, 2621.0, 2615.0, 2753.0, 2646.0], 'gpu_build_tree:': [17.0, 17.0, 17.0, 17.0, 17.0, 17.0], 'kernel:': [58.0, 57.0, 58.0, 57.0, 57.0, 58.0], 'runtime:': [4406.0, 4532.0, 4423.0, 4400.0, 4608.0, 4435.0], 'extra:': [969.0, 988.0, 948.0, 933.0, 998.0, 934.0]}
configuration: sort_flag=0, check_flag = 0, verbose_flag=0, K=8, input_file=../../../input/pc/geocity.txt, npoints=200000, nsearchpoints=200000
The tree nnodes is 200000, depth is 17
npoints = 200000, DEPTH_STAT = 1024, nMatrixSize = 204800000.
Time for asynchronous transfer and execute (ms): 725.475769
@ construct_tree: 752 ms
@ gpu_build_tree: 17 ms
@ init_kernel: 2784 ms
@ gpu_copy_tree_to: 13 ms
@ extra: 985 ms
@ kernel: 57 ms
@ gpu_copy_tree_from: 13 ms
@ traversal_time: 3870 ms
@ runtime: 4622 ms
Collected results into ../../../results/depth_tmp/knn_Hybrid_Sched_geocity.txt_10_unsorted.stats

Loading data from ../../../results/depth_tmp/knn_Hybrid_Sched_geocity.txt_10_unsorted.stats...
{'traversal_time:': [3652.0, 3778.0, 3671.0, 3649.0, 3852.0, 3681.0, 3870.0], 'gpu_copy_tree_from:': [13.0, 14.0, 14.0, 13.0, 14.0, 13.0, 13.0], 'gpu_copy_tree_to:': [12.0, 13.0, 12.0, 13.0, 13.0, 12.0, 13.0], 'construct_tree:': [754.0, 754.0, 752.0, 751.0, 756.0, 754.0, 752.0], 'init_kernel:': [2583.0, 2689.0, 2621.0, 2615.0, 2753.0, 2646.0, 2784.0], 'gpu_build_tree:': [17.0, 17.0, 17.0, 17.0, 17.0, 17.0, 17.0], 'kernel:': [58.0, 57.0, 58.0, 57.0, 57.0, 58.0, 57.0], 'runtime:': [4406.0, 4532.0, 4423.0, 4400.0, 4608.0, 4435.0, 4622.0], 'extra:': [969.0, 988.0, 948.0, 933.0, 998.0, 934.0, 985.0]}
configuration: sort_flag=0, check_flag = 0, verbose_flag=0, K=8, input_file=../../../input/pc/geocity.txt, npoints=200000, nsearchpoints=200000
The tree nnodes is 200000, depth is 17
npoints = 200000, DEPTH_STAT = 1024, nMatrixSize = 204800000.
Time for asynchronous transfer and execute (ms): 886.367981
@ construct_tree: 754 ms
@ gpu_build_tree: 17 ms
@ init_kernel: 2643 ms
@ gpu_copy_tree_to: 16 ms
@ extra: 1147 ms
@ kernel: 57 ms
@ gpu_copy_tree_from: 18 ms
@ traversal_time: 3898 ms
@ runtime: 4652 ms
Collected results into ../../../results/depth_tmp/knn_Hybrid_Sched_geocity.txt_10_unsorted.stats

Loading data from ../../../results/depth_tmp/knn_Hybrid_Sched_geocity.txt_10_unsorted.stats...
{'traversal_time:': [3652.0, 3778.0, 3671.0, 3649.0, 3852.0, 3681.0, 3870.0, 3898.0], 'gpu_copy_tree_from:': [13.0, 14.0, 14.0, 13.0, 14.0, 13.0, 13.0, 18.0], 'gpu_copy_tree_to:': [12.0, 13.0, 12.0, 13.0, 13.0, 12.0, 13.0, 16.0], 'construct_tree:': [754.0, 754.0, 752.0, 751.0, 756.0, 754.0, 752.0, 754.0], 'init_kernel:': [2583.0, 2689.0, 2621.0, 2615.0, 2753.0, 2646.0, 2784.0, 2643.0], 'gpu_build_tree:': [17.0, 17.0, 17.0, 17.0, 17.0, 17.0, 17.0, 17.0], 'kernel:': [58.0, 57.0, 58.0, 57.0, 57.0, 58.0, 57.0, 57.0], 'runtime:': [4406.0, 4532.0, 4423.0, 4400.0, 4608.0, 4435.0, 4622.0, 4652.0], 'extra:': [969.0, 988.0, 948.0, 933.0, 998.0, 934.0, 985.0, 1147.0]}
configuration: sort_flag=0, check_flag = 0, verbose_flag=0, K=8, input_file=../../../input/pc/geocity.txt, npoints=200000, nsearchpoints=200000
The tree nnodes is 200000, depth is 17
npoints = 200000, DEPTH_STAT = 1024, nMatrixSize = 204800000.
Time for asynchronous transfer and execute (ms): 906.245300
@ construct_tree: 751 ms
@ gpu_build_tree: 17 ms
@ init_kernel: 2625 ms
@ gpu_copy_tree_to: 16 ms
@ extra: 1165 ms
@ kernel: 58 ms
@ gpu_copy_tree_from: 18 ms
@ traversal_time: 3899 ms
@ runtime: 4651 ms
Collected results into ../../../results/depth_tmp/knn_Hybrid_Sched_geocity.txt_10_unsorted.stats

Loading data from ../../../results/depth_tmp/knn_Hybrid_Sched_geocity.txt_10_unsorted.stats...
{'traversal_time:': [3652.0, 3778.0, 3671.0, 3649.0, 3852.0, 3681.0, 3870.0, 3898.0, 3899.0], 'gpu_copy_tree_from:': [13.0, 14.0, 14.0, 13.0, 14.0, 13.0, 13.0, 18.0, 18.0], 'gpu_copy_tree_to:': [12.0, 13.0, 12.0, 13.0, 13.0, 12.0, 13.0, 16.0, 16.0], 'construct_tree:': [754.0, 754.0, 752.0, 751.0, 756.0, 754.0, 752.0, 754.0, 751.0], 'init_kernel:': [2583.0, 2689.0, 2621.0, 2615.0, 2753.0, 2646.0, 2784.0, 2643.0, 2625.0], 'gpu_build_tree:': [17.0, 17.0, 17.0, 17.0, 17.0, 17.0, 17.0, 17.0, 17.0], 'kernel:': [58.0, 57.0, 58.0, 57.0, 57.0, 58.0, 57.0, 57.0, 58.0], 'runtime:': [4406.0, 4532.0, 4423.0, 4400.0, 4608.0, 4435.0, 4622.0, 4652.0, 4651.0], 'extra:': [969.0, 988.0, 948.0, 933.0, 998.0, 934.0, 985.0, 1147.0, 1165.0]}
configuration: sort_flag=0, check_flag = 0, verbose_flag=0, K=8, input_file=../../../input/pc/geocity.txt, npoints=200000, nsearchpoints=200000
The tree nnodes is 200000, depth is 17
npoints = 200000, DEPTH_STAT = 1024, nMatrixSize = 204800000.
Time for asynchronous transfer and execute (ms): 659.896912
@ construct_tree: 753 ms
@ gpu_build_tree: 17 ms
@ init_kernel: 2664 ms
@ gpu_copy_tree_to: 13 ms
@ extra: 919 ms
@ kernel: 58 ms
@ gpu_copy_tree_from: 14 ms
@ traversal_time: 3684 ms
@ runtime: 4438 ms
Collected results into ../../../results/depth_tmp/knn_Hybrid_Sched_geocity.txt_10_unsorted.stats

Loading data from ../../../results/depth_tmp/knn_Hybrid_Sched_geocity.txt_10_unsorted.stats...
{'traversal_time:': [3652.0, 3778.0, 3671.0, 3649.0, 3852.0, 3681.0, 3870.0, 3898.0, 3899.0, 3684.0], 'gpu_copy_tree_from:': [13.0, 14.0, 14.0, 13.0, 14.0, 13.0, 13.0, 18.0, 18.0, 14.0], 'gpu_copy_tree_to:': [12.0, 13.0, 12.0, 13.0, 13.0, 12.0, 13.0, 16.0, 16.0, 13.0], 'construct_tree:': [754.0, 754.0, 752.0, 751.0, 756.0, 754.0, 752.0, 754.0, 751.0, 753.0], 'init_kernel:': [2583.0, 2689.0, 2621.0, 2615.0, 2753.0, 2646.0, 2784.0, 2643.0, 2625.0, 2664.0], 'gpu_build_tree:': [17.0, 17.0, 17.0, 17.0, 17.0, 17.0, 17.0, 17.0, 17.0, 17.0], 'kernel:': [58.0, 57.0, 58.0, 57.0, 57.0, 58.0, 57.0, 57.0, 58.0, 58.0], 'runtime:': [4406.0, 4532.0, 4423.0, 4400.0, 4608.0, 4435.0, 4622.0, 4652.0, 4651.0, 4438.0], 'extra:': [969.0, 988.0, 948.0, 933.0, 998.0, 934.0, 985.0, 1147.0, 1165.0, 919.0]}
configuration: sort_flag=0, check_flag = 0, verbose_flag=0, K=8, input_file=../../../input/pc/geocity.txt, npoints=200000, nsearchpoints=200000
The tree nnodes is 200000, depth is 17
npoints = 200000, DEPTH_STAT = 1024, nMatrixSize = 204800000.
Time for asynchronous transfer and execute (ms): 718.787537
@ construct_tree: 754 ms
@ gpu_build_tree: 17 ms
@ init_kernel: 2572 ms
@ gpu_copy_tree_to: 12 ms
@ extra: 978 ms
@ kernel: 57 ms
@ gpu_copy_tree_from: 13 ms
@ traversal_time: 3650 ms
@ runtime: 4404 ms
Collected results into ../../../results/depth_tmp/knn_Hybrid_Sched_geocity.txt_10_unsorted.stats

Loading data from ../../../results/depth_tmp/knn_Hybrid_Sched_geocity.txt_10_unsorted.stats...
{'traversal_time:': [3652.0, 3778.0, 3671.0, 3649.0, 3852.0, 3681.0, 3870.0, 3898.0, 3899.0, 3684.0, 3650.0], 'gpu_copy_tree_from:': [13.0, 14.0, 14.0, 13.0, 14.0, 13.0, 13.0, 18.0, 18.0, 14.0, 13.0], 'gpu_copy_tree_to:': [12.0, 13.0, 12.0, 13.0, 13.0, 12.0, 13.0, 16.0, 16.0, 13.0, 12.0], 'construct_tree:': [754.0, 754.0, 752.0, 751.0, 756.0, 754.0, 752.0, 754.0, 751.0, 753.0, 754.0], 'init_kernel:': [2583.0, 2689.0, 2621.0, 2615.0, 2753.0, 2646.0, 2784.0, 2643.0, 2625.0, 2664.0, 2572.0], 'gpu_build_tree:': [17.0, 17.0, 17.0, 17.0, 17.0, 17.0, 17.0, 17.0, 17.0, 17.0, 17.0], 'kernel:': [58.0, 57.0, 58.0, 57.0, 57.0, 58.0, 57.0, 57.0, 58.0, 58.0, 57.0], 'runtime:': [4406.0, 4532.0, 4423.0, 4400.0, 4608.0, 4435.0, 4622.0, 4652.0, 4651.0, 4438.0, 4404.0], 'extra:': [969.0, 988.0, 948.0, 933.0, 998.0, 934.0, 985.0, 1147.0, 1165.0, 919.0, 978.0]}
configuration: sort_flag=0, check_flag = 0, verbose_flag=0, K=8, input_file=../../../input/pc/geocity.txt, npoints=200000, nsearchpoints=200000
The tree nnodes is 200000, depth is 17
npoints = 200000, DEPTH_STAT = 1024, nMatrixSize = 204800000.
Time for asynchronous transfer and execute (ms): 735.562439
@ construct_tree: 755 ms
@ gpu_build_tree: 17 ms
@ init_kernel: 2579 ms
@ gpu_copy_tree_to: 12 ms
@ extra: 995 ms
@ kernel: 57 ms
@ gpu_copy_tree_from: 13 ms
@ traversal_time: 3675 ms
@ runtime: 4430 ms
Collected results into ../../../results/depth_tmp/knn_Hybrid_Sched_geocity.txt_10_unsorted.stats

Loading data from ../../../results/depth_tmp/knn_Hybrid_Sched_geocity.txt_10_unsorted.stats...
{'traversal_time:': [3652.0, 3778.0, 3671.0, 3649.0, 3852.0, 3681.0, 3870.0, 3898.0, 3899.0, 3684.0, 3650.0, 3675.0], 'gpu_copy_tree_from:': [13.0, 14.0, 14.0, 13.0, 14.0, 13.0, 13.0, 18.0, 18.0, 14.0, 13.0, 13.0], 'gpu_copy_tree_to:': [12.0, 13.0, 12.0, 13.0, 13.0, 12.0, 13.0, 16.0, 16.0, 13.0, 12.0, 12.0], 'construct_tree:': [754.0, 754.0, 752.0, 751.0, 756.0, 754.0, 752.0, 754.0, 751.0, 753.0, 754.0, 755.0], 'init_kernel:': [2583.0, 2689.0, 2621.0, 2615.0, 2753.0, 2646.0, 2784.0, 2643.0, 2625.0, 2664.0, 2572.0, 2579.0], 'gpu_build_tree:': [17.0, 17.0, 17.0, 17.0, 17.0, 17.0, 17.0, 17.0, 17.0, 17.0, 17.0, 17.0], 'kernel:': [58.0, 57.0, 58.0, 57.0, 57.0, 58.0, 57.0, 57.0, 58.0, 58.0, 57.0, 57.0], 'runtime:': [4406.0, 4532.0, 4423.0, 4400.0, 4608.0, 4435.0, 4622.0, 4652.0, 4651.0, 4438.0, 4404.0, 4430.0], 'extra:': [969.0, 988.0, 948.0, 933.0, 998.0, 934.0, 985.0, 1147.0, 1165.0, 919.0, 978.0, 995.0]}
configuration: sort_flag=0, check_flag = 0, verbose_flag=0, K=8, input_file=../../../input/pc/geocity.txt, npoints=200000, nsearchpoints=200000
The tree nnodes is 200000, depth is 17
npoints = 200000, DEPTH_STAT = 1024, nMatrixSize = 204800000.
Time for asynchronous transfer and execute (ms): 734.721924
@ construct_tree: 755 ms
@ gpu_build_tree: 17 ms
@ init_kernel: 2706 ms
@ gpu_copy_tree_to: 13 ms
@ extra: 994 ms
@ kernel: 57 ms
@ gpu_copy_tree_from: 12 ms
@ traversal_time: 3799 ms
@ runtime: 4554 ms
Collected results into ../../../results/depth_tmp/knn_Hybrid_Sched_geocity.txt_10_unsorted.stats

Loading data from ../../../results/depth_tmp/knn_Hybrid_Sched_geocity.txt_10_unsorted.stats...
{'traversal_time:': [3652.0, 3778.0, 3671.0, 3649.0, 3852.0, 3681.0, 3870.0, 3898.0, 3899.0, 3684.0, 3650.0, 3675.0, 3799.0], 'gpu_copy_tree_from:': [13.0, 14.0, 14.0, 13.0, 14.0, 13.0, 13.0, 18.0, 18.0, 14.0, 13.0, 13.0, 12.0], 'gpu_copy_tree_to:': [12.0, 13.0, 12.0, 13.0, 13.0, 12.0, 13.0, 16.0, 16.0, 13.0, 12.0, 12.0, 13.0], 'construct_tree:': [754.0, 754.0, 752.0, 751.0, 756.0, 754.0, 752.0, 754.0, 751.0, 753.0, 754.0, 755.0, 755.0], 'init_kernel:': [2583.0, 2689.0, 2621.0, 2615.0, 2753.0, 2646.0, 2784.0, 2643.0, 2625.0, 2664.0, 2572.0, 2579.0, 2706.0], 'gpu_build_tree:': [17.0, 17.0, 17.0, 17.0, 17.0, 17.0, 17.0, 17.0, 17.0, 17.0, 17.0, 17.0, 17.0], 'kernel:': [58.0, 57.0, 58.0, 57.0, 57.0, 58.0, 57.0, 57.0, 58.0, 58.0, 57.0, 57.0, 57.0], 'runtime:': [4406.0, 4532.0, 4423.0, 4400.0, 4608.0, 4435.0, 4622.0, 4652.0, 4651.0, 4438.0, 4404.0, 4430.0, 4554.0], 'extra:': [969.0, 988.0, 948.0, 933.0, 998.0, 934.0, 985.0, 1147.0, 1165.0, 919.0, 978.0, 995.0, 994.0]}
configuration: sort_flag=0, check_flag = 0, verbose_flag=0, K=8, input_file=../../../input/pc/geocity.txt, npoints=200000, nsearchpoints=200000
The tree nnodes is 200000, depth is 17
npoints = 200000, DEPTH_STAT = 1024, nMatrixSize = 204800000.
Time for asynchronous transfer and execute (ms): 688.879700
@ construct_tree: 754 ms
@ gpu_build_tree: 17 ms
@ init_kernel: 2615 ms
@ gpu_copy_tree_to: 13 ms
@ extra: 948 ms
@ kernel: 57 ms
@ gpu_copy_tree_from: 14 ms
@ traversal_time: 3664 ms
@ runtime: 4417 ms
Collected results into ../../../results/depth_tmp/knn_Hybrid_Sched_geocity.txt_10_unsorted.stats

Loading data from ../../../results/depth_tmp/knn_Hybrid_Sched_geocity.txt_10_unsorted.stats...
{'traversal_time:': [3652.0, 3778.0, 3671.0, 3649.0, 3852.0, 3681.0, 3870.0, 3898.0, 3899.0, 3684.0, 3650.0, 3675.0, 3799.0, 3664.0], 'gpu_copy_tree_from:': [13.0, 14.0, 14.0, 13.0, 14.0, 13.0, 13.0, 18.0, 18.0, 14.0, 13.0, 13.0, 12.0, 14.0], 'gpu_copy_tree_to:': [12.0, 13.0, 12.0, 13.0, 13.0, 12.0, 13.0, 16.0, 16.0, 13.0, 12.0, 12.0, 13.0, 13.0], 'construct_tree:': [754.0, 754.0, 752.0, 751.0, 756.0, 754.0, 752.0, 754.0, 751.0, 753.0, 754.0, 755.0, 755.0, 754.0], 'init_kernel:': [2583.0, 2689.0, 2621.0, 2615.0, 2753.0, 2646.0, 2784.0, 2643.0, 2625.0, 2664.0, 2572.0, 2579.0, 2706.0, 2615.0], 'gpu_build_tree:': [17.0, 17.0, 17.0, 17.0, 17.0, 17.0, 17.0, 17.0, 17.0, 17.0, 17.0, 17.0, 17.0, 17.0], 'kernel:': [58.0, 57.0, 58.0, 57.0, 57.0, 58.0, 57.0, 57.0, 58.0, 58.0, 57.0, 57.0, 57.0, 57.0], 'runtime:': [4406.0, 4532.0, 4423.0, 4400.0, 4608.0, 4435.0, 4622.0, 4652.0, 4651.0, 4438.0, 4404.0, 4430.0, 4554.0, 4417.0], 'extra:': [969.0, 988.0, 948.0, 933.0, 998.0, 934.0, 985.0, 1147.0, 1165.0, 919.0, 978.0, 995.0, 994.0, 948.0]}
configuration: sort_flag=0, check_flag = 0, verbose_flag=0, K=8, input_file=../../../input/pc/geocity.txt, npoints=200000, nsearchpoints=200000
The tree nnodes is 200000, depth is 17
npoints = 200000, DEPTH_STAT = 1024, nMatrixSize = 204800000.
Time for asynchronous transfer and execute (ms): 652.705750
@ construct_tree: 753 ms
@ gpu_build_tree: 17 ms
@ init_kernel: 2637 ms
@ gpu_copy_tree_to: 13 ms
@ extra: 912 ms
@ kernel: 58 ms
@ gpu_copy_tree_from: 13 ms
@ traversal_time: 3651 ms
@ runtime: 4403 ms
Collected results into ../../../results/depth_tmp/knn_Hybrid_Sched_geocity.txt_10_unsorted.stats

