Results wll be collected to ../../../results/depth_tmp/nn_Hybrid_Sched_geocity.txt_8_unsorted.stats...
@ read_data: 744 ms
configuration: K = 1 DIM = 2 npoints = 200000 nsearchpoints = 200000
@ init_kernel: 2590 ms
the number of nodes is 524288, the depth is 19
@ build_tree: 146 ms
Time for asynchronous transfer and execute (ms): 269.925629
@ CPU: 104 ms
correct rate: 0.9928
@ traversal: 4038 ms
@ extra: 375 ms
@ kernel: 922 ms
@ overall: 5806 ms
Collected results into ../../../results/depth_tmp/nn_Hybrid_Sched_geocity.txt_8_unsorted.stats

Loading data from ../../../results/depth_tmp/nn_Hybrid_Sched_geocity.txt_8_unsorted.stats...
{'traversal:': [4038.0], 'CPU:': [104.0], 'read_data:': [744.0], 'kernel:': [922.0], 'init_kernel:': [2590.0], 'overall:': [5806.0], 'extra:': [375.0], 'build_tree:': [146.0]}
@ read_data: 710 ms
configuration: K = 1 DIM = 2 npoints = 200000 nsearchpoints = 200000
@ init_kernel: 2579 ms
the number of nodes is 524288, the depth is 19
@ build_tree: 155 ms
Time for asynchronous transfer and execute (ms): 268.742157
@ CPU: 100 ms
correct rate: 0.9928
@ traversal: 4032 ms
@ extra: 370 ms
@ kernel: 923 ms
@ overall: 5776 ms
Collected results into ../../../results/depth_tmp/nn_Hybrid_Sched_geocity.txt_8_unsorted.stats

Loading data from ../../../results/depth_tmp/nn_Hybrid_Sched_geocity.txt_8_unsorted.stats...
{'traversal:': [4038.0, 4032.0], 'CPU:': [104.0, 100.0], 'kernel:': [922.0, 923.0], 'init_kernel:': [2590.0, 2579.0], 'read_data:': [744.0, 710.0], 'overall:': [5806.0, 5776.0], 'extra:': [375.0, 370.0], 'build_tree:': [146.0, 155.0]}
@ read_data: 667 ms
configuration: K = 1 DIM = 2 npoints = 200000 nsearchpoints = 200000
@ init_kernel: 2565 ms
the number of nodes is 524288, the depth is 19
@ build_tree: 152 ms
Time for asynchronous transfer and execute (ms): 255.198425
@ CPU: 100 ms
correct rate: 0.9928
@ traversal: 4001 ms
@ extra: 356 ms
@ kernel: 922 ms
@ overall: 5702 ms
Collected results into ../../../results/depth_tmp/nn_Hybrid_Sched_geocity.txt_8_unsorted.stats

Loading data from ../../../results/depth_tmp/nn_Hybrid_Sched_geocity.txt_8_unsorted.stats...
{'traversal:': [4038.0, 4032.0, 4001.0], 'CPU:': [104.0, 100.0, 100.0], 'read_data:': [744.0, 710.0, 667.0], 'kernel:': [922.0, 923.0, 922.0], 'init_kernel:': [2590.0, 2579.0, 2565.0], 'overall:': [5806.0, 5776.0, 5702.0], 'extra:': [375.0, 370.0, 356.0], 'build_tree:': [146.0, 155.0, 152.0]}
@ read_data: 684 ms
configuration: K = 1 DIM = 2 npoints = 200000 nsearchpoints = 200000
@ init_kernel: 2536 ms
the number of nodes is 524288, the depth is 19
@ build_tree: 155 ms
Time for asynchronous transfer and execute (ms): 270.295929
@ CPU: 99 ms
correct rate: 0.9928
@ traversal: 3988 ms
@ extra: 371 ms
@ kernel: 921 ms
@ overall: 5709 ms
Collected results into ../../../results/depth_tmp/nn_Hybrid_Sched_geocity.txt_8_unsorted.stats

Loading data from ../../../results/depth_tmp/nn_Hybrid_Sched_geocity.txt_8_unsorted.stats...
{'traversal:': [4038.0, 4032.0, 4001.0, 3988.0], 'CPU:': [104.0, 100.0, 100.0, 99.0], 'kernel:': [922.0, 923.0, 922.0, 921.0], 'init_kernel:': [2590.0, 2579.0, 2565.0, 2536.0], 'read_data:': [744.0, 710.0, 667.0, 684.0], 'overall:': [5806.0, 5776.0, 5702.0, 5709.0], 'extra:': [375.0, 370.0, 356.0, 371.0], 'build_tree:': [146.0, 155.0, 152.0, 155.0]}
@ read_data: 511 ms
configuration: K = 1 DIM = 2 npoints = 200000 nsearchpoints = 200000
@ init_kernel: 2724 ms
the number of nodes is 524288, the depth is 19
@ build_tree: 140 ms
Time for asynchronous transfer and execute (ms): 270.024719
@ CPU: 111 ms
correct rate: 0.9928
@ traversal: 4166 ms
@ extra: 382 ms
@ kernel: 914 ms
@ overall: 5696 ms
Collected results into ../../../results/depth_tmp/nn_Hybrid_Sched_geocity.txt_8_unsorted.stats

Loading data from ../../../results/depth_tmp/nn_Hybrid_Sched_geocity.txt_8_unsorted.stats...
{'traversal:': [4038.0, 4032.0, 4001.0, 3988.0, 4166.0], 'CPU:': [104.0, 100.0, 100.0, 99.0, 111.0], 'read_data:': [744.0, 710.0, 667.0, 684.0, 511.0], 'kernel:': [922.0, 923.0, 922.0, 921.0, 914.0], 'init_kernel:': [2590.0, 2579.0, 2565.0, 2536.0, 2724.0], 'overall:': [5806.0, 5776.0, 5702.0, 5709.0, 5696.0], 'extra:': [375.0, 370.0, 356.0, 371.0, 382.0], 'build_tree:': [146.0, 155.0, 152.0, 155.0, 140.0]}
@ read_data: 699 ms
configuration: K = 1 DIM = 2 npoints = 200000 nsearchpoints = 200000
@ init_kernel: 2693 ms
the number of nodes is 524288, the depth is 19
@ build_tree: 146 ms
Time for asynchronous transfer and execute (ms): 237.924454
@ CPU: 100 ms
correct rate: 0.9928
@ traversal: 4105 ms
@ extra: 339 ms
@ kernel: 922 ms
@ overall: 5824 ms
Collected results into ../../../results/depth_tmp/nn_Hybrid_Sched_geocity.txt_8_unsorted.stats

Loading data from ../../../results/depth_tmp/nn_Hybrid_Sched_geocity.txt_8_unsorted.stats...
{'traversal:': [4038.0, 4032.0, 4001.0, 3988.0, 4166.0, 4105.0], 'CPU:': [104.0, 100.0, 100.0, 99.0, 111.0, 100.0], 'kernel:': [922.0, 923.0, 922.0, 921.0, 914.0, 922.0], 'init_kernel:': [2590.0, 2579.0, 2565.0, 2536.0, 2724.0, 2693.0], 'read_data:': [744.0, 710.0, 667.0, 684.0, 511.0, 699.0], 'overall:': [5806.0, 5776.0, 5702.0, 5709.0, 5696.0, 5824.0], 'extra:': [375.0, 370.0, 356.0, 371.0, 382.0, 339.0], 'build_tree:': [146.0, 155.0, 152.0, 155.0, 140.0, 146.0]}
@ read_data: 629 ms
configuration: K = 1 DIM = 2 npoints = 200000 nsearchpoints = 200000
@ init_kernel: 2579 ms
the number of nodes is 524288, the depth is 19
@ build_tree: 154 ms
Time for asynchronous transfer and execute (ms): 246.384735
@ CPU: 100 ms
correct rate: 0.9928
@ traversal: 4005 ms
@ extra: 347 ms
@ kernel: 919 ms
@ overall: 5670 ms
Collected results into ../../../results/depth_tmp/nn_Hybrid_Sched_geocity.txt_8_unsorted.stats

Loading data from ../../../results/depth_tmp/nn_Hybrid_Sched_geocity.txt_8_unsorted.stats...
{'traversal:': [4038.0, 4032.0, 4001.0, 3988.0, 4166.0, 4105.0, 4005.0], 'CPU:': [104.0, 100.0, 100.0, 99.0, 111.0, 100.0, 100.0], 'read_data:': [744.0, 710.0, 667.0, 684.0, 511.0, 699.0, 629.0], 'kernel:': [922.0, 923.0, 922.0, 921.0, 914.0, 922.0, 919.0], 'init_kernel:': [2590.0, 2579.0, 2565.0, 2536.0, 2724.0, 2693.0, 2579.0], 'overall:': [5806.0, 5776.0, 5702.0, 5709.0, 5696.0, 5824.0, 5670.0], 'extra:': [375.0, 370.0, 356.0, 371.0, 382.0, 339.0, 347.0], 'build_tree:': [146.0, 155.0, 152.0, 155.0, 140.0, 146.0, 154.0]}
@ read_data: 635 ms
configuration: K = 1 DIM = 2 npoints = 200000 nsearchpoints = 200000
@ init_kernel: 2518 ms
the number of nodes is 524288, the depth is 19
@ build_tree: 145 ms
Time for asynchronous transfer and execute (ms): 265.980377
@ CPU: 99 ms
correct rate: 0.9928
@ traversal: 3948 ms
@ extra: 366 ms
@ kernel: 913 ms
@ overall: 5607 ms
Collected results into ../../../results/depth_tmp/nn_Hybrid_Sched_geocity.txt_8_unsorted.stats

Loading data from ../../../results/depth_tmp/nn_Hybrid_Sched_geocity.txt_8_unsorted.stats...
{'traversal:': [4038.0, 4032.0, 4001.0, 3988.0, 4166.0, 4105.0, 4005.0, 3948.0], 'CPU:': [104.0, 100.0, 100.0, 99.0, 111.0, 100.0, 100.0, 99.0], 'kernel:': [922.0, 923.0, 922.0, 921.0, 914.0, 922.0, 919.0, 913.0], 'init_kernel:': [2590.0, 2579.0, 2565.0, 2536.0, 2724.0, 2693.0, 2579.0, 2518.0], 'read_data:': [744.0, 710.0, 667.0, 684.0, 511.0, 699.0, 629.0, 635.0], 'overall:': [5806.0, 5776.0, 5702.0, 5709.0, 5696.0, 5824.0, 5670.0, 5607.0], 'extra:': [375.0, 370.0, 356.0, 371.0, 382.0, 339.0, 347.0, 366.0], 'build_tree:': [146.0, 155.0, 152.0, 155.0, 140.0, 146.0, 154.0, 145.0]}
@ read_data: 674 ms
configuration: K = 1 DIM = 2 npoints = 200000 nsearchpoints = 200000
@ init_kernel: 2534 ms
the number of nodes is 524288, the depth is 19
@ build_tree: 155 ms
Time for asynchronous transfer and execute (ms): 268.374115
@ CPU: 100 ms
correct rate: 0.9928
@ traversal: 3975 ms
@ extra: 369 ms
@ kernel: 912 ms
@ overall: 5687 ms
Collected results into ../../../results/depth_tmp/nn_Hybrid_Sched_geocity.txt_8_unsorted.stats

Loading data from ../../../results/depth_tmp/nn_Hybrid_Sched_geocity.txt_8_unsorted.stats...
{'traversal:': [4038.0, 4032.0, 4001.0, 3988.0, 4166.0, 4105.0, 4005.0, 3948.0, 3975.0], 'CPU:': [104.0, 100.0, 100.0, 99.0, 111.0, 100.0, 100.0, 99.0, 100.0], 'read_data:': [744.0, 710.0, 667.0, 684.0, 511.0, 699.0, 629.0, 635.0, 674.0], 'kernel:': [922.0, 923.0, 922.0, 921.0, 914.0, 922.0, 919.0, 913.0, 912.0], 'init_kernel:': [2590.0, 2579.0, 2565.0, 2536.0, 2724.0, 2693.0, 2579.0, 2518.0, 2534.0], 'overall:': [5806.0, 5776.0, 5702.0, 5709.0, 5696.0, 5824.0, 5670.0, 5607.0, 5687.0], 'extra:': [375.0, 370.0, 356.0, 371.0, 382.0, 339.0, 347.0, 366.0, 369.0], 'build_tree:': [146.0, 155.0, 152.0, 155.0, 140.0, 146.0, 154.0, 145.0, 155.0]}
@ read_data: 675 ms
configuration: K = 1 DIM = 2 npoints = 200000 nsearchpoints = 200000
@ init_kernel: 2514 ms
the number of nodes is 524288, the depth is 19
@ build_tree: 146 ms
Time for asynchronous transfer and execute (ms): 269.799683
@ CPU: 110 ms
correct rate: 0.9928
@ traversal: 3969 ms
@ extra: 381 ms
@ kernel: 922 ms
@ overall: 5669 ms
Collected results into ../../../results/depth_tmp/nn_Hybrid_Sched_geocity.txt_8_unsorted.stats

Loading data from ../../../results/depth_tmp/nn_Hybrid_Sched_geocity.txt_8_unsorted.stats...
{'traversal:': [4038.0, 4032.0, 4001.0, 3988.0, 4166.0, 4105.0, 4005.0, 3948.0, 3975.0, 3969.0], 'CPU:': [104.0, 100.0, 100.0, 99.0, 111.0, 100.0, 100.0, 99.0, 100.0, 110.0], 'kernel:': [922.0, 923.0, 922.0, 921.0, 914.0, 922.0, 919.0, 913.0, 912.0, 922.0], 'init_kernel:': [2590.0, 2579.0, 2565.0, 2536.0, 2724.0, 2693.0, 2579.0, 2518.0, 2534.0, 2514.0], 'read_data:': [744.0, 710.0, 667.0, 684.0, 511.0, 699.0, 629.0, 635.0, 674.0, 675.0], 'overall:': [5806.0, 5776.0, 5702.0, 5709.0, 5696.0, 5824.0, 5670.0, 5607.0, 5687.0, 5669.0], 'extra:': [375.0, 370.0, 356.0, 371.0, 382.0, 339.0, 347.0, 366.0, 369.0, 381.0], 'build_tree:': [146.0, 155.0, 152.0, 155.0, 140.0, 146.0, 154.0, 145.0, 155.0, 146.0]}
@ read_data: 704 ms
configuration: K = 1 DIM = 2 npoints = 200000 nsearchpoints = 200000
@ init_kernel: 2659 ms
the number of nodes is 524288, the depth is 19
@ build_tree: 154 ms
Time for asynchronous transfer and execute (ms): 234.016510
@ CPU: 99 ms
correct rate: 0.9928
@ traversal: 4079 ms
@ extra: 334 ms
@ kernel: 926 ms
@ overall: 5822 ms
Collected results into ../../../results/depth_tmp/nn_Hybrid_Sched_geocity.txt_8_unsorted.stats

Loading data from ../../../results/depth_tmp/nn_Hybrid_Sched_geocity.txt_8_unsorted.stats...
{'traversal:': [4038.0, 4032.0, 4001.0, 3988.0, 4166.0, 4105.0, 4005.0, 3948.0, 3975.0, 3969.0, 4079.0], 'CPU:': [104.0, 100.0, 100.0, 99.0, 111.0, 100.0, 100.0, 99.0, 100.0, 110.0, 99.0], 'read_data:': [744.0, 710.0, 667.0, 684.0, 511.0, 699.0, 629.0, 635.0, 674.0, 675.0, 704.0], 'kernel:': [922.0, 923.0, 922.0, 921.0, 914.0, 922.0, 919.0, 913.0, 912.0, 922.0, 926.0], 'init_kernel:': [2590.0, 2579.0, 2565.0, 2536.0, 2724.0, 2693.0, 2579.0, 2518.0, 2534.0, 2514.0, 2659.0], 'overall:': [5806.0, 5776.0, 5702.0, 5709.0, 5696.0, 5824.0, 5670.0, 5607.0, 5687.0, 5669.0, 5822.0], 'extra:': [375.0, 370.0, 356.0, 371.0, 382.0, 339.0, 347.0, 366.0, 369.0, 381.0, 334.0], 'build_tree:': [146.0, 155.0, 152.0, 155.0, 140.0, 146.0, 154.0, 145.0, 155.0, 146.0, 154.0]}
@ read_data: 617 ms
configuration: K = 1 DIM = 2 npoints = 200000 nsearchpoints = 200000
@ init_kernel: 2565 ms
the number of nodes is 524288, the depth is 19
@ build_tree: 144 ms
Time for asynchronous transfer and execute (ms): 250.867996
@ CPU: 100 ms
correct rate: 0.9928
@ traversal: 3988 ms
@ extra: 352 ms
@ kernel: 921 ms
@ overall: 5628 ms
Collected results into ../../../results/depth_tmp/nn_Hybrid_Sched_geocity.txt_8_unsorted.stats

Loading data from ../../../results/depth_tmp/nn_Hybrid_Sched_geocity.txt_8_unsorted.stats...
{'traversal:': [4038.0, 4032.0, 4001.0, 3988.0, 4166.0, 4105.0, 4005.0, 3948.0, 3975.0, 3969.0, 4079.0, 3988.0], 'CPU:': [104.0, 100.0, 100.0, 99.0, 111.0, 100.0, 100.0, 99.0, 100.0, 110.0, 99.0, 100.0], 'kernel:': [922.0, 923.0, 922.0, 921.0, 914.0, 922.0, 919.0, 913.0, 912.0, 922.0, 926.0, 921.0], 'init_kernel:': [2590.0, 2579.0, 2565.0, 2536.0, 2724.0, 2693.0, 2579.0, 2518.0, 2534.0, 2514.0, 2659.0, 2565.0], 'read_data:': [744.0, 710.0, 667.0, 684.0, 511.0, 699.0, 629.0, 635.0, 674.0, 675.0, 704.0, 617.0], 'overall:': [5806.0, 5776.0, 5702.0, 5709.0, 5696.0, 5824.0, 5670.0, 5607.0, 5687.0, 5669.0, 5822.0, 5628.0], 'extra:': [375.0, 370.0, 356.0, 371.0, 382.0, 339.0, 347.0, 366.0, 369.0, 381.0, 334.0, 352.0], 'build_tree:': [146.0, 155.0, 152.0, 155.0, 140.0, 146.0, 154.0, 145.0, 155.0, 146.0, 154.0, 144.0]}
@ read_data: 653 ms
configuration: K = 1 DIM = 2 npoints = 200000 nsearchpoints = 200000
@ init_kernel: 2603 ms
the number of nodes is 524288, the depth is 19
@ build_tree: 152 ms
Time for asynchronous transfer and execute (ms): 242.535461
@ CPU: 100 ms
correct rate: 0.9928
@ traversal: 4025 ms
@ extra: 343 ms
@ kernel: 921 ms
@ overall: 5717 ms
Collected results into ../../../results/depth_tmp/nn_Hybrid_Sched_geocity.txt_8_unsorted.stats

Loading data from ../../../results/depth_tmp/nn_Hybrid_Sched_geocity.txt_8_unsorted.stats...
{'traversal:': [4038.0, 4032.0, 4001.0, 3988.0, 4166.0, 4105.0, 4005.0, 3948.0, 3975.0, 3969.0, 4079.0, 3988.0, 4025.0], 'CPU:': [104.0, 100.0, 100.0, 99.0, 111.0, 100.0, 100.0, 99.0, 100.0, 110.0, 99.0, 100.0, 100.0], 'read_data:': [744.0, 710.0, 667.0, 684.0, 511.0, 699.0, 629.0, 635.0, 674.0, 675.0, 704.0, 617.0, 653.0], 'kernel:': [922.0, 923.0, 922.0, 921.0, 914.0, 922.0, 919.0, 913.0, 912.0, 922.0, 926.0, 921.0, 921.0], 'init_kernel:': [2590.0, 2579.0, 2565.0, 2536.0, 2724.0, 2693.0, 2579.0, 2518.0, 2534.0, 2514.0, 2659.0, 2565.0, 2603.0], 'overall:': [5806.0, 5776.0, 5702.0, 5709.0, 5696.0, 5824.0, 5670.0, 5607.0, 5687.0, 5669.0, 5822.0, 5628.0, 5717.0], 'extra:': [375.0, 370.0, 356.0, 371.0, 382.0, 339.0, 347.0, 366.0, 369.0, 381.0, 334.0, 352.0, 343.0], 'build_tree:': [146.0, 155.0, 152.0, 155.0, 140.0, 146.0, 154.0, 145.0, 155.0, 146.0, 154.0, 144.0, 152.0]}
@ read_data: 621 ms
configuration: K = 1 DIM = 2 npoints = 200000 nsearchpoints = 200000
@ init_kernel: 2576 ms
the number of nodes is 524288, the depth is 19
@ build_tree: 153 ms
Time for asynchronous transfer and execute (ms): 248.455612
@ CPU: 100 ms
correct rate: 0.9928
@ traversal: 4009 ms
@ extra: 349 ms
@ kernel: 925 ms
@ overall: 5668 ms
Collected results into ../../../results/depth_tmp/nn_Hybrid_Sched_geocity.txt_8_unsorted.stats

Loading data from ../../../results/depth_tmp/nn_Hybrid_Sched_geocity.txt_8_unsorted.stats...
{'traversal:': [4038.0, 4032.0, 4001.0, 3988.0, 4166.0, 4105.0, 4005.0, 3948.0, 3975.0, 3969.0, 4079.0, 3988.0, 4025.0, 4009.0], 'CPU:': [104.0, 100.0, 100.0, 99.0, 111.0, 100.0, 100.0, 99.0, 100.0, 110.0, 99.0, 100.0, 100.0, 100.0], 'kernel:': [922.0, 923.0, 922.0, 921.0, 914.0, 922.0, 919.0, 913.0, 912.0, 922.0, 926.0, 921.0, 921.0, 925.0], 'init_kernel:': [2590.0, 2579.0, 2565.0, 2536.0, 2724.0, 2693.0, 2579.0, 2518.0, 2534.0, 2514.0, 2659.0, 2565.0, 2603.0, 2576.0], 'read_data:': [744.0, 710.0, 667.0, 684.0, 511.0, 699.0, 629.0, 635.0, 674.0, 675.0, 704.0, 617.0, 653.0, 621.0], 'overall:': [5806.0, 5776.0, 5702.0, 5709.0, 5696.0, 5824.0, 5670.0, 5607.0, 5687.0, 5669.0, 5822.0, 5628.0, 5717.0, 5668.0], 'extra:': [375.0, 370.0, 356.0, 371.0, 382.0, 339.0, 347.0, 366.0, 369.0, 381.0, 334.0, 352.0, 343.0, 349.0], 'build_tree:': [146.0, 155.0, 152.0, 155.0, 140.0, 146.0, 154.0, 145.0, 155.0, 146.0, 154.0, 144.0, 152.0, 153.0]}
@ read_data: 631 ms
configuration: K = 1 DIM = 2 npoints = 200000 nsearchpoints = 200000
@ init_kernel: 2588 ms
the number of nodes is 524288, the depth is 19
@ build_tree: 142 ms
Time for asynchronous transfer and execute (ms): 246.325119
@ CPU: 100 ms
correct rate: 0.9928
@ traversal: 3999 ms
@ extra: 347 ms
@ kernel: 916 ms
@ overall: 5651 ms
Collected results into ../../../results/depth_tmp/nn_Hybrid_Sched_geocity.txt_8_unsorted.stats

