Results wll be collected to ../../../results/depth_tmp/nn_Hybrid_Sched_mnist.7d_3_unsorted.stats...
@ read_data: 1776 ms
configuration: K = 1 DIM = 7 npoints = 200000 nsearchpoints = 200000
@ init_kernel: 2513 ms
the number of nodes is 524288, the depth is 19
@ build_tree: 191 ms
Time for asynchronous transfer and execute (ms): 10.540288
@ CPU: 85 ms
correct rate: 0.4311
@ traversal: 10264 ms
@ extra: 96 ms
@ kernel: 7453 ms
@ overall: 13100 ms
Collected results into ../../../results/depth_tmp/nn_Hybrid_Sched_mnist.7d_3_unsorted.stats

Loading data from ../../../results/depth_tmp/nn_Hybrid_Sched_mnist.7d_3_unsorted.stats...
{'traversal:': [10264.0], 'CPU:': [85.0], 'read_data:': [1776.0], 'kernel:': [7453.0], 'init_kernel:': [2513.0], 'overall:': [13100.0], 'extra:': [96.0], 'build_tree:': [191.0]}
@ read_data: 1689 ms
configuration: K = 1 DIM = 7 npoints = 200000 nsearchpoints = 200000
@ init_kernel: 2672 ms
the number of nodes is 524288, the depth is 19
@ build_tree: 201 ms
Time for asynchronous transfer and execute (ms): 13.433248
@ CPU: 50 ms
correct rate: 0.4311
@ traversal: 10411 ms
@ extra: 64 ms
@ kernel: 7463 ms
@ overall: 13166 ms
Collected results into ../../../results/depth_tmp/nn_Hybrid_Sched_mnist.7d_3_unsorted.stats

Loading data from ../../../results/depth_tmp/nn_Hybrid_Sched_mnist.7d_3_unsorted.stats...
{'traversal:': [10264.0, 10411.0], 'CPU:': [85.0, 50.0], 'kernel:': [7453.0, 7463.0], 'init_kernel:': [2513.0, 2672.0], 'read_data:': [1776.0, 1689.0], 'overall:': [13100.0, 13166.0], 'extra:': [96.0, 64.0], 'build_tree:': [191.0, 201.0]}
@ read_data: 1741 ms
configuration: K = 1 DIM = 7 npoints = 200000 nsearchpoints = 200000
@ init_kernel: 2597 ms
the number of nodes is 524288, the depth is 19
@ build_tree: 202 ms
Time for asynchronous transfer and execute (ms): 10.573984
@ CPU: 85 ms
correct rate: 0.4311
@ traversal: 10338 ms
@ extra: 96 ms
@ kernel: 7433 ms
@ overall: 13139 ms
Collected results into ../../../results/depth_tmp/nn_Hybrid_Sched_mnist.7d_3_unsorted.stats

Loading data from ../../../results/depth_tmp/nn_Hybrid_Sched_mnist.7d_3_unsorted.stats...
{'traversal:': [10264.0, 10411.0, 10338.0], 'CPU:': [85.0, 50.0, 85.0], 'read_data:': [1776.0, 1689.0, 1741.0], 'kernel:': [7453.0, 7463.0, 7433.0], 'init_kernel:': [2513.0, 2672.0, 2597.0], 'overall:': [13100.0, 13166.0, 13139.0], 'extra:': [96.0, 64.0, 96.0], 'build_tree:': [191.0, 201.0, 202.0]}
@ read_data: 1773 ms
configuration: K = 1 DIM = 7 npoints = 200000 nsearchpoints = 200000
@ init_kernel: 2693 ms
the number of nodes is 524288, the depth is 19
@ build_tree: 214 ms
Time for asynchronous transfer and execute (ms): 13.362848
@ CPU: 67 ms
correct rate: 0.4311
@ traversal: 10442 ms
@ extra: 81 ms
@ kernel: 7443 ms
@ overall: 13295 ms
Collected results into ../../../results/depth_tmp/nn_Hybrid_Sched_mnist.7d_3_unsorted.stats

Loading data from ../../../results/depth_tmp/nn_Hybrid_Sched_mnist.7d_3_unsorted.stats...
{'traversal:': [10264.0, 10411.0, 10338.0, 10442.0], 'CPU:': [85.0, 50.0, 85.0, 67.0], 'kernel:': [7453.0, 7463.0, 7433.0, 7443.0], 'init_kernel:': [2513.0, 2672.0, 2597.0, 2693.0], 'read_data:': [1776.0, 1689.0, 1741.0, 1773.0], 'overall:': [13100.0, 13166.0, 13139.0, 13295.0], 'extra:': [96.0, 64.0, 96.0, 81.0], 'build_tree:': [191.0, 201.0, 202.0, 214.0]}
@ read_data: 1722 ms
configuration: K = 1 DIM = 7 npoints = 200000 nsearchpoints = 200000
@ init_kernel: 2588 ms
the number of nodes is 524288, the depth is 19
@ build_tree: 201 ms
Time for asynchronous transfer and execute (ms): 13.356064
@ CPU: 87 ms
correct rate: 0.4311
@ traversal: 10372 ms
@ extra: 101 ms
@ kernel: 7471 ms
@ overall: 13155 ms
Collected results into ../../../results/depth_tmp/nn_Hybrid_Sched_mnist.7d_3_unsorted.stats

Loading data from ../../../results/depth_tmp/nn_Hybrid_Sched_mnist.7d_3_unsorted.stats...
{'traversal:': [10264.0, 10411.0, 10338.0, 10442.0, 10372.0], 'CPU:': [85.0, 50.0, 85.0, 67.0, 87.0], 'read_data:': [1776.0, 1689.0, 1741.0, 1773.0, 1722.0], 'kernel:': [7453.0, 7463.0, 7433.0, 7443.0, 7471.0], 'init_kernel:': [2513.0, 2672.0, 2597.0, 2693.0, 2588.0], 'overall:': [13100.0, 13166.0, 13139.0, 13295.0, 13155.0], 'extra:': [96.0, 64.0, 96.0, 81.0, 101.0], 'build_tree:': [191.0, 201.0, 202.0, 214.0, 201.0]}
@ read_data: 1746 ms
configuration: K = 1 DIM = 7 npoints = 200000 nsearchpoints = 200000
@ init_kernel: 2718 ms
the number of nodes is 524288, the depth is 19
@ build_tree: 190 ms
Time for asynchronous transfer and execute (ms): 13.288128
@ CPU: 45 ms
correct rate: 0.4311
@ traversal: 10450 ms
@ extra: 59 ms
@ kernel: 7473 ms
@ overall: 13255 ms
Collected results into ../../../results/depth_tmp/nn_Hybrid_Sched_mnist.7d_3_unsorted.stats

Loading data from ../../../results/depth_tmp/nn_Hybrid_Sched_mnist.7d_3_unsorted.stats...
{'traversal:': [10264.0, 10411.0, 10338.0, 10442.0, 10372.0, 10450.0], 'CPU:': [85.0, 50.0, 85.0, 67.0, 87.0, 45.0], 'kernel:': [7453.0, 7463.0, 7433.0, 7443.0, 7471.0, 7473.0], 'init_kernel:': [2513.0, 2672.0, 2597.0, 2693.0, 2588.0, 2718.0], 'read_data:': [1776.0, 1689.0, 1741.0, 1773.0, 1722.0, 1746.0], 'overall:': [13100.0, 13166.0, 13139.0, 13295.0, 13155.0, 13255.0], 'extra:': [96.0, 64.0, 96.0, 81.0, 101.0, 59.0], 'build_tree:': [191.0, 201.0, 202.0, 214.0, 201.0, 190.0]}
@ read_data: 1692 ms
configuration: K = 1 DIM = 7 npoints = 200000 nsearchpoints = 200000
@ init_kernel: 2625 ms
the number of nodes is 524288, the depth is 19
@ build_tree: 169 ms
Time for asynchronous transfer and execute (ms): 9.808672
@ CPU: 60 ms
correct rate: 0.4311
@ traversal: 10343 ms
@ extra: 71 ms
@ kernel: 7469 ms
@ overall: 13123 ms
Collected results into ../../../results/depth_tmp/nn_Hybrid_Sched_mnist.7d_3_unsorted.stats

Loading data from ../../../results/depth_tmp/nn_Hybrid_Sched_mnist.7d_3_unsorted.stats...
{'traversal:': [10264.0, 10411.0, 10338.0, 10442.0, 10372.0, 10450.0, 10343.0], 'CPU:': [85.0, 50.0, 85.0, 67.0, 87.0, 45.0, 60.0], 'read_data:': [1776.0, 1689.0, 1741.0, 1773.0, 1722.0, 1746.0, 1692.0], 'kernel:': [7453.0, 7463.0, 7433.0, 7443.0, 7471.0, 7473.0, 7469.0], 'init_kernel:': [2513.0, 2672.0, 2597.0, 2693.0, 2588.0, 2718.0, 2625.0], 'overall:': [13100.0, 13166.0, 13139.0, 13295.0, 13155.0, 13255.0, 13123.0], 'extra:': [96.0, 64.0, 96.0, 81.0, 101.0, 59.0, 71.0], 'build_tree:': [191.0, 201.0, 202.0, 214.0, 201.0, 190.0, 169.0]}
@ read_data: 1757 ms
configuration: K = 1 DIM = 7 npoints = 200000 nsearchpoints = 200000
@ init_kernel: 2731 ms
the number of nodes is 524288, the depth is 19
@ build_tree: 201 ms
Time for asynchronous transfer and execute (ms): 10.535232
@ CPU: 51 ms
correct rate: 0.4311
@ traversal: 10477 ms
@ extra: 63 ms
@ kernel: 7471 ms
@ overall: 13298 ms
Collected results into ../../../results/depth_tmp/nn_Hybrid_Sched_mnist.7d_3_unsorted.stats

Loading data from ../../../results/depth_tmp/nn_Hybrid_Sched_mnist.7d_3_unsorted.stats...
{'traversal:': [10264.0, 10411.0, 10338.0, 10442.0, 10372.0, 10450.0, 10343.0, 10477.0], 'CPU:': [85.0, 50.0, 85.0, 67.0, 87.0, 45.0, 60.0, 51.0], 'kernel:': [7453.0, 7463.0, 7433.0, 7443.0, 7471.0, 7473.0, 7469.0, 7471.0], 'init_kernel:': [2513.0, 2672.0, 2597.0, 2693.0, 2588.0, 2718.0, 2625.0, 2731.0], 'read_data:': [1776.0, 1689.0, 1741.0, 1773.0, 1722.0, 1746.0, 1692.0, 1757.0], 'overall:': [13100.0, 13166.0, 13139.0, 13295.0, 13155.0, 13255.0, 13123.0, 13298.0], 'extra:': [96.0, 64.0, 96.0, 81.0, 101.0, 59.0, 71.0, 63.0], 'build_tree:': [191.0, 201.0, 202.0, 214.0, 201.0, 190.0, 169.0, 201.0]}
@ read_data: 1729 ms
configuration: K = 1 DIM = 7 npoints = 200000 nsearchpoints = 200000
@ init_kernel: 2570 ms
the number of nodes is 524288, the depth is 19
@ build_tree: 201 ms
Time for asynchronous transfer and execute (ms): 10.490656
@ CPU: 85 ms
correct rate: 0.4311
@ traversal: 10338 ms
@ extra: 96 ms
@ kernel: 7461 ms
@ overall: 13132 ms
Collected results into ../../../results/depth_tmp/nn_Hybrid_Sched_mnist.7d_3_unsorted.stats

Loading data from ../../../results/depth_tmp/nn_Hybrid_Sched_mnist.7d_3_unsorted.stats...
{'traversal:': [10264.0, 10411.0, 10338.0, 10442.0, 10372.0, 10450.0, 10343.0, 10477.0, 10338.0], 'CPU:': [85.0, 50.0, 85.0, 67.0, 87.0, 45.0, 60.0, 51.0, 85.0], 'read_data:': [1776.0, 1689.0, 1741.0, 1773.0, 1722.0, 1746.0, 1692.0, 1757.0, 1729.0], 'kernel:': [7453.0, 7463.0, 7433.0, 7443.0, 7471.0, 7473.0, 7469.0, 7471.0, 7461.0], 'init_kernel:': [2513.0, 2672.0, 2597.0, 2693.0, 2588.0, 2718.0, 2625.0, 2731.0, 2570.0], 'overall:': [13100.0, 13166.0, 13139.0, 13295.0, 13155.0, 13255.0, 13123.0, 13298.0, 13132.0], 'extra:': [96.0, 64.0, 96.0, 81.0, 101.0, 59.0, 71.0, 63.0, 96.0], 'build_tree:': [191.0, 201.0, 202.0, 214.0, 201.0, 190.0, 169.0, 201.0, 201.0]}
@ read_data: 1665 ms
configuration: K = 1 DIM = 7 npoints = 200000 nsearchpoints = 200000
@ init_kernel: 2585 ms
the number of nodes is 524288, the depth is 19
@ build_tree: 214 ms
Time for asynchronous transfer and execute (ms): 13.532928
@ CPU: 69 ms
correct rate: 0.4311
@ traversal: 10344 ms
@ extra: 83 ms
@ kernel: 7450 ms
@ overall: 13091 ms
Collected results into ../../../results/depth_tmp/nn_Hybrid_Sched_mnist.7d_3_unsorted.stats

Loading data from ../../../results/depth_tmp/nn_Hybrid_Sched_mnist.7d_3_unsorted.stats...
{'traversal:': [10264.0, 10411.0, 10338.0, 10442.0, 10372.0, 10450.0, 10343.0, 10477.0, 10338.0, 10344.0], 'CPU:': [85.0, 50.0, 85.0, 67.0, 87.0, 45.0, 60.0, 51.0, 85.0, 69.0], 'kernel:': [7453.0, 7463.0, 7433.0, 7443.0, 7471.0, 7473.0, 7469.0, 7471.0, 7461.0, 7450.0], 'init_kernel:': [2513.0, 2672.0, 2597.0, 2693.0, 2588.0, 2718.0, 2625.0, 2731.0, 2570.0, 2585.0], 'read_data:': [1776.0, 1689.0, 1741.0, 1773.0, 1722.0, 1746.0, 1692.0, 1757.0, 1729.0, 1665.0], 'overall:': [13100.0, 13166.0, 13139.0, 13295.0, 13155.0, 13255.0, 13123.0, 13298.0, 13132.0, 13091.0], 'extra:': [96.0, 64.0, 96.0, 81.0, 101.0, 59.0, 71.0, 63.0, 96.0, 83.0], 'build_tree:': [191.0, 201.0, 202.0, 214.0, 201.0, 190.0, 169.0, 201.0, 201.0, 214.0]}
@ read_data: 1710 ms
configuration: K = 1 DIM = 7 npoints = 200000 nsearchpoints = 200000
@ init_kernel: 2568 ms
the number of nodes is 524288, the depth is 19
@ build_tree: 192 ms
Time for asynchronous transfer and execute (ms): 10.559072
@ CPU: 85 ms
correct rate: 0.4311
@ traversal: 10358 ms
@ extra: 96 ms
@ kernel: 7490 ms
@ overall: 13150 ms
Collected results into ../../../results/depth_tmp/nn_Hybrid_Sched_mnist.7d_3_unsorted.stats

Loading data from ../../../results/depth_tmp/nn_Hybrid_Sched_mnist.7d_3_unsorted.stats...
{'traversal:': [10264.0, 10411.0, 10338.0, 10442.0, 10372.0, 10450.0, 10343.0, 10477.0, 10338.0, 10344.0, 10358.0], 'CPU:': [85.0, 50.0, 85.0, 67.0, 87.0, 45.0, 60.0, 51.0, 85.0, 69.0, 85.0], 'read_data:': [1776.0, 1689.0, 1741.0, 1773.0, 1722.0, 1746.0, 1692.0, 1757.0, 1729.0, 1665.0, 1710.0], 'kernel:': [7453.0, 7463.0, 7433.0, 7443.0, 7471.0, 7473.0, 7469.0, 7471.0, 7461.0, 7450.0, 7490.0], 'init_kernel:': [2513.0, 2672.0, 2597.0, 2693.0, 2588.0, 2718.0, 2625.0, 2731.0, 2570.0, 2585.0, 2568.0], 'overall:': [13100.0, 13166.0, 13139.0, 13295.0, 13155.0, 13255.0, 13123.0, 13298.0, 13132.0, 13091.0, 13150.0], 'extra:': [96.0, 64.0, 96.0, 81.0, 101.0, 59.0, 71.0, 63.0, 96.0, 83.0, 96.0], 'build_tree:': [191.0, 201.0, 202.0, 214.0, 201.0, 190.0, 169.0, 201.0, 201.0, 214.0, 192.0]}
@ read_data: 1720 ms
configuration: K = 1 DIM = 7 npoints = 200000 nsearchpoints = 200000
@ init_kernel: 2608 ms
the number of nodes is 524288, the depth is 19
@ build_tree: 201 ms
Time for asynchronous transfer and execute (ms): 10.509760
@ CPU: 85 ms
correct rate: 0.4311
@ traversal: 10358 ms
@ extra: 96 ms
@ kernel: 7443 ms
@ overall: 13142 ms
Collected results into ../../../results/depth_tmp/nn_Hybrid_Sched_mnist.7d_3_unsorted.stats

Loading data from ../../../results/depth_tmp/nn_Hybrid_Sched_mnist.7d_3_unsorted.stats...
{'traversal:': [10264.0, 10411.0, 10338.0, 10442.0, 10372.0, 10450.0, 10343.0, 10477.0, 10338.0, 10344.0, 10358.0, 10358.0], 'CPU:': [85.0, 50.0, 85.0, 67.0, 87.0, 45.0, 60.0, 51.0, 85.0, 69.0, 85.0, 85.0], 'kernel:': [7453.0, 7463.0, 7433.0, 7443.0, 7471.0, 7473.0, 7469.0, 7471.0, 7461.0, 7450.0, 7490.0, 7443.0], 'init_kernel:': [2513.0, 2672.0, 2597.0, 2693.0, 2588.0, 2718.0, 2625.0, 2731.0, 2570.0, 2585.0, 2568.0, 2608.0], 'read_data:': [1776.0, 1689.0, 1741.0, 1773.0, 1722.0, 1746.0, 1692.0, 1757.0, 1729.0, 1665.0, 1710.0, 1720.0], 'overall:': [13100.0, 13166.0, 13139.0, 13295.0, 13155.0, 13255.0, 13123.0, 13298.0, 13132.0, 13091.0, 13150.0, 13142.0], 'extra:': [96.0, 64.0, 96.0, 81.0, 101.0, 59.0, 71.0, 63.0, 96.0, 83.0, 96.0, 96.0], 'build_tree:': [191.0, 201.0, 202.0, 214.0, 201.0, 190.0, 169.0, 201.0, 201.0, 214.0, 192.0, 201.0]}
@ read_data: 1774 ms
configuration: K = 1 DIM = 7 npoints = 200000 nsearchpoints = 200000
@ init_kernel: 2648 ms
the number of nodes is 524288, the depth is 19
@ build_tree: 214 ms
Time for asynchronous transfer and execute (ms): 10.589760
@ CPU: 85 ms
correct rate: 0.4311
@ traversal: 10417 ms
@ extra: 96 ms
@ kernel: 7448 ms
@ overall: 13271 ms
Collected results into ../../../results/depth_tmp/nn_Hybrid_Sched_mnist.7d_3_unsorted.stats

Loading data from ../../../results/depth_tmp/nn_Hybrid_Sched_mnist.7d_3_unsorted.stats...
{'traversal:': [10264.0, 10411.0, 10338.0, 10442.0, 10372.0, 10450.0, 10343.0, 10477.0, 10338.0, 10344.0, 10358.0, 10358.0, 10417.0], 'CPU:': [85.0, 50.0, 85.0, 67.0, 87.0, 45.0, 60.0, 51.0, 85.0, 69.0, 85.0, 85.0, 85.0], 'read_data:': [1776.0, 1689.0, 1741.0, 1773.0, 1722.0, 1746.0, 1692.0, 1757.0, 1729.0, 1665.0, 1710.0, 1720.0, 1774.0], 'kernel:': [7453.0, 7463.0, 7433.0, 7443.0, 7471.0, 7473.0, 7469.0, 7471.0, 7461.0, 7450.0, 7490.0, 7443.0, 7448.0], 'init_kernel:': [2513.0, 2672.0, 2597.0, 2693.0, 2588.0, 2718.0, 2625.0, 2731.0, 2570.0, 2585.0, 2568.0, 2608.0, 2648.0], 'overall:': [13100.0, 13166.0, 13139.0, 13295.0, 13155.0, 13255.0, 13123.0, 13298.0, 13132.0, 13091.0, 13150.0, 13142.0, 13271.0], 'extra:': [96.0, 64.0, 96.0, 81.0, 101.0, 59.0, 71.0, 63.0, 96.0, 83.0, 96.0, 96.0, 96.0], 'build_tree:': [191.0, 201.0, 202.0, 214.0, 201.0, 190.0, 169.0, 201.0, 201.0, 214.0, 192.0, 201.0, 214.0]}
@ read_data: 1725 ms
configuration: K = 1 DIM = 7 npoints = 200000 nsearchpoints = 200000
@ init_kernel: 2589 ms
the number of nodes is 524288, the depth is 19
@ build_tree: 202 ms
Time for asynchronous transfer and execute (ms): 13.385984
@ CPU: 87 ms
correct rate: 0.4311
@ traversal: 10372 ms
@ extra: 101 ms
@ kernel: 7470 ms
@ overall: 13161 ms
Collected results into ../../../results/depth_tmp/nn_Hybrid_Sched_mnist.7d_3_unsorted.stats

Loading data from ../../../results/depth_tmp/nn_Hybrid_Sched_mnist.7d_3_unsorted.stats...
{'traversal:': [10264.0, 10411.0, 10338.0, 10442.0, 10372.0, 10450.0, 10343.0, 10477.0, 10338.0, 10344.0, 10358.0, 10358.0, 10417.0, 10372.0], 'CPU:': [85.0, 50.0, 85.0, 67.0, 87.0, 45.0, 60.0, 51.0, 85.0, 69.0, 85.0, 85.0, 85.0, 87.0], 'kernel:': [7453.0, 7463.0, 7433.0, 7443.0, 7471.0, 7473.0, 7469.0, 7471.0, 7461.0, 7450.0, 7490.0, 7443.0, 7448.0, 7470.0], 'init_kernel:': [2513.0, 2672.0, 2597.0, 2693.0, 2588.0, 2718.0, 2625.0, 2731.0, 2570.0, 2585.0, 2568.0, 2608.0, 2648.0, 2589.0], 'read_data:': [1776.0, 1689.0, 1741.0, 1773.0, 1722.0, 1746.0, 1692.0, 1757.0, 1729.0, 1665.0, 1710.0, 1720.0, 1774.0, 1725.0], 'overall:': [13100.0, 13166.0, 13139.0, 13295.0, 13155.0, 13255.0, 13123.0, 13298.0, 13132.0, 13091.0, 13150.0, 13142.0, 13271.0, 13161.0], 'extra:': [96.0, 64.0, 96.0, 81.0, 101.0, 59.0, 71.0, 63.0, 96.0, 83.0, 96.0, 96.0, 96.0, 101.0], 'build_tree:': [191.0, 201.0, 202.0, 214.0, 201.0, 190.0, 169.0, 201.0, 201.0, 214.0, 192.0, 201.0, 214.0, 202.0]}
@ read_data: 1729 ms
configuration: K = 1 DIM = 7 npoints = 200000 nsearchpoints = 200000
@ init_kernel: 2521 ms
the number of nodes is 524288, the depth is 19
@ build_tree: 157 ms
Time for asynchronous transfer and execute (ms): 7.947296
@ CPU: 44 ms
correct rate: 0.4311
@ traversal: 10187 ms
@ extra: 52 ms
@ kernel: 7448 ms
@ overall: 12973 ms
Collected results into ../../../results/depth_tmp/nn_Hybrid_Sched_mnist.7d_3_unsorted.stats

