Results wll be collected to ../../../results/depth_tmp/nn_Hybrid_Sched_random.7d_3_unsorted.stats...
@ read_data: 1667 ms
configuration: K = 1 DIM = 7 npoints = 200000 nsearchpoints = 200000
@ init_kernel: 2568 ms
the number of nodes is 524288, the depth is 19
@ build_tree: 188 ms
Time for asynchronous transfer and execute (ms): 13.119456
@ CPU: 62 ms
correct rate: 1.0000
@ traversal: 4339 ms
@ extra: 75 ms
@ kernel: 1498 ms
@ overall: 7047 ms
Collected results into ../../../results/depth_tmp/nn_Hybrid_Sched_random.7d_3_unsorted.stats

Loading data from ../../../results/depth_tmp/nn_Hybrid_Sched_random.7d_3_unsorted.stats...
{'traversal:': [4339.0], 'CPU:': [62.0], 'read_data:': [1667.0], 'kernel:': [1498.0], 'init_kernel:': [2568.0], 'overall:': [7047.0], 'extra:': [75.0], 'build_tree:': [188.0]}
@ read_data: 1590 ms
configuration: K = 1 DIM = 7 npoints = 200000 nsearchpoints = 200000
@ init_kernel: 2700 ms
the number of nodes is 524288, the depth is 19
@ build_tree: 198 ms
Time for asynchronous transfer and execute (ms): 13.467904
@ CPU: 86 ms
correct rate: 1.0000
@ traversal: 4501 ms
@ extra: 101 ms
@ kernel: 1492 ms
@ overall: 7161 ms
Collected results into ../../../results/depth_tmp/nn_Hybrid_Sched_random.7d_3_unsorted.stats

Loading data from ../../../results/depth_tmp/nn_Hybrid_Sched_random.7d_3_unsorted.stats...
{'traversal:': [4339.0, 4501.0], 'CPU:': [62.0, 86.0], 'kernel:': [1498.0, 1492.0], 'init_kernel:': [2568.0, 2700.0], 'read_data:': [1667.0, 1590.0], 'overall:': [7047.0, 7161.0], 'extra:': [75.0, 101.0], 'build_tree:': [188.0, 198.0]}
@ read_data: 1638 ms
configuration: K = 1 DIM = 7 npoints = 200000 nsearchpoints = 200000
@ init_kernel: 2583 ms
the number of nodes is 524288, the depth is 19
@ build_tree: 212 ms
Time for asynchronous transfer and execute (ms): 13.257152
@ CPU: 86 ms
correct rate: 1.0000
@ traversal: 4403 ms
@ extra: 100 ms
@ kernel: 1495 ms
@ overall: 7136 ms
Collected results into ../../../results/depth_tmp/nn_Hybrid_Sched_random.7d_3_unsorted.stats

Loading data from ../../../results/depth_tmp/nn_Hybrid_Sched_random.7d_3_unsorted.stats...
{'traversal:': [4339.0, 4501.0, 4403.0], 'CPU:': [62.0, 86.0, 86.0], 'read_data:': [1667.0, 1590.0, 1638.0], 'kernel:': [1498.0, 1492.0, 1495.0], 'init_kernel:': [2568.0, 2700.0, 2583.0], 'overall:': [7047.0, 7161.0, 7136.0], 'extra:': [75.0, 101.0, 100.0], 'build_tree:': [188.0, 198.0, 212.0]}
@ read_data: 1566 ms
configuration: K = 1 DIM = 7 npoints = 200000 nsearchpoints = 200000
@ init_kernel: 2708 ms
the number of nodes is 524288, the depth is 19
@ build_tree: 212 ms
Time for asynchronous transfer and execute (ms): 9.678880
@ CPU: 59 ms
correct rate: 1.0000
@ traversal: 4496 ms
@ extra: 70 ms
@ kernel: 1494 ms
@ overall: 7155 ms
Collected results into ../../../results/depth_tmp/nn_Hybrid_Sched_random.7d_3_unsorted.stats

Loading data from ../../../results/depth_tmp/nn_Hybrid_Sched_random.7d_3_unsorted.stats...
{'traversal:': [4339.0, 4501.0, 4403.0, 4496.0], 'CPU:': [62.0, 86.0, 86.0, 59.0], 'kernel:': [1498.0, 1492.0, 1495.0, 1494.0], 'init_kernel:': [2568.0, 2700.0, 2583.0, 2708.0], 'read_data:': [1667.0, 1590.0, 1638.0, 1566.0], 'overall:': [7047.0, 7161.0, 7136.0, 7155.0], 'extra:': [75.0, 101.0, 100.0, 70.0], 'build_tree:': [188.0, 198.0, 212.0, 212.0]}
@ read_data: 1613 ms
configuration: K = 1 DIM = 7 npoints = 200000 nsearchpoints = 200000
@ init_kernel: 2529 ms
the number of nodes is 524288, the depth is 19
@ build_tree: 213 ms
Time for asynchronous transfer and execute (ms): 12.896768
@ CPU: 44 ms
correct rate: 1.0000
@ traversal: 4302 ms
@ extra: 58 ms
@ kernel: 1491 ms
@ overall: 7005 ms
Collected results into ../../../results/depth_tmp/nn_Hybrid_Sched_random.7d_3_unsorted.stats

Loading data from ../../../results/depth_tmp/nn_Hybrid_Sched_random.7d_3_unsorted.stats...
{'traversal:': [4339.0, 4501.0, 4403.0, 4496.0, 4302.0], 'CPU:': [62.0, 86.0, 86.0, 59.0, 44.0], 'read_data:': [1667.0, 1590.0, 1638.0, 1566.0, 1613.0], 'kernel:': [1498.0, 1492.0, 1495.0, 1494.0, 1491.0], 'init_kernel:': [2568.0, 2700.0, 2583.0, 2708.0, 2529.0], 'overall:': [7047.0, 7161.0, 7136.0, 7155.0, 7005.0], 'extra:': [75.0, 101.0, 100.0, 70.0, 58.0], 'build_tree:': [188.0, 198.0, 212.0, 212.0, 213.0]}
@ read_data: 1569 ms
configuration: K = 1 DIM = 7 npoints = 200000 nsearchpoints = 200000
@ init_kernel: 2561 ms
the number of nodes is 524288, the depth is 19
@ build_tree: 210 ms
Time for asynchronous transfer and execute (ms): 11.667232
@ CPU: 85 ms
correct rate: 1.0000
@ traversal: 4375 ms
@ extra: 97 ms
@ kernel: 1495 ms
@ overall: 7033 ms
Collected results into ../../../results/depth_tmp/nn_Hybrid_Sched_random.7d_3_unsorted.stats

Loading data from ../../../results/depth_tmp/nn_Hybrid_Sched_random.7d_3_unsorted.stats...
{'traversal:': [4339.0, 4501.0, 4403.0, 4496.0, 4302.0, 4375.0], 'CPU:': [62.0, 86.0, 86.0, 59.0, 44.0, 85.0], 'kernel:': [1498.0, 1492.0, 1495.0, 1494.0, 1491.0, 1495.0], 'init_kernel:': [2568.0, 2700.0, 2583.0, 2708.0, 2529.0, 2561.0], 'read_data:': [1667.0, 1590.0, 1638.0, 1566.0, 1613.0, 1569.0], 'overall:': [7047.0, 7161.0, 7136.0, 7155.0, 7005.0, 7033.0], 'extra:': [75.0, 101.0, 100.0, 70.0, 58.0, 97.0], 'build_tree:': [188.0, 198.0, 212.0, 212.0, 213.0, 210.0]}
@ read_data: 1644 ms
configuration: K = 1 DIM = 7 npoints = 200000 nsearchpoints = 200000
@ init_kernel: 2580 ms
the number of nodes is 524288, the depth is 19
@ build_tree: 199 ms
Time for asynchronous transfer and execute (ms): 13.077920
@ CPU: 44 ms
correct rate: 1.0000
@ traversal: 4342 ms
@ extra: 58 ms
@ kernel: 1495 ms
@ overall: 7055 ms
Collected results into ../../../results/depth_tmp/nn_Hybrid_Sched_random.7d_3_unsorted.stats

Loading data from ../../../results/depth_tmp/nn_Hybrid_Sched_random.7d_3_unsorted.stats...
{'traversal:': [4339.0, 4501.0, 4403.0, 4496.0, 4302.0, 4375.0, 4342.0], 'CPU:': [62.0, 86.0, 86.0, 59.0, 44.0, 85.0, 44.0], 'read_data:': [1667.0, 1590.0, 1638.0, 1566.0, 1613.0, 1569.0, 1644.0], 'kernel:': [1498.0, 1492.0, 1495.0, 1494.0, 1491.0, 1495.0, 1495.0], 'init_kernel:': [2568.0, 2700.0, 2583.0, 2708.0, 2529.0, 2561.0, 2580.0], 'overall:': [7047.0, 7161.0, 7136.0, 7155.0, 7005.0, 7033.0, 7055.0], 'extra:': [75.0, 101.0, 100.0, 70.0, 58.0, 97.0, 58.0], 'build_tree:': [188.0, 198.0, 212.0, 212.0, 213.0, 210.0, 199.0]}
@ read_data: 1589 ms
configuration: K = 1 DIM = 7 npoints = 200000 nsearchpoints = 200000
@ init_kernel: 2683 ms
the number of nodes is 524288, the depth is 19
@ build_tree: 199 ms
Time for asynchronous transfer and execute (ms): 10.459040
@ CPU: 85 ms
correct rate: 1.0000
@ traversal: 4477 ms
@ extra: 96 ms
@ kernel: 1489 ms
@ overall: 7130 ms
Collected results into ../../../results/depth_tmp/nn_Hybrid_Sched_random.7d_3_unsorted.stats

Loading data from ../../../results/depth_tmp/nn_Hybrid_Sched_random.7d_3_unsorted.stats...
{'traversal:': [4339.0, 4501.0, 4403.0, 4496.0, 4302.0, 4375.0, 4342.0, 4477.0], 'CPU:': [62.0, 86.0, 86.0, 59.0, 44.0, 85.0, 44.0, 85.0], 'kernel:': [1498.0, 1492.0, 1495.0, 1494.0, 1491.0, 1495.0, 1495.0, 1489.0], 'init_kernel:': [2568.0, 2700.0, 2583.0, 2708.0, 2529.0, 2561.0, 2580.0, 2683.0], 'read_data:': [1667.0, 1590.0, 1638.0, 1566.0, 1613.0, 1569.0, 1644.0, 1589.0], 'overall:': [7047.0, 7161.0, 7136.0, 7155.0, 7005.0, 7033.0, 7055.0, 7130.0], 'extra:': [75.0, 101.0, 100.0, 70.0, 58.0, 97.0, 58.0, 96.0], 'build_tree:': [188.0, 198.0, 212.0, 212.0, 213.0, 210.0, 199.0, 199.0]}
@ read_data: 1624 ms
configuration: K = 1 DIM = 7 npoints = 200000 nsearchpoints = 200000
@ init_kernel: 2542 ms
the number of nodes is 524288, the depth is 19
@ build_tree: 199 ms
Time for asynchronous transfer and execute (ms): 10.404000
@ CPU: 43 ms
correct rate: 1.0000
@ traversal: 4304 ms
@ extra: 55 ms
@ kernel: 1498 ms
@ overall: 6994 ms
Collected results into ../../../results/depth_tmp/nn_Hybrid_Sched_random.7d_3_unsorted.stats

Loading data from ../../../results/depth_tmp/nn_Hybrid_Sched_random.7d_3_unsorted.stats...
{'traversal:': [4339.0, 4501.0, 4403.0, 4496.0, 4302.0, 4375.0, 4342.0, 4477.0, 4304.0], 'CPU:': [62.0, 86.0, 86.0, 59.0, 44.0, 85.0, 44.0, 85.0, 43.0], 'read_data:': [1667.0, 1590.0, 1638.0, 1566.0, 1613.0, 1569.0, 1644.0, 1589.0, 1624.0], 'kernel:': [1498.0, 1492.0, 1495.0, 1494.0, 1491.0, 1495.0, 1495.0, 1489.0, 1498.0], 'init_kernel:': [2568.0, 2700.0, 2583.0, 2708.0, 2529.0, 2561.0, 2580.0, 2683.0, 2542.0], 'overall:': [7047.0, 7161.0, 7136.0, 7155.0, 7005.0, 7033.0, 7055.0, 7130.0, 6994.0], 'extra:': [75.0, 101.0, 100.0, 70.0, 58.0, 97.0, 58.0, 96.0, 55.0], 'build_tree:': [188.0, 198.0, 212.0, 212.0, 213.0, 210.0, 199.0, 199.0, 199.0]}
@ read_data: 1586 ms
configuration: K = 1 DIM = 7 npoints = 200000 nsearchpoints = 200000
@ init_kernel: 2690 ms
the number of nodes is 524288, the depth is 19
@ build_tree: 189 ms
Time for asynchronous transfer and execute (ms): 10.430112
@ CPU: 82 ms
correct rate: 1.0000
@ traversal: 4481 ms
@ extra: 93 ms
@ kernel: 1498 ms
@ overall: 7150 ms
Collected results into ../../../results/depth_tmp/nn_Hybrid_Sched_random.7d_3_unsorted.stats

Loading data from ../../../results/depth_tmp/nn_Hybrid_Sched_random.7d_3_unsorted.stats...
{'traversal:': [4339.0, 4501.0, 4403.0, 4496.0, 4302.0, 4375.0, 4342.0, 4477.0, 4304.0, 4481.0], 'CPU:': [62.0, 86.0, 86.0, 59.0, 44.0, 85.0, 44.0, 85.0, 43.0, 82.0], 'kernel:': [1498.0, 1492.0, 1495.0, 1494.0, 1491.0, 1495.0, 1495.0, 1489.0, 1498.0, 1498.0], 'init_kernel:': [2568.0, 2700.0, 2583.0, 2708.0, 2529.0, 2561.0, 2580.0, 2683.0, 2542.0, 2690.0], 'read_data:': [1667.0, 1590.0, 1638.0, 1566.0, 1613.0, 1569.0, 1644.0, 1589.0, 1624.0, 1586.0], 'overall:': [7047.0, 7161.0, 7136.0, 7155.0, 7005.0, 7033.0, 7055.0, 7130.0, 6994.0, 7150.0], 'extra:': [75.0, 101.0, 100.0, 70.0, 58.0, 97.0, 58.0, 96.0, 55.0, 93.0], 'build_tree:': [188.0, 198.0, 212.0, 212.0, 213.0, 210.0, 199.0, 199.0, 199.0, 189.0]}
@ read_data: 1642 ms
configuration: K = 1 DIM = 7 npoints = 200000 nsearchpoints = 200000
@ init_kernel: 2598 ms
the number of nodes is 524288, the depth is 19
@ build_tree: 138 ms
Time for asynchronous transfer and execute (ms): 7.714560
@ CPU: 48 ms
correct rate: 1.0000
@ traversal: 4294 ms
@ extra: 56 ms
@ kernel: 1493 ms
@ overall: 6977 ms
Collected results into ../../../results/depth_tmp/nn_Hybrid_Sched_random.7d_3_unsorted.stats

Loading data from ../../../results/depth_tmp/nn_Hybrid_Sched_random.7d_3_unsorted.stats...
{'traversal:': [4339.0, 4501.0, 4403.0, 4496.0, 4302.0, 4375.0, 4342.0, 4477.0, 4304.0, 4481.0, 4294.0], 'CPU:': [62.0, 86.0, 86.0, 59.0, 44.0, 85.0, 44.0, 85.0, 43.0, 82.0, 48.0], 'read_data:': [1667.0, 1590.0, 1638.0, 1566.0, 1613.0, 1569.0, 1644.0, 1589.0, 1624.0, 1586.0, 1642.0], 'kernel:': [1498.0, 1492.0, 1495.0, 1494.0, 1491.0, 1495.0, 1495.0, 1489.0, 1498.0, 1498.0, 1493.0], 'init_kernel:': [2568.0, 2700.0, 2583.0, 2708.0, 2529.0, 2561.0, 2580.0, 2683.0, 2542.0, 2690.0, 2598.0], 'overall:': [7047.0, 7161.0, 7136.0, 7155.0, 7005.0, 7033.0, 7055.0, 7130.0, 6994.0, 7150.0, 6977.0], 'extra:': [75.0, 101.0, 100.0, 70.0, 58.0, 97.0, 58.0, 96.0, 55.0, 93.0, 56.0], 'build_tree:': [188.0, 198.0, 212.0, 212.0, 213.0, 210.0, 199.0, 199.0, 199.0, 189.0, 138.0]}
@ read_data: 1596 ms
configuration: K = 1 DIM = 7 npoints = 200000 nsearchpoints = 200000
@ init_kernel: 2568 ms
the number of nodes is 524288, the depth is 19
@ build_tree: 170 ms
Time for asynchronous transfer and execute (ms): 8.957376
@ CPU: 44 ms
correct rate: 1.0000
@ traversal: 4293 ms
@ extra: 53 ms
@ kernel: 1492 ms
@ overall: 6981 ms
Collected results into ../../../results/depth_tmp/nn_Hybrid_Sched_random.7d_3_unsorted.stats

Loading data from ../../../results/depth_tmp/nn_Hybrid_Sched_random.7d_3_unsorted.stats...
{'traversal:': [4339.0, 4501.0, 4403.0, 4496.0, 4302.0, 4375.0, 4342.0, 4477.0, 4304.0, 4481.0, 4294.0, 4293.0], 'CPU:': [62.0, 86.0, 86.0, 59.0, 44.0, 85.0, 44.0, 85.0, 43.0, 82.0, 48.0, 44.0], 'kernel:': [1498.0, 1492.0, 1495.0, 1494.0, 1491.0, 1495.0, 1495.0, 1489.0, 1498.0, 1498.0, 1493.0, 1492.0], 'init_kernel:': [2568.0, 2700.0, 2583.0, 2708.0, 2529.0, 2561.0, 2580.0, 2683.0, 2542.0, 2690.0, 2598.0, 2568.0], 'read_data:': [1667.0, 1590.0, 1638.0, 1566.0, 1613.0, 1569.0, 1644.0, 1589.0, 1624.0, 1586.0, 1642.0, 1596.0], 'overall:': [7047.0, 7161.0, 7136.0, 7155.0, 7005.0, 7033.0, 7055.0, 7130.0, 6994.0, 7150.0, 6977.0, 6981.0], 'extra:': [75.0, 101.0, 100.0, 70.0, 58.0, 97.0, 58.0, 96.0, 55.0, 93.0, 56.0, 53.0], 'build_tree:': [188.0, 198.0, 212.0, 212.0, 213.0, 210.0, 199.0, 199.0, 199.0, 189.0, 138.0, 170.0]}
@ read_data: 1596 ms
configuration: K = 1 DIM = 7 npoints = 200000 nsearchpoints = 200000
@ init_kernel: 2717 ms
the number of nodes is 524288, the depth is 19
@ build_tree: 197 ms
Time for asynchronous transfer and execute (ms): 10.357216
@ CPU: 83 ms
correct rate: 1.0000
@ traversal: 4514 ms
@ extra: 95 ms
@ kernel: 1496 ms
@ overall: 7176 ms
Collected results into ../../../results/depth_tmp/nn_Hybrid_Sched_random.7d_3_unsorted.stats

Loading data from ../../../results/depth_tmp/nn_Hybrid_Sched_random.7d_3_unsorted.stats...
{'traversal:': [4339.0, 4501.0, 4403.0, 4496.0, 4302.0, 4375.0, 4342.0, 4477.0, 4304.0, 4481.0, 4294.0, 4293.0, 4514.0], 'CPU:': [62.0, 86.0, 86.0, 59.0, 44.0, 85.0, 44.0, 85.0, 43.0, 82.0, 48.0, 44.0, 83.0], 'read_data:': [1667.0, 1590.0, 1638.0, 1566.0, 1613.0, 1569.0, 1644.0, 1589.0, 1624.0, 1586.0, 1642.0, 1596.0, 1596.0], 'kernel:': [1498.0, 1492.0, 1495.0, 1494.0, 1491.0, 1495.0, 1495.0, 1489.0, 1498.0, 1498.0, 1493.0, 1492.0, 1496.0], 'init_kernel:': [2568.0, 2700.0, 2583.0, 2708.0, 2529.0, 2561.0, 2580.0, 2683.0, 2542.0, 2690.0, 2598.0, 2568.0, 2717.0], 'overall:': [7047.0, 7161.0, 7136.0, 7155.0, 7005.0, 7033.0, 7055.0, 7130.0, 6994.0, 7150.0, 6977.0, 6981.0, 7176.0], 'extra:': [75.0, 101.0, 100.0, 70.0, 58.0, 97.0, 58.0, 96.0, 55.0, 93.0, 56.0, 53.0, 95.0], 'build_tree:': [188.0, 198.0, 212.0, 212.0, 213.0, 210.0, 199.0, 199.0, 199.0, 189.0, 138.0, 170.0, 197.0]}
@ read_data: 1608 ms
configuration: K = 1 DIM = 7 npoints = 200000 nsearchpoints = 200000
@ init_kernel: 2530 ms
the number of nodes is 524288, the depth is 19
@ build_tree: 210 ms
Time for asynchronous transfer and execute (ms): 11.087072
@ CPU: 44 ms
correct rate: 1.0000
@ traversal: 4301 ms
@ extra: 56 ms
@ kernel: 1494 ms
@ overall: 7003 ms
Collected results into ../../../results/depth_tmp/nn_Hybrid_Sched_random.7d_3_unsorted.stats

Loading data from ../../../results/depth_tmp/nn_Hybrid_Sched_random.7d_3_unsorted.stats...
{'traversal:': [4339.0, 4501.0, 4403.0, 4496.0, 4302.0, 4375.0, 4342.0, 4477.0, 4304.0, 4481.0, 4294.0, 4293.0, 4514.0, 4301.0], 'CPU:': [62.0, 86.0, 86.0, 59.0, 44.0, 85.0, 44.0, 85.0, 43.0, 82.0, 48.0, 44.0, 83.0, 44.0], 'kernel:': [1498.0, 1492.0, 1495.0, 1494.0, 1491.0, 1495.0, 1495.0, 1489.0, 1498.0, 1498.0, 1493.0, 1492.0, 1496.0, 1494.0], 'init_kernel:': [2568.0, 2700.0, 2583.0, 2708.0, 2529.0, 2561.0, 2580.0, 2683.0, 2542.0, 2690.0, 2598.0, 2568.0, 2717.0, 2530.0], 'read_data:': [1667.0, 1590.0, 1638.0, 1566.0, 1613.0, 1569.0, 1644.0, 1589.0, 1624.0, 1586.0, 1642.0, 1596.0, 1596.0, 1608.0], 'overall:': [7047.0, 7161.0, 7136.0, 7155.0, 7005.0, 7033.0, 7055.0, 7130.0, 6994.0, 7150.0, 6977.0, 6981.0, 7176.0, 7003.0], 'extra:': [75.0, 101.0, 100.0, 70.0, 58.0, 97.0, 58.0, 96.0, 55.0, 93.0, 56.0, 53.0, 95.0, 56.0], 'build_tree:': [188.0, 198.0, 212.0, 212.0, 213.0, 210.0, 199.0, 199.0, 199.0, 189.0, 138.0, 170.0, 197.0, 210.0]}
@ read_data: 1556 ms
configuration: K = 1 DIM = 7 npoints = 200000 nsearchpoints = 200000
@ init_kernel: 2547 ms
the number of nodes is 524288, the depth is 19
@ build_tree: 197 ms
Time for asynchronous transfer and execute (ms): 13.454368
@ CPU: 86 ms
correct rate: 1.0000
@ traversal: 4347 ms
@ extra: 100 ms
@ kernel: 1492 ms
@ overall: 6972 ms
Collected results into ../../../results/depth_tmp/nn_Hybrid_Sched_random.7d_3_unsorted.stats

