Results wll be collected to ../../../results/depth_tmp/nn_Hybrid_Sched_geocity.txt_10_unsorted.stats...
@ read_data: 739 ms
configuration: K = 1 DIM = 2 npoints = 200000 nsearchpoints = 200000
@ init_kernel: 2556 ms
the number of nodes is 524288, the depth is 19
@ build_tree: 141 ms
Time for asynchronous transfer and execute (ms): 867.075867
@ CPU: 236 ms
correct rate: 0.9928
@ traversal: 4708 ms
@ extra: 1106 ms
@ kernel: 900 ms
@ overall: 6472 ms
Collected results into ../../../results/depth_tmp/nn_Hybrid_Sched_geocity.txt_10_unsorted.stats

Loading data from ../../../results/depth_tmp/nn_Hybrid_Sched_geocity.txt_10_unsorted.stats...
{'traversal:': [4708.0], 'CPU:': [236.0], 'read_data:': [739.0], 'kernel:': [900.0], 'init_kernel:': [2556.0], 'overall:': [6472.0], 'extra:': [1106.0], 'build_tree:': [141.0]}
@ read_data: 745 ms
configuration: K = 1 DIM = 2 npoints = 200000 nsearchpoints = 200000
@ init_kernel: 2542 ms
the number of nodes is 524288, the depth is 19
@ build_tree: 152 ms
Time for asynchronous transfer and execute (ms): 809.890564
@ CPU: 236 ms
correct rate: 0.9928
@ traversal: 4654 ms
@ extra: 1048 ms
@ kernel: 905 ms
@ overall: 6442 ms
Collected results into ../../../results/depth_tmp/nn_Hybrid_Sched_geocity.txt_10_unsorted.stats

Loading data from ../../../results/depth_tmp/nn_Hybrid_Sched_geocity.txt_10_unsorted.stats...
{'traversal:': [4708.0, 4654.0], 'CPU:': [236.0, 236.0], 'kernel:': [900.0, 905.0], 'init_kernel:': [2556.0, 2542.0], 'read_data:': [739.0, 745.0], 'overall:': [6472.0, 6442.0], 'extra:': [1106.0, 1048.0], 'build_tree:': [141.0, 152.0]}
@ read_data: 614 ms
configuration: K = 1 DIM = 2 npoints = 200000 nsearchpoints = 200000
@ init_kernel: 2591 ms
the number of nodes is 524288, the depth is 19
@ build_tree: 146 ms
Time for asynchronous transfer and execute (ms): 816.366333
@ CPU: 237 ms
correct rate: 0.9928
@ traversal: 4723 ms
@ extra: 1056 ms
@ kernel: 925 ms
@ overall: 6367 ms
Collected results into ../../../results/depth_tmp/nn_Hybrid_Sched_geocity.txt_10_unsorted.stats

Loading data from ../../../results/depth_tmp/nn_Hybrid_Sched_geocity.txt_10_unsorted.stats...
{'traversal:': [4708.0, 4654.0, 4723.0], 'CPU:': [236.0, 236.0, 237.0], 'read_data:': [739.0, 745.0, 614.0], 'kernel:': [900.0, 905.0, 925.0], 'init_kernel:': [2556.0, 2542.0, 2591.0], 'overall:': [6472.0, 6442.0, 6367.0], 'extra:': [1106.0, 1048.0, 1056.0], 'build_tree:': [141.0, 152.0, 146.0]}
@ read_data: 645 ms
configuration: K = 1 DIM = 2 npoints = 200000 nsearchpoints = 200000
@ init_kernel: 2579 ms
the number of nodes is 524288, the depth is 19
@ build_tree: 144 ms
Time for asynchronous transfer and execute (ms): 842.510498
@ CPU: 236 ms
correct rate: 0.9928
@ traversal: 4728 ms
@ extra: 1081 ms
@ kernel: 919 ms
@ overall: 6404 ms
Collected results into ../../../results/depth_tmp/nn_Hybrid_Sched_geocity.txt_10_unsorted.stats

Loading data from ../../../results/depth_tmp/nn_Hybrid_Sched_geocity.txt_10_unsorted.stats...
{'traversal:': [4708.0, 4654.0, 4723.0, 4728.0], 'CPU:': [236.0, 236.0, 237.0, 236.0], 'kernel:': [900.0, 905.0, 925.0, 919.0], 'init_kernel:': [2556.0, 2542.0, 2591.0, 2579.0], 'read_data:': [739.0, 745.0, 614.0, 645.0], 'overall:': [6472.0, 6442.0, 6367.0, 6404.0], 'extra:': [1106.0, 1048.0, 1056.0, 1081.0], 'build_tree:': [141.0, 152.0, 146.0, 144.0]}
@ read_data: 666 ms
configuration: K = 1 DIM = 2 npoints = 200000 nsearchpoints = 200000
@ init_kernel: 2530 ms
the number of nodes is 524288, the depth is 19
@ build_tree: 151 ms
Time for asynchronous transfer and execute (ms): 851.042786
@ CPU: 237 ms
correct rate: 0.9928
@ traversal: 4685 ms
@ extra: 1091 ms
@ kernel: 906 ms
@ overall: 6393 ms
Collected results into ../../../results/depth_tmp/nn_Hybrid_Sched_geocity.txt_10_unsorted.stats

Loading data from ../../../results/depth_tmp/nn_Hybrid_Sched_geocity.txt_10_unsorted.stats...
{'traversal:': [4708.0, 4654.0, 4723.0, 4728.0, 4685.0], 'CPU:': [236.0, 236.0, 237.0, 236.0, 237.0], 'read_data:': [739.0, 745.0, 614.0, 645.0, 666.0], 'kernel:': [900.0, 905.0, 925.0, 919.0, 906.0], 'init_kernel:': [2556.0, 2542.0, 2591.0, 2579.0, 2530.0], 'overall:': [6472.0, 6442.0, 6367.0, 6404.0, 6393.0], 'extra:': [1106.0, 1048.0, 1056.0, 1081.0, 1091.0], 'build_tree:': [141.0, 152.0, 146.0, 144.0, 151.0]}
@ read_data: 682 ms
configuration: K = 1 DIM = 2 npoints = 200000 nsearchpoints = 200000
@ init_kernel: 2706 ms
the number of nodes is 524288, the depth is 19
@ build_tree: 154 ms
Time for asynchronous transfer and execute (ms): 812.953918
@ CPU: 236 ms
correct rate: 0.9928
@ traversal: 4826 ms
@ extra: 1052 ms
@ kernel: 908 ms
@ overall: 6550 ms
Collected results into ../../../results/depth_tmp/nn_Hybrid_Sched_geocity.txt_10_unsorted.stats

Loading data from ../../../results/depth_tmp/nn_Hybrid_Sched_geocity.txt_10_unsorted.stats...
{'traversal:': [4708.0, 4654.0, 4723.0, 4728.0, 4685.0, 4826.0], 'CPU:': [236.0, 236.0, 237.0, 236.0, 237.0, 236.0], 'kernel:': [900.0, 905.0, 925.0, 919.0, 906.0, 908.0], 'init_kernel:': [2556.0, 2542.0, 2591.0, 2579.0, 2530.0, 2706.0], 'read_data:': [739.0, 745.0, 614.0, 645.0, 666.0, 682.0], 'overall:': [6472.0, 6442.0, 6367.0, 6404.0, 6393.0, 6550.0], 'extra:': [1106.0, 1048.0, 1056.0, 1081.0, 1091.0, 1052.0], 'build_tree:': [141.0, 152.0, 146.0, 144.0, 151.0, 154.0]}
@ read_data: 647 ms
configuration: K = 1 DIM = 2 npoints = 200000 nsearchpoints = 200000
@ init_kernel: 2562 ms
the number of nodes is 524288, the depth is 19
@ build_tree: 98 ms
Time for asynchronous transfer and execute (ms): 709.242737
@ CPU: 237 ms
correct rate: 0.9928
@ traversal: 4520 ms
@ extra: 948 ms
@ kernel: 908 ms
@ overall: 6200 ms
Collected results into ../../../results/depth_tmp/nn_Hybrid_Sched_geocity.txt_10_unsorted.stats

Loading data from ../../../results/depth_tmp/nn_Hybrid_Sched_geocity.txt_10_unsorted.stats...
{'traversal:': [4708.0, 4654.0, 4723.0, 4728.0, 4685.0, 4826.0, 4520.0], 'CPU:': [236.0, 236.0, 237.0, 236.0, 237.0, 236.0, 237.0], 'read_data:': [739.0, 745.0, 614.0, 645.0, 666.0, 682.0, 647.0], 'kernel:': [900.0, 905.0, 925.0, 919.0, 906.0, 908.0, 908.0], 'init_kernel:': [2556.0, 2542.0, 2591.0, 2579.0, 2530.0, 2706.0, 2562.0], 'overall:': [6472.0, 6442.0, 6367.0, 6404.0, 6393.0, 6550.0, 6200.0], 'extra:': [1106.0, 1048.0, 1056.0, 1081.0, 1091.0, 1052.0, 948.0], 'build_tree:': [141.0, 152.0, 146.0, 144.0, 151.0, 154.0, 98.0]}
@ read_data: 650 ms
configuration: K = 1 DIM = 2 npoints = 200000 nsearchpoints = 200000
@ init_kernel: 2516 ms
the number of nodes is 524288, the depth is 19
@ build_tree: 144 ms
Time for asynchronous transfer and execute (ms): 857.797791
@ CPU: 237 ms
correct rate: 0.9928
@ traversal: 4673 ms
@ extra: 1098 ms
@ kernel: 911 ms
@ overall: 6351 ms
Collected results into ../../../results/depth_tmp/nn_Hybrid_Sched_geocity.txt_10_unsorted.stats

Loading data from ../../../results/depth_tmp/nn_Hybrid_Sched_geocity.txt_10_unsorted.stats...
{'traversal:': [4708.0, 4654.0, 4723.0, 4728.0, 4685.0, 4826.0, 4520.0, 4673.0], 'CPU:': [236.0, 236.0, 237.0, 236.0, 237.0, 236.0, 237.0, 237.0], 'kernel:': [900.0, 905.0, 925.0, 919.0, 906.0, 908.0, 908.0, 911.0], 'init_kernel:': [2556.0, 2542.0, 2591.0, 2579.0, 2530.0, 2706.0, 2562.0, 2516.0], 'read_data:': [739.0, 745.0, 614.0, 645.0, 666.0, 682.0, 647.0, 650.0], 'overall:': [6472.0, 6442.0, 6367.0, 6404.0, 6393.0, 6550.0, 6200.0, 6351.0], 'extra:': [1106.0, 1048.0, 1056.0, 1081.0, 1091.0, 1052.0, 948.0, 1098.0], 'build_tree:': [141.0, 152.0, 146.0, 144.0, 151.0, 154.0, 98.0, 144.0]}
@ read_data: 696 ms
configuration: K = 1 DIM = 2 npoints = 200000 nsearchpoints = 200000
@ init_kernel: 2530 ms
the number of nodes is 524288, the depth is 19
@ build_tree: 155 ms
Time for asynchronous transfer and execute (ms): 868.956543
@ CPU: 236 ms
correct rate: 0.9928
@ traversal: 4706 ms
@ extra: 1108 ms
@ kernel: 907 ms
@ overall: 6443 ms
Collected results into ../../../results/depth_tmp/nn_Hybrid_Sched_geocity.txt_10_unsorted.stats

Loading data from ../../../results/depth_tmp/nn_Hybrid_Sched_geocity.txt_10_unsorted.stats...
{'traversal:': [4708.0, 4654.0, 4723.0, 4728.0, 4685.0, 4826.0, 4520.0, 4673.0, 4706.0], 'CPU:': [236.0, 236.0, 237.0, 236.0, 237.0, 236.0, 237.0, 237.0, 236.0], 'read_data:': [739.0, 745.0, 614.0, 645.0, 666.0, 682.0, 647.0, 650.0, 696.0], 'kernel:': [900.0, 905.0, 925.0, 919.0, 906.0, 908.0, 908.0, 911.0, 907.0], 'init_kernel:': [2556.0, 2542.0, 2591.0, 2579.0, 2530.0, 2706.0, 2562.0, 2516.0, 2530.0], 'overall:': [6472.0, 6442.0, 6367.0, 6404.0, 6393.0, 6550.0, 6200.0, 6351.0, 6443.0], 'extra:': [1106.0, 1048.0, 1056.0, 1081.0, 1091.0, 1052.0, 948.0, 1098.0, 1108.0], 'build_tree:': [141.0, 152.0, 146.0, 144.0, 151.0, 154.0, 98.0, 144.0, 155.0]}
@ read_data: 683 ms
configuration: K = 1 DIM = 2 npoints = 200000 nsearchpoints = 200000
@ init_kernel: 2630 ms
the number of nodes is 524288, the depth is 19
@ build_tree: 138 ms
Time for asynchronous transfer and execute (ms): 831.882812
@ CPU: 236 ms
correct rate: 0.9928
@ traversal: 4763 ms
@ extra: 1070 ms
@ kernel: 919 ms
@ overall: 6471 ms
Collected results into ../../../results/depth_tmp/nn_Hybrid_Sched_geocity.txt_10_unsorted.stats

Loading data from ../../../results/depth_tmp/nn_Hybrid_Sched_geocity.txt_10_unsorted.stats...
{'traversal:': [4708.0, 4654.0, 4723.0, 4728.0, 4685.0, 4826.0, 4520.0, 4673.0, 4706.0, 4763.0], 'CPU:': [236.0, 236.0, 237.0, 236.0, 237.0, 236.0, 237.0, 237.0, 236.0, 236.0], 'kernel:': [900.0, 905.0, 925.0, 919.0, 906.0, 908.0, 908.0, 911.0, 907.0, 919.0], 'init_kernel:': [2556.0, 2542.0, 2591.0, 2579.0, 2530.0, 2706.0, 2562.0, 2516.0, 2530.0, 2630.0], 'read_data:': [739.0, 745.0, 614.0, 645.0, 666.0, 682.0, 647.0, 650.0, 696.0, 683.0], 'overall:': [6472.0, 6442.0, 6367.0, 6404.0, 6393.0, 6550.0, 6200.0, 6351.0, 6443.0, 6471.0], 'extra:': [1106.0, 1048.0, 1056.0, 1081.0, 1091.0, 1052.0, 948.0, 1098.0, 1108.0, 1070.0], 'build_tree:': [141.0, 152.0, 146.0, 144.0, 151.0, 154.0, 98.0, 144.0, 155.0, 138.0]}
@ read_data: 681 ms
configuration: K = 1 DIM = 2 npoints = 200000 nsearchpoints = 200000
@ init_kernel: 2667 ms
the number of nodes is 524288, the depth is 19
@ build_tree: 153 ms
Time for asynchronous transfer and execute (ms): 803.086731
@ CPU: 238 ms
correct rate: 0.9928
@ traversal: 4776 ms
@ extra: 1044 ms
@ kernel: 906 ms
@ overall: 6503 ms
Collected results into ../../../results/depth_tmp/nn_Hybrid_Sched_geocity.txt_10_unsorted.stats

Loading data from ../../../results/depth_tmp/nn_Hybrid_Sched_geocity.txt_10_unsorted.stats...
{'traversal:': [4708.0, 4654.0, 4723.0, 4728.0, 4685.0, 4826.0, 4520.0, 4673.0, 4706.0, 4763.0, 4776.0], 'CPU:': [236.0, 236.0, 237.0, 236.0, 237.0, 236.0, 237.0, 237.0, 236.0, 236.0, 238.0], 'read_data:': [739.0, 745.0, 614.0, 645.0, 666.0, 682.0, 647.0, 650.0, 696.0, 683.0, 681.0], 'kernel:': [900.0, 905.0, 925.0, 919.0, 906.0, 908.0, 908.0, 911.0, 907.0, 919.0, 906.0], 'init_kernel:': [2556.0, 2542.0, 2591.0, 2579.0, 2530.0, 2706.0, 2562.0, 2516.0, 2530.0, 2630.0, 2667.0], 'overall:': [6472.0, 6442.0, 6367.0, 6404.0, 6393.0, 6550.0, 6200.0, 6351.0, 6443.0, 6471.0, 6503.0], 'extra:': [1106.0, 1048.0, 1056.0, 1081.0, 1091.0, 1052.0, 948.0, 1098.0, 1108.0, 1070.0, 1044.0], 'build_tree:': [141.0, 152.0, 146.0, 144.0, 151.0, 154.0, 98.0, 144.0, 155.0, 138.0, 153.0]}
@ read_data: 639 ms
configuration: K = 1 DIM = 2 npoints = 200000 nsearchpoints = 200000
@ init_kernel: 2577 ms
the number of nodes is 524288, the depth is 19
@ build_tree: 154 ms
Time for asynchronous transfer and execute (ms): 830.000549
@ CPU: 236 ms
correct rate: 0.9928
@ traversal: 4717 ms
@ extra: 1069 ms
@ kernel: 910 ms
@ overall: 6398 ms
Collected results into ../../../results/depth_tmp/nn_Hybrid_Sched_geocity.txt_10_unsorted.stats

Loading data from ../../../results/depth_tmp/nn_Hybrid_Sched_geocity.txt_10_unsorted.stats...
{'traversal:': [4708.0, 4654.0, 4723.0, 4728.0, 4685.0, 4826.0, 4520.0, 4673.0, 4706.0, 4763.0, 4776.0, 4717.0], 'CPU:': [236.0, 236.0, 237.0, 236.0, 237.0, 236.0, 237.0, 237.0, 236.0, 236.0, 238.0, 236.0], 'kernel:': [900.0, 905.0, 925.0, 919.0, 906.0, 908.0, 908.0, 911.0, 907.0, 919.0, 906.0, 910.0], 'init_kernel:': [2556.0, 2542.0, 2591.0, 2579.0, 2530.0, 2706.0, 2562.0, 2516.0, 2530.0, 2630.0, 2667.0, 2577.0], 'read_data:': [739.0, 745.0, 614.0, 645.0, 666.0, 682.0, 647.0, 650.0, 696.0, 683.0, 681.0, 639.0], 'overall:': [6472.0, 6442.0, 6367.0, 6404.0, 6393.0, 6550.0, 6200.0, 6351.0, 6443.0, 6471.0, 6503.0, 6398.0], 'extra:': [1106.0, 1048.0, 1056.0, 1081.0, 1091.0, 1052.0, 948.0, 1098.0, 1108.0, 1070.0, 1044.0, 1069.0], 'build_tree:': [141.0, 152.0, 146.0, 144.0, 151.0, 154.0, 98.0, 144.0, 155.0, 138.0, 153.0, 154.0]}
@ read_data: 645 ms
configuration: K = 1 DIM = 2 npoints = 200000 nsearchpoints = 200000
@ init_kernel: 2697 ms
the number of nodes is 524288, the depth is 19
@ build_tree: 154 ms
Time for asynchronous transfer and execute (ms): 793.517090
@ CPU: 237 ms
correct rate: 0.9928
@ traversal: 4798 ms
@ extra: 1033 ms
@ kernel: 908 ms
@ overall: 6486 ms
Collected results into ../../../results/depth_tmp/nn_Hybrid_Sched_geocity.txt_10_unsorted.stats

Loading data from ../../../results/depth_tmp/nn_Hybrid_Sched_geocity.txt_10_unsorted.stats...
{'traversal:': [4708.0, 4654.0, 4723.0, 4728.0, 4685.0, 4826.0, 4520.0, 4673.0, 4706.0, 4763.0, 4776.0, 4717.0, 4798.0], 'CPU:': [236.0, 236.0, 237.0, 236.0, 237.0, 236.0, 237.0, 237.0, 236.0, 236.0, 238.0, 236.0, 237.0], 'read_data:': [739.0, 745.0, 614.0, 645.0, 666.0, 682.0, 647.0, 650.0, 696.0, 683.0, 681.0, 639.0, 645.0], 'kernel:': [900.0, 905.0, 925.0, 919.0, 906.0, 908.0, 908.0, 911.0, 907.0, 919.0, 906.0, 910.0, 908.0], 'init_kernel:': [2556.0, 2542.0, 2591.0, 2579.0, 2530.0, 2706.0, 2562.0, 2516.0, 2530.0, 2630.0, 2667.0, 2577.0, 2697.0], 'overall:': [6472.0, 6442.0, 6367.0, 6404.0, 6393.0, 6550.0, 6200.0, 6351.0, 6443.0, 6471.0, 6503.0, 6398.0, 6486.0], 'extra:': [1106.0, 1048.0, 1056.0, 1081.0, 1091.0, 1052.0, 948.0, 1098.0, 1108.0, 1070.0, 1044.0, 1069.0, 1033.0], 'build_tree:': [141.0, 152.0, 146.0, 144.0, 151.0, 154.0, 98.0, 144.0, 155.0, 138.0, 153.0, 154.0, 154.0]}
@ read_data: 646 ms
configuration: K = 1 DIM = 2 npoints = 200000 nsearchpoints = 200000
@ init_kernel: 2604 ms
the number of nodes is 524288, the depth is 19
@ build_tree: 153 ms
Time for asynchronous transfer and execute (ms): 827.079285
@ CPU: 236 ms
correct rate: 0.9928
@ traversal: 4738 ms
@ extra: 1066 ms
@ kernel: 910 ms
@ overall: 6431 ms
Collected results into ../../../results/depth_tmp/nn_Hybrid_Sched_geocity.txt_10_unsorted.stats

Loading data from ../../../results/depth_tmp/nn_Hybrid_Sched_geocity.txt_10_unsorted.stats...
{'traversal:': [4708.0, 4654.0, 4723.0, 4728.0, 4685.0, 4826.0, 4520.0, 4673.0, 4706.0, 4763.0, 4776.0, 4717.0, 4798.0, 4738.0], 'CPU:': [236.0, 236.0, 237.0, 236.0, 237.0, 236.0, 237.0, 237.0, 236.0, 236.0, 238.0, 236.0, 237.0, 236.0], 'kernel:': [900.0, 905.0, 925.0, 919.0, 906.0, 908.0, 908.0, 911.0, 907.0, 919.0, 906.0, 910.0, 908.0, 910.0], 'init_kernel:': [2556.0, 2542.0, 2591.0, 2579.0, 2530.0, 2706.0, 2562.0, 2516.0, 2530.0, 2630.0, 2667.0, 2577.0, 2697.0, 2604.0], 'read_data:': [739.0, 745.0, 614.0, 645.0, 666.0, 682.0, 647.0, 650.0, 696.0, 683.0, 681.0, 639.0, 645.0, 646.0], 'overall:': [6472.0, 6442.0, 6367.0, 6404.0, 6393.0, 6550.0, 6200.0, 6351.0, 6443.0, 6471.0, 6503.0, 6398.0, 6486.0, 6431.0], 'extra:': [1106.0, 1048.0, 1056.0, 1081.0, 1091.0, 1052.0, 948.0, 1098.0, 1108.0, 1070.0, 1044.0, 1069.0, 1033.0, 1066.0], 'build_tree:': [141.0, 152.0, 146.0, 144.0, 151.0, 154.0, 98.0, 144.0, 155.0, 138.0, 153.0, 154.0, 154.0, 153.0]}
@ read_data: 637 ms
configuration: K = 1 DIM = 2 npoints = 200000 nsearchpoints = 200000
@ init_kernel: 2612 ms
the number of nodes is 524288, the depth is 19
@ build_tree: 155 ms
Time for asynchronous transfer and execute (ms): 812.949585
@ CPU: 238 ms
correct rate: 0.9928
@ traversal: 4730 ms
@ extra: 1053 ms
@ kernel: 904 ms
@ overall: 6415 ms
Collected results into ../../../results/depth_tmp/nn_Hybrid_Sched_geocity.txt_10_unsorted.stats

