Results wll be collected to ../../../results/depth_tmp/nn_Hybrid_Sched_random.7d_1_unsorted.stats...
@ read_data: 1692 ms
configuration: K = 1 DIM = 7 npoints = 200000 nsearchpoints = 200000
@ init_kernel: 2612 ms
the number of nodes is 524288, the depth is 19
@ build_tree: 189 ms
Time for asynchronous transfer and execute (ms): 6.583072
@ CPU: 25 ms
correct rate: 1.0000
@ traversal: 5302 ms
@ extra: 33 ms
@ kernel: 2458 ms
@ overall: 8084 ms
Collected results into ../../../results/depth_tmp/nn_Hybrid_Sched_random.7d_1_unsorted.stats

Loading data from ../../../results/depth_tmp/nn_Hybrid_Sched_random.7d_1_unsorted.stats...
{'traversal:': [5302.0], 'CPU:': [25.0], 'read_data:': [1692.0], 'kernel:': [2458.0], 'init_kernel:': [2612.0], 'overall:': [8084.0], 'extra:': [33.0], 'build_tree:': [189.0]}
@ read_data: 1587 ms
configuration: K = 1 DIM = 7 npoints = 200000 nsearchpoints = 200000
@ init_kernel: 2579 ms
the number of nodes is 524288, the depth is 19
@ build_tree: 200 ms
Time for asynchronous transfer and execute (ms): 6.682400
@ CPU: 26 ms
correct rate: 1.0000
@ traversal: 5286 ms
@ extra: 33 ms
@ kernel: 2465 ms
@ overall: 7945 ms
Collected results into ../../../results/depth_tmp/nn_Hybrid_Sched_random.7d_1_unsorted.stats

Loading data from ../../../results/depth_tmp/nn_Hybrid_Sched_random.7d_1_unsorted.stats...
{'traversal:': [5302.0, 5286.0], 'CPU:': [25.0, 26.0], 'kernel:': [2458.0, 2465.0], 'init_kernel:': [2612.0, 2579.0], 'read_data:': [1692.0, 1587.0], 'overall:': [8084.0, 7945.0], 'extra:': [33.0, 33.0], 'build_tree:': [189.0, 200.0]}
@ read_data: 1624 ms
configuration: K = 1 DIM = 7 npoints = 200000 nsearchpoints = 200000
@ init_kernel: 2791 ms
the number of nodes is 524288, the depth is 19
@ build_tree: 211 ms
Time for asynchronous transfer and execute (ms): 6.572416
@ CPU: 26 ms
correct rate: 1.0000
@ traversal: 5518 ms
@ extra: 33 ms
@ kernel: 2473 ms
@ overall: 8237 ms
Collected results into ../../../results/depth_tmp/nn_Hybrid_Sched_random.7d_1_unsorted.stats

Loading data from ../../../results/depth_tmp/nn_Hybrid_Sched_random.7d_1_unsorted.stats...
{'traversal:': [5302.0, 5286.0, 5518.0], 'CPU:': [25.0, 26.0, 26.0], 'read_data:': [1692.0, 1587.0, 1624.0], 'kernel:': [2458.0, 2465.0, 2473.0], 'init_kernel:': [2612.0, 2579.0, 2791.0], 'overall:': [8084.0, 7945.0, 8237.0], 'extra:': [33.0, 33.0, 33.0], 'build_tree:': [189.0, 200.0, 211.0]}
@ read_data: 1572 ms
configuration: K = 1 DIM = 7 npoints = 200000 nsearchpoints = 200000
@ init_kernel: 2623 ms
the number of nodes is 524288, the depth is 19
@ build_tree: 198 ms
Time for asynchronous transfer and execute (ms): 6.832384
@ CPU: 25 ms
correct rate: 1.0000
@ traversal: 5330 ms
@ extra: 33 ms
@ kernel: 2467 ms
@ overall: 7977 ms
Collected results into ../../../results/depth_tmp/nn_Hybrid_Sched_random.7d_1_unsorted.stats

Loading data from ../../../results/depth_tmp/nn_Hybrid_Sched_random.7d_1_unsorted.stats...
{'traversal:': [5302.0, 5286.0, 5518.0, 5330.0], 'CPU:': [25.0, 26.0, 26.0, 25.0], 'kernel:': [2458.0, 2465.0, 2473.0, 2467.0], 'init_kernel:': [2612.0, 2579.0, 2791.0, 2623.0], 'read_data:': [1692.0, 1587.0, 1624.0, 1572.0], 'overall:': [8084.0, 7945.0, 8237.0, 7977.0], 'extra:': [33.0, 33.0, 33.0, 33.0], 'build_tree:': [189.0, 200.0, 211.0, 198.0]}
@ read_data: 1574 ms
configuration: K = 1 DIM = 7 npoints = 200000 nsearchpoints = 200000
@ init_kernel: 2723 ms
the number of nodes is 524288, the depth is 19
@ build_tree: 210 ms
Time for asynchronous transfer and execute (ms): 7.680288
@ CPU: 21 ms
correct rate: 1.0000
@ traversal: 5437 ms
@ extra: 29 ms
@ kernel: 2463 ms
@ overall: 8081 ms
Collected results into ../../../results/depth_tmp/nn_Hybrid_Sched_random.7d_1_unsorted.stats

Loading data from ../../../results/depth_tmp/nn_Hybrid_Sched_random.7d_1_unsorted.stats...
{'traversal:': [5302.0, 5286.0, 5518.0, 5330.0, 5437.0], 'CPU:': [25.0, 26.0, 26.0, 25.0, 21.0], 'read_data:': [1692.0, 1587.0, 1624.0, 1572.0, 1574.0], 'kernel:': [2458.0, 2465.0, 2473.0, 2467.0, 2463.0], 'init_kernel:': [2612.0, 2579.0, 2791.0, 2623.0, 2723.0], 'overall:': [8084.0, 7945.0, 8237.0, 7977.0, 8081.0], 'extra:': [33.0, 33.0, 33.0, 33.0, 29.0], 'build_tree:': [189.0, 200.0, 211.0, 198.0, 210.0]}
@ read_data: 1583 ms
configuration: K = 1 DIM = 7 npoints = 200000 nsearchpoints = 200000
@ init_kernel: 2807 ms
the number of nodes is 524288, the depth is 19
@ build_tree: 211 ms
Time for asynchronous transfer and execute (ms): 6.379200
@ CPU: 26 ms
correct rate: 1.0000
@ traversal: 5524 ms
@ extra: 33 ms
@ kernel: 2462 ms
@ overall: 8203 ms
Collected results into ../../../results/depth_tmp/nn_Hybrid_Sched_random.7d_1_unsorted.stats

Loading data from ../../../results/depth_tmp/nn_Hybrid_Sched_random.7d_1_unsorted.stats...
{'traversal:': [5302.0, 5286.0, 5518.0, 5330.0, 5437.0, 5524.0], 'CPU:': [25.0, 26.0, 26.0, 25.0, 21.0, 26.0], 'kernel:': [2458.0, 2465.0, 2473.0, 2467.0, 2463.0, 2462.0], 'init_kernel:': [2612.0, 2579.0, 2791.0, 2623.0, 2723.0, 2807.0], 'read_data:': [1692.0, 1587.0, 1624.0, 1572.0, 1574.0, 1583.0], 'overall:': [8084.0, 7945.0, 8237.0, 7977.0, 8081.0, 8203.0], 'extra:': [33.0, 33.0, 33.0, 33.0, 29.0, 33.0], 'build_tree:': [189.0, 200.0, 211.0, 198.0, 210.0, 211.0]}
@ read_data: 1610 ms
configuration: K = 1 DIM = 7 npoints = 200000 nsearchpoints = 200000
@ init_kernel: 2602 ms
the number of nodes is 524288, the depth is 19
@ build_tree: 203 ms
Time for asynchronous transfer and execute (ms): 6.613888
@ CPU: 26 ms
correct rate: 1.0000
@ traversal: 5316 ms
@ extra: 33 ms
@ kernel: 2470 ms
@ overall: 7998 ms
Collected results into ../../../results/depth_tmp/nn_Hybrid_Sched_random.7d_1_unsorted.stats

Loading data from ../../../results/depth_tmp/nn_Hybrid_Sched_random.7d_1_unsorted.stats...
{'traversal:': [5302.0, 5286.0, 5518.0, 5330.0, 5437.0, 5524.0, 5316.0], 'CPU:': [25.0, 26.0, 26.0, 25.0, 21.0, 26.0, 26.0], 'read_data:': [1692.0, 1587.0, 1624.0, 1572.0, 1574.0, 1583.0, 1610.0], 'kernel:': [2458.0, 2465.0, 2473.0, 2467.0, 2463.0, 2462.0, 2470.0], 'init_kernel:': [2612.0, 2579.0, 2791.0, 2623.0, 2723.0, 2807.0, 2602.0], 'overall:': [8084.0, 7945.0, 8237.0, 7977.0, 8081.0, 8203.0, 7998.0], 'extra:': [33.0, 33.0, 33.0, 33.0, 29.0, 33.0, 33.0], 'build_tree:': [189.0, 200.0, 211.0, 198.0, 210.0, 211.0, 203.0]}
@ read_data: 1568 ms
configuration: K = 1 DIM = 7 npoints = 200000 nsearchpoints = 200000
@ init_kernel: 2656 ms
the number of nodes is 524288, the depth is 19
@ build_tree: 199 ms
Time for asynchronous transfer and execute (ms): 6.660576
@ CPU: 26 ms
correct rate: 1.0000
@ traversal: 5359 ms
@ extra: 33 ms
@ kernel: 2462 ms
@ overall: 7995 ms
Collected results into ../../../results/depth_tmp/nn_Hybrid_Sched_random.7d_1_unsorted.stats

Loading data from ../../../results/depth_tmp/nn_Hybrid_Sched_random.7d_1_unsorted.stats...
{'traversal:': [5302.0, 5286.0, 5518.0, 5330.0, 5437.0, 5524.0, 5316.0, 5359.0], 'CPU:': [25.0, 26.0, 26.0, 25.0, 21.0, 26.0, 26.0, 26.0], 'kernel:': [2458.0, 2465.0, 2473.0, 2467.0, 2463.0, 2462.0, 2470.0, 2462.0], 'init_kernel:': [2612.0, 2579.0, 2791.0, 2623.0, 2723.0, 2807.0, 2602.0, 2656.0], 'read_data:': [1692.0, 1587.0, 1624.0, 1572.0, 1574.0, 1583.0, 1610.0, 1568.0], 'overall:': [8084.0, 7945.0, 8237.0, 7977.0, 8081.0, 8203.0, 7998.0, 7995.0], 'extra:': [33.0, 33.0, 33.0, 33.0, 29.0, 33.0, 33.0, 33.0], 'build_tree:': [189.0, 200.0, 211.0, 198.0, 210.0, 211.0, 203.0, 199.0]}
@ read_data: 1692 ms
configuration: K = 1 DIM = 7 npoints = 200000 nsearchpoints = 200000
@ init_kernel: 2688 ms
the number of nodes is 524288, the depth is 19
@ build_tree: 199 ms
Time for asynchronous transfer and execute (ms): 7.697280
@ CPU: 26 ms
correct rate: 1.0000
@ traversal: 5395 ms
@ extra: 34 ms
@ kernel: 2463 ms
@ overall: 8180 ms
Collected results into ../../../results/depth_tmp/nn_Hybrid_Sched_random.7d_1_unsorted.stats

Loading data from ../../../results/depth_tmp/nn_Hybrid_Sched_random.7d_1_unsorted.stats...
{'traversal:': [5302.0, 5286.0, 5518.0, 5330.0, 5437.0, 5524.0, 5316.0, 5359.0, 5395.0], 'CPU:': [25.0, 26.0, 26.0, 25.0, 21.0, 26.0, 26.0, 26.0, 26.0], 'read_data:': [1692.0, 1587.0, 1624.0, 1572.0, 1574.0, 1583.0, 1610.0, 1568.0, 1692.0], 'kernel:': [2458.0, 2465.0, 2473.0, 2467.0, 2463.0, 2462.0, 2470.0, 2462.0, 2463.0], 'init_kernel:': [2612.0, 2579.0, 2791.0, 2623.0, 2723.0, 2807.0, 2602.0, 2656.0, 2688.0], 'overall:': [8084.0, 7945.0, 8237.0, 7977.0, 8081.0, 8203.0, 7998.0, 7995.0, 8180.0], 'extra:': [33.0, 33.0, 33.0, 33.0, 29.0, 33.0, 33.0, 33.0, 34.0], 'build_tree:': [189.0, 200.0, 211.0, 198.0, 210.0, 211.0, 203.0, 199.0, 199.0]}
@ read_data: 1667 ms
configuration: K = 1 DIM = 7 npoints = 200000 nsearchpoints = 200000
@ init_kernel: 2590 ms
the number of nodes is 524288, the depth is 19
@ build_tree: 198 ms
Time for asynchronous transfer and execute (ms): 6.156000
@ CPU: 13 ms
correct rate: 1.0000
@ traversal: 5278 ms
@ extra: 20 ms
@ kernel: 2462 ms
@ overall: 8013 ms
Collected results into ../../../results/depth_tmp/nn_Hybrid_Sched_random.7d_1_unsorted.stats

Loading data from ../../../results/depth_tmp/nn_Hybrid_Sched_random.7d_1_unsorted.stats...
{'traversal:': [5302.0, 5286.0, 5518.0, 5330.0, 5437.0, 5524.0, 5316.0, 5359.0, 5395.0, 5278.0], 'CPU:': [25.0, 26.0, 26.0, 25.0, 21.0, 26.0, 26.0, 26.0, 26.0, 13.0], 'kernel:': [2458.0, 2465.0, 2473.0, 2467.0, 2463.0, 2462.0, 2470.0, 2462.0, 2463.0, 2462.0], 'init_kernel:': [2612.0, 2579.0, 2791.0, 2623.0, 2723.0, 2807.0, 2602.0, 2656.0, 2688.0, 2590.0], 'read_data:': [1692.0, 1587.0, 1624.0, 1572.0, 1574.0, 1583.0, 1610.0, 1568.0, 1692.0, 1667.0], 'overall:': [8084.0, 7945.0, 8237.0, 7977.0, 8081.0, 8203.0, 7998.0, 7995.0, 8180.0, 8013.0], 'extra:': [33.0, 33.0, 33.0, 33.0, 29.0, 33.0, 33.0, 33.0, 34.0, 20.0], 'build_tree:': [189.0, 200.0, 211.0, 198.0, 210.0, 211.0, 203.0, 199.0, 199.0, 198.0]}
@ read_data: 1641 ms
configuration: K = 1 DIM = 7 npoints = 200000 nsearchpoints = 200000
@ init_kernel: 2615 ms
the number of nodes is 524288, the depth is 19
@ build_tree: 198 ms
Time for asynchronous transfer and execute (ms): 6.504576
@ CPU: 25 ms
correct rate: 1.0000
@ traversal: 5317 ms
@ extra: 33 ms
@ kernel: 2463 ms
@ overall: 8024 ms
Collected results into ../../../results/depth_tmp/nn_Hybrid_Sched_random.7d_1_unsorted.stats

Loading data from ../../../results/depth_tmp/nn_Hybrid_Sched_random.7d_1_unsorted.stats...
{'traversal:': [5302.0, 5286.0, 5518.0, 5330.0, 5437.0, 5524.0, 5316.0, 5359.0, 5395.0, 5278.0, 5317.0], 'CPU:': [25.0, 26.0, 26.0, 25.0, 21.0, 26.0, 26.0, 26.0, 26.0, 13.0, 25.0], 'read_data:': [1692.0, 1587.0, 1624.0, 1572.0, 1574.0, 1583.0, 1610.0, 1568.0, 1692.0, 1667.0, 1641.0], 'kernel:': [2458.0, 2465.0, 2473.0, 2467.0, 2463.0, 2462.0, 2470.0, 2462.0, 2463.0, 2462.0, 2463.0], 'init_kernel:': [2612.0, 2579.0, 2791.0, 2623.0, 2723.0, 2807.0, 2602.0, 2656.0, 2688.0, 2590.0, 2615.0], 'overall:': [8084.0, 7945.0, 8237.0, 7977.0, 8081.0, 8203.0, 7998.0, 7995.0, 8180.0, 8013.0, 8024.0], 'extra:': [33.0, 33.0, 33.0, 33.0, 29.0, 33.0, 33.0, 33.0, 34.0, 20.0, 33.0], 'build_tree:': [189.0, 200.0, 211.0, 198.0, 210.0, 211.0, 203.0, 199.0, 199.0, 198.0, 198.0]}
@ read_data: 1612 ms
configuration: K = 1 DIM = 7 npoints = 200000 nsearchpoints = 200000
@ init_kernel: 2626 ms
the number of nodes is 524288, the depth is 19
@ build_tree: 199 ms
Time for asynchronous transfer and execute (ms): 6.708384
@ CPU: 26 ms
correct rate: 1.0000
@ traversal: 5329 ms
@ extra: 33 ms
@ kernel: 2463 ms
@ overall: 8010 ms
Collected results into ../../../results/depth_tmp/nn_Hybrid_Sched_random.7d_1_unsorted.stats

Loading data from ../../../results/depth_tmp/nn_Hybrid_Sched_random.7d_1_unsorted.stats...
{'traversal:': [5302.0, 5286.0, 5518.0, 5330.0, 5437.0, 5524.0, 5316.0, 5359.0, 5395.0, 5278.0, 5317.0, 5329.0], 'CPU:': [25.0, 26.0, 26.0, 25.0, 21.0, 26.0, 26.0, 26.0, 26.0, 13.0, 25.0, 26.0], 'kernel:': [2458.0, 2465.0, 2473.0, 2467.0, 2463.0, 2462.0, 2470.0, 2462.0, 2463.0, 2462.0, 2463.0, 2463.0], 'init_kernel:': [2612.0, 2579.0, 2791.0, 2623.0, 2723.0, 2807.0, 2602.0, 2656.0, 2688.0, 2590.0, 2615.0, 2626.0], 'read_data:': [1692.0, 1587.0, 1624.0, 1572.0, 1574.0, 1583.0, 1610.0, 1568.0, 1692.0, 1667.0, 1641.0, 1612.0], 'overall:': [8084.0, 7945.0, 8237.0, 7977.0, 8081.0, 8203.0, 7998.0, 7995.0, 8180.0, 8013.0, 8024.0, 8010.0], 'extra:': [33.0, 33.0, 33.0, 33.0, 29.0, 33.0, 33.0, 33.0, 34.0, 20.0, 33.0, 33.0], 'build_tree:': [189.0, 200.0, 211.0, 198.0, 210.0, 211.0, 203.0, 199.0, 199.0, 198.0, 198.0, 199.0]}
@ read_data: 1651 ms
configuration: K = 1 DIM = 7 npoints = 200000 nsearchpoints = 200000
@ init_kernel: 2695 ms
the number of nodes is 524288, the depth is 19
@ build_tree: 198 ms
Time for asynchronous transfer and execute (ms): 6.598528
@ CPU: 26 ms
correct rate: 1.0000
@ traversal: 5397 ms
@ extra: 33 ms
@ kernel: 2463 ms
@ overall: 8118 ms
Collected results into ../../../results/depth_tmp/nn_Hybrid_Sched_random.7d_1_unsorted.stats

Loading data from ../../../results/depth_tmp/nn_Hybrid_Sched_random.7d_1_unsorted.stats...
{'traversal:': [5302.0, 5286.0, 5518.0, 5330.0, 5437.0, 5524.0, 5316.0, 5359.0, 5395.0, 5278.0, 5317.0, 5329.0, 5397.0], 'CPU:': [25.0, 26.0, 26.0, 25.0, 21.0, 26.0, 26.0, 26.0, 26.0, 13.0, 25.0, 26.0, 26.0], 'read_data:': [1692.0, 1587.0, 1624.0, 1572.0, 1574.0, 1583.0, 1610.0, 1568.0, 1692.0, 1667.0, 1641.0, 1612.0, 1651.0], 'kernel:': [2458.0, 2465.0, 2473.0, 2467.0, 2463.0, 2462.0, 2470.0, 2462.0, 2463.0, 2462.0, 2463.0, 2463.0, 2463.0], 'init_kernel:': [2612.0, 2579.0, 2791.0, 2623.0, 2723.0, 2807.0, 2602.0, 2656.0, 2688.0, 2590.0, 2615.0, 2626.0, 2695.0], 'overall:': [8084.0, 7945.0, 8237.0, 7977.0, 8081.0, 8203.0, 7998.0, 7995.0, 8180.0, 8013.0, 8024.0, 8010.0, 8118.0], 'extra:': [33.0, 33.0, 33.0, 33.0, 29.0, 33.0, 33.0, 33.0, 34.0, 20.0, 33.0, 33.0, 33.0], 'build_tree:': [189.0, 200.0, 211.0, 198.0, 210.0, 211.0, 203.0, 199.0, 199.0, 198.0, 198.0, 199.0, 198.0]}
@ read_data: 1670 ms
configuration: K = 1 DIM = 7 npoints = 200000 nsearchpoints = 200000
@ init_kernel: 2757 ms
the number of nodes is 524288, the depth is 19
@ build_tree: 212 ms
Time for asynchronous transfer and execute (ms): 6.791776
@ CPU: 25 ms
correct rate: 1.0000
@ traversal: 5476 ms
@ extra: 33 ms
@ kernel: 2463 ms
@ overall: 8263 ms
Collected results into ../../../results/depth_tmp/nn_Hybrid_Sched_random.7d_1_unsorted.stats

Loading data from ../../../results/depth_tmp/nn_Hybrid_Sched_random.7d_1_unsorted.stats...
{'traversal:': [5302.0, 5286.0, 5518.0, 5330.0, 5437.0, 5524.0, 5316.0, 5359.0, 5395.0, 5278.0, 5317.0, 5329.0, 5397.0, 5476.0], 'CPU:': [25.0, 26.0, 26.0, 25.0, 21.0, 26.0, 26.0, 26.0, 26.0, 13.0, 25.0, 26.0, 26.0, 25.0], 'kernel:': [2458.0, 2465.0, 2473.0, 2467.0, 2463.0, 2462.0, 2470.0, 2462.0, 2463.0, 2462.0, 2463.0, 2463.0, 2463.0, 2463.0], 'init_kernel:': [2612.0, 2579.0, 2791.0, 2623.0, 2723.0, 2807.0, 2602.0, 2656.0, 2688.0, 2590.0, 2615.0, 2626.0, 2695.0, 2757.0], 'read_data:': [1692.0, 1587.0, 1624.0, 1572.0, 1574.0, 1583.0, 1610.0, 1568.0, 1692.0, 1667.0, 1641.0, 1612.0, 1651.0, 1670.0], 'overall:': [8084.0, 7945.0, 8237.0, 7977.0, 8081.0, 8203.0, 7998.0, 7995.0, 8180.0, 8013.0, 8024.0, 8010.0, 8118.0, 8263.0], 'extra:': [33.0, 33.0, 33.0, 33.0, 29.0, 33.0, 33.0, 33.0, 34.0, 20.0, 33.0, 33.0, 33.0, 33.0], 'build_tree:': [189.0, 200.0, 211.0, 198.0, 210.0, 211.0, 203.0, 199.0, 199.0, 198.0, 198.0, 199.0, 198.0, 212.0]}
@ read_data: 1668 ms
configuration: K = 1 DIM = 7 npoints = 200000 nsearchpoints = 200000
@ init_kernel: 2657 ms
the number of nodes is 524288, the depth is 19
@ build_tree: 212 ms
Time for asynchronous transfer and execute (ms): 6.509888
@ CPU: 26 ms
correct rate: 1.0000
@ traversal: 5376 ms
@ extra: 33 ms
@ kernel: 2464 ms
@ overall: 8130 ms
Collected results into ../../../results/depth_tmp/nn_Hybrid_Sched_random.7d_1_unsorted.stats

