Results wll be collected to ../../../results/depth_tmp/pc_Hybrid_Sched_random.7d_6_unsorted.stats...
@ tree_height: 19
The max number of the nodes is 524288.
ROWS = 200000, COLS = 64.
Time for asynchronous transfer and execute (ms): 18.154272
@ avg_corr: 170.587326
@ overall: 10148 ms
@ read_input: 893 ms
@ build_tree: 1213 ms
@ init_kernel: 2740 ms
@ find_correlation: 5206 ms
@ kernel: 5173 ms
@ extra: 52 ms
Collected results into ../../../results/depth_tmp/pc_Hybrid_Sched_random.7d_6_unsorted.stats

Loading data from ../../../results/depth_tmp/pc_Hybrid_Sched_random.7d_6_unsorted.stats...
{'avg_corr:': [170.587326], 'init_kernel:': [2740.0], 'overall:': [10148.0], 'kernel:': [5173.0], 'find_correlation:': [5206.0], 'read_input:': [893.0], 'tree_height:': [19.0], 'extra:': [52.0], 'build_tree:': [1213.0]}
@ tree_height: 19
The max number of the nodes is 524288.
ROWS = 200000, COLS = 64.
Time for asynchronous transfer and execute (ms): 18.227009
@ avg_corr: 170.587326
@ overall: 10068 ms
@ read_input: 1019 ms
@ build_tree: 1213 ms
@ init_kernel: 2619 ms
@ find_correlation: 5122 ms
@ kernel: 5089 ms
@ extra: 52 ms
Collected results into ../../../results/depth_tmp/pc_Hybrid_Sched_random.7d_6_unsorted.stats

Loading data from ../../../results/depth_tmp/pc_Hybrid_Sched_random.7d_6_unsorted.stats...
{'find_correlation:': [5206.0, 5122.0], 'avg_corr:': [170.587326, 170.587326], 'init_kernel:': [2740.0, 2619.0], 'kernel:': [5173.0, 5089.0], 'overall:': [10148.0, 10068.0], 'read_input:': [893.0, 1019.0], 'tree_height:': [19.0, 19.0], 'extra:': [52.0, 52.0], 'build_tree:': [1213.0, 1213.0]}
@ tree_height: 19
The max number of the nodes is 524288.
ROWS = 200000, COLS = 64.
Time for asynchronous transfer and execute (ms): 18.102337
@ avg_corr: 170.587326
@ overall: 10169 ms
@ read_input: 905 ms
@ build_tree: 1212 ms
@ init_kernel: 2778 ms
@ find_correlation: 5180 ms
@ kernel: 5147 ms
@ extra: 52 ms
Collected results into ../../../results/depth_tmp/pc_Hybrid_Sched_random.7d_6_unsorted.stats

Loading data from ../../../results/depth_tmp/pc_Hybrid_Sched_random.7d_6_unsorted.stats...
{'avg_corr:': [170.587326, 170.587326, 170.587326], 'init_kernel:': [2740.0, 2619.0, 2778.0], 'overall:': [10148.0, 10068.0, 10169.0], 'kernel:': [5173.0, 5089.0, 5147.0], 'find_correlation:': [5206.0, 5122.0, 5180.0], 'read_input:': [893.0, 1019.0, 905.0], 'tree_height:': [19.0, 19.0, 19.0], 'extra:': [52.0, 52.0, 52.0], 'build_tree:': [1213.0, 1213.0, 1212.0]}
@ tree_height: 19
The max number of the nodes is 524288.
ROWS = 200000, COLS = 64.
Time for asynchronous transfer and execute (ms): 15.969856
@ avg_corr: 170.587326
@ overall: 10019 ms
@ read_input: 910 ms
@ build_tree: 1211 ms
@ init_kernel: 2584 ms
@ find_correlation: 5220 ms
@ kernel: 5187 ms
@ extra: 50 ms
Collected results into ../../../results/depth_tmp/pc_Hybrid_Sched_random.7d_6_unsorted.stats

Loading data from ../../../results/depth_tmp/pc_Hybrid_Sched_random.7d_6_unsorted.stats...
{'find_correlation:': [5206.0, 5122.0, 5180.0, 5220.0], 'avg_corr:': [170.587326, 170.587326, 170.587326, 170.587326], 'init_kernel:': [2740.0, 2619.0, 2778.0, 2584.0], 'kernel:': [5173.0, 5089.0, 5147.0, 5187.0], 'overall:': [10148.0, 10068.0, 10169.0, 10019.0], 'read_input:': [893.0, 1019.0, 905.0, 910.0], 'tree_height:': [19.0, 19.0, 19.0, 19.0], 'extra:': [52.0, 52.0, 52.0, 50.0], 'build_tree:': [1213.0, 1213.0, 1212.0, 1211.0]}
@ tree_height: 19
The max number of the nodes is 524288.
ROWS = 200000, COLS = 64.
Time for asynchronous transfer and execute (ms): 15.983872
@ avg_corr: 170.587326
@ overall: 10314 ms
@ read_input: 1010 ms
@ build_tree: 1212 ms
@ init_kernel: 2618 ms
@ find_correlation: 5381 ms
@ kernel: 5348 ms
@ extra: 49 ms
Collected results into ../../../results/depth_tmp/pc_Hybrid_Sched_random.7d_6_unsorted.stats

Loading data from ../../../results/depth_tmp/pc_Hybrid_Sched_random.7d_6_unsorted.stats...
{'avg_corr:': [170.587326, 170.587326, 170.587326, 170.587326, 170.587326], 'init_kernel:': [2740.0, 2619.0, 2778.0, 2584.0, 2618.0], 'overall:': [10148.0, 10068.0, 10169.0, 10019.0, 10314.0], 'kernel:': [5173.0, 5089.0, 5147.0, 5187.0, 5348.0], 'find_correlation:': [5206.0, 5122.0, 5180.0, 5220.0, 5381.0], 'read_input:': [893.0, 1019.0, 905.0, 910.0, 1010.0], 'tree_height:': [19.0, 19.0, 19.0, 19.0, 19.0], 'extra:': [52.0, 52.0, 52.0, 50.0, 49.0], 'build_tree:': [1213.0, 1213.0, 1212.0, 1211.0, 1212.0]}
@ tree_height: 19
The max number of the nodes is 524288.
ROWS = 200000, COLS = 64.
Time for asynchronous transfer and execute (ms): 17.995840
@ avg_corr: 170.587326
@ overall: 10034 ms
@ read_input: 982 ms
@ build_tree: 1206 ms
@ init_kernel: 2604 ms
@ find_correlation: 5148 ms
@ kernel: 5116 ms
@ extra: 51 ms
Collected results into ../../../results/depth_tmp/pc_Hybrid_Sched_random.7d_6_unsorted.stats

Loading data from ../../../results/depth_tmp/pc_Hybrid_Sched_random.7d_6_unsorted.stats...
{'find_correlation:': [5206.0, 5122.0, 5180.0, 5220.0, 5381.0, 5148.0], 'avg_corr:': [170.587326, 170.587326, 170.587326, 170.587326, 170.587326, 170.587326], 'init_kernel:': [2740.0, 2619.0, 2778.0, 2584.0, 2618.0, 2604.0], 'kernel:': [5173.0, 5089.0, 5147.0, 5187.0, 5348.0, 5116.0], 'overall:': [10148.0, 10068.0, 10169.0, 10019.0, 10314.0, 10034.0], 'read_input:': [893.0, 1019.0, 905.0, 910.0, 1010.0, 982.0], 'tree_height:': [19.0, 19.0, 19.0, 19.0, 19.0, 19.0], 'extra:': [52.0, 52.0, 52.0, 50.0, 49.0, 51.0], 'build_tree:': [1213.0, 1213.0, 1212.0, 1211.0, 1212.0, 1206.0]}
@ tree_height: 19
The max number of the nodes is 524288.
ROWS = 200000, COLS = 64.
Time for asynchronous transfer and execute (ms): 16.002785
@ avg_corr: 170.587326
@ overall: 10335 ms
@ read_input: 942 ms
@ build_tree: 1215 ms
@ init_kernel: 2642 ms
@ find_correlation: 5444 ms
@ kernel: 5411 ms
@ extra: 49 ms
Collected results into ../../../results/depth_tmp/pc_Hybrid_Sched_random.7d_6_unsorted.stats

Loading data from ../../../results/depth_tmp/pc_Hybrid_Sched_random.7d_6_unsorted.stats...
{'avg_corr:': [170.587326, 170.587326, 170.587326, 170.587326, 170.587326, 170.587326, 170.587326], 'init_kernel:': [2740.0, 2619.0, 2778.0, 2584.0, 2618.0, 2604.0, 2642.0], 'overall:': [10148.0, 10068.0, 10169.0, 10019.0, 10314.0, 10034.0, 10335.0], 'kernel:': [5173.0, 5089.0, 5147.0, 5187.0, 5348.0, 5116.0, 5411.0], 'find_correlation:': [5206.0, 5122.0, 5180.0, 5220.0, 5381.0, 5148.0, 5444.0], 'read_input:': [893.0, 1019.0, 905.0, 910.0, 1010.0, 982.0, 942.0], 'tree_height:': [19.0, 19.0, 19.0, 19.0, 19.0, 19.0, 19.0], 'extra:': [52.0, 52.0, 52.0, 50.0, 49.0, 51.0, 49.0], 'build_tree:': [1213.0, 1213.0, 1212.0, 1211.0, 1212.0, 1206.0, 1215.0]}
@ tree_height: 19
The max number of the nodes is 524288.
ROWS = 200000, COLS = 64.
Time for asynchronous transfer and execute (ms): 15.844800
@ avg_corr: 170.587326
@ overall: 10372 ms
@ read_input: 986 ms
@ build_tree: 1213 ms
@ init_kernel: 2653 ms
@ find_correlation: 5427 ms
@ kernel: 5395 ms
@ extra: 49 ms
Collected results into ../../../results/depth_tmp/pc_Hybrid_Sched_random.7d_6_unsorted.stats

Loading data from ../../../results/depth_tmp/pc_Hybrid_Sched_random.7d_6_unsorted.stats...
{'find_correlation:': [5206.0, 5122.0, 5180.0, 5220.0, 5381.0, 5148.0, 5444.0, 5427.0], 'avg_corr:': [170.587326, 170.587326, 170.587326, 170.587326, 170.587326, 170.587326, 170.587326, 170.587326], 'init_kernel:': [2740.0, 2619.0, 2778.0, 2584.0, 2618.0, 2604.0, 2642.0, 2653.0], 'kernel:': [5173.0, 5089.0, 5147.0, 5187.0, 5348.0, 5116.0, 5411.0, 5395.0], 'overall:': [10148.0, 10068.0, 10169.0, 10019.0, 10314.0, 10034.0, 10335.0, 10372.0], 'read_input:': [893.0, 1019.0, 905.0, 910.0, 1010.0, 982.0, 942.0, 986.0], 'tree_height:': [19.0, 19.0, 19.0, 19.0, 19.0, 19.0, 19.0, 19.0], 'extra:': [52.0, 52.0, 52.0, 50.0, 49.0, 51.0, 49.0, 49.0], 'build_tree:': [1213.0, 1213.0, 1212.0, 1211.0, 1212.0, 1206.0, 1215.0, 1213.0]}
@ tree_height: 19
The max number of the nodes is 524288.
ROWS = 200000, COLS = 64.
Time for asynchronous transfer and execute (ms): 17.837919
@ avg_corr: 170.587326
@ overall: 10211 ms
@ read_input: 964 ms
@ build_tree: 1186 ms
@ init_kernel: 2785 ms
@ find_correlation: 5186 ms
@ kernel: 5153 ms
@ extra: 52 ms
Collected results into ../../../results/depth_tmp/pc_Hybrid_Sched_random.7d_6_unsorted.stats

Loading data from ../../../results/depth_tmp/pc_Hybrid_Sched_random.7d_6_unsorted.stats...
{'avg_corr:': [170.587326, 170.587326, 170.587326, 170.587326, 170.587326, 170.587326, 170.587326, 170.587326, 170.587326], 'init_kernel:': [2740.0, 2619.0, 2778.0, 2584.0, 2618.0, 2604.0, 2642.0, 2653.0, 2785.0], 'overall:': [10148.0, 10068.0, 10169.0, 10019.0, 10314.0, 10034.0, 10335.0, 10372.0, 10211.0], 'kernel:': [5173.0, 5089.0, 5147.0, 5187.0, 5348.0, 5116.0, 5411.0, 5395.0, 5153.0], 'find_correlation:': [5206.0, 5122.0, 5180.0, 5220.0, 5381.0, 5148.0, 5444.0, 5427.0, 5186.0], 'read_input:': [893.0, 1019.0, 905.0, 910.0, 1010.0, 982.0, 942.0, 986.0, 964.0], 'tree_height:': [19.0, 19.0, 19.0, 19.0, 19.0, 19.0, 19.0, 19.0, 19.0], 'extra:': [52.0, 52.0, 52.0, 50.0, 49.0, 51.0, 49.0, 49.0, 52.0], 'build_tree:': [1213.0, 1213.0, 1212.0, 1211.0, 1212.0, 1206.0, 1215.0, 1213.0, 1186.0]}
@ tree_height: 19
The max number of the nodes is 524288.
ROWS = 200000, COLS = 64.
Time for asynchronous transfer and execute (ms): 17.716576
@ avg_corr: 170.587326
@ overall: 9988 ms
@ read_input: 920 ms
@ build_tree: 1140 ms
@ init_kernel: 2629 ms
@ find_correlation: 5207 ms
@ kernel: 5175 ms
@ extra: 51 ms
Collected results into ../../../results/depth_tmp/pc_Hybrid_Sched_random.7d_6_unsorted.stats

Loading data from ../../../results/depth_tmp/pc_Hybrid_Sched_random.7d_6_unsorted.stats...
{'find_correlation:': [5206.0, 5122.0, 5180.0, 5220.0, 5381.0, 5148.0, 5444.0, 5427.0, 5186.0, 5207.0], 'avg_corr:': [170.587326, 170.587326, 170.587326, 170.587326, 170.587326, 170.587326, 170.587326, 170.587326, 170.587326, 170.587326], 'init_kernel:': [2740.0, 2619.0, 2778.0, 2584.0, 2618.0, 2604.0, 2642.0, 2653.0, 2785.0, 2629.0], 'kernel:': [5173.0, 5089.0, 5147.0, 5187.0, 5348.0, 5116.0, 5411.0, 5395.0, 5153.0, 5175.0], 'overall:': [10148.0, 10068.0, 10169.0, 10019.0, 10314.0, 10034.0, 10335.0, 10372.0, 10211.0, 9988.0], 'read_input:': [893.0, 1019.0, 905.0, 910.0, 1010.0, 982.0, 942.0, 986.0, 964.0, 920.0], 'tree_height:': [19.0, 19.0, 19.0, 19.0, 19.0, 19.0, 19.0, 19.0, 19.0, 19.0], 'extra:': [52.0, 52.0, 52.0, 50.0, 49.0, 51.0, 49.0, 49.0, 52.0, 51.0], 'build_tree:': [1213.0, 1213.0, 1212.0, 1211.0, 1212.0, 1206.0, 1215.0, 1213.0, 1186.0, 1140.0]}
@ tree_height: 19
The max number of the nodes is 524288.
ROWS = 200000, COLS = 64.
Time for asynchronous transfer and execute (ms): 15.431456
@ avg_corr: 170.587326
@ overall: 10209 ms
@ read_input: 948 ms
@ build_tree: 1127 ms
@ init_kernel: 2596 ms
@ find_correlation: 5448 ms
@ kernel: 5415 ms
@ extra: 49 ms
Collected results into ../../../results/depth_tmp/pc_Hybrid_Sched_random.7d_6_unsorted.stats

Loading data from ../../../results/depth_tmp/pc_Hybrid_Sched_random.7d_6_unsorted.stats...
{'avg_corr:': [170.587326, 170.587326, 170.587326, 170.587326, 170.587326, 170.587326, 170.587326, 170.587326, 170.587326, 170.587326, 170.587326], 'init_kernel:': [2740.0, 2619.0, 2778.0, 2584.0, 2618.0, 2604.0, 2642.0, 2653.0, 2785.0, 2629.0, 2596.0], 'overall:': [10148.0, 10068.0, 10169.0, 10019.0, 10314.0, 10034.0, 10335.0, 10372.0, 10211.0, 9988.0, 10209.0], 'kernel:': [5173.0, 5089.0, 5147.0, 5187.0, 5348.0, 5116.0, 5411.0, 5395.0, 5153.0, 5175.0, 5415.0], 'find_correlation:': [5206.0, 5122.0, 5180.0, 5220.0, 5381.0, 5148.0, 5444.0, 5427.0, 5186.0, 5207.0, 5448.0], 'read_input:': [893.0, 1019.0, 905.0, 910.0, 1010.0, 982.0, 942.0, 986.0, 964.0, 920.0, 948.0], 'tree_height:': [19.0, 19.0, 19.0, 19.0, 19.0, 19.0, 19.0, 19.0, 19.0, 19.0, 19.0], 'extra:': [52.0, 52.0, 52.0, 50.0, 49.0, 51.0, 49.0, 49.0, 52.0, 51.0, 49.0], 'build_tree:': [1213.0, 1213.0, 1212.0, 1211.0, 1212.0, 1206.0, 1215.0, 1213.0, 1186.0, 1140.0, 1127.0]}
@ tree_height: 19
The max number of the nodes is 524288.
ROWS = 200000, COLS = 64.
Time for asynchronous transfer and execute (ms): 17.745825
@ avg_corr: 170.587326
@ overall: 10108 ms
@ read_input: 1015 ms
@ build_tree: 1061 ms
@ init_kernel: 2771 ms
@ find_correlation: 5170 ms
@ kernel: 5137 ms
@ extra: 52 ms
Collected results into ../../../results/depth_tmp/pc_Hybrid_Sched_random.7d_6_unsorted.stats

Loading data from ../../../results/depth_tmp/pc_Hybrid_Sched_random.7d_6_unsorted.stats...
{'find_correlation:': [5206.0, 5122.0, 5180.0, 5220.0, 5381.0, 5148.0, 5444.0, 5427.0, 5186.0, 5207.0, 5448.0, 5170.0], 'avg_corr:': [170.587326, 170.587326, 170.587326, 170.587326, 170.587326, 170.587326, 170.587326, 170.587326, 170.587326, 170.587326, 170.587326, 170.587326], 'init_kernel:': [2740.0, 2619.0, 2778.0, 2584.0, 2618.0, 2604.0, 2642.0, 2653.0, 2785.0, 2629.0, 2596.0, 2771.0], 'kernel:': [5173.0, 5089.0, 5147.0, 5187.0, 5348.0, 5116.0, 5411.0, 5395.0, 5153.0, 5175.0, 5415.0, 5137.0], 'overall:': [10148.0, 10068.0, 10169.0, 10019.0, 10314.0, 10034.0, 10335.0, 10372.0, 10211.0, 9988.0, 10209.0, 10108.0], 'read_input:': [893.0, 1019.0, 905.0, 910.0, 1010.0, 982.0, 942.0, 986.0, 964.0, 920.0, 948.0, 1015.0], 'tree_height:': [19.0, 19.0, 19.0, 19.0, 19.0, 19.0, 19.0, 19.0, 19.0, 19.0, 19.0, 19.0], 'extra:': [52.0, 52.0, 52.0, 50.0, 49.0, 51.0, 49.0, 49.0, 52.0, 51.0, 49.0, 52.0], 'build_tree:': [1213.0, 1213.0, 1212.0, 1211.0, 1212.0, 1206.0, 1215.0, 1213.0, 1186.0, 1140.0, 1127.0, 1061.0]}
@ tree_height: 19
The max number of the nodes is 524288.
ROWS = 200000, COLS = 64.
Time for asynchronous transfer and execute (ms): 17.794847
@ avg_corr: 170.587326
@ overall: 9904 ms
@ read_input: 896 ms
@ build_tree: 1041 ms
@ init_kernel: 2630 ms
@ find_correlation: 5246 ms
@ kernel: 5214 ms
@ extra: 51 ms
Collected results into ../../../results/depth_tmp/pc_Hybrid_Sched_random.7d_6_unsorted.stats

Loading data from ../../../results/depth_tmp/pc_Hybrid_Sched_random.7d_6_unsorted.stats...
{'avg_corr:': [170.587326, 170.587326, 170.587326, 170.587326, 170.587326, 170.587326, 170.587326, 170.587326, 170.587326, 170.587326, 170.587326, 170.587326, 170.587326], 'init_kernel:': [2740.0, 2619.0, 2778.0, 2584.0, 2618.0, 2604.0, 2642.0, 2653.0, 2785.0, 2629.0, 2596.0, 2771.0, 2630.0], 'overall:': [10148.0, 10068.0, 10169.0, 10019.0, 10314.0, 10034.0, 10335.0, 10372.0, 10211.0, 9988.0, 10209.0, 10108.0, 9904.0], 'kernel:': [5173.0, 5089.0, 5147.0, 5187.0, 5348.0, 5116.0, 5411.0, 5395.0, 5153.0, 5175.0, 5415.0, 5137.0, 5214.0], 'find_correlation:': [5206.0, 5122.0, 5180.0, 5220.0, 5381.0, 5148.0, 5444.0, 5427.0, 5186.0, 5207.0, 5448.0, 5170.0, 5246.0], 'read_input:': [893.0, 1019.0, 905.0, 910.0, 1010.0, 982.0, 942.0, 986.0, 964.0, 920.0, 948.0, 1015.0, 896.0], 'tree_height:': [19.0, 19.0, 19.0, 19.0, 19.0, 19.0, 19.0, 19.0, 19.0, 19.0, 19.0, 19.0, 19.0], 'extra:': [52.0, 52.0, 52.0, 50.0, 49.0, 51.0, 49.0, 49.0, 52.0, 51.0, 49.0, 52.0, 51.0], 'build_tree:': [1213.0, 1213.0, 1212.0, 1211.0, 1212.0, 1206.0, 1215.0, 1213.0, 1186.0, 1140.0, 1127.0, 1061.0, 1041.0]}
@ tree_height: 19
The max number of the nodes is 524288.
ROWS = 200000, COLS = 64.
Time for asynchronous transfer and execute (ms): 15.400608
@ avg_corr: 170.587326
@ overall: 10056 ms
@ read_input: 964 ms
@ build_tree: 1066 ms
@ init_kernel: 2607 ms
@ find_correlation: 5330 ms
@ kernel: 5298 ms
@ extra: 49 ms
Collected results into ../../../results/depth_tmp/pc_Hybrid_Sched_random.7d_6_unsorted.stats

Loading data from ../../../results/depth_tmp/pc_Hybrid_Sched_random.7d_6_unsorted.stats...
{'find_correlation:': [5206.0, 5122.0, 5180.0, 5220.0, 5381.0, 5148.0, 5444.0, 5427.0, 5186.0, 5207.0, 5448.0, 5170.0, 5246.0, 5330.0], 'avg_corr:': [170.587326, 170.587326, 170.587326, 170.587326, 170.587326, 170.587326, 170.587326, 170.587326, 170.587326, 170.587326, 170.587326, 170.587326, 170.587326, 170.587326], 'init_kernel:': [2740.0, 2619.0, 2778.0, 2584.0, 2618.0, 2604.0, 2642.0, 2653.0, 2785.0, 2629.0, 2596.0, 2771.0, 2630.0, 2607.0], 'kernel:': [5173.0, 5089.0, 5147.0, 5187.0, 5348.0, 5116.0, 5411.0, 5395.0, 5153.0, 5175.0, 5415.0, 5137.0, 5214.0, 5298.0], 'overall:': [10148.0, 10068.0, 10169.0, 10019.0, 10314.0, 10034.0, 10335.0, 10372.0, 10211.0, 9988.0, 10209.0, 10108.0, 9904.0, 10056.0], 'read_input:': [893.0, 1019.0, 905.0, 910.0, 1010.0, 982.0, 942.0, 986.0, 964.0, 920.0, 948.0, 1015.0, 896.0, 964.0], 'tree_height:': [19.0, 19.0, 19.0, 19.0, 19.0, 19.0, 19.0, 19.0, 19.0, 19.0, 19.0, 19.0, 19.0, 19.0], 'extra:': [52.0, 52.0, 52.0, 50.0, 49.0, 51.0, 49.0, 49.0, 52.0, 51.0, 49.0, 52.0, 51.0, 49.0], 'build_tree:': [1213.0, 1213.0, 1212.0, 1211.0, 1212.0, 1206.0, 1215.0, 1213.0, 1186.0, 1140.0, 1127.0, 1061.0, 1041.0, 1066.0]}
@ tree_height: 19
The max number of the nodes is 524288.
ROWS = 200000, COLS = 64.
Time for asynchronous transfer and execute (ms): 15.264544
@ avg_corr: 170.587326
@ overall: 10227 ms
@ read_input: 904 ms
@ build_tree: 1207 ms
@ init_kernel: 2662 ms
@ find_correlation: 5360 ms
@ kernel: 5327 ms
@ extra: 49 ms
Collected results into ../../../results/depth_tmp/pc_Hybrid_Sched_random.7d_6_unsorted.stats

