Results wll be collected to ../../../results/depth_tmp/pc_Hybrid_Sched_mnist.7d_12_unsorted.stats...
@ tree_height: 19
The max number of the nodes is 524288.
ROWS = 200000, COLS = 4096.
Time for asynchronous transfer and execute (ms): 1270.279907
@ avg_corr: 1.000000
@ overall: 10733 ms
@ read_input: 965 ms
@ build_tree: 1199 ms
@ init_kernel: 2710 ms
@ find_correlation: 4504 ms
@ kernel: 1524 ms
@ extra: 4255 ms
Collected results into ../../../results/depth_tmp/pc_Hybrid_Sched_mnist.7d_12_unsorted.stats

Loading data from ../../../results/depth_tmp/pc_Hybrid_Sched_mnist.7d_12_unsorted.stats...
{'avg_corr:': [1.0], 'init_kernel:': [2710.0], 'overall:': [10733.0], 'kernel:': [1524.0], 'find_correlation:': [4504.0], 'read_input:': [965.0], 'tree_height:': [19.0], 'extra:': [4255.0], 'build_tree:': [1199.0]}
@ tree_height: 19
The max number of the nodes is 524288.
ROWS = 200000, COLS = 4096.
Time for asynchronous transfer and execute (ms): 1265.893188
@ avg_corr: 1.000000
@ overall: 10738 ms
@ read_input: 964 ms
@ build_tree: 1199 ms
@ init_kernel: 2719 ms
@ find_correlation: 4505 ms
@ kernel: 1524 ms
@ extra: 4251 ms
Collected results into ../../../results/depth_tmp/pc_Hybrid_Sched_mnist.7d_12_unsorted.stats

Loading data from ../../../results/depth_tmp/pc_Hybrid_Sched_mnist.7d_12_unsorted.stats...
{'find_correlation:': [4504.0, 4505.0], 'avg_corr:': [1.0, 1.0], 'init_kernel:': [2710.0, 2719.0], 'kernel:': [1524.0, 1524.0], 'overall:': [10733.0, 10738.0], 'read_input:': [965.0, 964.0], 'tree_height:': [19.0, 19.0], 'extra:': [4255.0, 4251.0], 'build_tree:': [1199.0, 1199.0]}
@ tree_height: 19
The max number of the nodes is 524288.
ROWS = 200000, COLS = 4096.
Time for asynchronous transfer and execute (ms): 867.117920
@ avg_corr: 1.000000
@ overall: 10095 ms
@ read_input: 1027 ms
@ build_tree: 1186 ms
@ init_kernel: 2599 ms
@ find_correlation: 4335 ms
@ kernel: 1557 ms
@ extra: 3648 ms
Collected results into ../../../results/depth_tmp/pc_Hybrid_Sched_mnist.7d_12_unsorted.stats

Loading data from ../../../results/depth_tmp/pc_Hybrid_Sched_mnist.7d_12_unsorted.stats...
{'avg_corr:': [1.0, 1.0, 1.0], 'init_kernel:': [2710.0, 2719.0, 2599.0], 'overall:': [10733.0, 10738.0, 10095.0], 'kernel:': [1524.0, 1524.0, 1557.0], 'find_correlation:': [4504.0, 4505.0, 4335.0], 'read_input:': [965.0, 964.0, 1027.0], 'tree_height:': [19.0, 19.0, 19.0], 'extra:': [4255.0, 4251.0, 3648.0], 'build_tree:': [1199.0, 1199.0, 1186.0]}
@ tree_height: 19
The max number of the nodes is 524288.
ROWS = 200000, COLS = 4096.
Time for asynchronous transfer and execute (ms): 1262.807861
@ avg_corr: 1.000000
@ overall: 10948 ms
@ read_input: 993 ms
@ build_tree: 1360 ms
@ init_kernel: 2728 ms
@ find_correlation: 4508 ms
@ kernel: 1523 ms
@ extra: 4251 ms
Collected results into ../../../results/depth_tmp/pc_Hybrid_Sched_mnist.7d_12_unsorted.stats

Loading data from ../../../results/depth_tmp/pc_Hybrid_Sched_mnist.7d_12_unsorted.stats...
{'find_correlation:': [4504.0, 4505.0, 4335.0, 4508.0], 'avg_corr:': [1.0, 1.0, 1.0, 1.0], 'init_kernel:': [2710.0, 2719.0, 2599.0, 2728.0], 'kernel:': [1524.0, 1524.0, 1557.0, 1523.0], 'overall:': [10733.0, 10738.0, 10095.0, 10948.0], 'read_input:': [965.0, 964.0, 1027.0, 993.0], 'tree_height:': [19.0, 19.0, 19.0, 19.0], 'extra:': [4255.0, 4251.0, 3648.0, 4251.0], 'build_tree:': [1199.0, 1199.0, 1186.0, 1360.0]}
@ tree_height: 19
The max number of the nodes is 524288.
ROWS = 200000, COLS = 4096.
Time for asynchronous transfer and execute (ms): 899.180420
@ avg_corr: 1.000000
@ overall: 10231 ms
@ read_input: 955 ms
@ build_tree: 1182 ms
@ init_kernel: 2746 ms
@ find_correlation: 4370 ms
@ kernel: 1559 ms
@ extra: 3713 ms
Collected results into ../../../results/depth_tmp/pc_Hybrid_Sched_mnist.7d_12_unsorted.stats

Loading data from ../../../results/depth_tmp/pc_Hybrid_Sched_mnist.7d_12_unsorted.stats...
{'avg_corr:': [1.0, 1.0, 1.0, 1.0, 1.0], 'init_kernel:': [2710.0, 2719.0, 2599.0, 2728.0, 2746.0], 'overall:': [10733.0, 10738.0, 10095.0, 10948.0, 10231.0], 'kernel:': [1524.0, 1524.0, 1557.0, 1523.0, 1559.0], 'find_correlation:': [4504.0, 4505.0, 4335.0, 4508.0, 4370.0], 'read_input:': [965.0, 964.0, 1027.0, 993.0, 955.0], 'tree_height:': [19.0, 19.0, 19.0, 19.0, 19.0], 'extra:': [4255.0, 4251.0, 3648.0, 4251.0, 3713.0], 'build_tree:': [1199.0, 1199.0, 1186.0, 1360.0, 1182.0]}
@ tree_height: 19
The max number of the nodes is 524288.
ROWS = 200000, COLS = 4096.
Time for asynchronous transfer and execute (ms): 1262.280884
@ avg_corr: 1.000000
@ overall: 10680 ms
@ read_input: 1058 ms
@ build_tree: 1198 ms
@ init_kernel: 2568 ms
@ find_correlation: 4509 ms
@ kernel: 1525 ms
@ extra: 4250 ms
Collected results into ../../../results/depth_tmp/pc_Hybrid_Sched_mnist.7d_12_unsorted.stats

Loading data from ../../../results/depth_tmp/pc_Hybrid_Sched_mnist.7d_12_unsorted.stats...
{'find_correlation:': [4504.0, 4505.0, 4335.0, 4508.0, 4370.0, 4509.0], 'avg_corr:': [1.0, 1.0, 1.0, 1.0, 1.0, 1.0], 'init_kernel:': [2710.0, 2719.0, 2599.0, 2728.0, 2746.0, 2568.0], 'kernel:': [1524.0, 1524.0, 1557.0, 1523.0, 1559.0, 1525.0], 'overall:': [10733.0, 10738.0, 10095.0, 10948.0, 10231.0, 10680.0], 'read_input:': [965.0, 964.0, 1027.0, 993.0, 955.0, 1058.0], 'tree_height:': [19.0, 19.0, 19.0, 19.0, 19.0, 19.0], 'extra:': [4255.0, 4251.0, 3648.0, 4251.0, 3713.0, 4250.0], 'build_tree:': [1199.0, 1199.0, 1186.0, 1360.0, 1182.0, 1198.0]}
@ tree_height: 19
The max number of the nodes is 524288.
ROWS = 200000, COLS = 4096.
Time for asynchronous transfer and execute (ms): 1271.582886
@ avg_corr: 1.000000
@ overall: 10749 ms
@ read_input: 975 ms
@ build_tree: 1198 ms
@ init_kernel: 2708 ms
@ find_correlation: 4511 ms
@ kernel: 1526 ms
@ extra: 4261 ms
Collected results into ../../../results/depth_tmp/pc_Hybrid_Sched_mnist.7d_12_unsorted.stats

Loading data from ../../../results/depth_tmp/pc_Hybrid_Sched_mnist.7d_12_unsorted.stats...
{'avg_corr:': [1.0, 1.0, 1.0, 1.0, 1.0, 1.0, 1.0], 'init_kernel:': [2710.0, 2719.0, 2599.0, 2728.0, 2746.0, 2568.0, 2708.0], 'overall:': [10733.0, 10738.0, 10095.0, 10948.0, 10231.0, 10680.0, 10749.0], 'kernel:': [1524.0, 1524.0, 1557.0, 1523.0, 1559.0, 1525.0, 1526.0], 'find_correlation:': [4504.0, 4505.0, 4335.0, 4508.0, 4370.0, 4509.0, 4511.0], 'read_input:': [965.0, 964.0, 1027.0, 993.0, 955.0, 1058.0, 975.0], 'tree_height:': [19.0, 19.0, 19.0, 19.0, 19.0, 19.0, 19.0], 'extra:': [4255.0, 4251.0, 3648.0, 4251.0, 3713.0, 4250.0, 4261.0], 'build_tree:': [1199.0, 1199.0, 1186.0, 1360.0, 1182.0, 1198.0, 1198.0]}
@ tree_height: 19
The max number of the nodes is 524288.
ROWS = 200000, COLS = 4096.
Time for asynchronous transfer and execute (ms): 861.768127
@ avg_corr: 1.000000
@ overall: 10275 ms
@ read_input: 1032 ms
@ build_tree: 1189 ms
@ init_kernel: 2771 ms
@ find_correlation: 4341 ms
@ kernel: 1564 ms
@ extra: 3643 ms
Collected results into ../../../results/depth_tmp/pc_Hybrid_Sched_mnist.7d_12_unsorted.stats

Loading data from ../../../results/depth_tmp/pc_Hybrid_Sched_mnist.7d_12_unsorted.stats...
{'find_correlation:': [4504.0, 4505.0, 4335.0, 4508.0, 4370.0, 4509.0, 4511.0, 4341.0], 'avg_corr:': [1.0, 1.0, 1.0, 1.0, 1.0, 1.0, 1.0, 1.0], 'init_kernel:': [2710.0, 2719.0, 2599.0, 2728.0, 2746.0, 2568.0, 2708.0, 2771.0], 'kernel:': [1524.0, 1524.0, 1557.0, 1523.0, 1559.0, 1525.0, 1526.0, 1564.0], 'overall:': [10733.0, 10738.0, 10095.0, 10948.0, 10231.0, 10680.0, 10749.0, 10275.0], 'read_input:': [965.0, 964.0, 1027.0, 993.0, 955.0, 1058.0, 975.0, 1032.0], 'tree_height:': [19.0, 19.0, 19.0, 19.0, 19.0, 19.0, 19.0, 19.0], 'extra:': [4255.0, 4251.0, 3648.0, 4251.0, 3713.0, 4250.0, 4261.0, 3643.0], 'build_tree:': [1199.0, 1199.0, 1186.0, 1360.0, 1182.0, 1198.0, 1198.0, 1189.0]}
@ tree_height: 19
The max number of the nodes is 524288.
ROWS = 200000, COLS = 4096.
Time for asynchronous transfer and execute (ms): 951.060181
@ avg_corr: 1.000000
@ overall: 10545 ms
@ read_input: 1050 ms
@ build_tree: 1414 ms
@ init_kernel: 2643 ms
@ find_correlation: 4381 ms
@ kernel: 1554 ms
@ extra: 3781 ms
Collected results into ../../../results/depth_tmp/pc_Hybrid_Sched_mnist.7d_12_unsorted.stats

Loading data from ../../../results/depth_tmp/pc_Hybrid_Sched_mnist.7d_12_unsorted.stats...
{'avg_corr:': [1.0, 1.0, 1.0, 1.0, 1.0, 1.0, 1.0, 1.0, 1.0], 'init_kernel:': [2710.0, 2719.0, 2599.0, 2728.0, 2746.0, 2568.0, 2708.0, 2771.0, 2643.0], 'overall:': [10733.0, 10738.0, 10095.0, 10948.0, 10231.0, 10680.0, 10749.0, 10275.0, 10545.0], 'kernel:': [1524.0, 1524.0, 1557.0, 1523.0, 1559.0, 1525.0, 1526.0, 1564.0, 1554.0], 'find_correlation:': [4504.0, 4505.0, 4335.0, 4508.0, 4370.0, 4509.0, 4511.0, 4341.0, 4381.0], 'read_input:': [965.0, 964.0, 1027.0, 993.0, 955.0, 1058.0, 975.0, 1032.0, 1050.0], 'tree_height:': [19.0, 19.0, 19.0, 19.0, 19.0, 19.0, 19.0, 19.0, 19.0], 'extra:': [4255.0, 4251.0, 3648.0, 4251.0, 3713.0, 4250.0, 4261.0, 3643.0, 3781.0], 'build_tree:': [1199.0, 1199.0, 1186.0, 1360.0, 1182.0, 1198.0, 1198.0, 1189.0, 1414.0]}
@ tree_height: 19
The max number of the nodes is 524288.
ROWS = 200000, COLS = 4096.
Time for asynchronous transfer and execute (ms): 1011.570679
@ avg_corr: 1.000000
@ overall: 10368 ms
@ read_input: 972 ms
@ build_tree: 1172 ms
@ init_kernel: 2660 ms
@ find_correlation: 4471 ms
@ kernel: 1522 ms
@ extra: 3964 ms
Collected results into ../../../results/depth_tmp/pc_Hybrid_Sched_mnist.7d_12_unsorted.stats

Loading data from ../../../results/depth_tmp/pc_Hybrid_Sched_mnist.7d_12_unsorted.stats...
{'find_correlation:': [4504.0, 4505.0, 4335.0, 4508.0, 4370.0, 4509.0, 4511.0, 4341.0, 4381.0, 4471.0], 'avg_corr:': [1.0, 1.0, 1.0, 1.0, 1.0, 1.0, 1.0, 1.0, 1.0, 1.0], 'init_kernel:': [2710.0, 2719.0, 2599.0, 2728.0, 2746.0, 2568.0, 2708.0, 2771.0, 2643.0, 2660.0], 'kernel:': [1524.0, 1524.0, 1557.0, 1523.0, 1559.0, 1525.0, 1526.0, 1564.0, 1554.0, 1522.0], 'overall:': [10733.0, 10738.0, 10095.0, 10948.0, 10231.0, 10680.0, 10749.0, 10275.0, 10545.0, 10368.0], 'read_input:': [965.0, 964.0, 1027.0, 993.0, 955.0, 1058.0, 975.0, 1032.0, 1050.0, 972.0], 'tree_height:': [19.0, 19.0, 19.0, 19.0, 19.0, 19.0, 19.0, 19.0, 19.0, 19.0], 'extra:': [4255.0, 4251.0, 3648.0, 4251.0, 3713.0, 4250.0, 4261.0, 3643.0, 3781.0, 3964.0], 'build_tree:': [1199.0, 1199.0, 1186.0, 1360.0, 1182.0, 1198.0, 1198.0, 1189.0, 1414.0, 1172.0]}
@ tree_height: 19
The max number of the nodes is 524288.
ROWS = 200000, COLS = 4096.
Time for asynchronous transfer and execute (ms): 867.276611
@ avg_corr: 1.000000
@ overall: 10159 ms
@ read_input: 1022 ms
@ build_tree: 1185 ms
@ init_kernel: 2657 ms
@ find_correlation: 4347 ms
@ kernel: 1562 ms
@ extra: 3656 ms
Collected results into ../../../results/depth_tmp/pc_Hybrid_Sched_mnist.7d_12_unsorted.stats

Loading data from ../../../results/depth_tmp/pc_Hybrid_Sched_mnist.7d_12_unsorted.stats...
{'avg_corr:': [1.0, 1.0, 1.0, 1.0, 1.0, 1.0, 1.0, 1.0, 1.0, 1.0, 1.0], 'init_kernel:': [2710.0, 2719.0, 2599.0, 2728.0, 2746.0, 2568.0, 2708.0, 2771.0, 2643.0, 2660.0, 2657.0], 'overall:': [10733.0, 10738.0, 10095.0, 10948.0, 10231.0, 10680.0, 10749.0, 10275.0, 10545.0, 10368.0, 10159.0], 'kernel:': [1524.0, 1524.0, 1557.0, 1523.0, 1559.0, 1525.0, 1526.0, 1564.0, 1554.0, 1522.0, 1562.0], 'find_correlation:': [4504.0, 4505.0, 4335.0, 4508.0, 4370.0, 4509.0, 4511.0, 4341.0, 4381.0, 4471.0, 4347.0], 'read_input:': [965.0, 964.0, 1027.0, 993.0, 955.0, 1058.0, 975.0, 1032.0, 1050.0, 972.0, 1022.0], 'tree_height:': [19.0, 19.0, 19.0, 19.0, 19.0, 19.0, 19.0, 19.0, 19.0, 19.0, 19.0], 'extra:': [4255.0, 4251.0, 3648.0, 4251.0, 3713.0, 4250.0, 4261.0, 3643.0, 3781.0, 3964.0, 3656.0], 'build_tree:': [1199.0, 1199.0, 1186.0, 1360.0, 1182.0, 1198.0, 1198.0, 1189.0, 1414.0, 1172.0, 1185.0]}
@ tree_height: 19
The max number of the nodes is 524288.
ROWS = 200000, COLS = 4096.
Time for asynchronous transfer and execute (ms): 1005.022705
@ avg_corr: 1.000000
@ overall: 10306 ms
@ read_input: 959 ms
@ build_tree: 1190 ms
@ init_kernel: 2611 ms
@ find_correlation: 4460 ms
@ kernel: 1521 ms
@ extra: 3948 ms
Collected results into ../../../results/depth_tmp/pc_Hybrid_Sched_mnist.7d_12_unsorted.stats

Loading data from ../../../results/depth_tmp/pc_Hybrid_Sched_mnist.7d_12_unsorted.stats...
{'find_correlation:': [4504.0, 4505.0, 4335.0, 4508.0, 4370.0, 4509.0, 4511.0, 4341.0, 4381.0, 4471.0, 4347.0, 4460.0], 'avg_corr:': [1.0, 1.0, 1.0, 1.0, 1.0, 1.0, 1.0, 1.0, 1.0, 1.0, 1.0, 1.0], 'init_kernel:': [2710.0, 2719.0, 2599.0, 2728.0, 2746.0, 2568.0, 2708.0, 2771.0, 2643.0, 2660.0, 2657.0, 2611.0], 'kernel:': [1524.0, 1524.0, 1557.0, 1523.0, 1559.0, 1525.0, 1526.0, 1564.0, 1554.0, 1522.0, 1562.0, 1521.0], 'overall:': [10733.0, 10738.0, 10095.0, 10948.0, 10231.0, 10680.0, 10749.0, 10275.0, 10545.0, 10368.0, 10159.0, 10306.0], 'read_input:': [965.0, 964.0, 1027.0, 993.0, 955.0, 1058.0, 975.0, 1032.0, 1050.0, 972.0, 1022.0, 959.0], 'tree_height:': [19.0, 19.0, 19.0, 19.0, 19.0, 19.0, 19.0, 19.0, 19.0, 19.0, 19.0, 19.0], 'extra:': [4255.0, 4251.0, 3648.0, 4251.0, 3713.0, 4250.0, 4261.0, 3643.0, 3781.0, 3964.0, 3656.0, 3948.0], 'build_tree:': [1199.0, 1199.0, 1186.0, 1360.0, 1182.0, 1198.0, 1198.0, 1189.0, 1414.0, 1172.0, 1185.0, 1190.0]}
@ tree_height: 19
The max number of the nodes is 524288.
ROWS = 200000, COLS = 4096.
Time for asynchronous transfer and execute (ms): 1013.547791
@ avg_corr: 1.000000
@ overall: 10472 ms
@ read_input: 1044 ms
@ build_tree: 1073 ms
@ init_kernel: 2795 ms
@ find_correlation: 4474 ms
@ kernel: 1520 ms
@ extra: 3970 ms
Collected results into ../../../results/depth_tmp/pc_Hybrid_Sched_mnist.7d_12_unsorted.stats

Loading data from ../../../results/depth_tmp/pc_Hybrid_Sched_mnist.7d_12_unsorted.stats...
{'avg_corr:': [1.0, 1.0, 1.0, 1.0, 1.0, 1.0, 1.0, 1.0, 1.0, 1.0, 1.0, 1.0, 1.0], 'init_kernel:': [2710.0, 2719.0, 2599.0, 2728.0, 2746.0, 2568.0, 2708.0, 2771.0, 2643.0, 2660.0, 2657.0, 2611.0, 2795.0], 'overall:': [10733.0, 10738.0, 10095.0, 10948.0, 10231.0, 10680.0, 10749.0, 10275.0, 10545.0, 10368.0, 10159.0, 10306.0, 10472.0], 'kernel:': [1524.0, 1524.0, 1557.0, 1523.0, 1559.0, 1525.0, 1526.0, 1564.0, 1554.0, 1522.0, 1562.0, 1521.0, 1520.0], 'find_correlation:': [4504.0, 4505.0, 4335.0, 4508.0, 4370.0, 4509.0, 4511.0, 4341.0, 4381.0, 4471.0, 4347.0, 4460.0, 4474.0], 'read_input:': [965.0, 964.0, 1027.0, 993.0, 955.0, 1058.0, 975.0, 1032.0, 1050.0, 972.0, 1022.0, 959.0, 1044.0], 'tree_height:': [19.0, 19.0, 19.0, 19.0, 19.0, 19.0, 19.0, 19.0, 19.0, 19.0, 19.0, 19.0, 19.0], 'extra:': [4255.0, 4251.0, 3648.0, 4251.0, 3713.0, 4250.0, 4261.0, 3643.0, 3781.0, 3964.0, 3656.0, 3948.0, 3970.0], 'build_tree:': [1199.0, 1199.0, 1186.0, 1360.0, 1182.0, 1198.0, 1198.0, 1189.0, 1414.0, 1172.0, 1185.0, 1190.0, 1073.0]}
@ tree_height: 19
The max number of the nodes is 524288.
ROWS = 200000, COLS = 4096.
Time for asynchronous transfer and execute (ms): 1019.958374
@ avg_corr: 1.000000
@ overall: 10397 ms
@ read_input: 1051 ms
@ build_tree: 1033 ms
@ init_kernel: 2746 ms
@ find_correlation: 4473 ms
@ kernel: 1527 ms
@ extra: 3969 ms
Collected results into ../../../results/depth_tmp/pc_Hybrid_Sched_mnist.7d_12_unsorted.stats

Loading data from ../../../results/depth_tmp/pc_Hybrid_Sched_mnist.7d_12_unsorted.stats...
{'find_correlation:': [4504.0, 4505.0, 4335.0, 4508.0, 4370.0, 4509.0, 4511.0, 4341.0, 4381.0, 4471.0, 4347.0, 4460.0, 4474.0, 4473.0], 'avg_corr:': [1.0, 1.0, 1.0, 1.0, 1.0, 1.0, 1.0, 1.0, 1.0, 1.0, 1.0, 1.0, 1.0, 1.0], 'init_kernel:': [2710.0, 2719.0, 2599.0, 2728.0, 2746.0, 2568.0, 2708.0, 2771.0, 2643.0, 2660.0, 2657.0, 2611.0, 2795.0, 2746.0], 'kernel:': [1524.0, 1524.0, 1557.0, 1523.0, 1559.0, 1525.0, 1526.0, 1564.0, 1554.0, 1522.0, 1562.0, 1521.0, 1520.0, 1527.0], 'overall:': [10733.0, 10738.0, 10095.0, 10948.0, 10231.0, 10680.0, 10749.0, 10275.0, 10545.0, 10368.0, 10159.0, 10306.0, 10472.0, 10397.0], 'read_input:': [965.0, 964.0, 1027.0, 993.0, 955.0, 1058.0, 975.0, 1032.0, 1050.0, 972.0, 1022.0, 959.0, 1044.0, 1051.0], 'tree_height:': [19.0, 19.0, 19.0, 19.0, 19.0, 19.0, 19.0, 19.0, 19.0, 19.0, 19.0, 19.0, 19.0, 19.0], 'extra:': [4255.0, 4251.0, 3648.0, 4251.0, 3713.0, 4250.0, 4261.0, 3643.0, 3781.0, 3964.0, 3656.0, 3948.0, 3970.0, 3969.0], 'build_tree:': [1199.0, 1199.0, 1186.0, 1360.0, 1182.0, 1198.0, 1198.0, 1189.0, 1414.0, 1172.0, 1185.0, 1190.0, 1073.0, 1033.0]}
@ tree_height: 19
The max number of the nodes is 524288.
ROWS = 200000, COLS = 4096.
Time for asynchronous transfer and execute (ms): 1014.677429
@ avg_corr: 1.000000
@ overall: 10175 ms
@ read_input: 1092 ms
@ build_tree: 1048 ms
@ init_kernel: 2559 ms
@ find_correlation: 4384 ms
@ kernel: 1537 ms
@ extra: 3865 ms
Collected results into ../../../results/depth_tmp/pc_Hybrid_Sched_mnist.7d_12_unsorted.stats

