Results wll be collected to ../../../results/depth_tmp/pc_Hybrid_Sched_random.7d_7_unsorted.stats...
@ tree_height: 19
The max number of the nodes is 524288.
ROWS = 200000, COLS = 128.
Time for asynchronous transfer and execute (ms): 52.001343
@ avg_corr: 170.587326
@ overall: 8714 ms
@ read_input: 916 ms
@ build_tree: 1208 ms
@ init_kernel: 2725 ms
@ find_correlation: 3734 ms
@ kernel: 3653 ms
@ extra: 134 ms
Collected results into ../../../results/depth_tmp/pc_Hybrid_Sched_random.7d_7_unsorted.stats

Loading data from ../../../results/depth_tmp/pc_Hybrid_Sched_random.7d_7_unsorted.stats...
{'avg_corr:': [170.587326], 'init_kernel:': [2725.0], 'overall:': [8714.0], 'kernel:': [3653.0], 'find_correlation:': [3734.0], 'read_input:': [916.0], 'tree_height:': [19.0], 'extra:': [134.0], 'build_tree:': [1208.0]}
@ tree_height: 19
The max number of the nodes is 524288.
ROWS = 200000, COLS = 128.
Time for asynchronous transfer and execute (ms): 60.726017
@ avg_corr: 170.587326
@ overall: 8175 ms
@ read_input: 955 ms
@ build_tree: 1221 ms
@ init_kernel: 2672 ms
@ find_correlation: 3183 ms
@ kernel: 3097 ms
@ extra: 148 ms
Collected results into ../../../results/depth_tmp/pc_Hybrid_Sched_random.7d_7_unsorted.stats

Loading data from ../../../results/depth_tmp/pc_Hybrid_Sched_random.7d_7_unsorted.stats...
{'find_correlation:': [3734.0, 3183.0], 'avg_corr:': [170.587326, 170.587326], 'init_kernel:': [2725.0, 2672.0], 'kernel:': [3653.0, 3097.0], 'overall:': [8714.0, 8175.0], 'read_input:': [916.0, 955.0], 'tree_height:': [19.0, 19.0], 'extra:': [134.0, 148.0], 'build_tree:': [1208.0, 1221.0]}
@ tree_height: 19
The max number of the nodes is 524288.
ROWS = 200000, COLS = 128.
Time for asynchronous transfer and execute (ms): 57.433567
@ avg_corr: 170.587326
@ overall: 8176 ms
@ read_input: 954 ms
@ build_tree: 1206 ms
@ init_kernel: 2744 ms
@ find_correlation: 3136 ms
@ kernel: 3051 ms
@ extra: 143 ms
Collected results into ../../../results/depth_tmp/pc_Hybrid_Sched_random.7d_7_unsorted.stats

Loading data from ../../../results/depth_tmp/pc_Hybrid_Sched_random.7d_7_unsorted.stats...
{'avg_corr:': [170.587326, 170.587326, 170.587326], 'init_kernel:': [2725.0, 2672.0, 2744.0], 'overall:': [8714.0, 8175.0, 8176.0], 'kernel:': [3653.0, 3097.0, 3051.0], 'find_correlation:': [3734.0, 3183.0, 3136.0], 'read_input:': [916.0, 955.0, 954.0], 'tree_height:': [19.0, 19.0, 19.0], 'extra:': [134.0, 148.0, 143.0], 'build_tree:': [1208.0, 1221.0, 1206.0]}
@ tree_height: 19
The max number of the nodes is 524288.
ROWS = 200000, COLS = 128.
Time for asynchronous transfer and execute (ms): 52.580193
@ avg_corr: 170.587326
@ overall: 8751 ms
@ read_input: 1023 ms
@ build_tree: 1207 ms
@ init_kernel: 2690 ms
@ find_correlation: 3700 ms
@ kernel: 3619 ms
@ extra: 134 ms
Collected results into ../../../results/depth_tmp/pc_Hybrid_Sched_random.7d_7_unsorted.stats

Loading data from ../../../results/depth_tmp/pc_Hybrid_Sched_random.7d_7_unsorted.stats...
{'find_correlation:': [3734.0, 3183.0, 3136.0, 3700.0], 'avg_corr:': [170.587326, 170.587326, 170.587326, 170.587326], 'init_kernel:': [2725.0, 2672.0, 2744.0, 2690.0], 'kernel:': [3653.0, 3097.0, 3051.0, 3619.0], 'overall:': [8714.0, 8175.0, 8176.0, 8751.0], 'read_input:': [916.0, 955.0, 954.0, 1023.0], 'tree_height:': [19.0, 19.0, 19.0, 19.0], 'extra:': [134.0, 148.0, 143.0, 134.0], 'build_tree:': [1208.0, 1221.0, 1206.0, 1207.0]}
@ tree_height: 19
The max number of the nodes is 524288.
ROWS = 200000, COLS = 128.
Time for asynchronous transfer and execute (ms): 61.891327
@ avg_corr: 170.587326
@ overall: 8053 ms
@ read_input: 924 ms
@ build_tree: 1217 ms
@ init_kernel: 2609 ms
@ find_correlation: 3159 ms
@ kernel: 3073 ms
@ extra: 149 ms
Collected results into ../../../results/depth_tmp/pc_Hybrid_Sched_random.7d_7_unsorted.stats

Loading data from ../../../results/depth_tmp/pc_Hybrid_Sched_random.7d_7_unsorted.stats...
{'avg_corr:': [170.587326, 170.587326, 170.587326, 170.587326, 170.587326], 'init_kernel:': [2725.0, 2672.0, 2744.0, 2690.0, 2609.0], 'overall:': [8714.0, 8175.0, 8176.0, 8751.0, 8053.0], 'kernel:': [3653.0, 3097.0, 3051.0, 3619.0, 3073.0], 'find_correlation:': [3734.0, 3183.0, 3136.0, 3700.0, 3159.0], 'read_input:': [916.0, 955.0, 954.0, 1023.0, 924.0], 'tree_height:': [19.0, 19.0, 19.0, 19.0, 19.0], 'extra:': [134.0, 148.0, 143.0, 134.0, 149.0], 'build_tree:': [1208.0, 1221.0, 1206.0, 1207.0, 1217.0]}
@ tree_height: 19
The max number of the nodes is 524288.
ROWS = 200000, COLS = 128.
Time for asynchronous transfer and execute (ms): 51.717728
@ avg_corr: 170.587326
@ overall: 8674 ms
@ read_input: 1005 ms
@ build_tree: 1207 ms
@ init_kernel: 2659 ms
@ find_correlation: 3673 ms
@ kernel: 3592 ms
@ extra: 134 ms
Collected results into ../../../results/depth_tmp/pc_Hybrid_Sched_random.7d_7_unsorted.stats

Loading data from ../../../results/depth_tmp/pc_Hybrid_Sched_random.7d_7_unsorted.stats...
{'find_correlation:': [3734.0, 3183.0, 3136.0, 3700.0, 3159.0, 3673.0], 'avg_corr:': [170.587326, 170.587326, 170.587326, 170.587326, 170.587326, 170.587326], 'init_kernel:': [2725.0, 2672.0, 2744.0, 2690.0, 2609.0, 2659.0], 'kernel:': [3653.0, 3097.0, 3051.0, 3619.0, 3073.0, 3592.0], 'overall:': [8714.0, 8175.0, 8176.0, 8751.0, 8053.0, 8674.0], 'read_input:': [916.0, 955.0, 954.0, 1023.0, 924.0, 1005.0], 'tree_height:': [19.0, 19.0, 19.0, 19.0, 19.0, 19.0], 'extra:': [134.0, 148.0, 143.0, 134.0, 149.0, 134.0], 'build_tree:': [1208.0, 1221.0, 1206.0, 1207.0, 1217.0, 1207.0]}
@ tree_height: 19
The max number of the nodes is 524288.
ROWS = 200000, COLS = 128.
Time for asynchronous transfer and execute (ms): 52.335167
@ avg_corr: 170.587326
@ overall: 8602 ms
@ read_input: 944 ms
@ build_tree: 1201 ms
@ init_kernel: 2616 ms
@ find_correlation: 3711 ms
@ kernel: 3630 ms
@ extra: 134 ms
Collected results into ../../../results/depth_tmp/pc_Hybrid_Sched_random.7d_7_unsorted.stats

Loading data from ../../../results/depth_tmp/pc_Hybrid_Sched_random.7d_7_unsorted.stats...
{'avg_corr:': [170.587326, 170.587326, 170.587326, 170.587326, 170.587326, 170.587326, 170.587326], 'init_kernel:': [2725.0, 2672.0, 2744.0, 2690.0, 2609.0, 2659.0, 2616.0], 'overall:': [8714.0, 8175.0, 8176.0, 8751.0, 8053.0, 8674.0, 8602.0], 'kernel:': [3653.0, 3097.0, 3051.0, 3619.0, 3073.0, 3592.0, 3630.0], 'find_correlation:': [3734.0, 3183.0, 3136.0, 3700.0, 3159.0, 3673.0, 3711.0], 'read_input:': [916.0, 955.0, 954.0, 1023.0, 924.0, 1005.0, 944.0], 'tree_height:': [19.0, 19.0, 19.0, 19.0, 19.0, 19.0, 19.0], 'extra:': [134.0, 148.0, 143.0, 134.0, 149.0, 134.0, 134.0], 'build_tree:': [1208.0, 1221.0, 1206.0, 1207.0, 1217.0, 1207.0, 1201.0]}
@ tree_height: 19
The max number of the nodes is 524288.
ROWS = 200000, COLS = 128.
Time for asynchronous transfer and execute (ms): 52.000576
@ avg_corr: 170.587326
@ overall: 8679 ms
@ read_input: 974 ms
@ build_tree: 1193 ms
@ init_kernel: 2671 ms
@ find_correlation: 3711 ms
@ kernel: 3630 ms
@ extra: 134 ms
Collected results into ../../../results/depth_tmp/pc_Hybrid_Sched_random.7d_7_unsorted.stats

Loading data from ../../../results/depth_tmp/pc_Hybrid_Sched_random.7d_7_unsorted.stats...
{'find_correlation:': [3734.0, 3183.0, 3136.0, 3700.0, 3159.0, 3673.0, 3711.0, 3711.0], 'avg_corr:': [170.587326, 170.587326, 170.587326, 170.587326, 170.587326, 170.587326, 170.587326, 170.587326], 'init_kernel:': [2725.0, 2672.0, 2744.0, 2690.0, 2609.0, 2659.0, 2616.0, 2671.0], 'kernel:': [3653.0, 3097.0, 3051.0, 3619.0, 3073.0, 3592.0, 3630.0, 3630.0], 'overall:': [8714.0, 8175.0, 8176.0, 8751.0, 8053.0, 8674.0, 8602.0, 8679.0], 'read_input:': [916.0, 955.0, 954.0, 1023.0, 924.0, 1005.0, 944.0, 974.0], 'tree_height:': [19.0, 19.0, 19.0, 19.0, 19.0, 19.0, 19.0, 19.0], 'extra:': [134.0, 148.0, 143.0, 134.0, 149.0, 134.0, 134.0, 134.0], 'build_tree:': [1208.0, 1221.0, 1206.0, 1207.0, 1217.0, 1207.0, 1201.0, 1193.0]}
@ tree_height: 19
The max number of the nodes is 524288.
ROWS = 200000, COLS = 128.
Time for asynchronous transfer and execute (ms): 51.753216
@ avg_corr: 170.587326
@ overall: 8715 ms
@ read_input: 1000 ms
@ build_tree: 1201 ms
@ init_kernel: 2634 ms
@ find_correlation: 3750 ms
@ kernel: 3669 ms
@ extra: 133 ms
Collected results into ../../../results/depth_tmp/pc_Hybrid_Sched_random.7d_7_unsorted.stats

Loading data from ../../../results/depth_tmp/pc_Hybrid_Sched_random.7d_7_unsorted.stats...
{'avg_corr:': [170.587326, 170.587326, 170.587326, 170.587326, 170.587326, 170.587326, 170.587326, 170.587326, 170.587326], 'init_kernel:': [2725.0, 2672.0, 2744.0, 2690.0, 2609.0, 2659.0, 2616.0, 2671.0, 2634.0], 'overall:': [8714.0, 8175.0, 8176.0, 8751.0, 8053.0, 8674.0, 8602.0, 8679.0, 8715.0], 'kernel:': [3653.0, 3097.0, 3051.0, 3619.0, 3073.0, 3592.0, 3630.0, 3630.0, 3669.0], 'find_correlation:': [3734.0, 3183.0, 3136.0, 3700.0, 3159.0, 3673.0, 3711.0, 3711.0, 3750.0], 'read_input:': [916.0, 955.0, 954.0, 1023.0, 924.0, 1005.0, 944.0, 974.0, 1000.0], 'tree_height:': [19.0, 19.0, 19.0, 19.0, 19.0, 19.0, 19.0, 19.0, 19.0], 'extra:': [134.0, 148.0, 143.0, 134.0, 149.0, 134.0, 134.0, 134.0, 133.0], 'build_tree:': [1208.0, 1221.0, 1206.0, 1207.0, 1217.0, 1207.0, 1201.0, 1193.0, 1201.0]}
@ tree_height: 19
The max number of the nodes is 524288.
ROWS = 200000, COLS = 128.
Time for asynchronous transfer and execute (ms): 56.497826
@ avg_corr: 170.587326
@ overall: 8141 ms
@ read_input: 978 ms
@ build_tree: 1205 ms
@ init_kernel: 2659 ms
@ find_correlation: 3164 ms
@ kernel: 3080 ms
@ extra: 143 ms
Collected results into ../../../results/depth_tmp/pc_Hybrid_Sched_random.7d_7_unsorted.stats

Loading data from ../../../results/depth_tmp/pc_Hybrid_Sched_random.7d_7_unsorted.stats...
{'find_correlation:': [3734.0, 3183.0, 3136.0, 3700.0, 3159.0, 3673.0, 3711.0, 3711.0, 3750.0, 3164.0], 'avg_corr:': [170.587326, 170.587326, 170.587326, 170.587326, 170.587326, 170.587326, 170.587326, 170.587326, 170.587326, 170.587326], 'init_kernel:': [2725.0, 2672.0, 2744.0, 2690.0, 2609.0, 2659.0, 2616.0, 2671.0, 2634.0, 2659.0], 'kernel:': [3653.0, 3097.0, 3051.0, 3619.0, 3073.0, 3592.0, 3630.0, 3630.0, 3669.0, 3080.0], 'overall:': [8714.0, 8175.0, 8176.0, 8751.0, 8053.0, 8674.0, 8602.0, 8679.0, 8715.0, 8141.0], 'read_input:': [916.0, 955.0, 954.0, 1023.0, 924.0, 1005.0, 944.0, 974.0, 1000.0, 978.0], 'tree_height:': [19.0, 19.0, 19.0, 19.0, 19.0, 19.0, 19.0, 19.0, 19.0, 19.0], 'extra:': [134.0, 148.0, 143.0, 134.0, 149.0, 134.0, 134.0, 134.0, 133.0, 143.0], 'build_tree:': [1208.0, 1221.0, 1206.0, 1207.0, 1217.0, 1207.0, 1201.0, 1193.0, 1201.0, 1205.0]}
@ tree_height: 19
The max number of the nodes is 524288.
ROWS = 200000, COLS = 128.
Time for asynchronous transfer and execute (ms): 57.091553
@ avg_corr: 170.587326
@ overall: 8246 ms
@ read_input: 931 ms
@ build_tree: 1201 ms
@ init_kernel: 2832 ms
@ find_correlation: 3146 ms
@ kernel: 3061 ms
@ extra: 143 ms
Collected results into ../../../results/depth_tmp/pc_Hybrid_Sched_random.7d_7_unsorted.stats

Loading data from ../../../results/depth_tmp/pc_Hybrid_Sched_random.7d_7_unsorted.stats...
{'avg_corr:': [170.587326, 170.587326, 170.587326, 170.587326, 170.587326, 170.587326, 170.587326, 170.587326, 170.587326, 170.587326, 170.587326], 'init_kernel:': [2725.0, 2672.0, 2744.0, 2690.0, 2609.0, 2659.0, 2616.0, 2671.0, 2634.0, 2659.0, 2832.0], 'overall:': [8714.0, 8175.0, 8176.0, 8751.0, 8053.0, 8674.0, 8602.0, 8679.0, 8715.0, 8141.0, 8246.0], 'kernel:': [3653.0, 3097.0, 3051.0, 3619.0, 3073.0, 3592.0, 3630.0, 3630.0, 3669.0, 3080.0, 3061.0], 'find_correlation:': [3734.0, 3183.0, 3136.0, 3700.0, 3159.0, 3673.0, 3711.0, 3711.0, 3750.0, 3164.0, 3146.0], 'read_input:': [916.0, 955.0, 954.0, 1023.0, 924.0, 1005.0, 944.0, 974.0, 1000.0, 978.0, 931.0], 'tree_height:': [19.0, 19.0, 19.0, 19.0, 19.0, 19.0, 19.0, 19.0, 19.0, 19.0, 19.0], 'extra:': [134.0, 148.0, 143.0, 134.0, 149.0, 134.0, 134.0, 134.0, 133.0, 143.0, 143.0], 'build_tree:': [1208.0, 1221.0, 1206.0, 1207.0, 1217.0, 1207.0, 1201.0, 1193.0, 1201.0, 1205.0, 1201.0]}
@ tree_height: 19
The max number of the nodes is 524288.
ROWS = 200000, COLS = 128.
Time for asynchronous transfer and execute (ms): 52.595390
@ avg_corr: 170.587326
@ overall: 8764 ms
@ read_input: 1009 ms
@ build_tree: 1206 ms
@ init_kernel: 2637 ms
@ find_correlation: 3781 ms
@ kernel: 3700 ms
@ extra: 134 ms
Collected results into ../../../results/depth_tmp/pc_Hybrid_Sched_random.7d_7_unsorted.stats

Loading data from ../../../results/depth_tmp/pc_Hybrid_Sched_random.7d_7_unsorted.stats...
{'find_correlation:': [3734.0, 3183.0, 3136.0, 3700.0, 3159.0, 3673.0, 3711.0, 3711.0, 3750.0, 3164.0, 3146.0, 3781.0], 'avg_corr:': [170.587326, 170.587326, 170.587326, 170.587326, 170.587326, 170.587326, 170.587326, 170.587326, 170.587326, 170.587326, 170.587326, 170.587326], 'init_kernel:': [2725.0, 2672.0, 2744.0, 2690.0, 2609.0, 2659.0, 2616.0, 2671.0, 2634.0, 2659.0, 2832.0, 2637.0], 'kernel:': [3653.0, 3097.0, 3051.0, 3619.0, 3073.0, 3592.0, 3630.0, 3630.0, 3669.0, 3080.0, 3061.0, 3700.0], 'overall:': [8714.0, 8175.0, 8176.0, 8751.0, 8053.0, 8674.0, 8602.0, 8679.0, 8715.0, 8141.0, 8246.0, 8764.0], 'read_input:': [916.0, 955.0, 954.0, 1023.0, 924.0, 1005.0, 944.0, 974.0, 1000.0, 978.0, 931.0, 1009.0], 'tree_height:': [19.0, 19.0, 19.0, 19.0, 19.0, 19.0, 19.0, 19.0, 19.0, 19.0, 19.0, 19.0], 'extra:': [134.0, 148.0, 143.0, 134.0, 149.0, 134.0, 134.0, 134.0, 133.0, 143.0, 143.0, 134.0], 'build_tree:': [1208.0, 1221.0, 1206.0, 1207.0, 1217.0, 1207.0, 1201.0, 1193.0, 1201.0, 1205.0, 1201.0, 1206.0]}
@ tree_height: 19
The max number of the nodes is 524288.
ROWS = 200000, COLS = 128.
Time for asynchronous transfer and execute (ms): 61.378113
@ avg_corr: 170.587326
@ overall: 8224 ms
@ read_input: 989 ms
@ build_tree: 1215 ms
@ init_kernel: 2641 ms
@ find_correlation: 3235 ms
@ kernel: 3149 ms
@ extra: 148 ms
Collected results into ../../../results/depth_tmp/pc_Hybrid_Sched_random.7d_7_unsorted.stats

Loading data from ../../../results/depth_tmp/pc_Hybrid_Sched_random.7d_7_unsorted.stats...
{'avg_corr:': [170.587326, 170.587326, 170.587326, 170.587326, 170.587326, 170.587326, 170.587326, 170.587326, 170.587326, 170.587326, 170.587326, 170.587326, 170.587326], 'init_kernel:': [2725.0, 2672.0, 2744.0, 2690.0, 2609.0, 2659.0, 2616.0, 2671.0, 2634.0, 2659.0, 2832.0, 2637.0, 2641.0], 'overall:': [8714.0, 8175.0, 8176.0, 8751.0, 8053.0, 8674.0, 8602.0, 8679.0, 8715.0, 8141.0, 8246.0, 8764.0, 8224.0], 'kernel:': [3653.0, 3097.0, 3051.0, 3619.0, 3073.0, 3592.0, 3630.0, 3630.0, 3669.0, 3080.0, 3061.0, 3700.0, 3149.0], 'find_correlation:': [3734.0, 3183.0, 3136.0, 3700.0, 3159.0, 3673.0, 3711.0, 3711.0, 3750.0, 3164.0, 3146.0, 3781.0, 3235.0], 'read_input:': [916.0, 955.0, 954.0, 1023.0, 924.0, 1005.0, 944.0, 974.0, 1000.0, 978.0, 931.0, 1009.0, 989.0], 'tree_height:': [19.0, 19.0, 19.0, 19.0, 19.0, 19.0, 19.0, 19.0, 19.0, 19.0, 19.0, 19.0, 19.0], 'extra:': [134.0, 148.0, 143.0, 134.0, 149.0, 134.0, 134.0, 134.0, 133.0, 143.0, 143.0, 134.0, 148.0], 'build_tree:': [1208.0, 1221.0, 1206.0, 1207.0, 1217.0, 1207.0, 1201.0, 1193.0, 1201.0, 1205.0, 1201.0, 1206.0, 1215.0]}
@ tree_height: 19
The max number of the nodes is 524288.
ROWS = 200000, COLS = 128.
Time for asynchronous transfer and execute (ms): 57.050430
@ avg_corr: 170.587326
@ overall: 8169 ms
@ read_input: 946 ms
@ build_tree: 1192 ms
@ init_kernel: 2757 ms
@ find_correlation: 3138 ms
@ kernel: 3053 ms
@ extra: 143 ms
Collected results into ../../../results/depth_tmp/pc_Hybrid_Sched_random.7d_7_unsorted.stats

Loading data from ../../../results/depth_tmp/pc_Hybrid_Sched_random.7d_7_unsorted.stats...
{'find_correlation:': [3734.0, 3183.0, 3136.0, 3700.0, 3159.0, 3673.0, 3711.0, 3711.0, 3750.0, 3164.0, 3146.0, 3781.0, 3235.0, 3138.0], 'avg_corr:': [170.587326, 170.587326, 170.587326, 170.587326, 170.587326, 170.587326, 170.587326, 170.587326, 170.587326, 170.587326, 170.587326, 170.587326, 170.587326, 170.587326], 'init_kernel:': [2725.0, 2672.0, 2744.0, 2690.0, 2609.0, 2659.0, 2616.0, 2671.0, 2634.0, 2659.0, 2832.0, 2637.0, 2641.0, 2757.0], 'kernel:': [3653.0, 3097.0, 3051.0, 3619.0, 3073.0, 3592.0, 3630.0, 3630.0, 3669.0, 3080.0, 3061.0, 3700.0, 3149.0, 3053.0], 'overall:': [8714.0, 8175.0, 8176.0, 8751.0, 8053.0, 8674.0, 8602.0, 8679.0, 8715.0, 8141.0, 8246.0, 8764.0, 8224.0, 8169.0], 'read_input:': [916.0, 955.0, 954.0, 1023.0, 924.0, 1005.0, 944.0, 974.0, 1000.0, 978.0, 931.0, 1009.0, 989.0, 946.0], 'tree_height:': [19.0, 19.0, 19.0, 19.0, 19.0, 19.0, 19.0, 19.0, 19.0, 19.0, 19.0, 19.0, 19.0, 19.0], 'extra:': [134.0, 148.0, 143.0, 134.0, 149.0, 134.0, 134.0, 134.0, 133.0, 143.0, 143.0, 134.0, 148.0, 143.0], 'build_tree:': [1208.0, 1221.0, 1206.0, 1207.0, 1217.0, 1207.0, 1201.0, 1193.0, 1201.0, 1205.0, 1201.0, 1206.0, 1215.0, 1192.0]}
@ tree_height: 19
The max number of the nodes is 524288.
ROWS = 200000, COLS = 128.
Time for asynchronous transfer and execute (ms): 57.008129
@ avg_corr: 170.587326
@ overall: 8163 ms
@ read_input: 999 ms
@ build_tree: 1201 ms
@ init_kernel: 2676 ms
@ find_correlation: 3152 ms
@ kernel: 3067 ms
@ extra: 143 ms
Collected results into ../../../results/depth_tmp/pc_Hybrid_Sched_random.7d_7_unsorted.stats

