Results wll be collected to ../../../results/depth_tmp/pc_Hybrid_Sched_covtype.7d_11_unsorted.stats...
@ tree_height: 19
The max number of the nodes is 524288.
ROWS = 200000, COLS = 2048.
Time for asynchronous transfer and execute (ms): 806.233276
@ avg_corr: 19.318600
@ overall: 11396 ms
@ read_input: 980 ms
@ build_tree: 1193 ms
@ init_kernel: 2708 ms
@ find_correlation: 5629 ms
@ kernel: 4322 ms
@ extra: 2116 ms
Collected results into ../../../results/depth_tmp/pc_Hybrid_Sched_covtype.7d_11_unsorted.stats

Loading data from ../../../results/depth_tmp/pc_Hybrid_Sched_covtype.7d_11_unsorted.stats...
{'avg_corr:': [19.3186], 'init_kernel:': [2708.0], 'overall:': [11396.0], 'kernel:': [4322.0], 'find_correlation:': [5629.0], 'read_input:': [980.0], 'tree_height:': [19.0], 'extra:': [2116.0], 'build_tree:': [1193.0]}
@ tree_height: 19
The max number of the nodes is 524288.
ROWS = 200000, COLS = 2048.
Time for asynchronous transfer and execute (ms): 897.882568
@ avg_corr: 19.318600
@ overall: 11474 ms
@ read_input: 980 ms
@ build_tree: 1192 ms
@ init_kernel: 2779 ms
@ find_correlation: 5546 ms
@ kernel: 4153 ms
@ extra: 2293 ms
Collected results into ../../../results/depth_tmp/pc_Hybrid_Sched_covtype.7d_11_unsorted.stats

Loading data from ../../../results/depth_tmp/pc_Hybrid_Sched_covtype.7d_11_unsorted.stats...
{'find_correlation:': [5629.0, 5546.0], 'avg_corr:': [19.3186, 19.3186], 'init_kernel:': [2708.0, 2779.0], 'kernel:': [4322.0, 4153.0], 'overall:': [11396.0, 11474.0], 'read_input:': [980.0, 980.0], 'tree_height:': [19.0, 19.0], 'extra:': [2116.0, 2293.0], 'build_tree:': [1193.0, 1192.0]}
@ tree_height: 19
The max number of the nodes is 524288.
ROWS = 200000, COLS = 2048.
Time for asynchronous transfer and execute (ms): 887.885620
@ avg_corr: 19.318600
@ overall: 11420 ms
@ read_input: 1055 ms
@ build_tree: 1199 ms
@ init_kernel: 2634 ms
@ find_correlation: 5564 ms
@ kernel: 4177 ms
@ extra: 2277 ms
Collected results into ../../../results/depth_tmp/pc_Hybrid_Sched_covtype.7d_11_unsorted.stats

Loading data from ../../../results/depth_tmp/pc_Hybrid_Sched_covtype.7d_11_unsorted.stats...
{'avg_corr:': [19.3186, 19.3186, 19.3186], 'init_kernel:': [2708.0, 2779.0, 2634.0], 'overall:': [11396.0, 11474.0, 11420.0], 'kernel:': [4322.0, 4153.0, 4177.0], 'find_correlation:': [5629.0, 5546.0, 5564.0], 'read_input:': [980.0, 980.0, 1055.0], 'tree_height:': [19.0, 19.0, 19.0], 'extra:': [2116.0, 2293.0, 2277.0], 'build_tree:': [1193.0, 1192.0, 1199.0]}
@ tree_height: 19
The max number of the nodes is 524288.
ROWS = 200000, COLS = 2048.
Time for asynchronous transfer and execute (ms): 820.804504
@ avg_corr: 19.318600
@ overall: 11337 ms
@ read_input: 972 ms
@ build_tree: 1190 ms
@ init_kernel: 2593 ms
@ find_correlation: 5681 ms
@ kernel: 4366 ms
@ extra: 2138 ms
Collected results into ../../../results/depth_tmp/pc_Hybrid_Sched_covtype.7d_11_unsorted.stats

Loading data from ../../../results/depth_tmp/pc_Hybrid_Sched_covtype.7d_11_unsorted.stats...
{'find_correlation:': [5629.0, 5546.0, 5564.0, 5681.0], 'avg_corr:': [19.3186, 19.3186, 19.3186, 19.3186], 'init_kernel:': [2708.0, 2779.0, 2634.0, 2593.0], 'kernel:': [4322.0, 4153.0, 4177.0, 4366.0], 'overall:': [11396.0, 11474.0, 11420.0, 11337.0], 'read_input:': [980.0, 980.0, 1055.0, 972.0], 'tree_height:': [19.0, 19.0, 19.0, 19.0], 'extra:': [2116.0, 2293.0, 2277.0, 2138.0], 'build_tree:': [1193.0, 1192.0, 1199.0, 1190.0]}
@ tree_height: 19
The max number of the nodes is 524288.
ROWS = 200000, COLS = 2048.
Time for asynchronous transfer and execute (ms): 822.781250
@ avg_corr: 19.318600
@ overall: 11372 ms
@ read_input: 964 ms
@ build_tree: 1198 ms
@ init_kernel: 2670 ms
@ find_correlation: 5637 ms
@ kernel: 4321 ms
@ extra: 2140 ms
Collected results into ../../../results/depth_tmp/pc_Hybrid_Sched_covtype.7d_11_unsorted.stats

Loading data from ../../../results/depth_tmp/pc_Hybrid_Sched_covtype.7d_11_unsorted.stats...
{'avg_corr:': [19.3186, 19.3186, 19.3186, 19.3186, 19.3186], 'init_kernel:': [2708.0, 2779.0, 2634.0, 2593.0, 2670.0], 'overall:': [11396.0, 11474.0, 11420.0, 11337.0, 11372.0], 'kernel:': [4322.0, 4153.0, 4177.0, 4366.0, 4321.0], 'find_correlation:': [5629.0, 5546.0, 5564.0, 5681.0, 5637.0], 'read_input:': [980.0, 980.0, 1055.0, 972.0, 964.0], 'tree_height:': [19.0, 19.0, 19.0, 19.0, 19.0], 'extra:': [2116.0, 2293.0, 2277.0, 2138.0, 2140.0], 'build_tree:': [1193.0, 1192.0, 1199.0, 1190.0, 1198.0]}
@ tree_height: 19
The max number of the nodes is 524288.
ROWS = 200000, COLS = 2048.
Time for asynchronous transfer and execute (ms): 956.994690
@ avg_corr: 19.318600
@ overall: 11479 ms
@ read_input: 1040 ms
@ build_tree: 1209 ms
@ init_kernel: 2661 ms
@ find_correlation: 5527 ms
@ kernel: 4130 ms
@ extra: 2357 ms
Collected results into ../../../results/depth_tmp/pc_Hybrid_Sched_covtype.7d_11_unsorted.stats

Loading data from ../../../results/depth_tmp/pc_Hybrid_Sched_covtype.7d_11_unsorted.stats...
{'find_correlation:': [5629.0, 5546.0, 5564.0, 5681.0, 5637.0, 5527.0], 'avg_corr:': [19.3186, 19.3186, 19.3186, 19.3186, 19.3186, 19.3186], 'init_kernel:': [2708.0, 2779.0, 2634.0, 2593.0, 2670.0, 2661.0], 'kernel:': [4322.0, 4153.0, 4177.0, 4366.0, 4321.0, 4130.0], 'overall:': [11396.0, 11474.0, 11420.0, 11337.0, 11372.0, 11479.0], 'read_input:': [980.0, 980.0, 1055.0, 972.0, 964.0, 1040.0], 'tree_height:': [19.0, 19.0, 19.0, 19.0, 19.0, 19.0], 'extra:': [2116.0, 2293.0, 2277.0, 2138.0, 2140.0, 2357.0], 'build_tree:': [1193.0, 1192.0, 1199.0, 1190.0, 1198.0, 1209.0]}
@ tree_height: 19
The max number of the nodes is 524288.
ROWS = 200000, COLS = 2048.
Time for asynchronous transfer and execute (ms): 810.944580
@ avg_corr: 19.318600
@ overall: 11350 ms
@ read_input: 1067 ms
@ build_tree: 1199 ms
@ init_kernel: 2593 ms
@ find_correlation: 5601 ms
@ kernel: 4285 ms
@ extra: 2129 ms
Collected results into ../../../results/depth_tmp/pc_Hybrid_Sched_covtype.7d_11_unsorted.stats

Loading data from ../../../results/depth_tmp/pc_Hybrid_Sched_covtype.7d_11_unsorted.stats...
{'avg_corr:': [19.3186, 19.3186, 19.3186, 19.3186, 19.3186, 19.3186, 19.3186], 'init_kernel:': [2708.0, 2779.0, 2634.0, 2593.0, 2670.0, 2661.0, 2593.0], 'overall:': [11396.0, 11474.0, 11420.0, 11337.0, 11372.0, 11479.0, 11350.0], 'kernel:': [4322.0, 4153.0, 4177.0, 4366.0, 4321.0, 4130.0, 4285.0], 'find_correlation:': [5629.0, 5546.0, 5564.0, 5681.0, 5637.0, 5527.0, 5601.0], 'read_input:': [980.0, 980.0, 1055.0, 972.0, 964.0, 1040.0, 1067.0], 'tree_height:': [19.0, 19.0, 19.0, 19.0, 19.0, 19.0, 19.0], 'extra:': [2116.0, 2293.0, 2277.0, 2138.0, 2140.0, 2357.0, 2129.0], 'build_tree:': [1193.0, 1192.0, 1199.0, 1190.0, 1198.0, 1209.0, 1199.0]}
@ tree_height: 19
The max number of the nodes is 524288.
ROWS = 200000, COLS = 2048.
Time for asynchronous transfer and execute (ms): 812.061401
@ avg_corr: 19.318600
@ overall: 11491 ms
@ read_input: 1020 ms
@ build_tree: 1199 ms
@ init_kernel: 2752 ms
@ find_correlation: 5630 ms
@ kernel: 4316 ms
@ extra: 2128 ms
Collected results into ../../../results/depth_tmp/pc_Hybrid_Sched_covtype.7d_11_unsorted.stats

Loading data from ../../../results/depth_tmp/pc_Hybrid_Sched_covtype.7d_11_unsorted.stats...
{'find_correlation:': [5629.0, 5546.0, 5564.0, 5681.0, 5637.0, 5527.0, 5601.0, 5630.0], 'avg_corr:': [19.3186, 19.3186, 19.3186, 19.3186, 19.3186, 19.3186, 19.3186, 19.3186], 'init_kernel:': [2708.0, 2779.0, 2634.0, 2593.0, 2670.0, 2661.0, 2593.0, 2752.0], 'kernel:': [4322.0, 4153.0, 4177.0, 4366.0, 4321.0, 4130.0, 4285.0, 4316.0], 'overall:': [11396.0, 11474.0, 11420.0, 11337.0, 11372.0, 11479.0, 11350.0, 11491.0], 'read_input:': [980.0, 980.0, 1055.0, 972.0, 964.0, 1040.0, 1067.0, 1020.0], 'tree_height:': [19.0, 19.0, 19.0, 19.0, 19.0, 19.0, 19.0, 19.0], 'extra:': [2116.0, 2293.0, 2277.0, 2138.0, 2140.0, 2357.0, 2129.0, 2128.0], 'build_tree:': [1193.0, 1192.0, 1199.0, 1190.0, 1198.0, 1209.0, 1199.0, 1199.0]}
@ tree_height: 19
The max number of the nodes is 524288.
ROWS = 200000, COLS = 2048.
Time for asynchronous transfer and execute (ms): 812.754333
@ avg_corr: 19.318600
@ overall: 11495 ms
@ read_input: 1077 ms
@ build_tree: 1186 ms
@ init_kernel: 2649 ms
@ find_correlation: 5692 ms
@ kernel: 4369 ms
@ extra: 2138 ms
Collected results into ../../../results/depth_tmp/pc_Hybrid_Sched_covtype.7d_11_unsorted.stats

Loading data from ../../../results/depth_tmp/pc_Hybrid_Sched_covtype.7d_11_unsorted.stats...
{'avg_corr:': [19.3186, 19.3186, 19.3186, 19.3186, 19.3186, 19.3186, 19.3186, 19.3186, 19.3186], 'init_kernel:': [2708.0, 2779.0, 2634.0, 2593.0, 2670.0, 2661.0, 2593.0, 2752.0, 2649.0], 'overall:': [11396.0, 11474.0, 11420.0, 11337.0, 11372.0, 11479.0, 11350.0, 11491.0, 11495.0], 'kernel:': [4322.0, 4153.0, 4177.0, 4366.0, 4321.0, 4130.0, 4285.0, 4316.0, 4369.0], 'find_correlation:': [5629.0, 5546.0, 5564.0, 5681.0, 5637.0, 5527.0, 5601.0, 5630.0, 5692.0], 'read_input:': [980.0, 980.0, 1055.0, 972.0, 964.0, 1040.0, 1067.0, 1020.0, 1077.0], 'tree_height:': [19.0, 19.0, 19.0, 19.0, 19.0, 19.0, 19.0, 19.0, 19.0], 'extra:': [2116.0, 2293.0, 2277.0, 2138.0, 2140.0, 2357.0, 2129.0, 2128.0, 2138.0], 'build_tree:': [1193.0, 1192.0, 1199.0, 1190.0, 1198.0, 1209.0, 1199.0, 1199.0, 1186.0]}
@ tree_height: 19
The max number of the nodes is 524288.
ROWS = 200000, COLS = 2048.
Time for asynchronous transfer and execute (ms): 892.424438
@ avg_corr: 19.318600
@ overall: 11188 ms
@ read_input: 958 ms
@ build_tree: 1110 ms
@ init_kernel: 2636 ms
@ find_correlation: 5517 ms
@ kernel: 4121 ms
@ extra: 2290 ms
Collected results into ../../../results/depth_tmp/pc_Hybrid_Sched_covtype.7d_11_unsorted.stats

Loading data from ../../../results/depth_tmp/pc_Hybrid_Sched_covtype.7d_11_unsorted.stats...
{'find_correlation:': [5629.0, 5546.0, 5564.0, 5681.0, 5637.0, 5527.0, 5601.0, 5630.0, 5692.0, 5517.0], 'avg_corr:': [19.3186, 19.3186, 19.3186, 19.3186, 19.3186, 19.3186, 19.3186, 19.3186, 19.3186, 19.3186], 'init_kernel:': [2708.0, 2779.0, 2634.0, 2593.0, 2670.0, 2661.0, 2593.0, 2752.0, 2649.0, 2636.0], 'kernel:': [4322.0, 4153.0, 4177.0, 4366.0, 4321.0, 4130.0, 4285.0, 4316.0, 4369.0, 4121.0], 'overall:': [11396.0, 11474.0, 11420.0, 11337.0, 11372.0, 11479.0, 11350.0, 11491.0, 11495.0, 11188.0], 'read_input:': [980.0, 980.0, 1055.0, 972.0, 964.0, 1040.0, 1067.0, 1020.0, 1077.0, 958.0], 'tree_height:': [19.0, 19.0, 19.0, 19.0, 19.0, 19.0, 19.0, 19.0, 19.0, 19.0], 'extra:': [2116.0, 2293.0, 2277.0, 2138.0, 2140.0, 2357.0, 2129.0, 2128.0, 2138.0, 2290.0], 'build_tree:': [1193.0, 1192.0, 1199.0, 1190.0, 1198.0, 1209.0, 1199.0, 1199.0, 1186.0, 1110.0]}
@ tree_height: 19
The max number of the nodes is 524288.
ROWS = 200000, COLS = 2048.
Time for asynchronous transfer and execute (ms): 900.070984
@ avg_corr: 19.318600
@ overall: 11417 ms
@ read_input: 954 ms
@ build_tree: 1199 ms
@ init_kernel: 2731 ms
@ find_correlation: 5552 ms
@ kernel: 4160 ms
@ extra: 2295 ms
Collected results into ../../../results/depth_tmp/pc_Hybrid_Sched_covtype.7d_11_unsorted.stats

Loading data from ../../../results/depth_tmp/pc_Hybrid_Sched_covtype.7d_11_unsorted.stats...
{'avg_corr:': [19.3186, 19.3186, 19.3186, 19.3186, 19.3186, 19.3186, 19.3186, 19.3186, 19.3186, 19.3186, 19.3186], 'init_kernel:': [2708.0, 2779.0, 2634.0, 2593.0, 2670.0, 2661.0, 2593.0, 2752.0, 2649.0, 2636.0, 2731.0], 'overall:': [11396.0, 11474.0, 11420.0, 11337.0, 11372.0, 11479.0, 11350.0, 11491.0, 11495.0, 11188.0, 11417.0], 'kernel:': [4322.0, 4153.0, 4177.0, 4366.0, 4321.0, 4130.0, 4285.0, 4316.0, 4369.0, 4121.0, 4160.0], 'find_correlation:': [5629.0, 5546.0, 5564.0, 5681.0, 5637.0, 5527.0, 5601.0, 5630.0, 5692.0, 5517.0, 5552.0], 'read_input:': [980.0, 980.0, 1055.0, 972.0, 964.0, 1040.0, 1067.0, 1020.0, 1077.0, 958.0, 954.0], 'tree_height:': [19.0, 19.0, 19.0, 19.0, 19.0, 19.0, 19.0, 19.0, 19.0, 19.0, 19.0], 'extra:': [2116.0, 2293.0, 2277.0, 2138.0, 2140.0, 2357.0, 2129.0, 2128.0, 2138.0, 2290.0, 2295.0], 'build_tree:': [1193.0, 1192.0, 1199.0, 1190.0, 1198.0, 1209.0, 1199.0, 1199.0, 1186.0, 1110.0, 1199.0]}
@ tree_height: 19
The max number of the nodes is 524288.
ROWS = 200000, COLS = 2048.
Time for asynchronous transfer and execute (ms): 832.226624
@ avg_corr: 19.318600
@ overall: 11374 ms
@ read_input: 1052 ms
@ build_tree: 1199 ms
@ init_kernel: 2597 ms
@ find_correlation: 5614 ms
@ kernel: 4300 ms
@ extra: 2149 ms
Collected results into ../../../results/depth_tmp/pc_Hybrid_Sched_covtype.7d_11_unsorted.stats

Loading data from ../../../results/depth_tmp/pc_Hybrid_Sched_covtype.7d_11_unsorted.stats...
{'find_correlation:': [5629.0, 5546.0, 5564.0, 5681.0, 5637.0, 5527.0, 5601.0, 5630.0, 5692.0, 5517.0, 5552.0, 5614.0], 'avg_corr:': [19.3186, 19.3186, 19.3186, 19.3186, 19.3186, 19.3186, 19.3186, 19.3186, 19.3186, 19.3186, 19.3186, 19.3186], 'init_kernel:': [2708.0, 2779.0, 2634.0, 2593.0, 2670.0, 2661.0, 2593.0, 2752.0, 2649.0, 2636.0, 2731.0, 2597.0], 'kernel:': [4322.0, 4153.0, 4177.0, 4366.0, 4321.0, 4130.0, 4285.0, 4316.0, 4369.0, 4121.0, 4160.0, 4300.0], 'overall:': [11396.0, 11474.0, 11420.0, 11337.0, 11372.0, 11479.0, 11350.0, 11491.0, 11495.0, 11188.0, 11417.0, 11374.0], 'read_input:': [980.0, 980.0, 1055.0, 972.0, 964.0, 1040.0, 1067.0, 1020.0, 1077.0, 958.0, 954.0, 1052.0], 'tree_height:': [19.0, 19.0, 19.0, 19.0, 19.0, 19.0, 19.0, 19.0, 19.0, 19.0, 19.0, 19.0], 'extra:': [2116.0, 2293.0, 2277.0, 2138.0, 2140.0, 2357.0, 2129.0, 2128.0, 2138.0, 2290.0, 2295.0, 2149.0], 'build_tree:': [1193.0, 1192.0, 1199.0, 1190.0, 1198.0, 1209.0, 1199.0, 1199.0, 1186.0, 1110.0, 1199.0, 1199.0]}
@ tree_height: 19
The max number of the nodes is 524288.
ROWS = 200000, COLS = 2048.
Time for asynchronous transfer and execute (ms): 922.101746
@ avg_corr: 19.318600
@ overall: 11425 ms
@ read_input: 1065 ms
@ build_tree: 1186 ms
@ init_kernel: 2662 ms
@ find_correlation: 5509 ms
@ kernel: 4119 ms
@ extra: 2314 ms
Collected results into ../../../results/depth_tmp/pc_Hybrid_Sched_covtype.7d_11_unsorted.stats

Loading data from ../../../results/depth_tmp/pc_Hybrid_Sched_covtype.7d_11_unsorted.stats...
{'avg_corr:': [19.3186, 19.3186, 19.3186, 19.3186, 19.3186, 19.3186, 19.3186, 19.3186, 19.3186, 19.3186, 19.3186, 19.3186, 19.3186], 'init_kernel:': [2708.0, 2779.0, 2634.0, 2593.0, 2670.0, 2661.0, 2593.0, 2752.0, 2649.0, 2636.0, 2731.0, 2597.0, 2662.0], 'overall:': [11396.0, 11474.0, 11420.0, 11337.0, 11372.0, 11479.0, 11350.0, 11491.0, 11495.0, 11188.0, 11417.0, 11374.0, 11425.0], 'kernel:': [4322.0, 4153.0, 4177.0, 4366.0, 4321.0, 4130.0, 4285.0, 4316.0, 4369.0, 4121.0, 4160.0, 4300.0, 4119.0], 'find_correlation:': [5629.0, 5546.0, 5564.0, 5681.0, 5637.0, 5527.0, 5601.0, 5630.0, 5692.0, 5517.0, 5552.0, 5614.0, 5509.0], 'read_input:': [980.0, 980.0, 1055.0, 972.0, 964.0, 1040.0, 1067.0, 1020.0, 1077.0, 958.0, 954.0, 1052.0, 1065.0], 'tree_height:': [19.0, 19.0, 19.0, 19.0, 19.0, 19.0, 19.0, 19.0, 19.0, 19.0, 19.0, 19.0, 19.0], 'extra:': [2116.0, 2293.0, 2277.0, 2138.0, 2140.0, 2357.0, 2129.0, 2128.0, 2138.0, 2290.0, 2295.0, 2149.0, 2314.0], 'build_tree:': [1193.0, 1192.0, 1199.0, 1190.0, 1198.0, 1209.0, 1199.0, 1199.0, 1186.0, 1110.0, 1199.0, 1199.0, 1186.0]}
@ tree_height: 19
The max number of the nodes is 524288.
ROWS = 200000, COLS = 2048.
Time for asynchronous transfer and execute (ms): 814.833252
@ avg_corr: 19.318600
@ overall: 11454 ms
@ read_input: 1072 ms
@ build_tree: 1200 ms
@ init_kernel: 2653 ms
@ find_correlation: 5633 ms
@ kernel: 4320 ms
@ extra: 2131 ms
Collected results into ../../../results/depth_tmp/pc_Hybrid_Sched_covtype.7d_11_unsorted.stats

Loading data from ../../../results/depth_tmp/pc_Hybrid_Sched_covtype.7d_11_unsorted.stats...
{'find_correlation:': [5629.0, 5546.0, 5564.0, 5681.0, 5637.0, 5527.0, 5601.0, 5630.0, 5692.0, 5517.0, 5552.0, 5614.0, 5509.0, 5633.0], 'avg_corr:': [19.3186, 19.3186, 19.3186, 19.3186, 19.3186, 19.3186, 19.3186, 19.3186, 19.3186, 19.3186, 19.3186, 19.3186, 19.3186, 19.3186], 'init_kernel:': [2708.0, 2779.0, 2634.0, 2593.0, 2670.0, 2661.0, 2593.0, 2752.0, 2649.0, 2636.0, 2731.0, 2597.0, 2662.0, 2653.0], 'kernel:': [4322.0, 4153.0, 4177.0, 4366.0, 4321.0, 4130.0, 4285.0, 4316.0, 4369.0, 4121.0, 4160.0, 4300.0, 4119.0, 4320.0], 'overall:': [11396.0, 11474.0, 11420.0, 11337.0, 11372.0, 11479.0, 11350.0, 11491.0, 11495.0, 11188.0, 11417.0, 11374.0, 11425.0, 11454.0], 'read_input:': [980.0, 980.0, 1055.0, 972.0, 964.0, 1040.0, 1067.0, 1020.0, 1077.0, 958.0, 954.0, 1052.0, 1065.0, 1072.0], 'tree_height:': [19.0, 19.0, 19.0, 19.0, 19.0, 19.0, 19.0, 19.0, 19.0, 19.0, 19.0, 19.0, 19.0, 19.0], 'extra:': [2116.0, 2293.0, 2277.0, 2138.0, 2140.0, 2357.0, 2129.0, 2128.0, 2138.0, 2290.0, 2295.0, 2149.0, 2314.0, 2131.0], 'build_tree:': [1193.0, 1192.0, 1199.0, 1190.0, 1198.0, 1209.0, 1199.0, 1199.0, 1186.0, 1110.0, 1199.0, 1199.0, 1186.0, 1200.0]}
@ tree_height: 19
The max number of the nodes is 524288.
ROWS = 200000, COLS = 2048.
Time for asynchronous transfer and execute (ms): 818.970215
@ avg_corr: 19.318600
@ overall: 11557 ms
@ read_input: 1052 ms
@ build_tree: 1197 ms
@ init_kernel: 2691 ms
@ find_correlation: 5716 ms
@ kernel: 4398 ms
@ extra: 2139 ms
Collected results into ../../../results/depth_tmp/pc_Hybrid_Sched_covtype.7d_11_unsorted.stats

