Results wll be collected to ../../../results/depth_tmp/pc_Hybrid_Sched_geocity.txt_9_unsorted.stats...
@ tree_height: 19
The max number of the nodes is 524288.
ROWS = 200000, COLS = 512.
Time for asynchronous transfer and execute (ms): 82.947517
@ avg_corr: 80.943092
@ overall: 5464 ms
@ read_input: 429 ms
@ build_tree: 996 ms
@ init_kernel: 2709 ms
@ find_correlation: 1189 ms
@ kernel: 860 ms
@ extra: 414 ms
Collected results into ../../../results/depth_tmp/pc_Hybrid_Sched_geocity.txt_9_unsorted.stats

Loading data from ../../../results/depth_tmp/pc_Hybrid_Sched_geocity.txt_9_unsorted.stats...
{'avg_corr:': [80.943092], 'init_kernel:': [2709.0], 'overall:': [5464.0], 'kernel:': [860.0], 'find_correlation:': [1189.0], 'read_input:': [429.0], 'tree_height:': [19.0], 'extra:': [414.0], 'build_tree:': [996.0]}
@ tree_height: 19
The max number of the nodes is 524288.
ROWS = 200000, COLS = 512.
Time for asynchronous transfer and execute (ms): 83.700127
@ avg_corr: 80.943092
@ overall: 5486 ms
@ read_input: 420 ms
@ build_tree: 1007 ms
@ init_kernel: 2731 ms
@ find_correlation: 1187 ms
@ kernel: 860 ms
@ extra: 412 ms
Collected results into ../../../results/depth_tmp/pc_Hybrid_Sched_geocity.txt_9_unsorted.stats

Loading data from ../../../results/depth_tmp/pc_Hybrid_Sched_geocity.txt_9_unsorted.stats...
{'find_correlation:': [1189.0, 1187.0], 'avg_corr:': [80.943092, 80.943092], 'init_kernel:': [2709.0, 2731.0], 'kernel:': [860.0, 860.0], 'overall:': [5464.0, 5486.0], 'read_input:': [429.0, 420.0], 'tree_height:': [19.0, 19.0], 'extra:': [414.0, 412.0], 'build_tree:': [996.0, 1007.0]}
@ tree_height: 19
The max number of the nodes is 524288.
ROWS = 200000, COLS = 512.
Time for asynchronous transfer and execute (ms): 82.143936
@ avg_corr: 80.943092
@ overall: 5487 ms
@ read_input: 392 ms
@ build_tree: 1004 ms
@ init_kernel: 2751 ms
@ find_correlation: 1200 ms
@ kernel: 854 ms
@ extra: 430 ms
Collected results into ../../../results/depth_tmp/pc_Hybrid_Sched_geocity.txt_9_unsorted.stats

Loading data from ../../../results/depth_tmp/pc_Hybrid_Sched_geocity.txt_9_unsorted.stats...
{'avg_corr:': [80.943092, 80.943092, 80.943092], 'init_kernel:': [2709.0, 2731.0, 2751.0], 'overall:': [5464.0, 5486.0, 5487.0], 'kernel:': [860.0, 860.0, 854.0], 'find_correlation:': [1189.0, 1187.0, 1200.0], 'read_input:': [429.0, 420.0, 392.0], 'tree_height:': [19.0, 19.0, 19.0], 'extra:': [414.0, 412.0, 430.0], 'build_tree:': [996.0, 1007.0, 1004.0]}
@ tree_height: 19
The max number of the nodes is 524288.
ROWS = 200000, COLS = 512.
Time for asynchronous transfer and execute (ms): 89.306915
@ avg_corr: 80.943092
@ overall: 6033 ms
@ read_input: 466 ms
@ build_tree: 994 ms
@ init_kernel: 3288 ms
@ find_correlation: 1138 ms
@ kernel: 786 ms
@ extra: 443 ms
Collected results into ../../../results/depth_tmp/pc_Hybrid_Sched_geocity.txt_9_unsorted.stats

Loading data from ../../../results/depth_tmp/pc_Hybrid_Sched_geocity.txt_9_unsorted.stats...
{'find_correlation:': [1189.0, 1187.0, 1200.0, 1138.0], 'avg_corr:': [80.943092, 80.943092, 80.943092, 80.943092], 'init_kernel:': [2709.0, 2731.0, 2751.0, 3288.0], 'kernel:': [860.0, 860.0, 854.0, 786.0], 'overall:': [5464.0, 5486.0, 5487.0, 6033.0], 'read_input:': [429.0, 420.0, 392.0, 466.0], 'tree_height:': [19.0, 19.0, 19.0, 19.0], 'extra:': [414.0, 412.0, 430.0, 443.0], 'build_tree:': [996.0, 1007.0, 1004.0, 994.0]}
@ tree_height: 19
The max number of the nodes is 524288.
ROWS = 200000, COLS = 512.
Time for asynchronous transfer and execute (ms): 82.683807
@ avg_corr: 80.943092
@ overall: 5546 ms
@ read_input: 474 ms
@ build_tree: 994 ms
@ init_kernel: 2741 ms
@ find_correlation: 1197 ms
@ kernel: 865 ms
@ extra: 416 ms
Collected results into ../../../results/depth_tmp/pc_Hybrid_Sched_geocity.txt_9_unsorted.stats

Loading data from ../../../results/depth_tmp/pc_Hybrid_Sched_geocity.txt_9_unsorted.stats...
{'avg_corr:': [80.943092, 80.943092, 80.943092, 80.943092, 80.943092], 'init_kernel:': [2709.0, 2731.0, 2751.0, 3288.0, 2741.0], 'overall:': [5464.0, 5486.0, 5487.0, 6033.0, 5546.0], 'kernel:': [860.0, 860.0, 854.0, 786.0, 865.0], 'find_correlation:': [1189.0, 1187.0, 1200.0, 1138.0, 1197.0], 'read_input:': [429.0, 420.0, 392.0, 466.0, 474.0], 'tree_height:': [19.0, 19.0, 19.0, 19.0, 19.0], 'extra:': [414.0, 412.0, 430.0, 443.0, 416.0], 'build_tree:': [996.0, 1007.0, 1004.0, 994.0, 994.0]}
@ tree_height: 19
The max number of the nodes is 524288.
ROWS = 200000, COLS = 512.
Time for asynchronous transfer and execute (ms): 82.003426
@ avg_corr: 80.943092
@ overall: 5422 ms
@ read_input: 495 ms
@ build_tree: 987 ms
@ init_kernel: 2604 ms
@ find_correlation: 1197 ms
@ kernel: 871 ms
@ extra: 410 ms
Collected results into ../../../results/depth_tmp/pc_Hybrid_Sched_geocity.txt_9_unsorted.stats

Loading data from ../../../results/depth_tmp/pc_Hybrid_Sched_geocity.txt_9_unsorted.stats...
{'find_correlation:': [1189.0, 1187.0, 1200.0, 1138.0, 1197.0, 1197.0], 'avg_corr:': [80.943092, 80.943092, 80.943092, 80.943092, 80.943092, 80.943092], 'init_kernel:': [2709.0, 2731.0, 2751.0, 3288.0, 2741.0, 2604.0], 'kernel:': [860.0, 860.0, 854.0, 786.0, 865.0, 871.0], 'overall:': [5464.0, 5486.0, 5487.0, 6033.0, 5546.0, 5422.0], 'read_input:': [429.0, 420.0, 392.0, 466.0, 474.0, 495.0], 'tree_height:': [19.0, 19.0, 19.0, 19.0, 19.0, 19.0], 'extra:': [414.0, 412.0, 430.0, 443.0, 416.0, 410.0], 'build_tree:': [996.0, 1007.0, 1004.0, 994.0, 994.0, 987.0]}
@ tree_height: 19
The max number of the nodes is 524288.
ROWS = 200000, COLS = 512.
Time for asynchronous transfer and execute (ms): 82.071457
@ avg_corr: 80.943092
@ overall: 5493 ms
@ read_input: 508 ms
@ build_tree: 992 ms
@ init_kernel: 2649 ms
@ find_correlation: 1204 ms
@ kernel: 878 ms
@ extra: 410 ms
Collected results into ../../../results/depth_tmp/pc_Hybrid_Sched_geocity.txt_9_unsorted.stats

Loading data from ../../../results/depth_tmp/pc_Hybrid_Sched_geocity.txt_9_unsorted.stats...
{'avg_corr:': [80.943092, 80.943092, 80.943092, 80.943092, 80.943092, 80.943092, 80.943092], 'init_kernel:': [2709.0, 2731.0, 2751.0, 3288.0, 2741.0, 2604.0, 2649.0], 'overall:': [5464.0, 5486.0, 5487.0, 6033.0, 5546.0, 5422.0, 5493.0], 'kernel:': [860.0, 860.0, 854.0, 786.0, 865.0, 871.0, 878.0], 'find_correlation:': [1189.0, 1187.0, 1200.0, 1138.0, 1197.0, 1197.0, 1204.0], 'read_input:': [429.0, 420.0, 392.0, 466.0, 474.0, 495.0, 508.0], 'tree_height:': [19.0, 19.0, 19.0, 19.0, 19.0, 19.0, 19.0], 'extra:': [414.0, 412.0, 430.0, 443.0, 416.0, 410.0, 410.0], 'build_tree:': [996.0, 1007.0, 1004.0, 994.0, 994.0, 987.0, 992.0]}
@ tree_height: 19
The max number of the nodes is 524288.
ROWS = 200000, COLS = 512.
Time for asynchronous transfer and execute (ms): 82.290878
@ avg_corr: 80.943092
@ overall: 5439 ms
@ read_input: 519 ms
@ build_tree: 1008 ms
@ init_kernel: 2595 ms
@ find_correlation: 1176 ms
@ kernel: 850 ms
@ extra: 410 ms
Collected results into ../../../results/depth_tmp/pc_Hybrid_Sched_geocity.txt_9_unsorted.stats

Loading data from ../../../results/depth_tmp/pc_Hybrid_Sched_geocity.txt_9_unsorted.stats...
{'find_correlation:': [1189.0, 1187.0, 1200.0, 1138.0, 1197.0, 1197.0, 1204.0, 1176.0], 'avg_corr:': [80.943092, 80.943092, 80.943092, 80.943092, 80.943092, 80.943092, 80.943092, 80.943092], 'init_kernel:': [2709.0, 2731.0, 2751.0, 3288.0, 2741.0, 2604.0, 2649.0, 2595.0], 'kernel:': [860.0, 860.0, 854.0, 786.0, 865.0, 871.0, 878.0, 850.0], 'overall:': [5464.0, 5486.0, 5487.0, 6033.0, 5546.0, 5422.0, 5493.0, 5439.0], 'read_input:': [429.0, 420.0, 392.0, 466.0, 474.0, 495.0, 508.0, 519.0], 'tree_height:': [19.0, 19.0, 19.0, 19.0, 19.0, 19.0, 19.0, 19.0], 'extra:': [414.0, 412.0, 430.0, 443.0, 416.0, 410.0, 410.0, 410.0], 'build_tree:': [996.0, 1007.0, 1004.0, 994.0, 994.0, 987.0, 992.0, 1008.0]}
@ tree_height: 19
The max number of the nodes is 524288.
ROWS = 200000, COLS = 512.
Time for asynchronous transfer and execute (ms): 82.806206
@ avg_corr: 80.943092
@ overall: 5504 ms
@ read_input: 432 ms
@ build_tree: 994 ms
@ init_kernel: 2756 ms
@ find_correlation: 1183 ms
@ kernel: 854 ms
@ extra: 413 ms
Collected results into ../../../results/depth_tmp/pc_Hybrid_Sched_geocity.txt_9_unsorted.stats

Loading data from ../../../results/depth_tmp/pc_Hybrid_Sched_geocity.txt_9_unsorted.stats...
{'avg_corr:': [80.943092, 80.943092, 80.943092, 80.943092, 80.943092, 80.943092, 80.943092, 80.943092, 80.943092], 'init_kernel:': [2709.0, 2731.0, 2751.0, 3288.0, 2741.0, 2604.0, 2649.0, 2595.0, 2756.0], 'overall:': [5464.0, 5486.0, 5487.0, 6033.0, 5546.0, 5422.0, 5493.0, 5439.0, 5504.0], 'kernel:': [860.0, 860.0, 854.0, 786.0, 865.0, 871.0, 878.0, 850.0, 854.0], 'find_correlation:': [1189.0, 1187.0, 1200.0, 1138.0, 1197.0, 1197.0, 1204.0, 1176.0, 1183.0], 'read_input:': [429.0, 420.0, 392.0, 466.0, 474.0, 495.0, 508.0, 519.0, 432.0], 'tree_height:': [19.0, 19.0, 19.0, 19.0, 19.0, 19.0, 19.0, 19.0, 19.0], 'extra:': [414.0, 412.0, 430.0, 443.0, 416.0, 410.0, 410.0, 410.0, 413.0], 'build_tree:': [996.0, 1007.0, 1004.0, 994.0, 994.0, 987.0, 992.0, 1008.0, 994.0]}
@ tree_height: 19
The max number of the nodes is 524288.
ROWS = 200000, COLS = 512.
Time for asynchronous transfer and execute (ms): 98.431007
@ avg_corr: 80.943092
@ overall: 5550 ms
@ read_input: 498 ms
@ build_tree: 992 ms
@ init_kernel: 2769 ms
@ find_correlation: 1134 ms
@ kernel: 788 ms
@ extra: 446 ms
Collected results into ../../../results/depth_tmp/pc_Hybrid_Sched_geocity.txt_9_unsorted.stats

Loading data from ../../../results/depth_tmp/pc_Hybrid_Sched_geocity.txt_9_unsorted.stats...
{'find_correlation:': [1189.0, 1187.0, 1200.0, 1138.0, 1197.0, 1197.0, 1204.0, 1176.0, 1183.0, 1134.0], 'avg_corr:': [80.943092, 80.943092, 80.943092, 80.943092, 80.943092, 80.943092, 80.943092, 80.943092, 80.943092, 80.943092], 'init_kernel:': [2709.0, 2731.0, 2751.0, 3288.0, 2741.0, 2604.0, 2649.0, 2595.0, 2756.0, 2769.0], 'kernel:': [860.0, 860.0, 854.0, 786.0, 865.0, 871.0, 878.0, 850.0, 854.0, 788.0], 'overall:': [5464.0, 5486.0, 5487.0, 6033.0, 5546.0, 5422.0, 5493.0, 5439.0, 5504.0, 5550.0], 'read_input:': [429.0, 420.0, 392.0, 466.0, 474.0, 495.0, 508.0, 519.0, 432.0, 498.0], 'tree_height:': [19.0, 19.0, 19.0, 19.0, 19.0, 19.0, 19.0, 19.0, 19.0, 19.0], 'extra:': [414.0, 412.0, 430.0, 443.0, 416.0, 410.0, 410.0, 410.0, 413.0, 446.0], 'build_tree:': [996.0, 1007.0, 1004.0, 994.0, 994.0, 987.0, 992.0, 1008.0, 994.0, 992.0]}
@ tree_height: 19
The max number of the nodes is 524288.
ROWS = 200000, COLS = 512.
Time for asynchronous transfer and execute (ms): 81.928734
@ avg_corr: 80.943092
@ overall: 5524 ms
@ read_input: 521 ms
@ build_tree: 992 ms
@ init_kernel: 2672 ms
@ find_correlation: 1200 ms
@ kernel: 853 ms
@ extra: 430 ms
Collected results into ../../../results/depth_tmp/pc_Hybrid_Sched_geocity.txt_9_unsorted.stats

Loading data from ../../../results/depth_tmp/pc_Hybrid_Sched_geocity.txt_9_unsorted.stats...
{'avg_corr:': [80.943092, 80.943092, 80.943092, 80.943092, 80.943092, 80.943092, 80.943092, 80.943092, 80.943092, 80.943092, 80.943092], 'init_kernel:': [2709.0, 2731.0, 2751.0, 3288.0, 2741.0, 2604.0, 2649.0, 2595.0, 2756.0, 2769.0, 2672.0], 'overall:': [5464.0, 5486.0, 5487.0, 6033.0, 5546.0, 5422.0, 5493.0, 5439.0, 5504.0, 5550.0, 5524.0], 'kernel:': [860.0, 860.0, 854.0, 786.0, 865.0, 871.0, 878.0, 850.0, 854.0, 788.0, 853.0], 'find_correlation:': [1189.0, 1187.0, 1200.0, 1138.0, 1197.0, 1197.0, 1204.0, 1176.0, 1183.0, 1134.0, 1200.0], 'read_input:': [429.0, 420.0, 392.0, 466.0, 474.0, 495.0, 508.0, 519.0, 432.0, 498.0, 521.0], 'tree_height:': [19.0, 19.0, 19.0, 19.0, 19.0, 19.0, 19.0, 19.0, 19.0, 19.0, 19.0], 'extra:': [414.0, 412.0, 430.0, 443.0, 416.0, 410.0, 410.0, 410.0, 413.0, 446.0, 430.0], 'build_tree:': [996.0, 1007.0, 1004.0, 994.0, 994.0, 987.0, 992.0, 1008.0, 994.0, 992.0, 992.0]}
@ tree_height: 19
The max number of the nodes is 524288.
ROWS = 200000, COLS = 512.
Time for asynchronous transfer and execute (ms): 82.181313
@ avg_corr: 80.943092
@ overall: 5369 ms
@ read_input: 395 ms
@ build_tree: 1006 ms
@ init_kernel: 2627 ms
@ find_correlation: 1201 ms
@ kernel: 856 ms
@ extra: 429 ms
Collected results into ../../../results/depth_tmp/pc_Hybrid_Sched_geocity.txt_9_unsorted.stats

Loading data from ../../../results/depth_tmp/pc_Hybrid_Sched_geocity.txt_9_unsorted.stats...
{'find_correlation:': [1189.0, 1187.0, 1200.0, 1138.0, 1197.0, 1197.0, 1204.0, 1176.0, 1183.0, 1134.0, 1200.0, 1201.0], 'avg_corr:': [80.943092, 80.943092, 80.943092, 80.943092, 80.943092, 80.943092, 80.943092, 80.943092, 80.943092, 80.943092, 80.943092, 80.943092], 'init_kernel:': [2709.0, 2731.0, 2751.0, 3288.0, 2741.0, 2604.0, 2649.0, 2595.0, 2756.0, 2769.0, 2672.0, 2627.0], 'kernel:': [860.0, 860.0, 854.0, 786.0, 865.0, 871.0, 878.0, 850.0, 854.0, 788.0, 853.0, 856.0], 'overall:': [5464.0, 5486.0, 5487.0, 6033.0, 5546.0, 5422.0, 5493.0, 5439.0, 5504.0, 5550.0, 5524.0, 5369.0], 'read_input:': [429.0, 420.0, 392.0, 466.0, 474.0, 495.0, 508.0, 519.0, 432.0, 498.0, 521.0, 395.0], 'tree_height:': [19.0, 19.0, 19.0, 19.0, 19.0, 19.0, 19.0, 19.0, 19.0, 19.0, 19.0, 19.0], 'extra:': [414.0, 412.0, 430.0, 443.0, 416.0, 410.0, 410.0, 410.0, 413.0, 446.0, 430.0, 429.0], 'build_tree:': [996.0, 1007.0, 1004.0, 994.0, 994.0, 987.0, 992.0, 1008.0, 994.0, 992.0, 992.0, 1006.0]}
@ tree_height: 19
The max number of the nodes is 524288.
ROWS = 200000, COLS = 512.
Time for asynchronous transfer and execute (ms): 81.739326
@ avg_corr: 80.943092
@ overall: 5433 ms
@ read_input: 392 ms
@ build_tree: 1006 ms
@ init_kernel: 2698 ms
@ find_correlation: 1197 ms
@ kernel: 852 ms
@ extra: 428 ms
Collected results into ../../../results/depth_tmp/pc_Hybrid_Sched_geocity.txt_9_unsorted.stats

Loading data from ../../../results/depth_tmp/pc_Hybrid_Sched_geocity.txt_9_unsorted.stats...
{'avg_corr:': [80.943092, 80.943092, 80.943092, 80.943092, 80.943092, 80.943092, 80.943092, 80.943092, 80.943092, 80.943092, 80.943092, 80.943092, 80.943092], 'init_kernel:': [2709.0, 2731.0, 2751.0, 3288.0, 2741.0, 2604.0, 2649.0, 2595.0, 2756.0, 2769.0, 2672.0, 2627.0, 2698.0], 'overall:': [5464.0, 5486.0, 5487.0, 6033.0, 5546.0, 5422.0, 5493.0, 5439.0, 5504.0, 5550.0, 5524.0, 5369.0, 5433.0], 'kernel:': [860.0, 860.0, 854.0, 786.0, 865.0, 871.0, 878.0, 850.0, 854.0, 788.0, 853.0, 856.0, 852.0], 'find_correlation:': [1189.0, 1187.0, 1200.0, 1138.0, 1197.0, 1197.0, 1204.0, 1176.0, 1183.0, 1134.0, 1200.0, 1201.0, 1197.0], 'read_input:': [429.0, 420.0, 392.0, 466.0, 474.0, 495.0, 508.0, 519.0, 432.0, 498.0, 521.0, 395.0, 392.0], 'tree_height:': [19.0, 19.0, 19.0, 19.0, 19.0, 19.0, 19.0, 19.0, 19.0, 19.0, 19.0, 19.0, 19.0], 'extra:': [414.0, 412.0, 430.0, 443.0, 416.0, 410.0, 410.0, 410.0, 413.0, 446.0, 430.0, 429.0, 428.0], 'build_tree:': [996.0, 1007.0, 1004.0, 994.0, 994.0, 987.0, 992.0, 1008.0, 994.0, 992.0, 992.0, 1006.0, 1006.0]}
@ tree_height: 19
The max number of the nodes is 524288.
ROWS = 200000, COLS = 512.
Time for asynchronous transfer and execute (ms): 81.820801
@ avg_corr: 80.943092
@ overall: 5608 ms
@ read_input: 500 ms
@ build_tree: 1007 ms
@ init_kernel: 2775 ms
@ find_correlation: 1184 ms
@ kernel: 857 ms
@ extra: 410 ms
Collected results into ../../../results/depth_tmp/pc_Hybrid_Sched_geocity.txt_9_unsorted.stats

Loading data from ../../../results/depth_tmp/pc_Hybrid_Sched_geocity.txt_9_unsorted.stats...
{'find_correlation:': [1189.0, 1187.0, 1200.0, 1138.0, 1197.0, 1197.0, 1204.0, 1176.0, 1183.0, 1134.0, 1200.0, 1201.0, 1197.0, 1184.0], 'avg_corr:': [80.943092, 80.943092, 80.943092, 80.943092, 80.943092, 80.943092, 80.943092, 80.943092, 80.943092, 80.943092, 80.943092, 80.943092, 80.943092, 80.943092], 'init_kernel:': [2709.0, 2731.0, 2751.0, 3288.0, 2741.0, 2604.0, 2649.0, 2595.0, 2756.0, 2769.0, 2672.0, 2627.0, 2698.0, 2775.0], 'kernel:': [860.0, 860.0, 854.0, 786.0, 865.0, 871.0, 878.0, 850.0, 854.0, 788.0, 853.0, 856.0, 852.0, 857.0], 'overall:': [5464.0, 5486.0, 5487.0, 6033.0, 5546.0, 5422.0, 5493.0, 5439.0, 5504.0, 5550.0, 5524.0, 5369.0, 5433.0, 5608.0], 'read_input:': [429.0, 420.0, 392.0, 466.0, 474.0, 495.0, 508.0, 519.0, 432.0, 498.0, 521.0, 395.0, 392.0, 500.0], 'tree_height:': [19.0, 19.0, 19.0, 19.0, 19.0, 19.0, 19.0, 19.0, 19.0, 19.0, 19.0, 19.0, 19.0, 19.0], 'extra:': [414.0, 412.0, 430.0, 443.0, 416.0, 410.0, 410.0, 410.0, 413.0, 446.0, 430.0, 429.0, 428.0, 410.0], 'build_tree:': [996.0, 1007.0, 1004.0, 994.0, 994.0, 987.0, 992.0, 1008.0, 994.0, 992.0, 992.0, 1006.0, 1006.0, 1007.0]}
@ tree_height: 19
The max number of the nodes is 524288.
ROWS = 200000, COLS = 512.
Time for asynchronous transfer and execute (ms): 82.096962
@ avg_corr: 80.943092
@ overall: 5518 ms
@ read_input: 421 ms
@ build_tree: 994 ms
@ init_kernel: 2772 ms
@ find_correlation: 1191 ms
@ kernel: 865 ms
@ extra: 410 ms
Collected results into ../../../results/depth_tmp/pc_Hybrid_Sched_geocity.txt_9_unsorted.stats

