Results wll be collected to ../../../results/depth_tmp/pc_Hybrid_Sched_geocity.txt_8_unsorted.stats...
@ tree_height: 19
The max number of the nodes is 524288.
ROWS = 200000, COLS = 256.
Time for asynchronous transfer and execute (ms): 63.448193
@ avg_corr: 80.943092
@ overall: 5140 ms
@ read_input: 429 ms
@ build_tree: 1003 ms
@ init_kernel: 2707 ms
@ find_correlation: 877 ms
@ kernel: 711 ms
@ extra: 231 ms
Collected results into ../../../results/depth_tmp/pc_Hybrid_Sched_geocity.txt_8_unsorted.stats

Loading data from ../../../results/depth_tmp/pc_Hybrid_Sched_geocity.txt_8_unsorted.stats...
{'avg_corr:': [80.943092], 'init_kernel:': [2707.0], 'overall:': [5140.0], 'kernel:': [711.0], 'find_correlation:': [877.0], 'read_input:': [429.0], 'tree_height:': [19.0], 'extra:': [231.0], 'build_tree:': [1003.0]}
@ tree_height: 19
The max number of the nodes is 524288.
ROWS = 200000, COLS = 256.
Time for asynchronous transfer and execute (ms): 45.479393
@ avg_corr: 80.943092
@ overall: 5218 ms
@ read_input: 504 ms
@ build_tree: 997 ms
@ init_kernel: 2667 ms
@ find_correlation: 946 ms
@ kernel: 782 ms
@ extra: 210 ms
Collected results into ../../../results/depth_tmp/pc_Hybrid_Sched_geocity.txt_8_unsorted.stats

Loading data from ../../../results/depth_tmp/pc_Hybrid_Sched_geocity.txt_8_unsorted.stats...
{'find_correlation:': [877.0, 946.0], 'avg_corr:': [80.943092, 80.943092], 'init_kernel:': [2707.0, 2667.0], 'kernel:': [711.0, 782.0], 'overall:': [5140.0, 5218.0], 'read_input:': [429.0, 504.0], 'tree_height:': [19.0, 19.0], 'extra:': [231.0, 210.0], 'build_tree:': [1003.0, 997.0]}
@ tree_height: 19
The max number of the nodes is 524288.
ROWS = 200000, COLS = 256.
Time for asynchronous transfer and execute (ms): 45.685249
@ avg_corr: 80.943092
@ overall: 5096 ms
@ read_input: 407 ms
@ build_tree: 999 ms
@ init_kernel: 2627 ms
@ find_correlation: 959 ms
@ kernel: 795 ms
@ extra: 211 ms
Collected results into ../../../results/depth_tmp/pc_Hybrid_Sched_geocity.txt_8_unsorted.stats

Loading data from ../../../results/depth_tmp/pc_Hybrid_Sched_geocity.txt_8_unsorted.stats...
{'avg_corr:': [80.943092, 80.943092, 80.943092], 'init_kernel:': [2707.0, 2667.0, 2627.0], 'overall:': [5140.0, 5218.0, 5096.0], 'kernel:': [711.0, 782.0, 795.0], 'find_correlation:': [877.0, 946.0, 959.0], 'read_input:': [429.0, 504.0, 407.0], 'tree_height:': [19.0, 19.0, 19.0], 'extra:': [231.0, 210.0, 211.0], 'build_tree:': [1003.0, 997.0, 999.0]}
@ tree_height: 19
The max number of the nodes is 524288.
ROWS = 200000, COLS = 256.
Time for asynchronous transfer and execute (ms): 45.400833
@ avg_corr: 80.943092
@ overall: 5094 ms
@ read_input: 497 ms
@ build_tree: 997 ms
@ init_kernel: 2610 ms
@ find_correlation: 887 ms
@ kernel: 723 ms
@ extra: 211 ms
Collected results into ../../../results/depth_tmp/pc_Hybrid_Sched_geocity.txt_8_unsorted.stats

Loading data from ../../../results/depth_tmp/pc_Hybrid_Sched_geocity.txt_8_unsorted.stats...
{'find_correlation:': [877.0, 946.0, 959.0, 887.0], 'avg_corr:': [80.943092, 80.943092, 80.943092, 80.943092], 'init_kernel:': [2707.0, 2667.0, 2627.0, 2610.0], 'kernel:': [711.0, 782.0, 795.0, 723.0], 'overall:': [5140.0, 5218.0, 5096.0, 5094.0], 'read_input:': [429.0, 504.0, 407.0, 497.0], 'tree_height:': [19.0, 19.0, 19.0, 19.0], 'extra:': [231.0, 210.0, 211.0, 211.0], 'build_tree:': [1003.0, 997.0, 999.0, 997.0]}
@ tree_height: 19
The max number of the nodes is 524288.
ROWS = 200000, COLS = 256.
Time for asynchronous transfer and execute (ms): 45.428608
@ avg_corr: 80.943092
@ overall: 5315 ms
@ read_input: 493 ms
@ build_tree: 998 ms
@ init_kernel: 2770 ms
@ find_correlation: 950 ms
@ kernel: 786 ms
@ extra: 211 ms
Collected results into ../../../results/depth_tmp/pc_Hybrid_Sched_geocity.txt_8_unsorted.stats

Loading data from ../../../results/depth_tmp/pc_Hybrid_Sched_geocity.txt_8_unsorted.stats...
{'avg_corr:': [80.943092, 80.943092, 80.943092, 80.943092, 80.943092], 'init_kernel:': [2707.0, 2667.0, 2627.0, 2610.0, 2770.0], 'overall:': [5140.0, 5218.0, 5096.0, 5094.0, 5315.0], 'kernel:': [711.0, 782.0, 795.0, 723.0, 786.0], 'find_correlation:': [877.0, 946.0, 959.0, 887.0, 950.0], 'read_input:': [429.0, 504.0, 407.0, 497.0, 493.0], 'tree_height:': [19.0, 19.0, 19.0, 19.0, 19.0], 'extra:': [231.0, 210.0, 211.0, 211.0, 211.0], 'build_tree:': [1003.0, 997.0, 999.0, 997.0, 998.0]}
@ tree_height: 19
The max number of the nodes is 524288.
ROWS = 200000, COLS = 256.
Time for asynchronous transfer and execute (ms): 45.532513
@ avg_corr: 80.943092
@ overall: 5045 ms
@ read_input: 429 ms
@ build_tree: 1009 ms
@ init_kernel: 2582 ms
@ find_correlation: 921 ms
@ kernel: 758 ms
@ extra: 210 ms
Collected results into ../../../results/depth_tmp/pc_Hybrid_Sched_geocity.txt_8_unsorted.stats

Loading data from ../../../results/depth_tmp/pc_Hybrid_Sched_geocity.txt_8_unsorted.stats...
{'find_correlation:': [877.0, 946.0, 959.0, 887.0, 950.0, 921.0], 'avg_corr:': [80.943092, 80.943092, 80.943092, 80.943092, 80.943092, 80.943092], 'init_kernel:': [2707.0, 2667.0, 2627.0, 2610.0, 2770.0, 2582.0], 'kernel:': [711.0, 782.0, 795.0, 723.0, 786.0, 758.0], 'overall:': [5140.0, 5218.0, 5096.0, 5094.0, 5315.0, 5045.0], 'read_input:': [429.0, 504.0, 407.0, 497.0, 493.0, 429.0], 'tree_height:': [19.0, 19.0, 19.0, 19.0, 19.0, 19.0], 'extra:': [231.0, 210.0, 211.0, 211.0, 211.0, 210.0], 'build_tree:': [1003.0, 997.0, 999.0, 997.0, 998.0, 1009.0]}
@ tree_height: 19
The max number of the nodes is 524288.
ROWS = 200000, COLS = 256.
Time for asynchronous transfer and execute (ms): 45.216545
@ avg_corr: 80.943092
@ overall: 5181 ms
@ read_input: 488 ms
@ build_tree: 992 ms
@ init_kernel: 2667 ms
@ find_correlation: 932 ms
@ kernel: 768 ms
@ extra: 210 ms
Collected results into ../../../results/depth_tmp/pc_Hybrid_Sched_geocity.txt_8_unsorted.stats

Loading data from ../../../results/depth_tmp/pc_Hybrid_Sched_geocity.txt_8_unsorted.stats...
{'avg_corr:': [80.943092, 80.943092, 80.943092, 80.943092, 80.943092, 80.943092, 80.943092], 'init_kernel:': [2707.0, 2667.0, 2627.0, 2610.0, 2770.0, 2582.0, 2667.0], 'overall:': [5140.0, 5218.0, 5096.0, 5094.0, 5315.0, 5045.0, 5181.0], 'kernel:': [711.0, 782.0, 795.0, 723.0, 786.0, 758.0, 768.0], 'find_correlation:': [877.0, 946.0, 959.0, 887.0, 950.0, 921.0, 932.0], 'read_input:': [429.0, 504.0, 407.0, 497.0, 493.0, 429.0, 488.0], 'tree_height:': [19.0, 19.0, 19.0, 19.0, 19.0, 19.0, 19.0], 'extra:': [231.0, 210.0, 211.0, 211.0, 211.0, 210.0, 210.0], 'build_tree:': [1003.0, 997.0, 999.0, 997.0, 998.0, 1009.0, 992.0]}
@ tree_height: 19
The max number of the nodes is 524288.
ROWS = 200000, COLS = 256.
Time for asynchronous transfer and execute (ms): 44.181664
@ avg_corr: 80.943092
@ overall: 5300 ms
@ read_input: 501 ms
@ build_tree: 998 ms
@ init_kernel: 2701 ms
@ find_correlation: 997 ms
@ kernel: 834 ms
@ extra: 209 ms
Collected results into ../../../results/depth_tmp/pc_Hybrid_Sched_geocity.txt_8_unsorted.stats

Loading data from ../../../results/depth_tmp/pc_Hybrid_Sched_geocity.txt_8_unsorted.stats...
{'find_correlation:': [877.0, 946.0, 959.0, 887.0, 950.0, 921.0, 932.0, 997.0], 'avg_corr:': [80.943092, 80.943092, 80.943092, 80.943092, 80.943092, 80.943092, 80.943092, 80.943092], 'init_kernel:': [2707.0, 2667.0, 2627.0, 2610.0, 2770.0, 2582.0, 2667.0, 2701.0], 'kernel:': [711.0, 782.0, 795.0, 723.0, 786.0, 758.0, 768.0, 834.0], 'overall:': [5140.0, 5218.0, 5096.0, 5094.0, 5315.0, 5045.0, 5181.0, 5300.0], 'read_input:': [429.0, 504.0, 407.0, 497.0, 493.0, 429.0, 488.0, 501.0], 'tree_height:': [19.0, 19.0, 19.0, 19.0, 19.0, 19.0, 19.0, 19.0], 'extra:': [231.0, 210.0, 211.0, 211.0, 211.0, 210.0, 210.0, 209.0], 'build_tree:': [1003.0, 997.0, 999.0, 997.0, 998.0, 1009.0, 992.0, 998.0]}
@ tree_height: 19
The max number of the nodes is 524288.
ROWS = 200000, COLS = 256.
Time for asynchronous transfer and execute (ms): 44.893566
@ avg_corr: 80.943092
@ overall: 5235 ms
@ read_input: 502 ms
@ build_tree: 994 ms
@ init_kernel: 2645 ms
@ find_correlation: 991 ms
@ kernel: 827 ms
@ extra: 210 ms
Collected results into ../../../results/depth_tmp/pc_Hybrid_Sched_geocity.txt_8_unsorted.stats

Loading data from ../../../results/depth_tmp/pc_Hybrid_Sched_geocity.txt_8_unsorted.stats...
{'avg_corr:': [80.943092, 80.943092, 80.943092, 80.943092, 80.943092, 80.943092, 80.943092, 80.943092, 80.943092], 'init_kernel:': [2707.0, 2667.0, 2627.0, 2610.0, 2770.0, 2582.0, 2667.0, 2701.0, 2645.0], 'overall:': [5140.0, 5218.0, 5096.0, 5094.0, 5315.0, 5045.0, 5181.0, 5300.0, 5235.0], 'kernel:': [711.0, 782.0, 795.0, 723.0, 786.0, 758.0, 768.0, 834.0, 827.0], 'find_correlation:': [877.0, 946.0, 959.0, 887.0, 950.0, 921.0, 932.0, 997.0, 991.0], 'read_input:': [429.0, 504.0, 407.0, 497.0, 493.0, 429.0, 488.0, 501.0, 502.0], 'tree_height:': [19.0, 19.0, 19.0, 19.0, 19.0, 19.0, 19.0, 19.0, 19.0], 'extra:': [231.0, 210.0, 211.0, 211.0, 211.0, 210.0, 210.0, 209.0, 210.0], 'build_tree:': [1003.0, 997.0, 999.0, 997.0, 998.0, 1009.0, 992.0, 998.0, 994.0]}
@ tree_height: 19
The max number of the nodes is 524288.
ROWS = 200000, COLS = 256.
Time for asynchronous transfer and execute (ms): 63.129089
@ avg_corr: 80.943092
@ overall: 5169 ms
@ read_input: 503 ms
@ build_tree: 1017 ms
@ init_kernel: 2650 ms
@ find_correlation: 877 ms
@ kernel: 711 ms
@ extra: 230 ms
Collected results into ../../../results/depth_tmp/pc_Hybrid_Sched_geocity.txt_8_unsorted.stats

Loading data from ../../../results/depth_tmp/pc_Hybrid_Sched_geocity.txt_8_unsorted.stats...
{'find_correlation:': [877.0, 946.0, 959.0, 887.0, 950.0, 921.0, 932.0, 997.0, 991.0, 877.0], 'avg_corr:': [80.943092, 80.943092, 80.943092, 80.943092, 80.943092, 80.943092, 80.943092, 80.943092, 80.943092, 80.943092], 'init_kernel:': [2707.0, 2667.0, 2627.0, 2610.0, 2770.0, 2582.0, 2667.0, 2701.0, 2645.0, 2650.0], 'kernel:': [711.0, 782.0, 795.0, 723.0, 786.0, 758.0, 768.0, 834.0, 827.0, 711.0], 'overall:': [5140.0, 5218.0, 5096.0, 5094.0, 5315.0, 5045.0, 5181.0, 5300.0, 5235.0, 5169.0], 'read_input:': [429.0, 504.0, 407.0, 497.0, 493.0, 429.0, 488.0, 501.0, 502.0, 503.0], 'tree_height:': [19.0, 19.0, 19.0, 19.0, 19.0, 19.0, 19.0, 19.0, 19.0, 19.0], 'extra:': [231.0, 210.0, 211.0, 211.0, 211.0, 210.0, 210.0, 209.0, 210.0, 230.0], 'build_tree:': [1003.0, 997.0, 999.0, 997.0, 998.0, 1009.0, 992.0, 998.0, 994.0, 1017.0]}
@ tree_height: 19
The max number of the nodes is 524288.
ROWS = 200000, COLS = 256.
Time for asynchronous transfer and execute (ms): 43.073666
@ avg_corr: 80.943092
@ overall: 5141 ms
@ read_input: 383 ms
@ build_tree: 999 ms
@ init_kernel: 2696 ms
@ find_correlation: 962 ms
@ kernel: 799 ms
@ extra: 207 ms
Collected results into ../../../results/depth_tmp/pc_Hybrid_Sched_geocity.txt_8_unsorted.stats

Loading data from ../../../results/depth_tmp/pc_Hybrid_Sched_geocity.txt_8_unsorted.stats...
{'avg_corr:': [80.943092, 80.943092, 80.943092, 80.943092, 80.943092, 80.943092, 80.943092, 80.943092, 80.943092, 80.943092, 80.943092], 'init_kernel:': [2707.0, 2667.0, 2627.0, 2610.0, 2770.0, 2582.0, 2667.0, 2701.0, 2645.0, 2650.0, 2696.0], 'overall:': [5140.0, 5218.0, 5096.0, 5094.0, 5315.0, 5045.0, 5181.0, 5300.0, 5235.0, 5169.0, 5141.0], 'kernel:': [711.0, 782.0, 795.0, 723.0, 786.0, 758.0, 768.0, 834.0, 827.0, 711.0, 799.0], 'find_correlation:': [877.0, 946.0, 959.0, 887.0, 950.0, 921.0, 932.0, 997.0, 991.0, 877.0, 962.0], 'read_input:': [429.0, 504.0, 407.0, 497.0, 493.0, 429.0, 488.0, 501.0, 502.0, 503.0, 383.0], 'tree_height:': [19.0, 19.0, 19.0, 19.0, 19.0, 19.0, 19.0, 19.0, 19.0, 19.0, 19.0], 'extra:': [231.0, 210.0, 211.0, 211.0, 211.0, 210.0, 210.0, 209.0, 210.0, 230.0, 207.0], 'build_tree:': [1003.0, 997.0, 999.0, 997.0, 998.0, 1009.0, 992.0, 998.0, 994.0, 1017.0, 999.0]}
@ tree_height: 19
The max number of the nodes is 524288.
ROWS = 200000, COLS = 256.
Time for asynchronous transfer and execute (ms): 44.857506
@ avg_corr: 80.943092
@ overall: 5101 ms
@ read_input: 403 ms
@ build_tree: 994 ms
@ init_kernel: 2682 ms
@ find_correlation: 919 ms
@ kernel: 755 ms
@ extra: 210 ms
Collected results into ../../../results/depth_tmp/pc_Hybrid_Sched_geocity.txt_8_unsorted.stats

Loading data from ../../../results/depth_tmp/pc_Hybrid_Sched_geocity.txt_8_unsorted.stats...
{'find_correlation:': [877.0, 946.0, 959.0, 887.0, 950.0, 921.0, 932.0, 997.0, 991.0, 877.0, 962.0, 919.0], 'avg_corr:': [80.943092, 80.943092, 80.943092, 80.943092, 80.943092, 80.943092, 80.943092, 80.943092, 80.943092, 80.943092, 80.943092, 80.943092], 'init_kernel:': [2707.0, 2667.0, 2627.0, 2610.0, 2770.0, 2582.0, 2667.0, 2701.0, 2645.0, 2650.0, 2696.0, 2682.0], 'kernel:': [711.0, 782.0, 795.0, 723.0, 786.0, 758.0, 768.0, 834.0, 827.0, 711.0, 799.0, 755.0], 'overall:': [5140.0, 5218.0, 5096.0, 5094.0, 5315.0, 5045.0, 5181.0, 5300.0, 5235.0, 5169.0, 5141.0, 5101.0], 'read_input:': [429.0, 504.0, 407.0, 497.0, 493.0, 429.0, 488.0, 501.0, 502.0, 503.0, 383.0, 403.0], 'tree_height:': [19.0, 19.0, 19.0, 19.0, 19.0, 19.0, 19.0, 19.0, 19.0, 19.0, 19.0, 19.0], 'extra:': [231.0, 210.0, 211.0, 211.0, 211.0, 210.0, 210.0, 209.0, 210.0, 230.0, 207.0, 210.0], 'build_tree:': [1003.0, 997.0, 999.0, 997.0, 998.0, 1009.0, 992.0, 998.0, 994.0, 1017.0, 999.0, 994.0]}
@ tree_height: 19
The max number of the nodes is 524288.
ROWS = 200000, COLS = 256.
Time for asynchronous transfer and execute (ms): 44.147617
@ avg_corr: 80.943092
@ overall: 5216 ms
@ read_input: 490 ms
@ build_tree: 999 ms
@ init_kernel: 2665 ms
@ find_correlation: 959 ms
@ kernel: 796 ms
@ extra: 209 ms
Collected results into ../../../results/depth_tmp/pc_Hybrid_Sched_geocity.txt_8_unsorted.stats

Loading data from ../../../results/depth_tmp/pc_Hybrid_Sched_geocity.txt_8_unsorted.stats...
{'avg_corr:': [80.943092, 80.943092, 80.943092, 80.943092, 80.943092, 80.943092, 80.943092, 80.943092, 80.943092, 80.943092, 80.943092, 80.943092, 80.943092], 'init_kernel:': [2707.0, 2667.0, 2627.0, 2610.0, 2770.0, 2582.0, 2667.0, 2701.0, 2645.0, 2650.0, 2696.0, 2682.0, 2665.0], 'overall:': [5140.0, 5218.0, 5096.0, 5094.0, 5315.0, 5045.0, 5181.0, 5300.0, 5235.0, 5169.0, 5141.0, 5101.0, 5216.0], 'kernel:': [711.0, 782.0, 795.0, 723.0, 786.0, 758.0, 768.0, 834.0, 827.0, 711.0, 799.0, 755.0, 796.0], 'find_correlation:': [877.0, 946.0, 959.0, 887.0, 950.0, 921.0, 932.0, 997.0, 991.0, 877.0, 962.0, 919.0, 959.0], 'read_input:': [429.0, 504.0, 407.0, 497.0, 493.0, 429.0, 488.0, 501.0, 502.0, 503.0, 383.0, 403.0, 490.0], 'tree_height:': [19.0, 19.0, 19.0, 19.0, 19.0, 19.0, 19.0, 19.0, 19.0, 19.0, 19.0, 19.0, 19.0], 'extra:': [231.0, 210.0, 211.0, 211.0, 211.0, 210.0, 210.0, 209.0, 210.0, 230.0, 207.0, 210.0, 209.0], 'build_tree:': [1003.0, 997.0, 999.0, 997.0, 998.0, 1009.0, 992.0, 998.0, 994.0, 1017.0, 999.0, 994.0, 999.0]}
@ tree_height: 19
The max number of the nodes is 524288.
ROWS = 200000, COLS = 256.
Time for asynchronous transfer and execute (ms): 44.268127
@ avg_corr: 80.943092
@ overall: 5318 ms
@ read_input: 438 ms
@ build_tree: 1012 ms
@ init_kernel: 2799 ms
@ find_correlation: 966 ms
@ kernel: 803 ms
@ extra: 209 ms
Collected results into ../../../results/depth_tmp/pc_Hybrid_Sched_geocity.txt_8_unsorted.stats

Loading data from ../../../results/depth_tmp/pc_Hybrid_Sched_geocity.txt_8_unsorted.stats...
{'find_correlation:': [877.0, 946.0, 959.0, 887.0, 950.0, 921.0, 932.0, 997.0, 991.0, 877.0, 962.0, 919.0, 959.0, 966.0], 'avg_corr:': [80.943092, 80.943092, 80.943092, 80.943092, 80.943092, 80.943092, 80.943092, 80.943092, 80.943092, 80.943092, 80.943092, 80.943092, 80.943092, 80.943092], 'init_kernel:': [2707.0, 2667.0, 2627.0, 2610.0, 2770.0, 2582.0, 2667.0, 2701.0, 2645.0, 2650.0, 2696.0, 2682.0, 2665.0, 2799.0], 'kernel:': [711.0, 782.0, 795.0, 723.0, 786.0, 758.0, 768.0, 834.0, 827.0, 711.0, 799.0, 755.0, 796.0, 803.0], 'overall:': [5140.0, 5218.0, 5096.0, 5094.0, 5315.0, 5045.0, 5181.0, 5300.0, 5235.0, 5169.0, 5141.0, 5101.0, 5216.0, 5318.0], 'read_input:': [429.0, 504.0, 407.0, 497.0, 493.0, 429.0, 488.0, 501.0, 502.0, 503.0, 383.0, 403.0, 490.0, 438.0], 'tree_height:': [19.0, 19.0, 19.0, 19.0, 19.0, 19.0, 19.0, 19.0, 19.0, 19.0, 19.0, 19.0, 19.0, 19.0], 'extra:': [231.0, 210.0, 211.0, 211.0, 211.0, 210.0, 210.0, 209.0, 210.0, 230.0, 207.0, 210.0, 209.0, 209.0], 'build_tree:': [1003.0, 997.0, 999.0, 997.0, 998.0, 1009.0, 992.0, 998.0, 994.0, 1017.0, 999.0, 994.0, 999.0, 1012.0]}
@ tree_height: 19
The max number of the nodes is 524288.
ROWS = 200000, COLS = 256.
Time for asynchronous transfer and execute (ms): 44.317726
@ avg_corr: 80.943092
@ overall: 5146 ms
@ read_input: 478 ms
@ build_tree: 1010 ms
@ init_kernel: 2651 ms
@ find_correlation: 904 ms
@ kernel: 741 ms
@ extra: 209 ms
Collected results into ../../../results/depth_tmp/pc_Hybrid_Sched_geocity.txt_8_unsorted.stats

