Results wll be collected to ../../../results/depth_tmp/pc_Hybrid_Sched_mnist.7d_7_unsorted.stats...
@ tree_height: 19
The max number of the nodes is 524288.
ROWS = 200000, COLS = 128.
Time for asynchronous transfer and execute (ms): 52.255489
@ avg_corr: 1.000000
@ overall: 6874 ms
@ read_input: 961 ms
@ build_tree: 1188 ms
@ init_kernel: 2740 ms
@ find_correlation: 1853 ms
@ kernel: 1768 ms
@ extra: 139 ms
Collected results into ../../../results/depth_tmp/pc_Hybrid_Sched_mnist.7d_7_unsorted.stats

Loading data from ../../../results/depth_tmp/pc_Hybrid_Sched_mnist.7d_7_unsorted.stats...
{'avg_corr:': [1.0], 'init_kernel:': [2740.0], 'overall:': [6874.0], 'kernel:': [1768.0], 'find_correlation:': [1853.0], 'read_input:': [961.0], 'tree_height:': [19.0], 'extra:': [139.0], 'build_tree:': [1188.0]}
@ tree_height: 19
The max number of the nodes is 524288.
ROWS = 200000, COLS = 128.
Time for asynchronous transfer and execute (ms): 52.092831
@ avg_corr: 1.000000
@ overall: 6913 ms
@ read_input: 1066 ms
@ build_tree: 1189 ms
@ init_kernel: 2650 ms
@ find_correlation: 1876 ms
@ kernel: 1791 ms
@ extra: 139 ms
Collected results into ../../../results/depth_tmp/pc_Hybrid_Sched_mnist.7d_7_unsorted.stats

Loading data from ../../../results/depth_tmp/pc_Hybrid_Sched_mnist.7d_7_unsorted.stats...
{'find_correlation:': [1853.0, 1876.0], 'avg_corr:': [1.0, 1.0], 'init_kernel:': [2740.0, 2650.0], 'kernel:': [1768.0, 1791.0], 'overall:': [6874.0, 6913.0], 'read_input:': [961.0, 1066.0], 'tree_height:': [19.0, 19.0], 'extra:': [139.0, 139.0], 'build_tree:': [1188.0, 1189.0]}
@ tree_height: 19
The max number of the nodes is 524288.
ROWS = 200000, COLS = 128.
Time for asynchronous transfer and execute (ms): 61.265919
@ avg_corr: 1.000000
@ overall: 6763 ms
@ read_input: 1066 ms
@ build_tree: 1202 ms
@ init_kernel: 2695 ms
@ find_correlation: 1656 ms
@ kernel: 1564 ms
@ extra: 155 ms
Collected results into ../../../results/depth_tmp/pc_Hybrid_Sched_mnist.7d_7_unsorted.stats

Loading data from ../../../results/depth_tmp/pc_Hybrid_Sched_mnist.7d_7_unsorted.stats...
{'avg_corr:': [1.0, 1.0, 1.0], 'init_kernel:': [2740.0, 2650.0, 2695.0], 'overall:': [6874.0, 6913.0, 6763.0], 'kernel:': [1768.0, 1791.0, 1564.0], 'find_correlation:': [1853.0, 1876.0, 1656.0], 'read_input:': [961.0, 1066.0, 1066.0], 'tree_height:': [19.0, 19.0, 19.0], 'extra:': [139.0, 139.0, 155.0], 'build_tree:': [1188.0, 1189.0, 1202.0]}
@ tree_height: 19
The max number of the nodes is 524288.
ROWS = 200000, COLS = 128.
Time for asynchronous transfer and execute (ms): 51.842464
@ avg_corr: 1.000000
@ overall: 6912 ms
@ read_input: 1061 ms
@ build_tree: 1192 ms
@ init_kernel: 2683 ms
@ find_correlation: 1844 ms
@ kernel: 1758 ms
@ extra: 139 ms
Collected results into ../../../results/depth_tmp/pc_Hybrid_Sched_mnist.7d_7_unsorted.stats

Loading data from ../../../results/depth_tmp/pc_Hybrid_Sched_mnist.7d_7_unsorted.stats...
{'find_correlation:': [1853.0, 1876.0, 1656.0, 1844.0], 'avg_corr:': [1.0, 1.0, 1.0, 1.0], 'init_kernel:': [2740.0, 2650.0, 2695.0, 2683.0], 'kernel:': [1768.0, 1791.0, 1564.0, 1758.0], 'overall:': [6874.0, 6913.0, 6763.0, 6912.0], 'read_input:': [961.0, 1066.0, 1066.0, 1061.0], 'tree_height:': [19.0, 19.0, 19.0, 19.0], 'extra:': [139.0, 139.0, 155.0, 139.0], 'build_tree:': [1188.0, 1189.0, 1202.0, 1192.0]}
@ tree_height: 19
The max number of the nodes is 524288.
ROWS = 200000, COLS = 128.
Time for asynchronous transfer and execute (ms): 57.031391
@ avg_corr: 1.000000
@ overall: 6778 ms
@ read_input: 1070 ms
@ build_tree: 1191 ms
@ init_kernel: 2701 ms
@ find_correlation: 1679 ms
@ kernel: 1588 ms
@ extra: 149 ms
Collected results into ../../../results/depth_tmp/pc_Hybrid_Sched_mnist.7d_7_unsorted.stats

Loading data from ../../../results/depth_tmp/pc_Hybrid_Sched_mnist.7d_7_unsorted.stats...
{'avg_corr:': [1.0, 1.0, 1.0, 1.0, 1.0], 'init_kernel:': [2740.0, 2650.0, 2695.0, 2683.0, 2701.0], 'overall:': [6874.0, 6913.0, 6763.0, 6912.0, 6778.0], 'kernel:': [1768.0, 1791.0, 1564.0, 1758.0, 1588.0], 'find_correlation:': [1853.0, 1876.0, 1656.0, 1844.0, 1679.0], 'read_input:': [961.0, 1066.0, 1066.0, 1061.0, 1070.0], 'tree_height:': [19.0, 19.0, 19.0, 19.0, 19.0], 'extra:': [139.0, 139.0, 155.0, 139.0, 149.0], 'build_tree:': [1188.0, 1189.0, 1202.0, 1192.0, 1191.0]}
@ tree_height: 19
The max number of the nodes is 524288.
ROWS = 200000, COLS = 128.
Time for asynchronous transfer and execute (ms): 52.272831
@ avg_corr: 1.000000
@ overall: 7000 ms
@ read_input: 996 ms
@ build_tree: 1193 ms
@ init_kernel: 2816 ms
@ find_correlation: 1863 ms
@ kernel: 1776 ms
@ extra: 140 ms
Collected results into ../../../results/depth_tmp/pc_Hybrid_Sched_mnist.7d_7_unsorted.stats

Loading data from ../../../results/depth_tmp/pc_Hybrid_Sched_mnist.7d_7_unsorted.stats...
{'find_correlation:': [1853.0, 1876.0, 1656.0, 1844.0, 1679.0, 1863.0], 'avg_corr:': [1.0, 1.0, 1.0, 1.0, 1.0, 1.0], 'init_kernel:': [2740.0, 2650.0, 2695.0, 2683.0, 2701.0, 2816.0], 'kernel:': [1768.0, 1791.0, 1564.0, 1758.0, 1588.0, 1776.0], 'overall:': [6874.0, 6913.0, 6763.0, 6912.0, 6778.0, 7000.0], 'read_input:': [961.0, 1066.0, 1066.0, 1061.0, 1070.0, 996.0], 'tree_height:': [19.0, 19.0, 19.0, 19.0, 19.0, 19.0], 'extra:': [139.0, 139.0, 155.0, 139.0, 149.0, 140.0], 'build_tree:': [1188.0, 1189.0, 1202.0, 1192.0, 1191.0, 1193.0]}
@ tree_height: 19
The max number of the nodes is 524288.
ROWS = 200000, COLS = 128.
Time for asynchronous transfer and execute (ms): 57.499359
@ avg_corr: 1.000000
@ overall: 6592 ms
@ read_input: 963 ms
@ build_tree: 1192 ms
@ init_kernel: 2621 ms
@ find_correlation: 1678 ms
@ kernel: 1588 ms
@ extra: 149 ms
Collected results into ../../../results/depth_tmp/pc_Hybrid_Sched_mnist.7d_7_unsorted.stats

Loading data from ../../../results/depth_tmp/pc_Hybrid_Sched_mnist.7d_7_unsorted.stats...
{'avg_corr:': [1.0, 1.0, 1.0, 1.0, 1.0, 1.0, 1.0], 'init_kernel:': [2740.0, 2650.0, 2695.0, 2683.0, 2701.0, 2816.0, 2621.0], 'overall:': [6874.0, 6913.0, 6763.0, 6912.0, 6778.0, 7000.0, 6592.0], 'kernel:': [1768.0, 1791.0, 1564.0, 1758.0, 1588.0, 1776.0, 1588.0], 'find_correlation:': [1853.0, 1876.0, 1656.0, 1844.0, 1679.0, 1863.0, 1678.0], 'read_input:': [961.0, 1066.0, 1066.0, 1061.0, 1070.0, 996.0, 963.0], 'tree_height:': [19.0, 19.0, 19.0, 19.0, 19.0, 19.0, 19.0], 'extra:': [139.0, 139.0, 155.0, 139.0, 149.0, 140.0, 149.0], 'build_tree:': [1188.0, 1189.0, 1202.0, 1192.0, 1191.0, 1193.0, 1192.0]}
@ tree_height: 19
The max number of the nodes is 524288.
ROWS = 200000, COLS = 128.
Time for asynchronous transfer and execute (ms): 57.113567
@ avg_corr: 1.000000
@ overall: 6700 ms
@ read_input: 957 ms
@ build_tree: 1197 ms
@ init_kernel: 2730 ms
@ find_correlation: 1678 ms
@ kernel: 1588 ms
@ extra: 149 ms
Collected results into ../../../results/depth_tmp/pc_Hybrid_Sched_mnist.7d_7_unsorted.stats

Loading data from ../../../results/depth_tmp/pc_Hybrid_Sched_mnist.7d_7_unsorted.stats...
{'find_correlation:': [1853.0, 1876.0, 1656.0, 1844.0, 1679.0, 1863.0, 1678.0, 1678.0], 'avg_corr:': [1.0, 1.0, 1.0, 1.0, 1.0, 1.0, 1.0, 1.0], 'init_kernel:': [2740.0, 2650.0, 2695.0, 2683.0, 2701.0, 2816.0, 2621.0, 2730.0], 'kernel:': [1768.0, 1791.0, 1564.0, 1758.0, 1588.0, 1776.0, 1588.0, 1588.0], 'overall:': [6874.0, 6913.0, 6763.0, 6912.0, 6778.0, 7000.0, 6592.0, 6700.0], 'read_input:': [961.0, 1066.0, 1066.0, 1061.0, 1070.0, 996.0, 963.0, 957.0], 'tree_height:': [19.0, 19.0, 19.0, 19.0, 19.0, 19.0, 19.0, 19.0], 'extra:': [139.0, 139.0, 155.0, 139.0, 149.0, 140.0, 149.0, 149.0], 'build_tree:': [1188.0, 1189.0, 1202.0, 1192.0, 1191.0, 1193.0, 1192.0, 1197.0]}
@ tree_height: 19
The max number of the nodes is 524288.
ROWS = 200000, COLS = 128.
Time for asynchronous transfer and execute (ms): 57.595650
@ avg_corr: 1.000000
@ overall: 6893 ms
@ read_input: 1056 ms
@ build_tree: 1192 ms
@ init_kernel: 2833 ms
@ find_correlation: 1674 ms
@ kernel: 1583 ms
@ extra: 149 ms
Collected results into ../../../results/depth_tmp/pc_Hybrid_Sched_mnist.7d_7_unsorted.stats

Loading data from ../../../results/depth_tmp/pc_Hybrid_Sched_mnist.7d_7_unsorted.stats...
{'avg_corr:': [1.0, 1.0, 1.0, 1.0, 1.0, 1.0, 1.0, 1.0, 1.0], 'init_kernel:': [2740.0, 2650.0, 2695.0, 2683.0, 2701.0, 2816.0, 2621.0, 2730.0, 2833.0], 'overall:': [6874.0, 6913.0, 6763.0, 6912.0, 6778.0, 7000.0, 6592.0, 6700.0, 6893.0], 'kernel:': [1768.0, 1791.0, 1564.0, 1758.0, 1588.0, 1776.0, 1588.0, 1588.0, 1583.0], 'find_correlation:': [1853.0, 1876.0, 1656.0, 1844.0, 1679.0, 1863.0, 1678.0, 1678.0, 1674.0], 'read_input:': [961.0, 1066.0, 1066.0, 1061.0, 1070.0, 996.0, 963.0, 957.0, 1056.0], 'tree_height:': [19.0, 19.0, 19.0, 19.0, 19.0, 19.0, 19.0, 19.0, 19.0], 'extra:': [139.0, 139.0, 155.0, 139.0, 149.0, 140.0, 149.0, 149.0, 149.0], 'build_tree:': [1188.0, 1189.0, 1202.0, 1192.0, 1191.0, 1193.0, 1192.0, 1197.0, 1192.0]}
@ tree_height: 19
The max number of the nodes is 524288.
ROWS = 200000, COLS = 128.
Time for asynchronous transfer and execute (ms): 57.383392
@ avg_corr: 1.000000
@ overall: 6604 ms
@ read_input: 975 ms
@ build_tree: 1200 ms
@ init_kernel: 2605 ms
@ find_correlation: 1685 ms
@ kernel: 1594 ms
@ extra: 149 ms
Collected results into ../../../results/depth_tmp/pc_Hybrid_Sched_mnist.7d_7_unsorted.stats

Loading data from ../../../results/depth_tmp/pc_Hybrid_Sched_mnist.7d_7_unsorted.stats...
{'find_correlation:': [1853.0, 1876.0, 1656.0, 1844.0, 1679.0, 1863.0, 1678.0, 1678.0, 1674.0, 1685.0], 'avg_corr:': [1.0, 1.0, 1.0, 1.0, 1.0, 1.0, 1.0, 1.0, 1.0, 1.0], 'init_kernel:': [2740.0, 2650.0, 2695.0, 2683.0, 2701.0, 2816.0, 2621.0, 2730.0, 2833.0, 2605.0], 'kernel:': [1768.0, 1791.0, 1564.0, 1758.0, 1588.0, 1776.0, 1588.0, 1588.0, 1583.0, 1594.0], 'overall:': [6874.0, 6913.0, 6763.0, 6912.0, 6778.0, 7000.0, 6592.0, 6700.0, 6893.0, 6604.0], 'read_input:': [961.0, 1066.0, 1066.0, 1061.0, 1070.0, 996.0, 963.0, 957.0, 1056.0, 975.0], 'tree_height:': [19.0, 19.0, 19.0, 19.0, 19.0, 19.0, 19.0, 19.0, 19.0, 19.0], 'extra:': [139.0, 139.0, 155.0, 139.0, 149.0, 140.0, 149.0, 149.0, 149.0, 149.0], 'build_tree:': [1188.0, 1189.0, 1202.0, 1192.0, 1191.0, 1193.0, 1192.0, 1197.0, 1192.0, 1200.0]}
@ tree_height: 19
The max number of the nodes is 524288.
ROWS = 200000, COLS = 128.
Time for asynchronous transfer and execute (ms): 57.840385
@ avg_corr: 1.000000
@ overall: 6659 ms
@ read_input: 961 ms
@ build_tree: 1193 ms
@ init_kernel: 2690 ms
@ find_correlation: 1677 ms
@ kernel: 1587 ms
@ extra: 150 ms
Collected results into ../../../results/depth_tmp/pc_Hybrid_Sched_mnist.7d_7_unsorted.stats

Loading data from ../../../results/depth_tmp/pc_Hybrid_Sched_mnist.7d_7_unsorted.stats...
{'avg_corr:': [1.0, 1.0, 1.0, 1.0, 1.0, 1.0, 1.0, 1.0, 1.0, 1.0, 1.0], 'init_kernel:': [2740.0, 2650.0, 2695.0, 2683.0, 2701.0, 2816.0, 2621.0, 2730.0, 2833.0, 2605.0, 2690.0], 'overall:': [6874.0, 6913.0, 6763.0, 6912.0, 6778.0, 7000.0, 6592.0, 6700.0, 6893.0, 6604.0, 6659.0], 'kernel:': [1768.0, 1791.0, 1564.0, 1758.0, 1588.0, 1776.0, 1588.0, 1588.0, 1583.0, 1594.0, 1587.0], 'find_correlation:': [1853.0, 1876.0, 1656.0, 1844.0, 1679.0, 1863.0, 1678.0, 1678.0, 1674.0, 1685.0, 1677.0], 'read_input:': [961.0, 1066.0, 1066.0, 1061.0, 1070.0, 996.0, 963.0, 957.0, 1056.0, 975.0, 961.0], 'tree_height:': [19.0, 19.0, 19.0, 19.0, 19.0, 19.0, 19.0, 19.0, 19.0, 19.0, 19.0], 'extra:': [139.0, 139.0, 155.0, 139.0, 149.0, 140.0, 149.0, 149.0, 149.0, 149.0, 150.0], 'build_tree:': [1188.0, 1189.0, 1202.0, 1192.0, 1191.0, 1193.0, 1192.0, 1197.0, 1192.0, 1200.0, 1193.0]}
@ tree_height: 19
The max number of the nodes is 524288.
ROWS = 200000, COLS = 128.
Time for asynchronous transfer and execute (ms): 61.220768
@ avg_corr: 1.000000
@ overall: 6738 ms
@ read_input: 969 ms
@ build_tree: 1206 ms
@ init_kernel: 2759 ms
@ find_correlation: 1659 ms
@ kernel: 1567 ms
@ extra: 154 ms
Collected results into ../../../results/depth_tmp/pc_Hybrid_Sched_mnist.7d_7_unsorted.stats

Loading data from ../../../results/depth_tmp/pc_Hybrid_Sched_mnist.7d_7_unsorted.stats...
{'find_correlation:': [1853.0, 1876.0, 1656.0, 1844.0, 1679.0, 1863.0, 1678.0, 1678.0, 1674.0, 1685.0, 1677.0, 1659.0], 'avg_corr:': [1.0, 1.0, 1.0, 1.0, 1.0, 1.0, 1.0, 1.0, 1.0, 1.0, 1.0, 1.0], 'init_kernel:': [2740.0, 2650.0, 2695.0, 2683.0, 2701.0, 2816.0, 2621.0, 2730.0, 2833.0, 2605.0, 2690.0, 2759.0], 'kernel:': [1768.0, 1791.0, 1564.0, 1758.0, 1588.0, 1776.0, 1588.0, 1588.0, 1583.0, 1594.0, 1587.0, 1567.0], 'overall:': [6874.0, 6913.0, 6763.0, 6912.0, 6778.0, 7000.0, 6592.0, 6700.0, 6893.0, 6604.0, 6659.0, 6738.0], 'read_input:': [961.0, 1066.0, 1066.0, 1061.0, 1070.0, 996.0, 963.0, 957.0, 1056.0, 975.0, 961.0, 969.0], 'tree_height:': [19.0, 19.0, 19.0, 19.0, 19.0, 19.0, 19.0, 19.0, 19.0, 19.0, 19.0, 19.0], 'extra:': [139.0, 139.0, 155.0, 139.0, 149.0, 140.0, 149.0, 149.0, 149.0, 149.0, 150.0, 154.0], 'build_tree:': [1188.0, 1189.0, 1202.0, 1192.0, 1191.0, 1193.0, 1192.0, 1197.0, 1192.0, 1200.0, 1193.0, 1206.0]}
@ tree_height: 19
The max number of the nodes is 524288.
ROWS = 200000, COLS = 128.
Time for asynchronous transfer and execute (ms): 61.070847
@ avg_corr: 1.000000
@ overall: 6710 ms
@ read_input: 958 ms
@ build_tree: 1205 ms
@ init_kernel: 2727 ms
@ find_correlation: 1676 ms
@ kernel: 1584 ms
@ extra: 154 ms
Collected results into ../../../results/depth_tmp/pc_Hybrid_Sched_mnist.7d_7_unsorted.stats

Loading data from ../../../results/depth_tmp/pc_Hybrid_Sched_mnist.7d_7_unsorted.stats...
{'avg_corr:': [1.0, 1.0, 1.0, 1.0, 1.0, 1.0, 1.0, 1.0, 1.0, 1.0, 1.0, 1.0, 1.0], 'init_kernel:': [2740.0, 2650.0, 2695.0, 2683.0, 2701.0, 2816.0, 2621.0, 2730.0, 2833.0, 2605.0, 2690.0, 2759.0, 2727.0], 'overall:': [6874.0, 6913.0, 6763.0, 6912.0, 6778.0, 7000.0, 6592.0, 6700.0, 6893.0, 6604.0, 6659.0, 6738.0, 6710.0], 'kernel:': [1768.0, 1791.0, 1564.0, 1758.0, 1588.0, 1776.0, 1588.0, 1588.0, 1583.0, 1594.0, 1587.0, 1567.0, 1584.0], 'find_correlation:': [1853.0, 1876.0, 1656.0, 1844.0, 1679.0, 1863.0, 1678.0, 1678.0, 1674.0, 1685.0, 1677.0, 1659.0, 1676.0], 'read_input:': [961.0, 1066.0, 1066.0, 1061.0, 1070.0, 996.0, 963.0, 957.0, 1056.0, 975.0, 961.0, 969.0, 958.0], 'tree_height:': [19.0, 19.0, 19.0, 19.0, 19.0, 19.0, 19.0, 19.0, 19.0, 19.0, 19.0, 19.0, 19.0], 'extra:': [139.0, 139.0, 155.0, 139.0, 149.0, 140.0, 149.0, 149.0, 149.0, 149.0, 150.0, 154.0, 154.0], 'build_tree:': [1188.0, 1189.0, 1202.0, 1192.0, 1191.0, 1193.0, 1192.0, 1197.0, 1192.0, 1200.0, 1193.0, 1206.0, 1205.0]}
@ tree_height: 19
The max number of the nodes is 524288.
ROWS = 200000, COLS = 128.
Time for asynchronous transfer and execute (ms): 61.540607
@ avg_corr: 1.000000
@ overall: 6685 ms
@ read_input: 960 ms
@ build_tree: 1209 ms
@ init_kernel: 2712 ms
@ find_correlation: 1659 ms
@ kernel: 1568 ms
@ extra: 154 ms
Collected results into ../../../results/depth_tmp/pc_Hybrid_Sched_mnist.7d_7_unsorted.stats

Loading data from ../../../results/depth_tmp/pc_Hybrid_Sched_mnist.7d_7_unsorted.stats...
{'find_correlation:': [1853.0, 1876.0, 1656.0, 1844.0, 1679.0, 1863.0, 1678.0, 1678.0, 1674.0, 1685.0, 1677.0, 1659.0, 1676.0, 1659.0], 'avg_corr:': [1.0, 1.0, 1.0, 1.0, 1.0, 1.0, 1.0, 1.0, 1.0, 1.0, 1.0, 1.0, 1.0, 1.0], 'init_kernel:': [2740.0, 2650.0, 2695.0, 2683.0, 2701.0, 2816.0, 2621.0, 2730.0, 2833.0, 2605.0, 2690.0, 2759.0, 2727.0, 2712.0], 'kernel:': [1768.0, 1791.0, 1564.0, 1758.0, 1588.0, 1776.0, 1588.0, 1588.0, 1583.0, 1594.0, 1587.0, 1567.0, 1584.0, 1568.0], 'overall:': [6874.0, 6913.0, 6763.0, 6912.0, 6778.0, 7000.0, 6592.0, 6700.0, 6893.0, 6604.0, 6659.0, 6738.0, 6710.0, 6685.0], 'read_input:': [961.0, 1066.0, 1066.0, 1061.0, 1070.0, 996.0, 963.0, 957.0, 1056.0, 975.0, 961.0, 969.0, 958.0, 960.0], 'tree_height:': [19.0, 19.0, 19.0, 19.0, 19.0, 19.0, 19.0, 19.0, 19.0, 19.0, 19.0, 19.0, 19.0, 19.0], 'extra:': [139.0, 139.0, 155.0, 139.0, 149.0, 140.0, 149.0, 149.0, 149.0, 149.0, 150.0, 154.0, 154.0, 154.0], 'build_tree:': [1188.0, 1189.0, 1202.0, 1192.0, 1191.0, 1193.0, 1192.0, 1197.0, 1192.0, 1200.0, 1193.0, 1206.0, 1205.0, 1209.0]}
@ tree_height: 19
The max number of the nodes is 524288.
ROWS = 200000, COLS = 128.
Time for asynchronous transfer and execute (ms): 57.315327
@ avg_corr: 1.000000
@ overall: 6649 ms
@ read_input: 1037 ms
@ build_tree: 1191 ms
@ init_kernel: 2596 ms
@ find_correlation: 1687 ms
@ kernel: 1596 ms
@ extra: 149 ms
Collected results into ../../../results/depth_tmp/pc_Hybrid_Sched_mnist.7d_7_unsorted.stats

