Results wll be collected to ../../../results/depth_tmp/pc_Hybrid_Sched_geocity.txt_5_unsorted.stats...
@ tree_height: 19
The max number of the nodes is 524288.
ROWS = 200000, COLS = 32.
Time for asynchronous transfer and execute (ms): 7.276832
@ avg_corr: 80.943092
@ overall: 5451 ms
@ read_input: 412 ms
@ build_tree: 1012 ms
@ init_kernel: 2748 ms
@ find_correlation: 1216 ms
@ kernel: 1193 ms
@ extra: 31 ms
Collected results into ../../../results/depth_tmp/pc_Hybrid_Sched_geocity.txt_5_unsorted.stats

Loading data from ../../../results/depth_tmp/pc_Hybrid_Sched_geocity.txt_5_unsorted.stats...
{'avg_corr:': [80.943092], 'init_kernel:': [2748.0], 'overall:': [5451.0], 'kernel:': [1193.0], 'find_correlation:': [1216.0], 'read_input:': [412.0], 'tree_height:': [19.0], 'extra:': [31.0], 'build_tree:': [1012.0]}
@ tree_height: 19
The max number of the nodes is 524288.
ROWS = 200000, COLS = 32.
Time for asynchronous transfer and execute (ms): 7.220480
@ avg_corr: 80.943092
@ overall: 5581 ms
@ read_input: 519 ms
@ build_tree: 990 ms
@ init_kernel: 2743 ms
@ find_correlation: 1265 ms
@ kernel: 1242 ms
@ extra: 31 ms
Collected results into ../../../results/depth_tmp/pc_Hybrid_Sched_geocity.txt_5_unsorted.stats

Loading data from ../../../results/depth_tmp/pc_Hybrid_Sched_geocity.txt_5_unsorted.stats...
{'find_correlation:': [1216.0, 1265.0], 'avg_corr:': [80.943092, 80.943092], 'init_kernel:': [2748.0, 2743.0], 'kernel:': [1193.0, 1242.0], 'overall:': [5451.0, 5581.0], 'read_input:': [412.0, 519.0], 'tree_height:': [19.0, 19.0], 'extra:': [31.0, 31.0], 'build_tree:': [1012.0, 990.0]}
@ tree_height: 19
The max number of the nodes is 524288.
ROWS = 200000, COLS = 32.
Time for asynchronous transfer and execute (ms): 7.274560
@ avg_corr: 80.943092
@ overall: 5302 ms
@ read_input: 492 ms
@ build_tree: 841 ms
@ init_kernel: 2643 ms
@ find_correlation: 1267 ms
@ kernel: 1244 ms
@ extra: 31 ms
Collected results into ../../../results/depth_tmp/pc_Hybrid_Sched_geocity.txt_5_unsorted.stats

Loading data from ../../../results/depth_tmp/pc_Hybrid_Sched_geocity.txt_5_unsorted.stats...
{'avg_corr:': [80.943092, 80.943092, 80.943092], 'init_kernel:': [2748.0, 2743.0, 2643.0], 'overall:': [5451.0, 5581.0, 5302.0], 'kernel:': [1193.0, 1242.0, 1244.0], 'find_correlation:': [1216.0, 1265.0, 1267.0], 'read_input:': [412.0, 519.0, 492.0], 'tree_height:': [19.0, 19.0, 19.0], 'extra:': [31.0, 31.0, 31.0], 'build_tree:': [1012.0, 990.0, 841.0]}
@ tree_height: 19
The max number of the nodes is 524288.
ROWS = 200000, COLS = 32.
Time for asynchronous transfer and execute (ms): 7.164032
@ avg_corr: 80.943092
@ overall: 5477 ms
@ read_input: 414 ms
@ build_tree: 997 ms
@ init_kernel: 2733 ms
@ find_correlation: 1268 ms
@ kernel: 1246 ms
@ extra: 30 ms
Collected results into ../../../results/depth_tmp/pc_Hybrid_Sched_geocity.txt_5_unsorted.stats

Loading data from ../../../results/depth_tmp/pc_Hybrid_Sched_geocity.txt_5_unsorted.stats...
{'find_correlation:': [1216.0, 1265.0, 1267.0, 1268.0], 'avg_corr:': [80.943092, 80.943092, 80.943092, 80.943092], 'init_kernel:': [2748.0, 2743.0, 2643.0, 2733.0], 'kernel:': [1193.0, 1242.0, 1244.0, 1246.0], 'overall:': [5451.0, 5581.0, 5302.0, 5477.0], 'read_input:': [412.0, 519.0, 492.0, 414.0], 'tree_height:': [19.0, 19.0, 19.0, 19.0], 'extra:': [31.0, 31.0, 31.0, 30.0], 'build_tree:': [1012.0, 990.0, 841.0, 997.0]}
@ tree_height: 19
The max number of the nodes is 524288.
ROWS = 200000, COLS = 32.
Time for asynchronous transfer and execute (ms): 7.301440
@ avg_corr: 80.943092
@ overall: 5445 ms
@ read_input: 473 ms
@ build_tree: 1010 ms
@ init_kernel: 2614 ms
@ find_correlation: 1284 ms
@ kernel: 1261 ms
@ extra: 31 ms
Collected results into ../../../results/depth_tmp/pc_Hybrid_Sched_geocity.txt_5_unsorted.stats

Loading data from ../../../results/depth_tmp/pc_Hybrid_Sched_geocity.txt_5_unsorted.stats...
{'avg_corr:': [80.943092, 80.943092, 80.943092, 80.943092, 80.943092], 'init_kernel:': [2748.0, 2743.0, 2643.0, 2733.0, 2614.0], 'overall:': [5451.0, 5581.0, 5302.0, 5477.0, 5445.0], 'kernel:': [1193.0, 1242.0, 1244.0, 1246.0, 1261.0], 'find_correlation:': [1216.0, 1265.0, 1267.0, 1268.0, 1284.0], 'read_input:': [412.0, 519.0, 492.0, 414.0, 473.0], 'tree_height:': [19.0, 19.0, 19.0, 19.0, 19.0], 'extra:': [31.0, 31.0, 31.0, 30.0, 31.0], 'build_tree:': [1012.0, 990.0, 841.0, 997.0, 1010.0]}
@ tree_height: 19
The max number of the nodes is 524288.
ROWS = 200000, COLS = 32.
Time for asynchronous transfer and execute (ms): 7.224224
@ avg_corr: 80.943092
@ overall: 5464 ms
@ read_input: 419 ms
@ build_tree: 1012 ms
@ init_kernel: 2708 ms
@ find_correlation: 1257 ms
@ kernel: 1235 ms
@ extra: 31 ms
Collected results into ../../../results/depth_tmp/pc_Hybrid_Sched_geocity.txt_5_unsorted.stats

Loading data from ../../../results/depth_tmp/pc_Hybrid_Sched_geocity.txt_5_unsorted.stats...
{'find_correlation:': [1216.0, 1265.0, 1267.0, 1268.0, 1284.0, 1257.0], 'avg_corr:': [80.943092, 80.943092, 80.943092, 80.943092, 80.943092, 80.943092], 'init_kernel:': [2748.0, 2743.0, 2643.0, 2733.0, 2614.0, 2708.0], 'kernel:': [1193.0, 1242.0, 1244.0, 1246.0, 1261.0, 1235.0], 'overall:': [5451.0, 5581.0, 5302.0, 5477.0, 5445.0, 5464.0], 'read_input:': [412.0, 519.0, 492.0, 414.0, 473.0, 419.0], 'tree_height:': [19.0, 19.0, 19.0, 19.0, 19.0, 19.0], 'extra:': [31.0, 31.0, 31.0, 30.0, 31.0, 31.0], 'build_tree:': [1012.0, 990.0, 841.0, 997.0, 1010.0, 1012.0]}
@ tree_height: 19
The max number of the nodes is 524288.
ROWS = 200000, COLS = 32.
Time for asynchronous transfer and execute (ms): 7.127008
@ avg_corr: 80.943092
@ overall: 5535 ms
@ read_input: 521 ms
@ build_tree: 993 ms
@ init_kernel: 2725 ms
@ find_correlation: 1232 ms
@ kernel: 1210 ms
@ extra: 30 ms
Collected results into ../../../results/depth_tmp/pc_Hybrid_Sched_geocity.txt_5_unsorted.stats

Loading data from ../../../results/depth_tmp/pc_Hybrid_Sched_geocity.txt_5_unsorted.stats...
{'avg_corr:': [80.943092, 80.943092, 80.943092, 80.943092, 80.943092, 80.943092, 80.943092], 'init_kernel:': [2748.0, 2743.0, 2643.0, 2733.0, 2614.0, 2708.0, 2725.0], 'overall:': [5451.0, 5581.0, 5302.0, 5477.0, 5445.0, 5464.0, 5535.0], 'kernel:': [1193.0, 1242.0, 1244.0, 1246.0, 1261.0, 1235.0, 1210.0], 'find_correlation:': [1216.0, 1265.0, 1267.0, 1268.0, 1284.0, 1257.0, 1232.0], 'read_input:': [412.0, 519.0, 492.0, 414.0, 473.0, 419.0, 521.0], 'tree_height:': [19.0, 19.0, 19.0, 19.0, 19.0, 19.0, 19.0], 'extra:': [31.0, 31.0, 31.0, 30.0, 31.0, 31.0, 30.0], 'build_tree:': [1012.0, 990.0, 841.0, 997.0, 1010.0, 1012.0, 993.0]}
@ tree_height: 19
The max number of the nodes is 524288.
ROWS = 200000, COLS = 32.
Time for asynchronous transfer and execute (ms): 7.356256
@ avg_corr: 80.943092
@ overall: 5440 ms
@ read_input: 512 ms
@ build_tree: 996 ms
@ init_kernel: 2624 ms
@ find_correlation: 1244 ms
@ kernel: 1220 ms
@ extra: 32 ms
Collected results into ../../../results/depth_tmp/pc_Hybrid_Sched_geocity.txt_5_unsorted.stats

Loading data from ../../../results/depth_tmp/pc_Hybrid_Sched_geocity.txt_5_unsorted.stats...
{'find_correlation:': [1216.0, 1265.0, 1267.0, 1268.0, 1284.0, 1257.0, 1232.0, 1244.0], 'avg_corr:': [80.943092, 80.943092, 80.943092, 80.943092, 80.943092, 80.943092, 80.943092, 80.943092], 'init_kernel:': [2748.0, 2743.0, 2643.0, 2733.0, 2614.0, 2708.0, 2725.0, 2624.0], 'kernel:': [1193.0, 1242.0, 1244.0, 1246.0, 1261.0, 1235.0, 1210.0, 1220.0], 'overall:': [5451.0, 5581.0, 5302.0, 5477.0, 5445.0, 5464.0, 5535.0, 5440.0], 'read_input:': [412.0, 519.0, 492.0, 414.0, 473.0, 419.0, 521.0, 512.0], 'tree_height:': [19.0, 19.0, 19.0, 19.0, 19.0, 19.0, 19.0, 19.0], 'extra:': [31.0, 31.0, 31.0, 30.0, 31.0, 31.0, 30.0, 32.0], 'build_tree:': [1012.0, 990.0, 841.0, 997.0, 1010.0, 1012.0, 993.0, 996.0]}
@ tree_height: 19
The max number of the nodes is 524288.
ROWS = 200000, COLS = 32.
Time for asynchronous transfer and execute (ms): 7.131808
@ avg_corr: 80.943092
@ overall: 5499 ms
@ read_input: 472 ms
@ build_tree: 995 ms
@ init_kernel: 2720 ms
@ find_correlation: 1248 ms
@ kernel: 1225 ms
@ extra: 31 ms
Collected results into ../../../results/depth_tmp/pc_Hybrid_Sched_geocity.txt_5_unsorted.stats

Loading data from ../../../results/depth_tmp/pc_Hybrid_Sched_geocity.txt_5_unsorted.stats...
{'avg_corr:': [80.943092, 80.943092, 80.943092, 80.943092, 80.943092, 80.943092, 80.943092, 80.943092, 80.943092], 'init_kernel:': [2748.0, 2743.0, 2643.0, 2733.0, 2614.0, 2708.0, 2725.0, 2624.0, 2720.0], 'overall:': [5451.0, 5581.0, 5302.0, 5477.0, 5445.0, 5464.0, 5535.0, 5440.0, 5499.0], 'kernel:': [1193.0, 1242.0, 1244.0, 1246.0, 1261.0, 1235.0, 1210.0, 1220.0, 1225.0], 'find_correlation:': [1216.0, 1265.0, 1267.0, 1268.0, 1284.0, 1257.0, 1232.0, 1244.0, 1248.0], 'read_input:': [412.0, 519.0, 492.0, 414.0, 473.0, 419.0, 521.0, 512.0, 472.0], 'tree_height:': [19.0, 19.0, 19.0, 19.0, 19.0, 19.0, 19.0, 19.0, 19.0], 'extra:': [31.0, 31.0, 31.0, 30.0, 31.0, 31.0, 30.0, 32.0, 31.0], 'build_tree:': [1012.0, 990.0, 841.0, 997.0, 1010.0, 1012.0, 993.0, 996.0, 995.0]}
@ tree_height: 19
The max number of the nodes is 524288.
ROWS = 200000, COLS = 32.
Time for asynchronous transfer and execute (ms): 7.113760
@ avg_corr: 80.943092
@ overall: 5499 ms
@ read_input: 473 ms
@ build_tree: 1010 ms
@ init_kernel: 2682 ms
@ find_correlation: 1269 ms
@ kernel: 1246 ms
@ extra: 31 ms
Collected results into ../../../results/depth_tmp/pc_Hybrid_Sched_geocity.txt_5_unsorted.stats

Loading data from ../../../results/depth_tmp/pc_Hybrid_Sched_geocity.txt_5_unsorted.stats...
{'find_correlation:': [1216.0, 1265.0, 1267.0, 1268.0, 1284.0, 1257.0, 1232.0, 1244.0, 1248.0, 1269.0], 'avg_corr:': [80.943092, 80.943092, 80.943092, 80.943092, 80.943092, 80.943092, 80.943092, 80.943092, 80.943092, 80.943092], 'init_kernel:': [2748.0, 2743.0, 2643.0, 2733.0, 2614.0, 2708.0, 2725.0, 2624.0, 2720.0, 2682.0], 'kernel:': [1193.0, 1242.0, 1244.0, 1246.0, 1261.0, 1235.0, 1210.0, 1220.0, 1225.0, 1246.0], 'overall:': [5451.0, 5581.0, 5302.0, 5477.0, 5445.0, 5464.0, 5535.0, 5440.0, 5499.0, 5499.0], 'read_input:': [412.0, 519.0, 492.0, 414.0, 473.0, 419.0, 521.0, 512.0, 472.0, 473.0], 'tree_height:': [19.0, 19.0, 19.0, 19.0, 19.0, 19.0, 19.0, 19.0, 19.0, 19.0], 'extra:': [31.0, 31.0, 31.0, 30.0, 31.0, 31.0, 30.0, 32.0, 31.0, 31.0], 'build_tree:': [1012.0, 990.0, 841.0, 997.0, 1010.0, 1012.0, 993.0, 996.0, 995.0, 1010.0]}
@ tree_height: 19
The max number of the nodes is 524288.
ROWS = 200000, COLS = 32.
Time for asynchronous transfer and execute (ms): 7.107712
@ avg_corr: 80.943092
@ overall: 5461 ms
@ read_input: 499 ms
@ build_tree: 993 ms
@ init_kernel: 2631 ms
@ find_correlation: 1274 ms
@ kernel: 1251 ms
@ extra: 31 ms
Collected results into ../../../results/depth_tmp/pc_Hybrid_Sched_geocity.txt_5_unsorted.stats

Loading data from ../../../results/depth_tmp/pc_Hybrid_Sched_geocity.txt_5_unsorted.stats...
{'avg_corr:': [80.943092, 80.943092, 80.943092, 80.943092, 80.943092, 80.943092, 80.943092, 80.943092, 80.943092, 80.943092, 80.943092], 'init_kernel:': [2748.0, 2743.0, 2643.0, 2733.0, 2614.0, 2708.0, 2725.0, 2624.0, 2720.0, 2682.0, 2631.0], 'overall:': [5451.0, 5581.0, 5302.0, 5477.0, 5445.0, 5464.0, 5535.0, 5440.0, 5499.0, 5499.0, 5461.0], 'kernel:': [1193.0, 1242.0, 1244.0, 1246.0, 1261.0, 1235.0, 1210.0, 1220.0, 1225.0, 1246.0, 1251.0], 'find_correlation:': [1216.0, 1265.0, 1267.0, 1268.0, 1284.0, 1257.0, 1232.0, 1244.0, 1248.0, 1269.0, 1274.0], 'read_input:': [412.0, 519.0, 492.0, 414.0, 473.0, 419.0, 521.0, 512.0, 472.0, 473.0, 499.0], 'tree_height:': [19.0, 19.0, 19.0, 19.0, 19.0, 19.0, 19.0, 19.0, 19.0, 19.0, 19.0], 'extra:': [31.0, 31.0, 31.0, 30.0, 31.0, 31.0, 30.0, 32.0, 31.0, 31.0, 31.0], 'build_tree:': [1012.0, 990.0, 841.0, 997.0, 1010.0, 1012.0, 993.0, 996.0, 995.0, 1010.0, 993.0]}
@ tree_height: 19
The max number of the nodes is 524288.
ROWS = 200000, COLS = 32.
Time for asynchronous transfer and execute (ms): 7.223840
@ avg_corr: 80.943092
@ overall: 5446 ms
@ read_input: 513 ms
@ build_tree: 985 ms
@ init_kernel: 2629 ms
@ find_correlation: 1257 ms
@ kernel: 1234 ms
@ extra: 31 ms
Collected results into ../../../results/depth_tmp/pc_Hybrid_Sched_geocity.txt_5_unsorted.stats

Loading data from ../../../results/depth_tmp/pc_Hybrid_Sched_geocity.txt_5_unsorted.stats...
{'find_correlation:': [1216.0, 1265.0, 1267.0, 1268.0, 1284.0, 1257.0, 1232.0, 1244.0, 1248.0, 1269.0, 1274.0, 1257.0], 'avg_corr:': [80.943092, 80.943092, 80.943092, 80.943092, 80.943092, 80.943092, 80.943092, 80.943092, 80.943092, 80.943092, 80.943092, 80.943092], 'init_kernel:': [2748.0, 2743.0, 2643.0, 2733.0, 2614.0, 2708.0, 2725.0, 2624.0, 2720.0, 2682.0, 2631.0, 2629.0], 'kernel:': [1193.0, 1242.0, 1244.0, 1246.0, 1261.0, 1235.0, 1210.0, 1220.0, 1225.0, 1246.0, 1251.0, 1234.0], 'overall:': [5451.0, 5581.0, 5302.0, 5477.0, 5445.0, 5464.0, 5535.0, 5440.0, 5499.0, 5499.0, 5461.0, 5446.0], 'read_input:': [412.0, 519.0, 492.0, 414.0, 473.0, 419.0, 521.0, 512.0, 472.0, 473.0, 499.0, 513.0], 'tree_height:': [19.0, 19.0, 19.0, 19.0, 19.0, 19.0, 19.0, 19.0, 19.0, 19.0, 19.0, 19.0], 'extra:': [31.0, 31.0, 31.0, 30.0, 31.0, 31.0, 30.0, 32.0, 31.0, 31.0, 31.0, 31.0], 'build_tree:': [1012.0, 990.0, 841.0, 997.0, 1010.0, 1012.0, 993.0, 996.0, 995.0, 1010.0, 993.0, 985.0]}
@ tree_height: 19
The max number of the nodes is 524288.
ROWS = 200000, COLS = 32.
Time for asynchronous transfer and execute (ms): 7.203232
@ avg_corr: 80.943092
@ overall: 5534 ms
@ read_input: 476 ms
@ build_tree: 1009 ms
@ init_kernel: 2738 ms
@ find_correlation: 1245 ms
@ kernel: 1222 ms
@ extra: 31 ms
Collected results into ../../../results/depth_tmp/pc_Hybrid_Sched_geocity.txt_5_unsorted.stats

Loading data from ../../../results/depth_tmp/pc_Hybrid_Sched_geocity.txt_5_unsorted.stats...
{'avg_corr:': [80.943092, 80.943092, 80.943092, 80.943092, 80.943092, 80.943092, 80.943092, 80.943092, 80.943092, 80.943092, 80.943092, 80.943092, 80.943092], 'init_kernel:': [2748.0, 2743.0, 2643.0, 2733.0, 2614.0, 2708.0, 2725.0, 2624.0, 2720.0, 2682.0, 2631.0, 2629.0, 2738.0], 'overall:': [5451.0, 5581.0, 5302.0, 5477.0, 5445.0, 5464.0, 5535.0, 5440.0, 5499.0, 5499.0, 5461.0, 5446.0, 5534.0], 'kernel:': [1193.0, 1242.0, 1244.0, 1246.0, 1261.0, 1235.0, 1210.0, 1220.0, 1225.0, 1246.0, 1251.0, 1234.0, 1222.0], 'find_correlation:': [1216.0, 1265.0, 1267.0, 1268.0, 1284.0, 1257.0, 1232.0, 1244.0, 1248.0, 1269.0, 1274.0, 1257.0, 1245.0], 'read_input:': [412.0, 519.0, 492.0, 414.0, 473.0, 419.0, 521.0, 512.0, 472.0, 473.0, 499.0, 513.0, 476.0], 'tree_height:': [19.0, 19.0, 19.0, 19.0, 19.0, 19.0, 19.0, 19.0, 19.0, 19.0, 19.0, 19.0, 19.0], 'extra:': [31.0, 31.0, 31.0, 30.0, 31.0, 31.0, 30.0, 32.0, 31.0, 31.0, 31.0, 31.0, 31.0], 'build_tree:': [1012.0, 990.0, 841.0, 997.0, 1010.0, 1012.0, 993.0, 996.0, 995.0, 1010.0, 993.0, 985.0, 1009.0]}
@ tree_height: 19
The max number of the nodes is 524288.
ROWS = 200000, COLS = 32.
Time for asynchronous transfer and execute (ms): 7.100928
@ avg_corr: 80.943092
@ overall: 5477 ms
@ read_input: 448 ms
@ build_tree: 994 ms
@ init_kernel: 2712 ms
@ find_correlation: 1259 ms
@ kernel: 1236 ms
@ extra: 31 ms
Collected results into ../../../results/depth_tmp/pc_Hybrid_Sched_geocity.txt_5_unsorted.stats

Loading data from ../../../results/depth_tmp/pc_Hybrid_Sched_geocity.txt_5_unsorted.stats...
{'find_correlation:': [1216.0, 1265.0, 1267.0, 1268.0, 1284.0, 1257.0, 1232.0, 1244.0, 1248.0, 1269.0, 1274.0, 1257.0, 1245.0, 1259.0], 'avg_corr:': [80.943092, 80.943092, 80.943092, 80.943092, 80.943092, 80.943092, 80.943092, 80.943092, 80.943092, 80.943092, 80.943092, 80.943092, 80.943092, 80.943092], 'init_kernel:': [2748.0, 2743.0, 2643.0, 2733.0, 2614.0, 2708.0, 2725.0, 2624.0, 2720.0, 2682.0, 2631.0, 2629.0, 2738.0, 2712.0], 'kernel:': [1193.0, 1242.0, 1244.0, 1246.0, 1261.0, 1235.0, 1210.0, 1220.0, 1225.0, 1246.0, 1251.0, 1234.0, 1222.0, 1236.0], 'overall:': [5451.0, 5581.0, 5302.0, 5477.0, 5445.0, 5464.0, 5535.0, 5440.0, 5499.0, 5499.0, 5461.0, 5446.0, 5534.0, 5477.0], 'read_input:': [412.0, 519.0, 492.0, 414.0, 473.0, 419.0, 521.0, 512.0, 472.0, 473.0, 499.0, 513.0, 476.0, 448.0], 'tree_height:': [19.0, 19.0, 19.0, 19.0, 19.0, 19.0, 19.0, 19.0, 19.0, 19.0, 19.0, 19.0, 19.0, 19.0], 'extra:': [31.0, 31.0, 31.0, 30.0, 31.0, 31.0, 30.0, 32.0, 31.0, 31.0, 31.0, 31.0, 31.0, 31.0], 'build_tree:': [1012.0, 990.0, 841.0, 997.0, 1010.0, 1012.0, 993.0, 996.0, 995.0, 1010.0, 993.0, 985.0, 1009.0, 994.0]}
@ tree_height: 19
The max number of the nodes is 524288.
ROWS = 200000, COLS = 32.
Time for asynchronous transfer and execute (ms): 7.093024
@ avg_corr: 80.943092
@ overall: 5426 ms
@ read_input: 461 ms
@ build_tree: 992 ms
@ init_kernel: 2649 ms
@ find_correlation: 1261 ms
@ kernel: 1238 ms
@ extra: 31 ms
Collected results into ../../../results/depth_tmp/pc_Hybrid_Sched_geocity.txt_5_unsorted.stats

