Results wll be collected to ../../../results/depth_tmp/pc_Hybrid_Sched_covtype.7d_2_unsorted.stats...
@ tree_height: 19
The max number of the nodes is 524288.
ROWS = 200000, COLS = 4.
Time for asynchronous transfer and execute (ms): 1.583104
@ avg_corr: 19.318600
@ overall: 16689 ms
@ read_input: 965 ms
@ build_tree: 1192 ms
@ init_kernel: 2731 ms
@ find_correlation: 11720 ms
@ kernel: 11716 ms
@ extra:  7 ms
Collected results into ../../../results/depth_tmp/pc_Hybrid_Sched_covtype.7d_2_unsorted.stats

Loading data from ../../../results/depth_tmp/pc_Hybrid_Sched_covtype.7d_2_unsorted.stats...
{'avg_corr:': [19.3186], 'init_kernel:': [2731.0], 'overall:': [16689.0], 'kernel:': [11716.0], 'find_correlation:': [11720.0], 'read_input:': [965.0], 'tree_height:': [19.0], 'extra:': [7.0], 'build_tree:': [1192.0]}
@ tree_height: 19
The max number of the nodes is 524288.
ROWS = 200000, COLS = 4.
Time for asynchronous transfer and execute (ms): 1.948512
@ avg_corr: 19.318600
@ overall: 16691 ms
@ read_input: 953 ms
@ build_tree: 1192 ms
@ init_kernel: 2734 ms
@ find_correlation: 11732 ms
@ kernel: 11728 ms
@ extra:  7 ms
Collected results into ../../../results/depth_tmp/pc_Hybrid_Sched_covtype.7d_2_unsorted.stats

Loading data from ../../../results/depth_tmp/pc_Hybrid_Sched_covtype.7d_2_unsorted.stats...
{'find_correlation:': [11720.0, 11732.0], 'avg_corr:': [19.3186, 19.3186], 'init_kernel:': [2731.0, 2734.0], 'kernel:': [11716.0, 11728.0], 'overall:': [16689.0, 16691.0], 'read_input:': [965.0, 953.0], 'tree_height:': [19.0, 19.0], 'extra:': [7.0, 7.0], 'build_tree:': [1192.0, 1192.0]}
@ tree_height: 19
The max number of the nodes is 524288.
ROWS = 200000, COLS = 4.
Time for asynchronous transfer and execute (ms): 1.564096
@ avg_corr: 19.318600
@ overall: 16750 ms
@ read_input: 1064 ms
@ build_tree: 1190 ms
@ init_kernel: 2572 ms
@ find_correlation: 11844 ms
@ kernel: 11840 ms
@ extra:  7 ms
Collected results into ../../../results/depth_tmp/pc_Hybrid_Sched_covtype.7d_2_unsorted.stats

Loading data from ../../../results/depth_tmp/pc_Hybrid_Sched_covtype.7d_2_unsorted.stats...
{'avg_corr:': [19.3186, 19.3186, 19.3186], 'init_kernel:': [2731.0, 2734.0, 2572.0], 'overall:': [16689.0, 16691.0, 16750.0], 'kernel:': [11716.0, 11728.0, 11840.0], 'find_correlation:': [11720.0, 11732.0, 11844.0], 'read_input:': [965.0, 953.0, 1064.0], 'tree_height:': [19.0, 19.0, 19.0], 'extra:': [7.0, 7.0, 7.0], 'build_tree:': [1192.0, 1192.0, 1190.0]}
@ tree_height: 19
The max number of the nodes is 524288.
ROWS = 200000, COLS = 4.
Time for asynchronous transfer and execute (ms): 1.571072
@ avg_corr: 19.318600
@ overall: 16755 ms
@ read_input: 1037 ms
@ build_tree: 1187 ms
@ init_kernel: 2612 ms
@ find_correlation: 11839 ms
@ kernel: 11835 ms
@ extra:  7 ms
Collected results into ../../../results/depth_tmp/pc_Hybrid_Sched_covtype.7d_2_unsorted.stats

Loading data from ../../../results/depth_tmp/pc_Hybrid_Sched_covtype.7d_2_unsorted.stats...
{'find_correlation:': [11720.0, 11732.0, 11844.0, 11839.0], 'avg_corr:': [19.3186, 19.3186, 19.3186, 19.3186], 'init_kernel:': [2731.0, 2734.0, 2572.0, 2612.0], 'kernel:': [11716.0, 11728.0, 11840.0, 11835.0], 'overall:': [16689.0, 16691.0, 16750.0, 16755.0], 'read_input:': [965.0, 953.0, 1064.0, 1037.0], 'tree_height:': [19.0, 19.0, 19.0, 19.0], 'extra:': [7.0, 7.0, 7.0, 7.0], 'build_tree:': [1192.0, 1192.0, 1190.0, 1187.0]}
@ tree_height: 19
The max number of the nodes is 524288.
ROWS = 200000, COLS = 4.
Time for asynchronous transfer and execute (ms): 1.672576
@ avg_corr: 19.318600
@ overall: 16758 ms
@ read_input: 1051 ms
@ build_tree: 1179 ms
@ init_kernel: 2605 ms
@ find_correlation: 11843 ms
@ kernel: 11839 ms
@ extra:  7 ms
Collected results into ../../../results/depth_tmp/pc_Hybrid_Sched_covtype.7d_2_unsorted.stats

Loading data from ../../../results/depth_tmp/pc_Hybrid_Sched_covtype.7d_2_unsorted.stats...
{'avg_corr:': [19.3186, 19.3186, 19.3186, 19.3186, 19.3186], 'init_kernel:': [2731.0, 2734.0, 2572.0, 2612.0, 2605.0], 'overall:': [16689.0, 16691.0, 16750.0, 16755.0, 16758.0], 'kernel:': [11716.0, 11728.0, 11840.0, 11835.0, 11839.0], 'find_correlation:': [11720.0, 11732.0, 11844.0, 11839.0, 11843.0], 'read_input:': [965.0, 953.0, 1064.0, 1037.0, 1051.0], 'tree_height:': [19.0, 19.0, 19.0, 19.0, 19.0], 'extra:': [7.0, 7.0, 7.0, 7.0, 7.0], 'build_tree:': [1192.0, 1192.0, 1190.0, 1187.0, 1179.0]}
@ tree_height: 19
The max number of the nodes is 524288.
ROWS = 200000, COLS = 4.
Time for asynchronous transfer and execute (ms): 1.577440
@ avg_corr: 19.318600
@ overall: 16713 ms
@ read_input: 1027 ms
@ build_tree: 1178 ms
@ init_kernel: 2627 ms
@ find_correlation: 11801 ms
@ kernel: 11797 ms
@ extra:  7 ms
Collected results into ../../../results/depth_tmp/pc_Hybrid_Sched_covtype.7d_2_unsorted.stats

Loading data from ../../../results/depth_tmp/pc_Hybrid_Sched_covtype.7d_2_unsorted.stats...
{'find_correlation:': [11720.0, 11732.0, 11844.0, 11839.0, 11843.0, 11801.0], 'avg_corr:': [19.3186, 19.3186, 19.3186, 19.3186, 19.3186, 19.3186], 'init_kernel:': [2731.0, 2734.0, 2572.0, 2612.0, 2605.0, 2627.0], 'kernel:': [11716.0, 11728.0, 11840.0, 11835.0, 11839.0, 11797.0], 'overall:': [16689.0, 16691.0, 16750.0, 16755.0, 16758.0, 16713.0], 'read_input:': [965.0, 953.0, 1064.0, 1037.0, 1051.0, 1027.0], 'tree_height:': [19.0, 19.0, 19.0, 19.0, 19.0, 19.0], 'extra:': [7.0, 7.0, 7.0, 7.0, 7.0, 7.0], 'build_tree:': [1192.0, 1192.0, 1190.0, 1187.0, 1179.0, 1178.0]}
@ tree_height: 19
The max number of the nodes is 524288.
ROWS = 200000, COLS = 4.
Time for asynchronous transfer and execute (ms): 1.591008
@ avg_corr: 19.318600
@ overall: 16606 ms
@ read_input: 1069 ms
@ build_tree: 1187 ms
@ init_kernel: 2571 ms
@ find_correlation: 11703 ms
@ kernel: 11700 ms
@ extra:  6 ms
Collected results into ../../../results/depth_tmp/pc_Hybrid_Sched_covtype.7d_2_unsorted.stats

Loading data from ../../../results/depth_tmp/pc_Hybrid_Sched_covtype.7d_2_unsorted.stats...
{'avg_corr:': [19.3186, 19.3186, 19.3186, 19.3186, 19.3186, 19.3186, 19.3186], 'init_kernel:': [2731.0, 2734.0, 2572.0, 2612.0, 2605.0, 2627.0, 2571.0], 'overall:': [16689.0, 16691.0, 16750.0, 16755.0, 16758.0, 16713.0, 16606.0], 'kernel:': [11716.0, 11728.0, 11840.0, 11835.0, 11839.0, 11797.0, 11700.0], 'find_correlation:': [11720.0, 11732.0, 11844.0, 11839.0, 11843.0, 11801.0, 11703.0], 'read_input:': [965.0, 953.0, 1064.0, 1037.0, 1051.0, 1027.0, 1069.0], 'tree_height:': [19.0, 19.0, 19.0, 19.0, 19.0, 19.0, 19.0], 'extra:': [7.0, 7.0, 7.0, 7.0, 7.0, 7.0, 6.0], 'build_tree:': [1192.0, 1192.0, 1190.0, 1187.0, 1179.0, 1178.0, 1187.0]}
@ tree_height: 19
The max number of the nodes is 524288.
ROWS = 200000, COLS = 4.
Time for asynchronous transfer and execute (ms): 1.762144
@ avg_corr: 19.318600
@ overall: 16462 ms
@ read_input: 960 ms
@ build_tree: 1190 ms
@ init_kernel: 2679 ms
@ find_correlation: 11556 ms
@ kernel: 11553 ms
@ extra:  7 ms
Collected results into ../../../results/depth_tmp/pc_Hybrid_Sched_covtype.7d_2_unsorted.stats

Loading data from ../../../results/depth_tmp/pc_Hybrid_Sched_covtype.7d_2_unsorted.stats...
{'find_correlation:': [11720.0, 11732.0, 11844.0, 11839.0, 11843.0, 11801.0, 11703.0, 11556.0], 'avg_corr:': [19.3186, 19.3186, 19.3186, 19.3186, 19.3186, 19.3186, 19.3186, 19.3186], 'init_kernel:': [2731.0, 2734.0, 2572.0, 2612.0, 2605.0, 2627.0, 2571.0, 2679.0], 'kernel:': [11716.0, 11728.0, 11840.0, 11835.0, 11839.0, 11797.0, 11700.0, 11553.0], 'overall:': [16689.0, 16691.0, 16750.0, 16755.0, 16758.0, 16713.0, 16606.0, 16462.0], 'read_input:': [965.0, 953.0, 1064.0, 1037.0, 1051.0, 1027.0, 1069.0, 960.0], 'tree_height:': [19.0, 19.0, 19.0, 19.0, 19.0, 19.0, 19.0, 19.0], 'extra:': [7.0, 7.0, 7.0, 7.0, 7.0, 7.0, 6.0, 7.0], 'build_tree:': [1192.0, 1192.0, 1190.0, 1187.0, 1179.0, 1178.0, 1187.0, 1190.0]}
@ tree_height: 19
The max number of the nodes is 524288.
ROWS = 200000, COLS = 4.
Time for asynchronous transfer and execute (ms): 2.050240
@ avg_corr: 19.318600
@ overall: 16399 ms
@ read_input: 984 ms
@ build_tree: 1052 ms
@ init_kernel: 2655 ms
@ find_correlation: 11630 ms
@ kernel: 11626 ms
@ extra:  7 ms
Collected results into ../../../results/depth_tmp/pc_Hybrid_Sched_covtype.7d_2_unsorted.stats

Loading data from ../../../results/depth_tmp/pc_Hybrid_Sched_covtype.7d_2_unsorted.stats...
{'avg_corr:': [19.3186, 19.3186, 19.3186, 19.3186, 19.3186, 19.3186, 19.3186, 19.3186, 19.3186], 'init_kernel:': [2731.0, 2734.0, 2572.0, 2612.0, 2605.0, 2627.0, 2571.0, 2679.0, 2655.0], 'overall:': [16689.0, 16691.0, 16750.0, 16755.0, 16758.0, 16713.0, 16606.0, 16462.0, 16399.0], 'kernel:': [11716.0, 11728.0, 11840.0, 11835.0, 11839.0, 11797.0, 11700.0, 11553.0, 11626.0], 'find_correlation:': [11720.0, 11732.0, 11844.0, 11839.0, 11843.0, 11801.0, 11703.0, 11556.0, 11630.0], 'read_input:': [965.0, 953.0, 1064.0, 1037.0, 1051.0, 1027.0, 1069.0, 960.0, 984.0], 'tree_height:': [19.0, 19.0, 19.0, 19.0, 19.0, 19.0, 19.0, 19.0, 19.0], 'extra:': [7.0, 7.0, 7.0, 7.0, 7.0, 7.0, 6.0, 7.0, 7.0], 'build_tree:': [1192.0, 1192.0, 1190.0, 1187.0, 1179.0, 1178.0, 1187.0, 1190.0, 1052.0]}
@ tree_height: 19
The max number of the nodes is 524288.
ROWS = 200000, COLS = 4.
Time for asynchronous transfer and execute (ms): 1.743168
@ avg_corr: 19.318600
@ overall: 16577 ms
@ read_input: 1056 ms
@ build_tree: 1188 ms
@ init_kernel: 2610 ms
@ find_correlation: 11647 ms
@ kernel: 11643 ms
@ extra:  6 ms
Collected results into ../../../results/depth_tmp/pc_Hybrid_Sched_covtype.7d_2_unsorted.stats

Loading data from ../../../results/depth_tmp/pc_Hybrid_Sched_covtype.7d_2_unsorted.stats...
{'find_correlation:': [11720.0, 11732.0, 11844.0, 11839.0, 11843.0, 11801.0, 11703.0, 11556.0, 11630.0, 11647.0], 'avg_corr:': [19.3186, 19.3186, 19.3186, 19.3186, 19.3186, 19.3186, 19.3186, 19.3186, 19.3186, 19.3186], 'init_kernel:': [2731.0, 2734.0, 2572.0, 2612.0, 2605.0, 2627.0, 2571.0, 2679.0, 2655.0, 2610.0], 'kernel:': [11716.0, 11728.0, 11840.0, 11835.0, 11839.0, 11797.0, 11700.0, 11553.0, 11626.0, 11643.0], 'overall:': [16689.0, 16691.0, 16750.0, 16755.0, 16758.0, 16713.0, 16606.0, 16462.0, 16399.0, 16577.0], 'read_input:': [965.0, 953.0, 1064.0, 1037.0, 1051.0, 1027.0, 1069.0, 960.0, 984.0, 1056.0], 'tree_height:': [19.0, 19.0, 19.0, 19.0, 19.0, 19.0, 19.0, 19.0, 19.0, 19.0], 'extra:': [7.0, 7.0, 7.0, 7.0, 7.0, 7.0, 6.0, 7.0, 7.0, 6.0], 'build_tree:': [1192.0, 1192.0, 1190.0, 1187.0, 1179.0, 1178.0, 1187.0, 1190.0, 1052.0, 1188.0]}
@ tree_height: 19
The max number of the nodes is 524288.
ROWS = 200000, COLS = 4.
Time for asynchronous transfer and execute (ms): 1.587648
@ avg_corr: 19.318600
@ overall: 16654 ms
@ read_input: 1042 ms
@ build_tree: 1198 ms
@ init_kernel: 2564 ms
@ find_correlation: 11774 ms
@ kernel: 11770 ms
@ extra:  6 ms
Collected results into ../../../results/depth_tmp/pc_Hybrid_Sched_covtype.7d_2_unsorted.stats

Loading data from ../../../results/depth_tmp/pc_Hybrid_Sched_covtype.7d_2_unsorted.stats...
{'avg_corr:': [19.3186, 19.3186, 19.3186, 19.3186, 19.3186, 19.3186, 19.3186, 19.3186, 19.3186, 19.3186, 19.3186], 'init_kernel:': [2731.0, 2734.0, 2572.0, 2612.0, 2605.0, 2627.0, 2571.0, 2679.0, 2655.0, 2610.0, 2564.0], 'overall:': [16689.0, 16691.0, 16750.0, 16755.0, 16758.0, 16713.0, 16606.0, 16462.0, 16399.0, 16577.0, 16654.0], 'kernel:': [11716.0, 11728.0, 11840.0, 11835.0, 11839.0, 11797.0, 11700.0, 11553.0, 11626.0, 11643.0, 11770.0], 'find_correlation:': [11720.0, 11732.0, 11844.0, 11839.0, 11843.0, 11801.0, 11703.0, 11556.0, 11630.0, 11647.0, 11774.0], 'read_input:': [965.0, 953.0, 1064.0, 1037.0, 1051.0, 1027.0, 1069.0, 960.0, 984.0, 1056.0, 1042.0], 'tree_height:': [19.0, 19.0, 19.0, 19.0, 19.0, 19.0, 19.0, 19.0, 19.0, 19.0, 19.0], 'extra:': [7.0, 7.0, 7.0, 7.0, 7.0, 7.0, 6.0, 7.0, 7.0, 6.0, 6.0], 'build_tree:': [1192.0, 1192.0, 1190.0, 1187.0, 1179.0, 1178.0, 1187.0, 1190.0, 1052.0, 1188.0, 1198.0]}
@ tree_height: 19
The max number of the nodes is 524288.
ROWS = 200000, COLS = 4.
Time for asynchronous transfer and execute (ms): 1.597216
@ avg_corr: 19.318600
@ overall: 16750 ms
@ read_input: 965 ms
@ build_tree: 1190 ms
@ init_kernel: 2730 ms
@ find_correlation: 11785 ms
@ kernel: 11781 ms
@ extra:  7 ms
Collected results into ../../../results/depth_tmp/pc_Hybrid_Sched_covtype.7d_2_unsorted.stats

Loading data from ../../../results/depth_tmp/pc_Hybrid_Sched_covtype.7d_2_unsorted.stats...
{'find_correlation:': [11720.0, 11732.0, 11844.0, 11839.0, 11843.0, 11801.0, 11703.0, 11556.0, 11630.0, 11647.0, 11774.0, 11785.0], 'avg_corr:': [19.3186, 19.3186, 19.3186, 19.3186, 19.3186, 19.3186, 19.3186, 19.3186, 19.3186, 19.3186, 19.3186, 19.3186], 'init_kernel:': [2731.0, 2734.0, 2572.0, 2612.0, 2605.0, 2627.0, 2571.0, 2679.0, 2655.0, 2610.0, 2564.0, 2730.0], 'kernel:': [11716.0, 11728.0, 11840.0, 11835.0, 11839.0, 11797.0, 11700.0, 11553.0, 11626.0, 11643.0, 11770.0, 11781.0], 'overall:': [16689.0, 16691.0, 16750.0, 16755.0, 16758.0, 16713.0, 16606.0, 16462.0, 16399.0, 16577.0, 16654.0, 16750.0], 'read_input:': [965.0, 953.0, 1064.0, 1037.0, 1051.0, 1027.0, 1069.0, 960.0, 984.0, 1056.0, 1042.0, 965.0], 'tree_height:': [19.0, 19.0, 19.0, 19.0, 19.0, 19.0, 19.0, 19.0, 19.0, 19.0, 19.0, 19.0], 'extra:': [7.0, 7.0, 7.0, 7.0, 7.0, 7.0, 6.0, 7.0, 7.0, 6.0, 6.0, 7.0], 'build_tree:': [1192.0, 1192.0, 1190.0, 1187.0, 1179.0, 1178.0, 1187.0, 1190.0, 1052.0, 1188.0, 1198.0, 1190.0]}
@ tree_height: 19
The max number of the nodes is 524288.
ROWS = 200000, COLS = 4.
Time for asynchronous transfer and execute (ms): 1.745344
@ avg_corr: 19.318600
@ overall: 16472 ms
@ read_input: 977 ms
@ build_tree: 1190 ms
@ init_kernel: 2671 ms
@ find_correlation: 11554 ms
@ kernel: 11551 ms
@ extra:  6 ms
Collected results into ../../../results/depth_tmp/pc_Hybrid_Sched_covtype.7d_2_unsorted.stats

Loading data from ../../../results/depth_tmp/pc_Hybrid_Sched_covtype.7d_2_unsorted.stats...
{'avg_corr:': [19.3186, 19.3186, 19.3186, 19.3186, 19.3186, 19.3186, 19.3186, 19.3186, 19.3186, 19.3186, 19.3186, 19.3186, 19.3186], 'init_kernel:': [2731.0, 2734.0, 2572.0, 2612.0, 2605.0, 2627.0, 2571.0, 2679.0, 2655.0, 2610.0, 2564.0, 2730.0, 2671.0], 'overall:': [16689.0, 16691.0, 16750.0, 16755.0, 16758.0, 16713.0, 16606.0, 16462.0, 16399.0, 16577.0, 16654.0, 16750.0, 16472.0], 'kernel:': [11716.0, 11728.0, 11840.0, 11835.0, 11839.0, 11797.0, 11700.0, 11553.0, 11626.0, 11643.0, 11770.0, 11781.0, 11551.0], 'find_correlation:': [11720.0, 11732.0, 11844.0, 11839.0, 11843.0, 11801.0, 11703.0, 11556.0, 11630.0, 11647.0, 11774.0, 11785.0, 11554.0], 'read_input:': [965.0, 953.0, 1064.0, 1037.0, 1051.0, 1027.0, 1069.0, 960.0, 984.0, 1056.0, 1042.0, 965.0, 977.0], 'tree_height:': [19.0, 19.0, 19.0, 19.0, 19.0, 19.0, 19.0, 19.0, 19.0, 19.0, 19.0, 19.0, 19.0], 'extra:': [7.0, 7.0, 7.0, 7.0, 7.0, 7.0, 6.0, 7.0, 7.0, 6.0, 6.0, 7.0, 6.0], 'build_tree:': [1192.0, 1192.0, 1190.0, 1187.0, 1179.0, 1178.0, 1187.0, 1190.0, 1052.0, 1188.0, 1198.0, 1190.0, 1190.0]}
@ tree_height: 19
The max number of the nodes is 524288.
ROWS = 200000, COLS = 4.
Time for asynchronous transfer and execute (ms): 1.713056
@ avg_corr: 19.318600
@ overall: 16570 ms
@ read_input: 959 ms
@ build_tree: 1190 ms
@ init_kernel: 2669 ms
@ find_correlation: 11671 ms
@ kernel: 11667 ms
@ extra:  7 ms
Collected results into ../../../results/depth_tmp/pc_Hybrid_Sched_covtype.7d_2_unsorted.stats

Loading data from ../../../results/depth_tmp/pc_Hybrid_Sched_covtype.7d_2_unsorted.stats...
{'find_correlation:': [11720.0, 11732.0, 11844.0, 11839.0, 11843.0, 11801.0, 11703.0, 11556.0, 11630.0, 11647.0, 11774.0, 11785.0, 11554.0, 11671.0], 'avg_corr:': [19.3186, 19.3186, 19.3186, 19.3186, 19.3186, 19.3186, 19.3186, 19.3186, 19.3186, 19.3186, 19.3186, 19.3186, 19.3186, 19.3186], 'init_kernel:': [2731.0, 2734.0, 2572.0, 2612.0, 2605.0, 2627.0, 2571.0, 2679.0, 2655.0, 2610.0, 2564.0, 2730.0, 2671.0, 2669.0], 'kernel:': [11716.0, 11728.0, 11840.0, 11835.0, 11839.0, 11797.0, 11700.0, 11553.0, 11626.0, 11643.0, 11770.0, 11781.0, 11551.0, 11667.0], 'overall:': [16689.0, 16691.0, 16750.0, 16755.0, 16758.0, 16713.0, 16606.0, 16462.0, 16399.0, 16577.0, 16654.0, 16750.0, 16472.0, 16570.0], 'read_input:': [965.0, 953.0, 1064.0, 1037.0, 1051.0, 1027.0, 1069.0, 960.0, 984.0, 1056.0, 1042.0, 965.0, 977.0, 959.0], 'tree_height:': [19.0, 19.0, 19.0, 19.0, 19.0, 19.0, 19.0, 19.0, 19.0, 19.0, 19.0, 19.0, 19.0, 19.0], 'extra:': [7.0, 7.0, 7.0, 7.0, 7.0, 7.0, 6.0, 7.0, 7.0, 6.0, 6.0, 7.0, 6.0, 7.0], 'build_tree:': [1192.0, 1192.0, 1190.0, 1187.0, 1179.0, 1178.0, 1187.0, 1190.0, 1052.0, 1188.0, 1198.0, 1190.0, 1190.0, 1190.0]}
@ tree_height: 19
The max number of the nodes is 524288.
ROWS = 200000, COLS = 4.
Time for asynchronous transfer and execute (ms): 1.604000
@ avg_corr: 19.318600
@ overall: 16832 ms
@ read_input: 970 ms
@ build_tree: 1191 ms
@ init_kernel: 2766 ms
@ find_correlation: 11825 ms
@ kernel: 11821 ms
@ extra:  6 ms
Collected results into ../../../results/depth_tmp/pc_Hybrid_Sched_covtype.7d_2_unsorted.stats

