Results wll be collected to ../../../results/depth_tmp/vp_Hybrid_Sched_random.7d_6_unsorted.stats...
Configuration: sort_flag = 0, verbose_flag = 0, nthreads=1, DIM = 7, SPLICE_DEPTH = 6, nStreams = 6, npoints = 200000, input_file=../../../input/pc/random.7d
@ init_kernel: 2637 ms
the number of nodes is 200000, the depth is 19
npoints = 200000, DEPTH_STAT = 64, nMatrixSize = 12800000.
pre kernel start!
Time for asynchronous transfer and execute (ms): 82.192543
pre kernel end!
@ extra: 221 ms
@ kernel: 1526 ms
@ CPU: 135 ms
@ search_kernel: 1747 ms
@ search: 2421 ms
correct rate: 1.0000
Collected results into ../../../results/depth_tmp/vp_Hybrid_Sched_random.7d_6_unsorted.stats

Loading data from ../../../results/depth_tmp/vp_Hybrid_Sched_random.7d_6_unsorted.stats...
{'kernel:': [1526.0], 'CPU:': [135.0], 'search_kernel:': [1747.0], 'init_kernel:': [2637.0], 'search:': [2421.0], 'extra:': [221.0]}
Configuration: sort_flag = 0, verbose_flag = 0, nthreads=1, DIM = 7, SPLICE_DEPTH = 6, nStreams = 6, npoints = 200000, input_file=../../../input/pc/random.7d
@ init_kernel: 2608 ms
the number of nodes is 200000, the depth is 19
npoints = 200000, DEPTH_STAT = 64, nMatrixSize = 12800000.
pre kernel start!
Time for asynchronous transfer and execute (ms): 82.199677
pre kernel end!
@ extra: 221 ms
@ kernel: 1520 ms
@ CPU: 136 ms
@ search_kernel: 1741 ms
@ search: 2466 ms
correct rate: 1.0000
Collected results into ../../../results/depth_tmp/vp_Hybrid_Sched_random.7d_6_unsorted.stats

Loading data from ../../../results/depth_tmp/vp_Hybrid_Sched_random.7d_6_unsorted.stats...
{'CPU:': [135.0, 136.0], 'search:': [2421.0, 2466.0], 'kernel:': [1526.0, 1520.0], 'init_kernel:': [2637.0, 2608.0], 'search_kernel:': [1747.0, 1741.0], 'extra:': [221.0, 221.0]}
Configuration: sort_flag = 0, verbose_flag = 0, nthreads=1, DIM = 7, SPLICE_DEPTH = 6, nStreams = 6, npoints = 200000, input_file=../../../input/pc/random.7d
@ init_kernel: 2656 ms
the number of nodes is 200000, the depth is 19
npoints = 200000, DEPTH_STAT = 64, nMatrixSize = 12800000.
pre kernel start!
Time for asynchronous transfer and execute (ms): 82.892990
pre kernel end!
@ extra: 222 ms
@ kernel: 1529 ms
@ CPU: 136 ms
@ search_kernel: 1752 ms
@ search: 2513 ms
correct rate: 1.0000
Collected results into ../../../results/depth_tmp/vp_Hybrid_Sched_random.7d_6_unsorted.stats

Loading data from ../../../results/depth_tmp/vp_Hybrid_Sched_random.7d_6_unsorted.stats...
{'CPU:': [135.0, 136.0, 136.0], 'search_kernel:': [1747.0, 1741.0, 1752.0], 'kernel:': [1526.0, 1520.0, 1529.0], 'init_kernel:': [2637.0, 2608.0, 2656.0], 'search:': [2421.0, 2466.0, 2513.0], 'extra:': [221.0, 221.0, 222.0]}
Configuration: sort_flag = 0, verbose_flag = 0, nthreads=1, DIM = 7, SPLICE_DEPTH = 6, nStreams = 6, npoints = 200000, input_file=../../../input/pc/random.7d
@ init_kernel: 2662 ms
the number of nodes is 200000, the depth is 19
npoints = 200000, DEPTH_STAT = 64, nMatrixSize = 12800000.
pre kernel start!
Time for asynchronous transfer and execute (ms): 82.182655
pre kernel end!
@ extra: 221 ms
@ kernel: 1530 ms
@ CPU: 136 ms
@ search_kernel: 1752 ms
@ search: 2532 ms
correct rate: 1.0000
Collected results into ../../../results/depth_tmp/vp_Hybrid_Sched_random.7d_6_unsorted.stats

Loading data from ../../../results/depth_tmp/vp_Hybrid_Sched_random.7d_6_unsorted.stats...
{'CPU:': [135.0, 136.0, 136.0, 136.0], 'search:': [2421.0, 2466.0, 2513.0, 2532.0], 'search_kernel:': [1747.0, 1741.0, 1752.0, 1752.0], 'init_kernel:': [2637.0, 2608.0, 2656.0, 2662.0], 'kernel:': [1526.0, 1520.0, 1529.0, 1530.0], 'extra:': [221.0, 221.0, 222.0, 221.0]}
Configuration: sort_flag = 0, verbose_flag = 0, nthreads=1, DIM = 7, SPLICE_DEPTH = 6, nStreams = 6, npoints = 200000, input_file=../../../input/pc/random.7d
@ init_kernel: 2767 ms
the number of nodes is 200000, the depth is 19
npoints = 200000, DEPTH_STAT = 64, nMatrixSize = 12800000.
pre kernel start!
Time for asynchronous transfer and execute (ms): 82.111710
pre kernel end!
@ extra: 221 ms
@ kernel: 1525 ms
@ CPU: 136 ms
@ search_kernel: 1746 ms
@ search: 2487 ms
correct rate: 1.0000
Collected results into ../../../results/depth_tmp/vp_Hybrid_Sched_random.7d_6_unsorted.stats

Loading data from ../../../results/depth_tmp/vp_Hybrid_Sched_random.7d_6_unsorted.stats...
{'kernel:': [1526.0, 1520.0, 1529.0, 1530.0, 1525.0], 'CPU:': [135.0, 136.0, 136.0, 136.0, 136.0], 'search_kernel:': [1747.0, 1741.0, 1752.0, 1752.0, 1746.0], 'init_kernel:': [2637.0, 2608.0, 2656.0, 2662.0, 2767.0], 'search:': [2421.0, 2466.0, 2513.0, 2532.0, 2487.0], 'extra:': [221.0, 221.0, 222.0, 221.0, 221.0]}
Configuration: sort_flag = 0, verbose_flag = 0, nthreads=1, DIM = 7, SPLICE_DEPTH = 6, nStreams = 6, npoints = 200000, input_file=../../../input/pc/random.7d
@ init_kernel: 2814 ms
the number of nodes is 200000, the depth is 19
npoints = 200000, DEPTH_STAT = 64, nMatrixSize = 12800000.
pre kernel start!
Time for asynchronous transfer and execute (ms): 83.405891
pre kernel end!
@ extra: 222 ms
@ kernel: 1528 ms
@ CPU: 135 ms
@ search_kernel: 1751 ms
@ search: 2419 ms
correct rate: 1.0000
Collected results into ../../../results/depth_tmp/vp_Hybrid_Sched_random.7d_6_unsorted.stats

Loading data from ../../../results/depth_tmp/vp_Hybrid_Sched_random.7d_6_unsorted.stats...
{'CPU:': [135.0, 136.0, 136.0, 136.0, 136.0, 135.0], 'search:': [2421.0, 2466.0, 2513.0, 2532.0, 2487.0, 2419.0], 'kernel:': [1526.0, 1520.0, 1529.0, 1530.0, 1525.0, 1528.0], 'init_kernel:': [2637.0, 2608.0, 2656.0, 2662.0, 2767.0, 2814.0], 'search_kernel:': [1747.0, 1741.0, 1752.0, 1752.0, 1746.0, 1751.0], 'extra:': [221.0, 221.0, 222.0, 221.0, 221.0, 222.0]}
Configuration: sort_flag = 0, verbose_flag = 0, nthreads=1, DIM = 7, SPLICE_DEPTH = 6, nStreams = 6, npoints = 200000, input_file=../../../input/pc/random.7d
@ init_kernel: 2603 ms
the number of nodes is 200000, the depth is 19
npoints = 200000, DEPTH_STAT = 64, nMatrixSize = 12800000.
pre kernel start!
Time for asynchronous transfer and execute (ms): 82.785507
pre kernel end!
@ extra: 222 ms
@ kernel: 1526 ms
@ CPU: 136 ms
@ search_kernel: 1749 ms
@ search: 2549 ms
correct rate: 1.0000
Collected results into ../../../results/depth_tmp/vp_Hybrid_Sched_random.7d_6_unsorted.stats

Loading data from ../../../results/depth_tmp/vp_Hybrid_Sched_random.7d_6_unsorted.stats...
{'CPU:': [135.0, 136.0, 136.0, 136.0, 136.0, 135.0, 136.0], 'search_kernel:': [1747.0, 1741.0, 1752.0, 1752.0, 1746.0, 1751.0, 1749.0], 'kernel:': [1526.0, 1520.0, 1529.0, 1530.0, 1525.0, 1528.0, 1526.0], 'init_kernel:': [2637.0, 2608.0, 2656.0, 2662.0, 2767.0, 2814.0, 2603.0], 'search:': [2421.0, 2466.0, 2513.0, 2532.0, 2487.0, 2419.0, 2549.0], 'extra:': [221.0, 221.0, 222.0, 221.0, 221.0, 222.0, 222.0]}
Configuration: sort_flag = 0, verbose_flag = 0, nthreads=1, DIM = 7, SPLICE_DEPTH = 6, nStreams = 6, npoints = 200000, input_file=../../../input/pc/random.7d
@ init_kernel: 2668 ms
the number of nodes is 200000, the depth is 19
npoints = 200000, DEPTH_STAT = 64, nMatrixSize = 12800000.
pre kernel start!
Time for asynchronous transfer and execute (ms): 83.383492
pre kernel end!
@ extra: 222 ms
@ kernel: 1530 ms
@ CPU: 136 ms
@ search_kernel: 1753 ms
@ search: 2549 ms
correct rate: 1.0000
Collected results into ../../../results/depth_tmp/vp_Hybrid_Sched_random.7d_6_unsorted.stats

Loading data from ../../../results/depth_tmp/vp_Hybrid_Sched_random.7d_6_unsorted.stats...
{'CPU:': [135.0, 136.0, 136.0, 136.0, 136.0, 135.0, 136.0, 136.0], 'search:': [2421.0, 2466.0, 2513.0, 2532.0, 2487.0, 2419.0, 2549.0, 2549.0], 'search_kernel:': [1747.0, 1741.0, 1752.0, 1752.0, 1746.0, 1751.0, 1749.0, 1753.0], 'init_kernel:': [2637.0, 2608.0, 2656.0, 2662.0, 2767.0, 2814.0, 2603.0, 2668.0], 'kernel:': [1526.0, 1520.0, 1529.0, 1530.0, 1525.0, 1528.0, 1526.0, 1530.0], 'extra:': [221.0, 221.0, 222.0, 221.0, 221.0, 222.0, 222.0, 222.0]}
Configuration: sort_flag = 0, verbose_flag = 0, nthreads=1, DIM = 7, SPLICE_DEPTH = 6, nStreams = 6, npoints = 200000, input_file=../../../input/pc/random.7d
@ init_kernel: 2724 ms
the number of nodes is 200000, the depth is 19
npoints = 200000, DEPTH_STAT = 64, nMatrixSize = 12800000.
pre kernel start!
Time for asynchronous transfer and execute (ms): 81.936516
pre kernel end!
@ extra: 221 ms
@ kernel: 1521 ms
@ CPU: 136 ms
@ search_kernel: 1742 ms
@ search: 2455 ms
correct rate: 1.0000
Collected results into ../../../results/depth_tmp/vp_Hybrid_Sched_random.7d_6_unsorted.stats

Loading data from ../../../results/depth_tmp/vp_Hybrid_Sched_random.7d_6_unsorted.stats...
{'kernel:': [1526.0, 1520.0, 1529.0, 1530.0, 1525.0, 1528.0, 1526.0, 1530.0, 1521.0], 'CPU:': [135.0, 136.0, 136.0, 136.0, 136.0, 135.0, 136.0, 136.0, 136.0], 'search_kernel:': [1747.0, 1741.0, 1752.0, 1752.0, 1746.0, 1751.0, 1749.0, 1753.0, 1742.0], 'init_kernel:': [2637.0, 2608.0, 2656.0, 2662.0, 2767.0, 2814.0, 2603.0, 2668.0, 2724.0], 'search:': [2421.0, 2466.0, 2513.0, 2532.0, 2487.0, 2419.0, 2549.0, 2549.0, 2455.0], 'extra:': [221.0, 221.0, 222.0, 221.0, 221.0, 222.0, 222.0, 222.0, 221.0]}
Configuration: sort_flag = 0, verbose_flag = 0, nthreads=1, DIM = 7, SPLICE_DEPTH = 6, nStreams = 6, npoints = 200000, input_file=../../../input/pc/random.7d
@ init_kernel: 2761 ms
the number of nodes is 200000, the depth is 19
npoints = 200000, DEPTH_STAT = 64, nMatrixSize = 12800000.
pre kernel start!
Time for asynchronous transfer and execute (ms): 83.134430
pre kernel end!
@ extra: 222 ms
@ kernel: 1527 ms
@ CPU: 136 ms
@ search_kernel: 1750 ms
@ search: 2475 ms
correct rate: 1.0000
Collected results into ../../../results/depth_tmp/vp_Hybrid_Sched_random.7d_6_unsorted.stats

Loading data from ../../../results/depth_tmp/vp_Hybrid_Sched_random.7d_6_unsorted.stats...
{'CPU:': [135.0, 136.0, 136.0, 136.0, 136.0, 135.0, 136.0, 136.0, 136.0, 136.0], 'search:': [2421.0, 2466.0, 2513.0, 2532.0, 2487.0, 2419.0, 2549.0, 2549.0, 2455.0, 2475.0], 'kernel:': [1526.0, 1520.0, 1529.0, 1530.0, 1525.0, 1528.0, 1526.0, 1530.0, 1521.0, 1527.0], 'init_kernel:': [2637.0, 2608.0, 2656.0, 2662.0, 2767.0, 2814.0, 2603.0, 2668.0, 2724.0, 2761.0], 'search_kernel:': [1747.0, 1741.0, 1752.0, 1752.0, 1746.0, 1751.0, 1749.0, 1753.0, 1742.0, 1750.0], 'extra:': [221.0, 221.0, 222.0, 221.0, 221.0, 222.0, 222.0, 222.0, 221.0, 222.0]}
Configuration: sort_flag = 0, verbose_flag = 0, nthreads=1, DIM = 7, SPLICE_DEPTH = 6, nStreams = 6, npoints = 200000, input_file=../../../input/pc/random.7d
@ init_kernel: 2653 ms
the number of nodes is 200000, the depth is 19
npoints = 200000, DEPTH_STAT = 64, nMatrixSize = 12800000.
pre kernel start!
Time for asynchronous transfer and execute (ms): 83.377602
pre kernel end!
@ extra: 222 ms
@ kernel: 1527 ms
@ CPU: 136 ms
@ search_kernel: 1750 ms
@ search: 2565 ms
correct rate: 1.0000
Collected results into ../../../results/depth_tmp/vp_Hybrid_Sched_random.7d_6_unsorted.stats

Loading data from ../../../results/depth_tmp/vp_Hybrid_Sched_random.7d_6_unsorted.stats...
{'CPU:': [135.0, 136.0, 136.0, 136.0, 136.0, 135.0, 136.0, 136.0, 136.0, 136.0, 136.0], 'search_kernel:': [1747.0, 1741.0, 1752.0, 1752.0, 1746.0, 1751.0, 1749.0, 1753.0, 1742.0, 1750.0, 1750.0], 'kernel:': [1526.0, 1520.0, 1529.0, 1530.0, 1525.0, 1528.0, 1526.0, 1530.0, 1521.0, 1527.0, 1527.0], 'init_kernel:': [2637.0, 2608.0, 2656.0, 2662.0, 2767.0, 2814.0, 2603.0, 2668.0, 2724.0, 2761.0, 2653.0], 'search:': [2421.0, 2466.0, 2513.0, 2532.0, 2487.0, 2419.0, 2549.0, 2549.0, 2455.0, 2475.0, 2565.0], 'extra:': [221.0, 221.0, 222.0, 221.0, 221.0, 222.0, 222.0, 222.0, 221.0, 222.0, 222.0]}
Configuration: sort_flag = 0, verbose_flag = 0, nthreads=1, DIM = 7, SPLICE_DEPTH = 6, nStreams = 6, npoints = 200000, input_file=../../../input/pc/random.7d
@ init_kernel: 2640 ms
the number of nodes is 200000, the depth is 19
npoints = 200000, DEPTH_STAT = 64, nMatrixSize = 12800000.
pre kernel start!
Time for asynchronous transfer and execute (ms): 82.610046
pre kernel end!
@ extra: 222 ms
@ kernel: 1525 ms
@ CPU: 136 ms
@ search_kernel: 1748 ms
@ search: 2563 ms
correct rate: 1.0000
Collected results into ../../../results/depth_tmp/vp_Hybrid_Sched_random.7d_6_unsorted.stats

Loading data from ../../../results/depth_tmp/vp_Hybrid_Sched_random.7d_6_unsorted.stats...
{'CPU:': [135.0, 136.0, 136.0, 136.0, 136.0, 135.0, 136.0, 136.0, 136.0, 136.0, 136.0, 136.0], 'search:': [2421.0, 2466.0, 2513.0, 2532.0, 2487.0, 2419.0, 2549.0, 2549.0, 2455.0, 2475.0, 2565.0, 2563.0], 'search_kernel:': [1747.0, 1741.0, 1752.0, 1752.0, 1746.0, 1751.0, 1749.0, 1753.0, 1742.0, 1750.0, 1750.0, 1748.0], 'init_kernel:': [2637.0, 2608.0, 2656.0, 2662.0, 2767.0, 2814.0, 2603.0, 2668.0, 2724.0, 2761.0, 2653.0, 2640.0], 'kernel:': [1526.0, 1520.0, 1529.0, 1530.0, 1525.0, 1528.0, 1526.0, 1530.0, 1521.0, 1527.0, 1527.0, 1525.0], 'extra:': [221.0, 221.0, 222.0, 221.0, 221.0, 222.0, 222.0, 222.0, 221.0, 222.0, 222.0, 222.0]}
Configuration: sort_flag = 0, verbose_flag = 0, nthreads=1, DIM = 7, SPLICE_DEPTH = 6, nStreams = 6, npoints = 200000, input_file=../../../input/pc/random.7d
@ init_kernel: 2655 ms
the number of nodes is 200000, the depth is 19
npoints = 200000, DEPTH_STAT = 64, nMatrixSize = 12800000.
pre kernel start!
Time for asynchronous transfer and execute (ms): 82.645699
pre kernel end!
@ extra: 221 ms
@ kernel: 1528 ms
@ CPU: 136 ms
@ search_kernel: 1751 ms
@ search: 2520 ms
correct rate: 1.0000
Collected results into ../../../results/depth_tmp/vp_Hybrid_Sched_random.7d_6_unsorted.stats

Loading data from ../../../results/depth_tmp/vp_Hybrid_Sched_random.7d_6_unsorted.stats...
{'kernel:': [1526.0, 1520.0, 1529.0, 1530.0, 1525.0, 1528.0, 1526.0, 1530.0, 1521.0, 1527.0, 1527.0, 1525.0, 1528.0], 'CPU:': [135.0, 136.0, 136.0, 136.0, 136.0, 135.0, 136.0, 136.0, 136.0, 136.0, 136.0, 136.0, 136.0], 'search_kernel:': [1747.0, 1741.0, 1752.0, 1752.0, 1746.0, 1751.0, 1749.0, 1753.0, 1742.0, 1750.0, 1750.0, 1748.0, 1751.0], 'init_kernel:': [2637.0, 2608.0, 2656.0, 2662.0, 2767.0, 2814.0, 2603.0, 2668.0, 2724.0, 2761.0, 2653.0, 2640.0, 2655.0], 'search:': [2421.0, 2466.0, 2513.0, 2532.0, 2487.0, 2419.0, 2549.0, 2549.0, 2455.0, 2475.0, 2565.0, 2563.0, 2520.0], 'extra:': [221.0, 221.0, 222.0, 221.0, 221.0, 222.0, 222.0, 222.0, 221.0, 222.0, 222.0, 222.0, 221.0]}
Configuration: sort_flag = 0, verbose_flag = 0, nthreads=1, DIM = 7, SPLICE_DEPTH = 6, nStreams = 6, npoints = 200000, input_file=../../../input/pc/random.7d
@ init_kernel: 2772 ms
the number of nodes is 200000, the depth is 19
npoints = 200000, DEPTH_STAT = 64, nMatrixSize = 12800000.
pre kernel start!
Time for asynchronous transfer and execute (ms): 81.733917
pre kernel end!
@ extra: 220 ms
@ kernel: 1522 ms
@ CPU: 136 ms
@ search_kernel: 1743 ms
@ search: 2477 ms
correct rate: 1.0000
Collected results into ../../../results/depth_tmp/vp_Hybrid_Sched_random.7d_6_unsorted.stats

Loading data from ../../../results/depth_tmp/vp_Hybrid_Sched_random.7d_6_unsorted.stats...
{'CPU:': [135.0, 136.0, 136.0, 136.0, 136.0, 135.0, 136.0, 136.0, 136.0, 136.0, 136.0, 136.0, 136.0, 136.0], 'search:': [2421.0, 2466.0, 2513.0, 2532.0, 2487.0, 2419.0, 2549.0, 2549.0, 2455.0, 2475.0, 2565.0, 2563.0, 2520.0, 2477.0], 'kernel:': [1526.0, 1520.0, 1529.0, 1530.0, 1525.0, 1528.0, 1526.0, 1530.0, 1521.0, 1527.0, 1527.0, 1525.0, 1528.0, 1522.0], 'init_kernel:': [2637.0, 2608.0, 2656.0, 2662.0, 2767.0, 2814.0, 2603.0, 2668.0, 2724.0, 2761.0, 2653.0, 2640.0, 2655.0, 2772.0], 'search_kernel:': [1747.0, 1741.0, 1752.0, 1752.0, 1746.0, 1751.0, 1749.0, 1753.0, 1742.0, 1750.0, 1750.0, 1748.0, 1751.0, 1743.0], 'extra:': [221.0, 221.0, 222.0, 221.0, 221.0, 222.0, 222.0, 222.0, 221.0, 222.0, 222.0, 222.0, 221.0, 220.0]}
Configuration: sort_flag = 0, verbose_flag = 0, nthreads=1, DIM = 7, SPLICE_DEPTH = 6, nStreams = 6, npoints = 200000, input_file=../../../input/pc/random.7d
@ init_kernel: 2670 ms
the number of nodes is 200000, the depth is 19
npoints = 200000, DEPTH_STAT = 64, nMatrixSize = 12800000.
pre kernel start!
Time for asynchronous transfer and execute (ms): 82.366562
pre kernel end!
@ extra: 221 ms
@ kernel: 1524 ms
@ CPU: 136 ms
@ search_kernel: 1746 ms
@ search: 2515 ms
correct rate: 1.0000
Collected results into ../../../results/depth_tmp/vp_Hybrid_Sched_random.7d_6_unsorted.stats

