Results wll be collected to ../../../results/depth_tmp/vp_Hybrid_Sched_mnist.7d_5_unsorted.stats...
Configuration: sort_flag = 0, verbose_flag = 0, nthreads=1, DIM = 7, SPLICE_DEPTH = 5, nStreams = 6, npoints = 200000, input_file=../../../input/pc/mnist.7d
@ init_kernel: 2752 ms
the number of nodes is 200000, the depth is 19
npoints = 200000, DEPTH_STAT = 32, nMatrixSize = 6400000.
pre kernel start!
Time for asynchronous transfer and execute (ms): 34.756031
pre kernel end!
@ extra: 155 ms
@ kernel: 1700 ms
@ CPU: 117 ms
@ search_kernel: 1856 ms
@ search: 2532 ms
correct rate: 0.4311
Collected results into ../../../results/depth_tmp/vp_Hybrid_Sched_mnist.7d_5_unsorted.stats

Loading data from ../../../results/depth_tmp/vp_Hybrid_Sched_mnist.7d_5_unsorted.stats...
{'kernel:': [1700.0], 'CPU:': [117.0], 'search_kernel:': [1856.0], 'init_kernel:': [2752.0], 'search:': [2532.0], 'extra:': [155.0]}
Configuration: sort_flag = 0, verbose_flag = 0, nthreads=1, DIM = 7, SPLICE_DEPTH = 5, nStreams = 6, npoints = 200000, input_file=../../../input/pc/mnist.7d
@ init_kernel: 2726 ms
the number of nodes is 200000, the depth is 19
npoints = 200000, DEPTH_STAT = 32, nMatrixSize = 6400000.
pre kernel start!
Time for asynchronous transfer and execute (ms): 35.473824
pre kernel end!
@ extra: 156 ms
@ kernel: 1706 ms
@ CPU: 117 ms
@ search_kernel: 1863 ms
@ search: 2564 ms
correct rate: 0.4311
Collected results into ../../../results/depth_tmp/vp_Hybrid_Sched_mnist.7d_5_unsorted.stats

Loading data from ../../../results/depth_tmp/vp_Hybrid_Sched_mnist.7d_5_unsorted.stats...
{'CPU:': [117.0, 117.0], 'search:': [2532.0, 2564.0], 'kernel:': [1700.0, 1706.0], 'init_kernel:': [2752.0, 2726.0], 'search_kernel:': [1856.0, 1863.0], 'extra:': [155.0, 156.0]}
Configuration: sort_flag = 0, verbose_flag = 0, nthreads=1, DIM = 7, SPLICE_DEPTH = 5, nStreams = 6, npoints = 200000, input_file=../../../input/pc/mnist.7d
@ init_kernel: 2648 ms
the number of nodes is 200000, the depth is 19
npoints = 200000, DEPTH_STAT = 32, nMatrixSize = 6400000.
pre kernel start!
Time for asynchronous transfer and execute (ms): 35.509602
pre kernel end!
@ extra: 156 ms
@ kernel: 1707 ms
@ CPU: 117 ms
@ search_kernel: 1863 ms
@ search: 2622 ms
correct rate: 0.4311
Collected results into ../../../results/depth_tmp/vp_Hybrid_Sched_mnist.7d_5_unsorted.stats

Loading data from ../../../results/depth_tmp/vp_Hybrid_Sched_mnist.7d_5_unsorted.stats...
{'CPU:': [117.0, 117.0, 117.0], 'search_kernel:': [1856.0, 1863.0, 1863.0], 'kernel:': [1700.0, 1706.0, 1707.0], 'init_kernel:': [2752.0, 2726.0, 2648.0], 'search:': [2532.0, 2564.0, 2622.0], 'extra:': [155.0, 156.0, 156.0]}
Configuration: sort_flag = 0, verbose_flag = 0, nthreads=1, DIM = 7, SPLICE_DEPTH = 5, nStreams = 6, npoints = 200000, input_file=../../../input/pc/mnist.7d
@ init_kernel: 2788 ms
the number of nodes is 200000, the depth is 19
npoints = 200000, DEPTH_STAT = 32, nMatrixSize = 6400000.
pre kernel start!
Time for asynchronous transfer and execute (ms): 34.773441
pre kernel end!
@ extra: 154 ms
@ kernel: 1705 ms
@ CPU: 116 ms
@ search_kernel: 1860 ms
@ search: 2576 ms
correct rate: 0.4311
Collected results into ../../../results/depth_tmp/vp_Hybrid_Sched_mnist.7d_5_unsorted.stats

Loading data from ../../../results/depth_tmp/vp_Hybrid_Sched_mnist.7d_5_unsorted.stats...
{'CPU:': [117.0, 117.0, 117.0, 116.0], 'search:': [2532.0, 2564.0, 2622.0, 2576.0], 'search_kernel:': [1856.0, 1863.0, 1863.0, 1860.0], 'init_kernel:': [2752.0, 2726.0, 2648.0, 2788.0], 'kernel:': [1700.0, 1706.0, 1707.0, 1705.0], 'extra:': [155.0, 156.0, 156.0, 154.0]}
Configuration: sort_flag = 0, verbose_flag = 0, nthreads=1, DIM = 7, SPLICE_DEPTH = 5, nStreams = 6, npoints = 200000, input_file=../../../input/pc/mnist.7d
@ init_kernel: 2706 ms
the number of nodes is 200000, the depth is 19
npoints = 200000, DEPTH_STAT = 32, nMatrixSize = 6400000.
pre kernel start!
Time for asynchronous transfer and execute (ms): 34.566849
pre kernel end!
@ extra: 154 ms
@ kernel: 1704 ms
@ CPU: 117 ms
@ search_kernel: 1859 ms
@ search: 2513 ms
correct rate: 0.4311
Collected results into ../../../results/depth_tmp/vp_Hybrid_Sched_mnist.7d_5_unsorted.stats

Loading data from ../../../results/depth_tmp/vp_Hybrid_Sched_mnist.7d_5_unsorted.stats...
{'kernel:': [1700.0, 1706.0, 1707.0, 1705.0, 1704.0], 'CPU:': [117.0, 117.0, 117.0, 116.0, 117.0], 'search_kernel:': [1856.0, 1863.0, 1863.0, 1860.0, 1859.0], 'init_kernel:': [2752.0, 2726.0, 2648.0, 2788.0, 2706.0], 'search:': [2532.0, 2564.0, 2622.0, 2576.0, 2513.0], 'extra:': [155.0, 156.0, 156.0, 154.0, 154.0]}
Configuration: sort_flag = 0, verbose_flag = 0, nthreads=1, DIM = 7, SPLICE_DEPTH = 5, nStreams = 6, npoints = 200000, input_file=../../../input/pc/mnist.7d
@ init_kernel: 2652 ms
the number of nodes is 200000, the depth is 19
npoints = 200000, DEPTH_STAT = 32, nMatrixSize = 6400000.
pre kernel start!
Time for asynchronous transfer and execute (ms): 34.977409
pre kernel end!
@ extra: 155 ms
@ kernel: 1702 ms
@ CPU: 117 ms
@ search_kernel: 1857 ms
@ search: 2583 ms
correct rate: 0.4311
Collected results into ../../../results/depth_tmp/vp_Hybrid_Sched_mnist.7d_5_unsorted.stats

Loading data from ../../../results/depth_tmp/vp_Hybrid_Sched_mnist.7d_5_unsorted.stats...
{'CPU:': [117.0, 117.0, 117.0, 116.0, 117.0, 117.0], 'search:': [2532.0, 2564.0, 2622.0, 2576.0, 2513.0, 2583.0], 'kernel:': [1700.0, 1706.0, 1707.0, 1705.0, 1704.0, 1702.0], 'init_kernel:': [2752.0, 2726.0, 2648.0, 2788.0, 2706.0, 2652.0], 'search_kernel:': [1856.0, 1863.0, 1863.0, 1860.0, 1859.0, 1857.0], 'extra:': [155.0, 156.0, 156.0, 154.0, 154.0, 155.0]}
Configuration: sort_flag = 0, verbose_flag = 0, nthreads=1, DIM = 7, SPLICE_DEPTH = 5, nStreams = 6, npoints = 200000, input_file=../../../input/pc/mnist.7d
@ init_kernel: 2647 ms
the number of nodes is 200000, the depth is 19
npoints = 200000, DEPTH_STAT = 32, nMatrixSize = 6400000.
pre kernel start!
Time for asynchronous transfer and execute (ms): 34.356575
pre kernel end!
@ extra: 154 ms
@ kernel: 1701 ms
@ CPU: 117 ms
@ search_kernel: 1855 ms
@ search: 2603 ms
correct rate: 0.4311
Collected results into ../../../results/depth_tmp/vp_Hybrid_Sched_mnist.7d_5_unsorted.stats

Loading data from ../../../results/depth_tmp/vp_Hybrid_Sched_mnist.7d_5_unsorted.stats...
{'CPU:': [117.0, 117.0, 117.0, 116.0, 117.0, 117.0, 117.0], 'search_kernel:': [1856.0, 1863.0, 1863.0, 1860.0, 1859.0, 1857.0, 1855.0], 'kernel:': [1700.0, 1706.0, 1707.0, 1705.0, 1704.0, 1702.0, 1701.0], 'init_kernel:': [2752.0, 2726.0, 2648.0, 2788.0, 2706.0, 2652.0, 2647.0], 'search:': [2532.0, 2564.0, 2622.0, 2576.0, 2513.0, 2583.0, 2603.0], 'extra:': [155.0, 156.0, 156.0, 154.0, 154.0, 155.0, 154.0]}
Configuration: sort_flag = 0, verbose_flag = 0, nthreads=1, DIM = 7, SPLICE_DEPTH = 5, nStreams = 6, npoints = 200000, input_file=../../../input/pc/mnist.7d
@ init_kernel: 2604 ms
the number of nodes is 200000, the depth is 19
npoints = 200000, DEPTH_STAT = 32, nMatrixSize = 6400000.
pre kernel start!
Time for asynchronous transfer and execute (ms): 34.348961
pre kernel end!
@ extra: 154 ms
@ kernel: 1702 ms
@ CPU: 117 ms
@ search_kernel: 1857 ms
@ search: 2622 ms
correct rate: 0.4311
Collected results into ../../../results/depth_tmp/vp_Hybrid_Sched_mnist.7d_5_unsorted.stats

Loading data from ../../../results/depth_tmp/vp_Hybrid_Sched_mnist.7d_5_unsorted.stats...
{'CPU:': [117.0, 117.0, 117.0, 116.0, 117.0, 117.0, 117.0, 117.0], 'search:': [2532.0, 2564.0, 2622.0, 2576.0, 2513.0, 2583.0, 2603.0, 2622.0], 'search_kernel:': [1856.0, 1863.0, 1863.0, 1860.0, 1859.0, 1857.0, 1855.0, 1857.0], 'init_kernel:': [2752.0, 2726.0, 2648.0, 2788.0, 2706.0, 2652.0, 2647.0, 2604.0], 'kernel:': [1700.0, 1706.0, 1707.0, 1705.0, 1704.0, 1702.0, 1701.0, 1702.0], 'extra:': [155.0, 156.0, 156.0, 154.0, 154.0, 155.0, 154.0, 154.0]}
Configuration: sort_flag = 0, verbose_flag = 0, nthreads=1, DIM = 7, SPLICE_DEPTH = 5, nStreams = 6, npoints = 200000, input_file=../../../input/pc/mnist.7d
@ init_kernel: 2756 ms
the number of nodes is 200000, the depth is 19
npoints = 200000, DEPTH_STAT = 32, nMatrixSize = 6400000.
pre kernel start!
Time for asynchronous transfer and execute (ms): 35.230015
pre kernel end!
@ extra: 155 ms
@ kernel: 1704 ms
@ CPU: 117 ms
@ search_kernel: 1859 ms
@ search: 2591 ms
correct rate: 0.4311
Collected results into ../../../results/depth_tmp/vp_Hybrid_Sched_mnist.7d_5_unsorted.stats

Loading data from ../../../results/depth_tmp/vp_Hybrid_Sched_mnist.7d_5_unsorted.stats...
{'kernel:': [1700.0, 1706.0, 1707.0, 1705.0, 1704.0, 1702.0, 1701.0, 1702.0, 1704.0], 'CPU:': [117.0, 117.0, 117.0, 116.0, 117.0, 117.0, 117.0, 117.0, 117.0], 'search_kernel:': [1856.0, 1863.0, 1863.0, 1860.0, 1859.0, 1857.0, 1855.0, 1857.0, 1859.0], 'init_kernel:': [2752.0, 2726.0, 2648.0, 2788.0, 2706.0, 2652.0, 2647.0, 2604.0, 2756.0], 'search:': [2532.0, 2564.0, 2622.0, 2576.0, 2513.0, 2583.0, 2603.0, 2622.0, 2591.0], 'extra:': [155.0, 156.0, 156.0, 154.0, 154.0, 155.0, 154.0, 154.0, 155.0]}
Configuration: sort_flag = 0, verbose_flag = 0, nthreads=1, DIM = 7, SPLICE_DEPTH = 5, nStreams = 6, npoints = 200000, input_file=../../../input/pc/mnist.7d
@ init_kernel: 2622 ms
the number of nodes is 200000, the depth is 19
npoints = 200000, DEPTH_STAT = 32, nMatrixSize = 6400000.
pre kernel start!
Time for asynchronous transfer and execute (ms): 35.204830
pre kernel end!
@ extra: 155 ms
@ kernel: 1703 ms
@ CPU: 117 ms
@ search_kernel: 1860 ms
@ search: 2625 ms
correct rate: 0.4311
Collected results into ../../../results/depth_tmp/vp_Hybrid_Sched_mnist.7d_5_unsorted.stats

Loading data from ../../../results/depth_tmp/vp_Hybrid_Sched_mnist.7d_5_unsorted.stats...
{'CPU:': [117.0, 117.0, 117.0, 116.0, 117.0, 117.0, 117.0, 117.0, 117.0, 117.0], 'search:': [2532.0, 2564.0, 2622.0, 2576.0, 2513.0, 2583.0, 2603.0, 2622.0, 2591.0, 2625.0], 'kernel:': [1700.0, 1706.0, 1707.0, 1705.0, 1704.0, 1702.0, 1701.0, 1702.0, 1704.0, 1703.0], 'init_kernel:': [2752.0, 2726.0, 2648.0, 2788.0, 2706.0, 2652.0, 2647.0, 2604.0, 2756.0, 2622.0], 'search_kernel:': [1856.0, 1863.0, 1863.0, 1860.0, 1859.0, 1857.0, 1855.0, 1857.0, 1859.0, 1860.0], 'extra:': [155.0, 156.0, 156.0, 154.0, 154.0, 155.0, 154.0, 154.0, 155.0, 155.0]}
Configuration: sort_flag = 0, verbose_flag = 0, nthreads=1, DIM = 7, SPLICE_DEPTH = 5, nStreams = 6, npoints = 200000, input_file=../../../input/pc/mnist.7d
@ init_kernel: 2663 ms
the number of nodes is 200000, the depth is 19
npoints = 200000, DEPTH_STAT = 32, nMatrixSize = 6400000.
pre kernel start!
Time for asynchronous transfer and execute (ms): 35.793953
pre kernel end!
@ extra: 156 ms
@ kernel: 1697 ms
@ CPU: 117 ms
@ search_kernel: 1853 ms
@ search: 2643 ms
correct rate: 0.4311
Collected results into ../../../results/depth_tmp/vp_Hybrid_Sched_mnist.7d_5_unsorted.stats

Loading data from ../../../results/depth_tmp/vp_Hybrid_Sched_mnist.7d_5_unsorted.stats...
{'CPU:': [117.0, 117.0, 117.0, 116.0, 117.0, 117.0, 117.0, 117.0, 117.0, 117.0, 117.0], 'search_kernel:': [1856.0, 1863.0, 1863.0, 1860.0, 1859.0, 1857.0, 1855.0, 1857.0, 1859.0, 1860.0, 1853.0], 'kernel:': [1700.0, 1706.0, 1707.0, 1705.0, 1704.0, 1702.0, 1701.0, 1702.0, 1704.0, 1703.0, 1697.0], 'init_kernel:': [2752.0, 2726.0, 2648.0, 2788.0, 2706.0, 2652.0, 2647.0, 2604.0, 2756.0, 2622.0, 2663.0], 'search:': [2532.0, 2564.0, 2622.0, 2576.0, 2513.0, 2583.0, 2603.0, 2622.0, 2591.0, 2625.0, 2643.0], 'extra:': [155.0, 156.0, 156.0, 154.0, 154.0, 155.0, 154.0, 154.0, 155.0, 155.0, 156.0]}
Configuration: sort_flag = 0, verbose_flag = 0, nthreads=1, DIM = 7, SPLICE_DEPTH = 5, nStreams = 6, npoints = 200000, input_file=../../../input/pc/mnist.7d
@ init_kernel: 2636 ms
the number of nodes is 200000, the depth is 19
npoints = 200000, DEPTH_STAT = 32, nMatrixSize = 6400000.
pre kernel start!
Time for asynchronous transfer and execute (ms): 34.785217
pre kernel end!
@ extra: 154 ms
@ kernel: 1700 ms
@ CPU: 116 ms
@ search_kernel: 1855 ms
@ search: 2618 ms
correct rate: 0.4311
Collected results into ../../../results/depth_tmp/vp_Hybrid_Sched_mnist.7d_5_unsorted.stats

Loading data from ../../../results/depth_tmp/vp_Hybrid_Sched_mnist.7d_5_unsorted.stats...
{'CPU:': [117.0, 117.0, 117.0, 116.0, 117.0, 117.0, 117.0, 117.0, 117.0, 117.0, 117.0, 116.0], 'search:': [2532.0, 2564.0, 2622.0, 2576.0, 2513.0, 2583.0, 2603.0, 2622.0, 2591.0, 2625.0, 2643.0, 2618.0], 'search_kernel:': [1856.0, 1863.0, 1863.0, 1860.0, 1859.0, 1857.0, 1855.0, 1857.0, 1859.0, 1860.0, 1853.0, 1855.0], 'init_kernel:': [2752.0, 2726.0, 2648.0, 2788.0, 2706.0, 2652.0, 2647.0, 2604.0, 2756.0, 2622.0, 2663.0, 2636.0], 'kernel:': [1700.0, 1706.0, 1707.0, 1705.0, 1704.0, 1702.0, 1701.0, 1702.0, 1704.0, 1703.0, 1697.0, 1700.0], 'extra:': [155.0, 156.0, 156.0, 154.0, 154.0, 155.0, 154.0, 154.0, 155.0, 155.0, 156.0, 154.0]}
Configuration: sort_flag = 0, verbose_flag = 0, nthreads=1, DIM = 7, SPLICE_DEPTH = 5, nStreams = 6, npoints = 200000, input_file=../../../input/pc/mnist.7d
@ init_kernel: 2803 ms
the number of nodes is 200000, the depth is 19
npoints = 200000, DEPTH_STAT = 32, nMatrixSize = 6400000.
pre kernel start!
Time for asynchronous transfer and execute (ms): 34.462238
pre kernel end!
@ extra: 154 ms
@ kernel: 1706 ms
@ CPU: 116 ms
@ search_kernel: 1861 ms
@ search: 2569 ms
correct rate: 0.4311
Collected results into ../../../results/depth_tmp/vp_Hybrid_Sched_mnist.7d_5_unsorted.stats

Loading data from ../../../results/depth_tmp/vp_Hybrid_Sched_mnist.7d_5_unsorted.stats...
{'kernel:': [1700.0, 1706.0, 1707.0, 1705.0, 1704.0, 1702.0, 1701.0, 1702.0, 1704.0, 1703.0, 1697.0, 1700.0, 1706.0], 'CPU:': [117.0, 117.0, 117.0, 116.0, 117.0, 117.0, 117.0, 117.0, 117.0, 117.0, 117.0, 116.0, 116.0], 'search_kernel:': [1856.0, 1863.0, 1863.0, 1860.0, 1859.0, 1857.0, 1855.0, 1857.0, 1859.0, 1860.0, 1853.0, 1855.0, 1861.0], 'init_kernel:': [2752.0, 2726.0, 2648.0, 2788.0, 2706.0, 2652.0, 2647.0, 2604.0, 2756.0, 2622.0, 2663.0, 2636.0, 2803.0], 'search:': [2532.0, 2564.0, 2622.0, 2576.0, 2513.0, 2583.0, 2603.0, 2622.0, 2591.0, 2625.0, 2643.0, 2618.0, 2569.0], 'extra:': [155.0, 156.0, 156.0, 154.0, 154.0, 155.0, 154.0, 154.0, 155.0, 155.0, 156.0, 154.0, 154.0]}
Configuration: sort_flag = 0, verbose_flag = 0, nthreads=1, DIM = 7, SPLICE_DEPTH = 5, nStreams = 6, npoints = 200000, input_file=../../../input/pc/mnist.7d
@ init_kernel: 2616 ms
the number of nodes is 200000, the depth is 19
npoints = 200000, DEPTH_STAT = 32, nMatrixSize = 6400000.
pre kernel start!
Time for asynchronous transfer and execute (ms): 34.340225
pre kernel end!
@ extra: 153 ms
@ kernel: 1706 ms
@ CPU: 116 ms
@ search_kernel: 1860 ms
@ search: 2626 ms
correct rate: 0.4311
Collected results into ../../../results/depth_tmp/vp_Hybrid_Sched_mnist.7d_5_unsorted.stats

Loading data from ../../../results/depth_tmp/vp_Hybrid_Sched_mnist.7d_5_unsorted.stats...
{'CPU:': [117.0, 117.0, 117.0, 116.0, 117.0, 117.0, 117.0, 117.0, 117.0, 117.0, 117.0, 116.0, 116.0, 116.0], 'search:': [2532.0, 2564.0, 2622.0, 2576.0, 2513.0, 2583.0, 2603.0, 2622.0, 2591.0, 2625.0, 2643.0, 2618.0, 2569.0, 2626.0], 'kernel:': [1700.0, 1706.0, 1707.0, 1705.0, 1704.0, 1702.0, 1701.0, 1702.0, 1704.0, 1703.0, 1697.0, 1700.0, 1706.0, 1706.0], 'init_kernel:': [2752.0, 2726.0, 2648.0, 2788.0, 2706.0, 2652.0, 2647.0, 2604.0, 2756.0, 2622.0, 2663.0, 2636.0, 2803.0, 2616.0], 'search_kernel:': [1856.0, 1863.0, 1863.0, 1860.0, 1859.0, 1857.0, 1855.0, 1857.0, 1859.0, 1860.0, 1853.0, 1855.0, 1861.0, 1860.0], 'extra:': [155.0, 156.0, 156.0, 154.0, 154.0, 155.0, 154.0, 154.0, 155.0, 155.0, 156.0, 154.0, 154.0, 153.0]}
Configuration: sort_flag = 0, verbose_flag = 0, nthreads=1, DIM = 7, SPLICE_DEPTH = 5, nStreams = 6, npoints = 200000, input_file=../../../input/pc/mnist.7d
@ init_kernel: 2774 ms
the number of nodes is 200000, the depth is 19
npoints = 200000, DEPTH_STAT = 32, nMatrixSize = 6400000.
pre kernel start!
Time for asynchronous transfer and execute (ms): 34.449600
pre kernel end!
@ extra: 154 ms
@ kernel: 1706 ms
@ CPU: 117 ms
@ search_kernel: 1860 ms
@ search: 2581 ms
correct rate: 0.4311
Collected results into ../../../results/depth_tmp/vp_Hybrid_Sched_mnist.7d_5_unsorted.stats

