Results wll be collected to ../../../results/depth_tmp/vp_Hybrid_Sched_covtype.7d_4_unsorted.stats...
Configuration: sort_flag = 0, verbose_flag = 0, nthreads=1, DIM = 7, SPLICE_DEPTH = 4, nStreams = 6, npoints = 200000, input_file=../../../input/pc/covtype.7d
@ init_kernel: 2716 ms
the number of nodes is 200000, the depth is 19
npoints = 200000, DEPTH_STAT = 16, nMatrixSize = 3200000.
pre kernel start!
Time for asynchronous transfer and execute (ms): 18.016352
pre kernel end!
@ extra: 111 ms
@ kernel: 712 ms
@ CPU: 90 ms
@ search_kernel: 823 ms
@ search: 1525 ms
correct rate: 0.8632
Collected results into ../../../results/depth_tmp/vp_Hybrid_Sched_covtype.7d_4_unsorted.stats

Loading data from ../../../results/depth_tmp/vp_Hybrid_Sched_covtype.7d_4_unsorted.stats...
{'kernel:': [712.0], 'CPU:': [90.0], 'search_kernel:': [823.0], 'init_kernel:': [2716.0], 'search:': [1525.0], 'extra:': [111.0]}
Configuration: sort_flag = 0, verbose_flag = 0, nthreads=1, DIM = 7, SPLICE_DEPTH = 4, nStreams = 6, npoints = 200000, input_file=../../../input/pc/covtype.7d
@ init_kernel: 2603 ms
the number of nodes is 200000, the depth is 19
npoints = 200000, DEPTH_STAT = 16, nMatrixSize = 3200000.
pre kernel start!
Time for asynchronous transfer and execute (ms): 18.084703
pre kernel end!
@ extra: 111 ms
@ kernel: 711 ms
@ CPU: 90 ms
@ search_kernel: 822 ms
@ search: 1482 ms
correct rate: 0.8632
Collected results into ../../../results/depth_tmp/vp_Hybrid_Sched_covtype.7d_4_unsorted.stats

Loading data from ../../../results/depth_tmp/vp_Hybrid_Sched_covtype.7d_4_unsorted.stats...
{'CPU:': [90.0, 90.0], 'search:': [1525.0, 1482.0], 'kernel:': [712.0, 711.0], 'init_kernel:': [2716.0, 2603.0], 'search_kernel:': [823.0, 822.0], 'extra:': [111.0, 111.0]}
Configuration: sort_flag = 0, verbose_flag = 0, nthreads=1, DIM = 7, SPLICE_DEPTH = 4, nStreams = 6, npoints = 200000, input_file=../../../input/pc/covtype.7d
@ init_kernel: 2717 ms
the number of nodes is 200000, the depth is 19
npoints = 200000, DEPTH_STAT = 16, nMatrixSize = 3200000.
pre kernel start!
Time for asynchronous transfer and execute (ms): 17.029087
pre kernel end!
@ extra: 110 ms
@ kernel: 712 ms
@ CPU: 90 ms
@ search_kernel: 823 ms
@ search: 1552 ms
correct rate: 0.8632
Collected results into ../../../results/depth_tmp/vp_Hybrid_Sched_covtype.7d_4_unsorted.stats

Loading data from ../../../results/depth_tmp/vp_Hybrid_Sched_covtype.7d_4_unsorted.stats...
{'CPU:': [90.0, 90.0, 90.0], 'search_kernel:': [823.0, 822.0, 823.0], 'kernel:': [712.0, 711.0, 712.0], 'init_kernel:': [2716.0, 2603.0, 2717.0], 'search:': [1525.0, 1482.0, 1552.0], 'extra:': [111.0, 111.0, 110.0]}
Configuration: sort_flag = 0, verbose_flag = 0, nthreads=1, DIM = 7, SPLICE_DEPTH = 4, nStreams = 6, npoints = 200000, input_file=../../../input/pc/covtype.7d
@ init_kernel: 2645 ms
the number of nodes is 200000, the depth is 19
npoints = 200000, DEPTH_STAT = 16, nMatrixSize = 3200000.
pre kernel start!
Time for asynchronous transfer and execute (ms): 16.713152
pre kernel end!
@ extra: 110 ms
@ kernel: 712 ms
@ CPU: 90 ms
@ search_kernel: 822 ms
@ search: 1587 ms
correct rate: 0.8632
Collected results into ../../../results/depth_tmp/vp_Hybrid_Sched_covtype.7d_4_unsorted.stats

Loading data from ../../../results/depth_tmp/vp_Hybrid_Sched_covtype.7d_4_unsorted.stats...
{'CPU:': [90.0, 90.0, 90.0, 90.0], 'search:': [1525.0, 1482.0, 1552.0, 1587.0], 'search_kernel:': [823.0, 822.0, 823.0, 822.0], 'init_kernel:': [2716.0, 2603.0, 2717.0, 2645.0], 'kernel:': [712.0, 711.0, 712.0, 712.0], 'extra:': [111.0, 111.0, 110.0, 110.0]}
Configuration: sort_flag = 0, verbose_flag = 0, nthreads=1, DIM = 7, SPLICE_DEPTH = 4, nStreams = 6, npoints = 200000, input_file=../../../input/pc/covtype.7d
@ init_kernel: 2734 ms
the number of nodes is 200000, the depth is 19
npoints = 200000, DEPTH_STAT = 16, nMatrixSize = 3200000.
pre kernel start!
Time for asynchronous transfer and execute (ms): 18.616961
pre kernel end!
@ extra: 112 ms
@ kernel: 712 ms
@ CPU: 90 ms
@ search_kernel: 825 ms
@ search: 1528 ms
correct rate: 0.8632
Collected results into ../../../results/depth_tmp/vp_Hybrid_Sched_covtype.7d_4_unsorted.stats

Loading data from ../../../results/depth_tmp/vp_Hybrid_Sched_covtype.7d_4_unsorted.stats...
{'kernel:': [712.0, 711.0, 712.0, 712.0, 712.0], 'CPU:': [90.0, 90.0, 90.0, 90.0, 90.0], 'search_kernel:': [823.0, 822.0, 823.0, 822.0, 825.0], 'init_kernel:': [2716.0, 2603.0, 2717.0, 2645.0, 2734.0], 'search:': [1525.0, 1482.0, 1552.0, 1587.0, 1528.0], 'extra:': [111.0, 111.0, 110.0, 110.0, 112.0]}
Configuration: sort_flag = 0, verbose_flag = 0, nthreads=1, DIM = 7, SPLICE_DEPTH = 4, nStreams = 6, npoints = 200000, input_file=../../../input/pc/covtype.7d
@ init_kernel: 2776 ms
the number of nodes is 200000, the depth is 19
npoints = 200000, DEPTH_STAT = 16, nMatrixSize = 3200000.
pre kernel start!
Time for asynchronous transfer and execute (ms): 17.344353
pre kernel end!
@ extra: 110 ms
@ kernel: 712 ms
@ CPU: 90 ms
@ search_kernel: 823 ms
@ search: 1515 ms
correct rate: 0.8632
Collected results into ../../../results/depth_tmp/vp_Hybrid_Sched_covtype.7d_4_unsorted.stats

Loading data from ../../../results/depth_tmp/vp_Hybrid_Sched_covtype.7d_4_unsorted.stats...
{'CPU:': [90.0, 90.0, 90.0, 90.0, 90.0, 90.0], 'search:': [1525.0, 1482.0, 1552.0, 1587.0, 1528.0, 1515.0], 'kernel:': [712.0, 711.0, 712.0, 712.0, 712.0, 712.0], 'init_kernel:': [2716.0, 2603.0, 2717.0, 2645.0, 2734.0, 2776.0], 'search_kernel:': [823.0, 822.0, 823.0, 822.0, 825.0, 823.0], 'extra:': [111.0, 111.0, 110.0, 110.0, 112.0, 110.0]}
Configuration: sort_flag = 0, verbose_flag = 0, nthreads=1, DIM = 7, SPLICE_DEPTH = 4, nStreams = 6, npoints = 200000, input_file=../../../input/pc/covtype.7d
@ init_kernel: 2654 ms
the number of nodes is 200000, the depth is 19
npoints = 200000, DEPTH_STAT = 16, nMatrixSize = 3200000.
pre kernel start!
Time for asynchronous transfer and execute (ms): 17.290079
pre kernel end!
@ extra: 110 ms
@ kernel: 711 ms
@ CPU: 89 ms
@ search_kernel: 822 ms
@ search: 1577 ms
correct rate: 0.8632
Collected results into ../../../results/depth_tmp/vp_Hybrid_Sched_covtype.7d_4_unsorted.stats

Loading data from ../../../results/depth_tmp/vp_Hybrid_Sched_covtype.7d_4_unsorted.stats...
{'CPU:': [90.0, 90.0, 90.0, 90.0, 90.0, 90.0, 89.0], 'search_kernel:': [823.0, 822.0, 823.0, 822.0, 825.0, 823.0, 822.0], 'kernel:': [712.0, 711.0, 712.0, 712.0, 712.0, 712.0, 711.0], 'init_kernel:': [2716.0, 2603.0, 2717.0, 2645.0, 2734.0, 2776.0, 2654.0], 'search:': [1525.0, 1482.0, 1552.0, 1587.0, 1528.0, 1515.0, 1577.0], 'extra:': [111.0, 111.0, 110.0, 110.0, 112.0, 110.0, 110.0]}
Configuration: sort_flag = 0, verbose_flag = 0, nthreads=1, DIM = 7, SPLICE_DEPTH = 4, nStreams = 6, npoints = 200000, input_file=../../../input/pc/covtype.7d
@ init_kernel: 2660 ms
the number of nodes is 200000, the depth is 19
npoints = 200000, DEPTH_STAT = 16, nMatrixSize = 3200000.
pre kernel start!
Time for asynchronous transfer and execute (ms): 17.268225
pre kernel end!
@ extra: 110 ms
@ kernel: 713 ms
@ CPU: 90 ms
@ search_kernel: 824 ms
@ search: 1538 ms
correct rate: 0.8632
Collected results into ../../../results/depth_tmp/vp_Hybrid_Sched_covtype.7d_4_unsorted.stats

Loading data from ../../../results/depth_tmp/vp_Hybrid_Sched_covtype.7d_4_unsorted.stats...
{'CPU:': [90.0, 90.0, 90.0, 90.0, 90.0, 90.0, 89.0, 90.0], 'search:': [1525.0, 1482.0, 1552.0, 1587.0, 1528.0, 1515.0, 1577.0, 1538.0], 'search_kernel:': [823.0, 822.0, 823.0, 822.0, 825.0, 823.0, 822.0, 824.0], 'init_kernel:': [2716.0, 2603.0, 2717.0, 2645.0, 2734.0, 2776.0, 2654.0, 2660.0], 'kernel:': [712.0, 711.0, 712.0, 712.0, 712.0, 712.0, 711.0, 713.0], 'extra:': [111.0, 111.0, 110.0, 110.0, 112.0, 110.0, 110.0, 110.0]}
Configuration: sort_flag = 0, verbose_flag = 0, nthreads=1, DIM = 7, SPLICE_DEPTH = 4, nStreams = 6, npoints = 200000, input_file=../../../input/pc/covtype.7d
@ init_kernel: 2604 ms
the number of nodes is 200000, the depth is 19
npoints = 200000, DEPTH_STAT = 16, nMatrixSize = 3200000.
pre kernel start!
Time for asynchronous transfer and execute (ms): 17.289473
pre kernel end!
@ extra: 110 ms
@ kernel: 710 ms
@ CPU: 90 ms
@ search_kernel: 821 ms
@ search: 1585 ms
correct rate: 0.8632
Collected results into ../../../results/depth_tmp/vp_Hybrid_Sched_covtype.7d_4_unsorted.stats

Loading data from ../../../results/depth_tmp/vp_Hybrid_Sched_covtype.7d_4_unsorted.stats...
{'kernel:': [712.0, 711.0, 712.0, 712.0, 712.0, 712.0, 711.0, 713.0, 710.0], 'CPU:': [90.0, 90.0, 90.0, 90.0, 90.0, 90.0, 89.0, 90.0, 90.0], 'search_kernel:': [823.0, 822.0, 823.0, 822.0, 825.0, 823.0, 822.0, 824.0, 821.0], 'init_kernel:': [2716.0, 2603.0, 2717.0, 2645.0, 2734.0, 2776.0, 2654.0, 2660.0, 2604.0], 'search:': [1525.0, 1482.0, 1552.0, 1587.0, 1528.0, 1515.0, 1577.0, 1538.0, 1585.0], 'extra:': [111.0, 111.0, 110.0, 110.0, 112.0, 110.0, 110.0, 110.0, 110.0]}
Configuration: sort_flag = 0, verbose_flag = 0, nthreads=1, DIM = 7, SPLICE_DEPTH = 4, nStreams = 6, npoints = 200000, input_file=../../../input/pc/covtype.7d
@ init_kernel: 2632 ms
the number of nodes is 200000, the depth is 19
npoints = 200000, DEPTH_STAT = 16, nMatrixSize = 3200000.
pre kernel start!
Time for asynchronous transfer and execute (ms): 18.855328
pre kernel end!
@ extra: 112 ms
@ kernel: 711 ms
@ CPU: 89 ms
@ search_kernel: 824 ms
@ search: 1549 ms
correct rate: 0.8632
Collected results into ../../../results/depth_tmp/vp_Hybrid_Sched_covtype.7d_4_unsorted.stats

Loading data from ../../../results/depth_tmp/vp_Hybrid_Sched_covtype.7d_4_unsorted.stats...
{'CPU:': [90.0, 90.0, 90.0, 90.0, 90.0, 90.0, 89.0, 90.0, 90.0, 89.0], 'search:': [1525.0, 1482.0, 1552.0, 1587.0, 1528.0, 1515.0, 1577.0, 1538.0, 1585.0, 1549.0], 'kernel:': [712.0, 711.0, 712.0, 712.0, 712.0, 712.0, 711.0, 713.0, 710.0, 711.0], 'init_kernel:': [2716.0, 2603.0, 2717.0, 2645.0, 2734.0, 2776.0, 2654.0, 2660.0, 2604.0, 2632.0], 'search_kernel:': [823.0, 822.0, 823.0, 822.0, 825.0, 823.0, 822.0, 824.0, 821.0, 824.0], 'extra:': [111.0, 111.0, 110.0, 110.0, 112.0, 110.0, 110.0, 110.0, 110.0, 112.0]}
Configuration: sort_flag = 0, verbose_flag = 0, nthreads=1, DIM = 7, SPLICE_DEPTH = 4, nStreams = 6, npoints = 200000, input_file=../../../input/pc/covtype.7d
@ init_kernel: 2828 ms
the number of nodes is 200000, the depth is 19
npoints = 200000, DEPTH_STAT = 16, nMatrixSize = 3200000.
pre kernel start!
Time for asynchronous transfer and execute (ms): 17.328800
pre kernel end!
@ extra: 110 ms
@ kernel: 708 ms
@ CPU: 90 ms
@ search_kernel: 819 ms
@ search: 1502 ms
correct rate: 0.8632
Collected results into ../../../results/depth_tmp/vp_Hybrid_Sched_covtype.7d_4_unsorted.stats

Loading data from ../../../results/depth_tmp/vp_Hybrid_Sched_covtype.7d_4_unsorted.stats...
{'CPU:': [90.0, 90.0, 90.0, 90.0, 90.0, 90.0, 89.0, 90.0, 90.0, 89.0, 90.0], 'search_kernel:': [823.0, 822.0, 823.0, 822.0, 825.0, 823.0, 822.0, 824.0, 821.0, 824.0, 819.0], 'kernel:': [712.0, 711.0, 712.0, 712.0, 712.0, 712.0, 711.0, 713.0, 710.0, 711.0, 708.0], 'init_kernel:': [2716.0, 2603.0, 2717.0, 2645.0, 2734.0, 2776.0, 2654.0, 2660.0, 2604.0, 2632.0, 2828.0], 'search:': [1525.0, 1482.0, 1552.0, 1587.0, 1528.0, 1515.0, 1577.0, 1538.0, 1585.0, 1549.0, 1502.0], 'extra:': [111.0, 111.0, 110.0, 110.0, 112.0, 110.0, 110.0, 110.0, 110.0, 112.0, 110.0]}
Configuration: sort_flag = 0, verbose_flag = 0, nthreads=1, DIM = 7, SPLICE_DEPTH = 4, nStreams = 6, npoints = 200000, input_file=../../../input/pc/covtype.7d
@ init_kernel: 2663 ms
the number of nodes is 200000, the depth is 19
npoints = 200000, DEPTH_STAT = 16, nMatrixSize = 3200000.
pre kernel start!
Time for asynchronous transfer and execute (ms): 19.182079
pre kernel end!
@ extra: 112 ms
@ kernel: 711 ms
@ CPU: 90 ms
@ search_kernel: 824 ms
@ search: 1611 ms
correct rate: 0.8632
Collected results into ../../../results/depth_tmp/vp_Hybrid_Sched_covtype.7d_4_unsorted.stats

Loading data from ../../../results/depth_tmp/vp_Hybrid_Sched_covtype.7d_4_unsorted.stats...
{'CPU:': [90.0, 90.0, 90.0, 90.0, 90.0, 90.0, 89.0, 90.0, 90.0, 89.0, 90.0, 90.0], 'search:': [1525.0, 1482.0, 1552.0, 1587.0, 1528.0, 1515.0, 1577.0, 1538.0, 1585.0, 1549.0, 1502.0, 1611.0], 'search_kernel:': [823.0, 822.0, 823.0, 822.0, 825.0, 823.0, 822.0, 824.0, 821.0, 824.0, 819.0, 824.0], 'init_kernel:': [2716.0, 2603.0, 2717.0, 2645.0, 2734.0, 2776.0, 2654.0, 2660.0, 2604.0, 2632.0, 2828.0, 2663.0], 'kernel:': [712.0, 711.0, 712.0, 712.0, 712.0, 712.0, 711.0, 713.0, 710.0, 711.0, 708.0, 711.0], 'extra:': [111.0, 111.0, 110.0, 110.0, 112.0, 110.0, 110.0, 110.0, 110.0, 112.0, 110.0, 112.0]}
Configuration: sort_flag = 0, verbose_flag = 0, nthreads=1, DIM = 7, SPLICE_DEPTH = 4, nStreams = 6, npoints = 200000, input_file=../../../input/pc/covtype.7d
@ init_kernel: 2796 ms
the number of nodes is 200000, the depth is 19
npoints = 200000, DEPTH_STAT = 16, nMatrixSize = 3200000.
pre kernel start!
Time for asynchronous transfer and execute (ms): 17.920448
pre kernel end!
@ extra: 110 ms
@ kernel: 713 ms
@ CPU: 90 ms
@ search_kernel: 824 ms
@ search: 1544 ms
correct rate: 0.8632
Collected results into ../../../results/depth_tmp/vp_Hybrid_Sched_covtype.7d_4_unsorted.stats

Loading data from ../../../results/depth_tmp/vp_Hybrid_Sched_covtype.7d_4_unsorted.stats...
{'kernel:': [712.0, 711.0, 712.0, 712.0, 712.0, 712.0, 711.0, 713.0, 710.0, 711.0, 708.0, 711.0, 713.0], 'CPU:': [90.0, 90.0, 90.0, 90.0, 90.0, 90.0, 89.0, 90.0, 90.0, 89.0, 90.0, 90.0, 90.0], 'search_kernel:': [823.0, 822.0, 823.0, 822.0, 825.0, 823.0, 822.0, 824.0, 821.0, 824.0, 819.0, 824.0, 824.0], 'init_kernel:': [2716.0, 2603.0, 2717.0, 2645.0, 2734.0, 2776.0, 2654.0, 2660.0, 2604.0, 2632.0, 2828.0, 2663.0, 2796.0], 'search:': [1525.0, 1482.0, 1552.0, 1587.0, 1528.0, 1515.0, 1577.0, 1538.0, 1585.0, 1549.0, 1502.0, 1611.0, 1544.0], 'extra:': [111.0, 111.0, 110.0, 110.0, 112.0, 110.0, 110.0, 110.0, 110.0, 112.0, 110.0, 112.0, 110.0]}
Configuration: sort_flag = 0, verbose_flag = 0, nthreads=1, DIM = 7, SPLICE_DEPTH = 4, nStreams = 6, npoints = 200000, input_file=../../../input/pc/covtype.7d
@ init_kernel: 2646 ms
the number of nodes is 200000, the depth is 19
npoints = 200000, DEPTH_STAT = 16, nMatrixSize = 3200000.
pre kernel start!
Time for asynchronous transfer and execute (ms): 16.741953
pre kernel end!
@ extra: 110 ms
@ kernel: 711 ms
@ CPU: 90 ms
@ search_kernel: 821 ms
@ search: 1592 ms
correct rate: 0.8632
Collected results into ../../../results/depth_tmp/vp_Hybrid_Sched_covtype.7d_4_unsorted.stats

Loading data from ../../../results/depth_tmp/vp_Hybrid_Sched_covtype.7d_4_unsorted.stats...
{'CPU:': [90.0, 90.0, 90.0, 90.0, 90.0, 90.0, 89.0, 90.0, 90.0, 89.0, 90.0, 90.0, 90.0, 90.0], 'search:': [1525.0, 1482.0, 1552.0, 1587.0, 1528.0, 1515.0, 1577.0, 1538.0, 1585.0, 1549.0, 1502.0, 1611.0, 1544.0, 1592.0], 'kernel:': [712.0, 711.0, 712.0, 712.0, 712.0, 712.0, 711.0, 713.0, 710.0, 711.0, 708.0, 711.0, 713.0, 711.0], 'init_kernel:': [2716.0, 2603.0, 2717.0, 2645.0, 2734.0, 2776.0, 2654.0, 2660.0, 2604.0, 2632.0, 2828.0, 2663.0, 2796.0, 2646.0], 'search_kernel:': [823.0, 822.0, 823.0, 822.0, 825.0, 823.0, 822.0, 824.0, 821.0, 824.0, 819.0, 824.0, 824.0, 821.0], 'extra:': [111.0, 111.0, 110.0, 110.0, 112.0, 110.0, 110.0, 110.0, 110.0, 112.0, 110.0, 112.0, 110.0, 110.0]}
Configuration: sort_flag = 0, verbose_flag = 0, nthreads=1, DIM = 7, SPLICE_DEPTH = 4, nStreams = 6, npoints = 200000, input_file=../../../input/pc/covtype.7d
@ init_kernel: 2760 ms
the number of nodes is 200000, the depth is 19
npoints = 200000, DEPTH_STAT = 16, nMatrixSize = 3200000.
pre kernel start!
Time for asynchronous transfer and execute (ms): 16.738720
pre kernel end!
@ extra: 109 ms
@ kernel: 714 ms
@ CPU: 90 ms
@ search_kernel: 824 ms
@ search: 1499 ms
correct rate: 0.8632
Collected results into ../../../results/depth_tmp/vp_Hybrid_Sched_covtype.7d_4_unsorted.stats

