Results wll be collected to ../../../results/depth_tmp/vp_Hybrid_Sched_covtype.7d_6_unsorted.stats...
Configuration: sort_flag = 0, verbose_flag = 0, nthreads=1, DIM = 7, SPLICE_DEPTH = 6, nStreams = 6, npoints = 200000, input_file=../../../input/pc/covtype.7d
@ init_kernel: 2638 ms
the number of nodes is 200000, the depth is 19
npoints = 200000, DEPTH_STAT = 64, nMatrixSize = 12800000.
pre kernel start!
Time for asynchronous transfer and execute (ms): 73.405342
pre kernel end!
@ extra: 214 ms
@ kernel: 502 ms
@ CPU: 138 ms
@ search_kernel: 717 ms
@ search: 1472 ms
correct rate: 0.8632
Collected results into ../../../results/depth_tmp/vp_Hybrid_Sched_covtype.7d_6_unsorted.stats

Loading data from ../../../results/depth_tmp/vp_Hybrid_Sched_covtype.7d_6_unsorted.stats...
{'kernel:': [502.0], 'CPU:': [138.0], 'search_kernel:': [717.0], 'init_kernel:': [2638.0], 'search:': [1472.0], 'extra:': [214.0]}
Configuration: sort_flag = 0, verbose_flag = 0, nthreads=1, DIM = 7, SPLICE_DEPTH = 6, nStreams = 6, npoints = 200000, input_file=../../../input/pc/covtype.7d
@ init_kernel: 2581 ms
the number of nodes is 200000, the depth is 19
npoints = 200000, DEPTH_STAT = 64, nMatrixSize = 12800000.
pre kernel start!
Time for asynchronous transfer and execute (ms): 73.766335
pre kernel end!
@ extra: 215 ms
@ kernel: 501 ms
@ CPU: 138 ms
@ search_kernel: 716 ms
@ search: 1473 ms
correct rate: 0.8632
Collected results into ../../../results/depth_tmp/vp_Hybrid_Sched_covtype.7d_6_unsorted.stats

Loading data from ../../../results/depth_tmp/vp_Hybrid_Sched_covtype.7d_6_unsorted.stats...
{'CPU:': [138.0, 138.0], 'search:': [1472.0, 1473.0], 'kernel:': [502.0, 501.0], 'init_kernel:': [2638.0, 2581.0], 'search_kernel:': [717.0, 716.0], 'extra:': [214.0, 215.0]}
Configuration: sort_flag = 0, verbose_flag = 0, nthreads=1, DIM = 7, SPLICE_DEPTH = 6, nStreams = 6, npoints = 200000, input_file=../../../input/pc/covtype.7d
@ init_kernel: 2782 ms
the number of nodes is 200000, the depth is 19
npoints = 200000, DEPTH_STAT = 64, nMatrixSize = 12800000.
pre kernel start!
Time for asynchronous transfer and execute (ms): 73.936768
pre kernel end!
@ extra: 215 ms
@ kernel: 501 ms
@ CPU: 138 ms
@ search_kernel: 716 ms
@ search: 1385 ms
correct rate: 0.8632
Collected results into ../../../results/depth_tmp/vp_Hybrid_Sched_covtype.7d_6_unsorted.stats

Loading data from ../../../results/depth_tmp/vp_Hybrid_Sched_covtype.7d_6_unsorted.stats...
{'CPU:': [138.0, 138.0, 138.0], 'search_kernel:': [717.0, 716.0, 716.0], 'kernel:': [502.0, 501.0, 501.0], 'init_kernel:': [2638.0, 2581.0, 2782.0], 'search:': [1472.0, 1473.0, 1385.0], 'extra:': [214.0, 215.0, 215.0]}
Configuration: sort_flag = 0, verbose_flag = 0, nthreads=1, DIM = 7, SPLICE_DEPTH = 6, nStreams = 6, npoints = 200000, input_file=../../../input/pc/covtype.7d
@ init_kernel: 2599 ms
the number of nodes is 200000, the depth is 19
npoints = 200000, DEPTH_STAT = 64, nMatrixSize = 12800000.
pre kernel start!
Time for asynchronous transfer and execute (ms): 74.896194
pre kernel end!
@ extra: 216 ms
@ kernel: 499 ms
@ CPU: 138 ms
@ search_kernel: 716 ms
@ search: 1474 ms
correct rate: 0.8632
Collected results into ../../../results/depth_tmp/vp_Hybrid_Sched_covtype.7d_6_unsorted.stats

Loading data from ../../../results/depth_tmp/vp_Hybrid_Sched_covtype.7d_6_unsorted.stats...
{'CPU:': [138.0, 138.0, 138.0, 138.0], 'search:': [1472.0, 1473.0, 1385.0, 1474.0], 'search_kernel:': [717.0, 716.0, 716.0, 716.0], 'init_kernel:': [2638.0, 2581.0, 2782.0, 2599.0], 'kernel:': [502.0, 501.0, 501.0, 499.0], 'extra:': [214.0, 215.0, 215.0, 216.0]}
Configuration: sort_flag = 0, verbose_flag = 0, nthreads=1, DIM = 7, SPLICE_DEPTH = 6, nStreams = 6, npoints = 200000, input_file=../../../input/pc/covtype.7d
@ init_kernel: 2651 ms
the number of nodes is 200000, the depth is 19
npoints = 200000, DEPTH_STAT = 64, nMatrixSize = 12800000.
pre kernel start!
Time for asynchronous transfer and execute (ms): 74.207359
pre kernel end!
@ extra: 215 ms
@ kernel: 502 ms
@ CPU: 137 ms
@ search_kernel: 718 ms
@ search: 1482 ms
correct rate: 0.8632
Collected results into ../../../results/depth_tmp/vp_Hybrid_Sched_covtype.7d_6_unsorted.stats

Loading data from ../../../results/depth_tmp/vp_Hybrid_Sched_covtype.7d_6_unsorted.stats...
{'kernel:': [502.0, 501.0, 501.0, 499.0, 502.0], 'CPU:': [138.0, 138.0, 138.0, 138.0, 137.0], 'search_kernel:': [717.0, 716.0, 716.0, 716.0, 718.0], 'init_kernel:': [2638.0, 2581.0, 2782.0, 2599.0, 2651.0], 'search:': [1472.0, 1473.0, 1385.0, 1474.0, 1482.0], 'extra:': [214.0, 215.0, 215.0, 216.0, 215.0]}
Configuration: sort_flag = 0, verbose_flag = 0, nthreads=1, DIM = 7, SPLICE_DEPTH = 6, nStreams = 6, npoints = 200000, input_file=../../../input/pc/covtype.7d
@ init_kernel: 2652 ms
the number of nodes is 200000, the depth is 19
npoints = 200000, DEPTH_STAT = 64, nMatrixSize = 12800000.
pre kernel start!
Time for asynchronous transfer and execute (ms): 74.284706
pre kernel end!
@ extra: 215 ms
@ kernel: 503 ms
@ CPU: 137 ms
@ search_kernel: 718 ms
@ search: 1434 ms
correct rate: 0.8632
Collected results into ../../../results/depth_tmp/vp_Hybrid_Sched_covtype.7d_6_unsorted.stats

Loading data from ../../../results/depth_tmp/vp_Hybrid_Sched_covtype.7d_6_unsorted.stats...
{'CPU:': [138.0, 138.0, 138.0, 138.0, 137.0, 137.0], 'search:': [1472.0, 1473.0, 1385.0, 1474.0, 1482.0, 1434.0], 'kernel:': [502.0, 501.0, 501.0, 499.0, 502.0, 503.0], 'init_kernel:': [2638.0, 2581.0, 2782.0, 2599.0, 2651.0, 2652.0], 'search_kernel:': [717.0, 716.0, 716.0, 716.0, 718.0, 718.0], 'extra:': [214.0, 215.0, 215.0, 216.0, 215.0, 215.0]}
Configuration: sort_flag = 0, verbose_flag = 0, nthreads=1, DIM = 7, SPLICE_DEPTH = 6, nStreams = 6, npoints = 200000, input_file=../../../input/pc/covtype.7d
@ init_kernel: 2638 ms
the number of nodes is 200000, the depth is 19
npoints = 200000, DEPTH_STAT = 64, nMatrixSize = 12800000.
pre kernel start!
Time for asynchronous transfer and execute (ms): 73.943069
pre kernel end!
@ extra: 215 ms
@ kernel: 499 ms
@ CPU: 138 ms
@ search_kernel: 715 ms
@ search: 1466 ms
correct rate: 0.8632
Collected results into ../../../results/depth_tmp/vp_Hybrid_Sched_covtype.7d_6_unsorted.stats

Loading data from ../../../results/depth_tmp/vp_Hybrid_Sched_covtype.7d_6_unsorted.stats...
{'CPU:': [138.0, 138.0, 138.0, 138.0, 137.0, 137.0, 138.0], 'search_kernel:': [717.0, 716.0, 716.0, 716.0, 718.0, 718.0, 715.0], 'kernel:': [502.0, 501.0, 501.0, 499.0, 502.0, 503.0, 499.0], 'init_kernel:': [2638.0, 2581.0, 2782.0, 2599.0, 2651.0, 2652.0, 2638.0], 'search:': [1472.0, 1473.0, 1385.0, 1474.0, 1482.0, 1434.0, 1466.0], 'extra:': [214.0, 215.0, 215.0, 216.0, 215.0, 215.0, 215.0]}
Configuration: sort_flag = 0, verbose_flag = 0, nthreads=1, DIM = 7, SPLICE_DEPTH = 6, nStreams = 6, npoints = 200000, input_file=../../../input/pc/covtype.7d
@ init_kernel: 2605 ms
the number of nodes is 200000, the depth is 19
npoints = 200000, DEPTH_STAT = 64, nMatrixSize = 12800000.
pre kernel start!
Time for asynchronous transfer and execute (ms): 74.120064
pre kernel end!
@ extra: 215 ms
@ kernel: 500 ms
@ CPU: 137 ms
@ search_kernel: 715 ms
@ search: 1506 ms
correct rate: 0.8632
Collected results into ../../../results/depth_tmp/vp_Hybrid_Sched_covtype.7d_6_unsorted.stats

Loading data from ../../../results/depth_tmp/vp_Hybrid_Sched_covtype.7d_6_unsorted.stats...
{'CPU:': [138.0, 138.0, 138.0, 138.0, 137.0, 137.0, 138.0, 137.0], 'search:': [1472.0, 1473.0, 1385.0, 1474.0, 1482.0, 1434.0, 1466.0, 1506.0], 'search_kernel:': [717.0, 716.0, 716.0, 716.0, 718.0, 718.0, 715.0, 715.0], 'init_kernel:': [2638.0, 2581.0, 2782.0, 2599.0, 2651.0, 2652.0, 2638.0, 2605.0], 'kernel:': [502.0, 501.0, 501.0, 499.0, 502.0, 503.0, 499.0, 500.0], 'extra:': [214.0, 215.0, 215.0, 216.0, 215.0, 215.0, 215.0, 215.0]}
Configuration: sort_flag = 0, verbose_flag = 0, nthreads=1, DIM = 7, SPLICE_DEPTH = 6, nStreams = 6, npoints = 200000, input_file=../../../input/pc/covtype.7d
@ init_kernel: 2642 ms
the number of nodes is 200000, the depth is 19
npoints = 200000, DEPTH_STAT = 64, nMatrixSize = 12800000.
pre kernel start!
Time for asynchronous transfer and execute (ms): 74.209694
pre kernel end!
@ extra: 215 ms
@ kernel: 499 ms
@ CPU: 138 ms
@ search_kernel: 715 ms
@ search: 1479 ms
correct rate: 0.8632
Collected results into ../../../results/depth_tmp/vp_Hybrid_Sched_covtype.7d_6_unsorted.stats

Loading data from ../../../results/depth_tmp/vp_Hybrid_Sched_covtype.7d_6_unsorted.stats...
{'kernel:': [502.0, 501.0, 501.0, 499.0, 502.0, 503.0, 499.0, 500.0, 499.0], 'CPU:': [138.0, 138.0, 138.0, 138.0, 137.0, 137.0, 138.0, 137.0, 138.0], 'search_kernel:': [717.0, 716.0, 716.0, 716.0, 718.0, 718.0, 715.0, 715.0, 715.0], 'init_kernel:': [2638.0, 2581.0, 2782.0, 2599.0, 2651.0, 2652.0, 2638.0, 2605.0, 2642.0], 'search:': [1472.0, 1473.0, 1385.0, 1474.0, 1482.0, 1434.0, 1466.0, 1506.0, 1479.0], 'extra:': [214.0, 215.0, 215.0, 216.0, 215.0, 215.0, 215.0, 215.0, 215.0]}
Configuration: sort_flag = 0, verbose_flag = 0, nthreads=1, DIM = 7, SPLICE_DEPTH = 6, nStreams = 6, npoints = 200000, input_file=../../../input/pc/covtype.7d
@ init_kernel: 2580 ms
the number of nodes is 200000, the depth is 19
npoints = 200000, DEPTH_STAT = 64, nMatrixSize = 12800000.
pre kernel start!
Time for asynchronous transfer and execute (ms): 74.231102
pre kernel end!
@ extra: 243 ms
@ kernel: 500 ms
@ CPU: 165 ms
@ search_kernel: 744 ms
@ search: 1537 ms
correct rate: 0.8632
Collected results into ../../../results/depth_tmp/vp_Hybrid_Sched_covtype.7d_6_unsorted.stats

Loading data from ../../../results/depth_tmp/vp_Hybrid_Sched_covtype.7d_6_unsorted.stats...
{'CPU:': [138.0, 138.0, 138.0, 138.0, 137.0, 137.0, 138.0, 137.0, 138.0, 165.0], 'search:': [1472.0, 1473.0, 1385.0, 1474.0, 1482.0, 1434.0, 1466.0, 1506.0, 1479.0, 1537.0], 'kernel:': [502.0, 501.0, 501.0, 499.0, 502.0, 503.0, 499.0, 500.0, 499.0, 500.0], 'init_kernel:': [2638.0, 2581.0, 2782.0, 2599.0, 2651.0, 2652.0, 2638.0, 2605.0, 2642.0, 2580.0], 'search_kernel:': [717.0, 716.0, 716.0, 716.0, 718.0, 718.0, 715.0, 715.0, 715.0, 744.0], 'extra:': [214.0, 215.0, 215.0, 216.0, 215.0, 215.0, 215.0, 215.0, 215.0, 243.0]}
Configuration: sort_flag = 0, verbose_flag = 0, nthreads=1, DIM = 7, SPLICE_DEPTH = 6, nStreams = 6, npoints = 200000, input_file=../../../input/pc/covtype.7d
@ init_kernel: 2640 ms
the number of nodes is 200000, the depth is 19
npoints = 200000, DEPTH_STAT = 64, nMatrixSize = 12800000.
pre kernel start!
Time for asynchronous transfer and execute (ms): 74.520798
pre kernel end!
@ extra: 215 ms
@ kernel: 501 ms
@ CPU: 137 ms
@ search_kernel: 717 ms
@ search: 1497 ms
correct rate: 0.8632
Collected results into ../../../results/depth_tmp/vp_Hybrid_Sched_covtype.7d_6_unsorted.stats

Loading data from ../../../results/depth_tmp/vp_Hybrid_Sched_covtype.7d_6_unsorted.stats...
{'CPU:': [138.0, 138.0, 138.0, 138.0, 137.0, 137.0, 138.0, 137.0, 138.0, 165.0, 137.0], 'search_kernel:': [717.0, 716.0, 716.0, 716.0, 718.0, 718.0, 715.0, 715.0, 715.0, 744.0, 717.0], 'kernel:': [502.0, 501.0, 501.0, 499.0, 502.0, 503.0, 499.0, 500.0, 499.0, 500.0, 501.0], 'init_kernel:': [2638.0, 2581.0, 2782.0, 2599.0, 2651.0, 2652.0, 2638.0, 2605.0, 2642.0, 2580.0, 2640.0], 'search:': [1472.0, 1473.0, 1385.0, 1474.0, 1482.0, 1434.0, 1466.0, 1506.0, 1479.0, 1537.0, 1497.0], 'extra:': [214.0, 215.0, 215.0, 216.0, 215.0, 215.0, 215.0, 215.0, 215.0, 243.0, 215.0]}
Configuration: sort_flag = 0, verbose_flag = 0, nthreads=1, DIM = 7, SPLICE_DEPTH = 6, nStreams = 6, npoints = 200000, input_file=../../../input/pc/covtype.7d
@ init_kernel: 2639 ms
the number of nodes is 200000, the depth is 19
npoints = 200000, DEPTH_STAT = 64, nMatrixSize = 12800000.
pre kernel start!
Time for asynchronous transfer and execute (ms): 74.515999
pre kernel end!
@ extra: 215 ms
@ kernel: 500 ms
@ CPU: 137 ms
@ search_kernel: 715 ms
@ search: 1448 ms
correct rate: 0.8632
Collected results into ../../../results/depth_tmp/vp_Hybrid_Sched_covtype.7d_6_unsorted.stats

Loading data from ../../../results/depth_tmp/vp_Hybrid_Sched_covtype.7d_6_unsorted.stats...
{'CPU:': [138.0, 138.0, 138.0, 138.0, 137.0, 137.0, 138.0, 137.0, 138.0, 165.0, 137.0, 137.0], 'search:': [1472.0, 1473.0, 1385.0, 1474.0, 1482.0, 1434.0, 1466.0, 1506.0, 1479.0, 1537.0, 1497.0, 1448.0], 'search_kernel:': [717.0, 716.0, 716.0, 716.0, 718.0, 718.0, 715.0, 715.0, 715.0, 744.0, 717.0, 715.0], 'init_kernel:': [2638.0, 2581.0, 2782.0, 2599.0, 2651.0, 2652.0, 2638.0, 2605.0, 2642.0, 2580.0, 2640.0, 2639.0], 'kernel:': [502.0, 501.0, 501.0, 499.0, 502.0, 503.0, 499.0, 500.0, 499.0, 500.0, 501.0, 500.0], 'extra:': [214.0, 215.0, 215.0, 216.0, 215.0, 215.0, 215.0, 215.0, 215.0, 243.0, 215.0, 215.0]}
Configuration: sort_flag = 0, verbose_flag = 0, nthreads=1, DIM = 7, SPLICE_DEPTH = 6, nStreams = 6, npoints = 200000, input_file=../../../input/pc/covtype.7d
@ init_kernel: 2617 ms
the number of nodes is 200000, the depth is 19
npoints = 200000, DEPTH_STAT = 64, nMatrixSize = 12800000.
pre kernel start!
Time for asynchronous transfer and execute (ms): 73.623840
pre kernel end!
@ extra: 214 ms
@ kernel: 499 ms
@ CPU: 137 ms
@ search_kernel: 714 ms
@ search: 1424 ms
correct rate: 0.8632
Collected results into ../../../results/depth_tmp/vp_Hybrid_Sched_covtype.7d_6_unsorted.stats

Loading data from ../../../results/depth_tmp/vp_Hybrid_Sched_covtype.7d_6_unsorted.stats...
{'kernel:': [502.0, 501.0, 501.0, 499.0, 502.0, 503.0, 499.0, 500.0, 499.0, 500.0, 501.0, 500.0, 499.0], 'CPU:': [138.0, 138.0, 138.0, 138.0, 137.0, 137.0, 138.0, 137.0, 138.0, 165.0, 137.0, 137.0, 137.0], 'search_kernel:': [717.0, 716.0, 716.0, 716.0, 718.0, 718.0, 715.0, 715.0, 715.0, 744.0, 717.0, 715.0, 714.0], 'init_kernel:': [2638.0, 2581.0, 2782.0, 2599.0, 2651.0, 2652.0, 2638.0, 2605.0, 2642.0, 2580.0, 2640.0, 2639.0, 2617.0], 'search:': [1472.0, 1473.0, 1385.0, 1474.0, 1482.0, 1434.0, 1466.0, 1506.0, 1479.0, 1537.0, 1497.0, 1448.0, 1424.0], 'extra:': [214.0, 215.0, 215.0, 216.0, 215.0, 215.0, 215.0, 215.0, 215.0, 243.0, 215.0, 215.0, 214.0]}
Configuration: sort_flag = 0, verbose_flag = 0, nthreads=1, DIM = 7, SPLICE_DEPTH = 6, nStreams = 6, npoints = 200000, input_file=../../../input/pc/covtype.7d
@ init_kernel: 2629 ms
the number of nodes is 200000, the depth is 19
npoints = 200000, DEPTH_STAT = 64, nMatrixSize = 12800000.
pre kernel start!
Time for asynchronous transfer and execute (ms): 74.298912
pre kernel end!
@ extra: 215 ms
@ kernel: 499 ms
@ CPU: 137 ms
@ search_kernel: 715 ms
@ search: 1475 ms
correct rate: 0.8632
Collected results into ../../../results/depth_tmp/vp_Hybrid_Sched_covtype.7d_6_unsorted.stats

Loading data from ../../../results/depth_tmp/vp_Hybrid_Sched_covtype.7d_6_unsorted.stats...
{'CPU:': [138.0, 138.0, 138.0, 138.0, 137.0, 137.0, 138.0, 137.0, 138.0, 165.0, 137.0, 137.0, 137.0, 137.0], 'search:': [1472.0, 1473.0, 1385.0, 1474.0, 1482.0, 1434.0, 1466.0, 1506.0, 1479.0, 1537.0, 1497.0, 1448.0, 1424.0, 1475.0], 'kernel:': [502.0, 501.0, 501.0, 499.0, 502.0, 503.0, 499.0, 500.0, 499.0, 500.0, 501.0, 500.0, 499.0, 499.0], 'init_kernel:': [2638.0, 2581.0, 2782.0, 2599.0, 2651.0, 2652.0, 2638.0, 2605.0, 2642.0, 2580.0, 2640.0, 2639.0, 2617.0, 2629.0], 'search_kernel:': [717.0, 716.0, 716.0, 716.0, 718.0, 718.0, 715.0, 715.0, 715.0, 744.0, 717.0, 715.0, 714.0, 715.0], 'extra:': [214.0, 215.0, 215.0, 216.0, 215.0, 215.0, 215.0, 215.0, 215.0, 243.0, 215.0, 215.0, 214.0, 215.0]}
Configuration: sort_flag = 0, verbose_flag = 0, nthreads=1, DIM = 7, SPLICE_DEPTH = 6, nStreams = 6, npoints = 200000, input_file=../../../input/pc/covtype.7d
@ init_kernel: 2593 ms
the number of nodes is 200000, the depth is 19
npoints = 200000, DEPTH_STAT = 64, nMatrixSize = 12800000.
pre kernel start!
Time for asynchronous transfer and execute (ms): 73.526497
pre kernel end!
@ extra: 214 ms
@ kernel: 500 ms
@ CPU: 138 ms
@ search_kernel: 714 ms
@ search: 1484 ms
correct rate: 0.8632
Collected results into ../../../results/depth_tmp/vp_Hybrid_Sched_covtype.7d_6_unsorted.stats

