Results wll be collected to ../../../results/depth_tmp/vp_Hybrid_Sched_geocity.txt_8_unsorted.stats...
Configuration: sort_flag = 0, verbose_flag = 0, nthreads=1, DIM = 2, SPLICE_DEPTH = 8, nStreams = 6, npoints = 200000, input_file=../../../input/pc/geocity.txt
@ init_kernel: 2793 ms
the number of nodes is 200000, the depth is 19
npoints = 200000, DEPTH_STAT = 256, nMatrixSize = 51200000.
pre kernel start!
Time for asynchronous transfer and execute (ms): 246.110306
pre kernel end!
@ extra: 447 ms
@ kernel: 20 ms
@ CPU: 198 ms
@ search_kernel: 467 ms
@ search: 1172 ms
correct rate: 0.9928
Collected results into ../../../results/depth_tmp/vp_Hybrid_Sched_geocity.txt_8_unsorted.stats

Loading data from ../../../results/depth_tmp/vp_Hybrid_Sched_geocity.txt_8_unsorted.stats...
{'kernel:': [20.0], 'CPU:': [198.0], 'search_kernel:': [467.0], 'init_kernel:': [2793.0], 'search:': [1172.0], 'extra:': [447.0]}
Configuration: sort_flag = 0, verbose_flag = 0, nthreads=1, DIM = 2, SPLICE_DEPTH = 8, nStreams = 6, npoints = 200000, input_file=../../../input/pc/geocity.txt
@ init_kernel: 2666 ms
the number of nodes is 200000, the depth is 19
npoints = 200000, DEPTH_STAT = 256, nMatrixSize = 51200000.
pre kernel start!
Time for asynchronous transfer and execute (ms): 246.058365
pre kernel end!
@ extra: 409 ms
@ kernel: 20 ms
@ CPU: 160 ms
@ search_kernel: 429 ms
@ search: 1092 ms
correct rate: 0.9928
Collected results into ../../../results/depth_tmp/vp_Hybrid_Sched_geocity.txt_8_unsorted.stats

Loading data from ../../../results/depth_tmp/vp_Hybrid_Sched_geocity.txt_8_unsorted.stats...
{'CPU:': [198.0, 160.0], 'search:': [1172.0, 1092.0], 'kernel:': [20.0, 20.0], 'init_kernel:': [2793.0, 2666.0], 'search_kernel:': [467.0, 429.0], 'extra:': [447.0, 409.0]}
Configuration: sort_flag = 0, verbose_flag = 0, nthreads=1, DIM = 2, SPLICE_DEPTH = 8, nStreams = 6, npoints = 200000, input_file=../../../input/pc/geocity.txt
@ init_kernel: 2598 ms
the number of nodes is 200000, the depth is 19
npoints = 200000, DEPTH_STAT = 256, nMatrixSize = 51200000.
pre kernel start!
Time for asynchronous transfer and execute (ms): 237.525665
pre kernel end!
@ extra: 416 ms
@ kernel: 20 ms
@ CPU: 176 ms
@ search_kernel: 436 ms
@ search: 1128 ms
correct rate: 0.9928
Collected results into ../../../results/depth_tmp/vp_Hybrid_Sched_geocity.txt_8_unsorted.stats

Loading data from ../../../results/depth_tmp/vp_Hybrid_Sched_geocity.txt_8_unsorted.stats...
{'CPU:': [198.0, 160.0, 176.0], 'search_kernel:': [467.0, 429.0, 436.0], 'kernel:': [20.0, 20.0, 20.0], 'init_kernel:': [2793.0, 2666.0, 2598.0], 'search:': [1172.0, 1092.0, 1128.0], 'extra:': [447.0, 409.0, 416.0]}
Configuration: sort_flag = 0, verbose_flag = 0, nthreads=1, DIM = 2, SPLICE_DEPTH = 8, nStreams = 6, npoints = 200000, input_file=../../../input/pc/geocity.txt
@ init_kernel: 2634 ms
the number of nodes is 200000, the depth is 19
npoints = 200000, DEPTH_STAT = 256, nMatrixSize = 51200000.
pre kernel start!
Time for asynchronous transfer and execute (ms): 246.044571
pre kernel end!
@ extra: 410 ms
@ kernel: 20 ms
@ CPU: 161 ms
@ search_kernel: 430 ms
@ search: 1111 ms
correct rate: 0.9928
Collected results into ../../../results/depth_tmp/vp_Hybrid_Sched_geocity.txt_8_unsorted.stats

Loading data from ../../../results/depth_tmp/vp_Hybrid_Sched_geocity.txt_8_unsorted.stats...
{'CPU:': [198.0, 160.0, 176.0, 161.0], 'search:': [1172.0, 1092.0, 1128.0, 1111.0], 'search_kernel:': [467.0, 429.0, 436.0, 430.0], 'init_kernel:': [2793.0, 2666.0, 2598.0, 2634.0], 'kernel:': [20.0, 20.0, 20.0, 20.0], 'extra:': [447.0, 409.0, 416.0, 410.0]}
Configuration: sort_flag = 0, verbose_flag = 0, nthreads=1, DIM = 2, SPLICE_DEPTH = 8, nStreams = 6, npoints = 200000, input_file=../../../input/pc/geocity.txt
@ init_kernel: 2639 ms
the number of nodes is 200000, the depth is 19
npoints = 200000, DEPTH_STAT = 256, nMatrixSize = 51200000.
pre kernel start!
Time for asynchronous transfer and execute (ms): 246.747910
pre kernel end!
@ extra: 434 ms
@ kernel: 20 ms
@ CPU: 184 ms
@ search_kernel: 454 ms
@ search: 1070 ms
correct rate: 0.9928
Collected results into ../../../results/depth_tmp/vp_Hybrid_Sched_geocity.txt_8_unsorted.stats

Loading data from ../../../results/depth_tmp/vp_Hybrid_Sched_geocity.txt_8_unsorted.stats...
{'kernel:': [20.0, 20.0, 20.0, 20.0, 20.0], 'CPU:': [198.0, 160.0, 176.0, 161.0, 184.0], 'search_kernel:': [467.0, 429.0, 436.0, 430.0, 454.0], 'init_kernel:': [2793.0, 2666.0, 2598.0, 2634.0, 2639.0], 'search:': [1172.0, 1092.0, 1128.0, 1111.0, 1070.0], 'extra:': [447.0, 409.0, 416.0, 410.0, 434.0]}
Configuration: sort_flag = 0, verbose_flag = 0, nthreads=1, DIM = 2, SPLICE_DEPTH = 8, nStreams = 6, npoints = 200000, input_file=../../../input/pc/geocity.txt
@ init_kernel: 2652 ms
the number of nodes is 200000, the depth is 19
npoints = 200000, DEPTH_STAT = 256, nMatrixSize = 51200000.
pre kernel start!
Time for asynchronous transfer and execute (ms): 245.656799
pre kernel end!
@ extra: 394 ms
@ kernel: 20 ms
@ CPU: 146 ms
@ search_kernel: 415 ms
@ search: 1090 ms
correct rate: 0.9928
Collected results into ../../../results/depth_tmp/vp_Hybrid_Sched_geocity.txt_8_unsorted.stats

Loading data from ../../../results/depth_tmp/vp_Hybrid_Sched_geocity.txt_8_unsorted.stats...
{'CPU:': [198.0, 160.0, 176.0, 161.0, 184.0, 146.0], 'search:': [1172.0, 1092.0, 1128.0, 1111.0, 1070.0, 1090.0], 'kernel:': [20.0, 20.0, 20.0, 20.0, 20.0, 20.0], 'init_kernel:': [2793.0, 2666.0, 2598.0, 2634.0, 2639.0, 2652.0], 'search_kernel:': [467.0, 429.0, 436.0, 430.0, 454.0, 415.0], 'extra:': [447.0, 409.0, 416.0, 410.0, 434.0, 394.0]}
Configuration: sort_flag = 0, verbose_flag = 0, nthreads=1, DIM = 2, SPLICE_DEPTH = 8, nStreams = 6, npoints = 200000, input_file=../../../input/pc/geocity.txt
@ init_kernel: 2677 ms
the number of nodes is 200000, the depth is 19
npoints = 200000, DEPTH_STAT = 256, nMatrixSize = 51200000.
pre kernel start!
Time for asynchronous transfer and execute (ms): 246.482941
pre kernel end!
@ extra: 391 ms
@ kernel: 20 ms
@ CPU: 141 ms
@ search_kernel: 411 ms
@ search: 1079 ms
correct rate: 0.9928
Collected results into ../../../results/depth_tmp/vp_Hybrid_Sched_geocity.txt_8_unsorted.stats

Loading data from ../../../results/depth_tmp/vp_Hybrid_Sched_geocity.txt_8_unsorted.stats...
{'CPU:': [198.0, 160.0, 176.0, 161.0, 184.0, 146.0, 141.0], 'search_kernel:': [467.0, 429.0, 436.0, 430.0, 454.0, 415.0, 411.0], 'kernel:': [20.0, 20.0, 20.0, 20.0, 20.0, 20.0, 20.0], 'init_kernel:': [2793.0, 2666.0, 2598.0, 2634.0, 2639.0, 2652.0, 2677.0], 'search:': [1172.0, 1092.0, 1128.0, 1111.0, 1070.0, 1090.0, 1079.0], 'extra:': [447.0, 409.0, 416.0, 410.0, 434.0, 394.0, 391.0]}
Configuration: sort_flag = 0, verbose_flag = 0, nthreads=1, DIM = 2, SPLICE_DEPTH = 8, nStreams = 6, npoints = 200000, input_file=../../../input/pc/geocity.txt
@ init_kernel: 2690 ms
the number of nodes is 200000, the depth is 19
npoints = 200000, DEPTH_STAT = 256, nMatrixSize = 51200000.
pre kernel start!
Time for asynchronous transfer and execute (ms): 246.766022
pre kernel end!
@ extra: 458 ms
@ kernel: 20 ms
@ CPU: 208 ms
@ search_kernel: 478 ms
@ search: 1239 ms
correct rate: 0.9928
Collected results into ../../../results/depth_tmp/vp_Hybrid_Sched_geocity.txt_8_unsorted.stats

Loading data from ../../../results/depth_tmp/vp_Hybrid_Sched_geocity.txt_8_unsorted.stats...
{'CPU:': [198.0, 160.0, 176.0, 161.0, 184.0, 146.0, 141.0, 208.0], 'search:': [1172.0, 1092.0, 1128.0, 1111.0, 1070.0, 1090.0, 1079.0, 1239.0], 'search_kernel:': [467.0, 429.0, 436.0, 430.0, 454.0, 415.0, 411.0, 478.0], 'init_kernel:': [2793.0, 2666.0, 2598.0, 2634.0, 2639.0, 2652.0, 2677.0, 2690.0], 'kernel:': [20.0, 20.0, 20.0, 20.0, 20.0, 20.0, 20.0, 20.0], 'extra:': [447.0, 409.0, 416.0, 410.0, 434.0, 394.0, 391.0, 458.0]}
Configuration: sort_flag = 0, verbose_flag = 0, nthreads=1, DIM = 2, SPLICE_DEPTH = 8, nStreams = 6, npoints = 200000, input_file=../../../input/pc/geocity.txt
@ init_kernel: 2660 ms
the number of nodes is 200000, the depth is 19
npoints = 200000, DEPTH_STAT = 256, nMatrixSize = 51200000.
pre kernel start!
Time for asynchronous transfer and execute (ms): 246.346527
pre kernel end!
@ extra: 414 ms
@ kernel: 20 ms
@ CPU: 165 ms
@ search_kernel: 435 ms
@ search: 1097 ms
correct rate: 0.9928
Collected results into ../../../results/depth_tmp/vp_Hybrid_Sched_geocity.txt_8_unsorted.stats

Loading data from ../../../results/depth_tmp/vp_Hybrid_Sched_geocity.txt_8_unsorted.stats...
{'kernel:': [20.0, 20.0, 20.0, 20.0, 20.0, 20.0, 20.0, 20.0, 20.0], 'CPU:': [198.0, 160.0, 176.0, 161.0, 184.0, 146.0, 141.0, 208.0, 165.0], 'search_kernel:': [467.0, 429.0, 436.0, 430.0, 454.0, 415.0, 411.0, 478.0, 435.0], 'init_kernel:': [2793.0, 2666.0, 2598.0, 2634.0, 2639.0, 2652.0, 2677.0, 2690.0, 2660.0], 'search:': [1172.0, 1092.0, 1128.0, 1111.0, 1070.0, 1090.0, 1079.0, 1239.0, 1097.0], 'extra:': [447.0, 409.0, 416.0, 410.0, 434.0, 394.0, 391.0, 458.0, 414.0]}
Configuration: sort_flag = 0, verbose_flag = 0, nthreads=1, DIM = 2, SPLICE_DEPTH = 8, nStreams = 6, npoints = 200000, input_file=../../../input/pc/geocity.txt
@ init_kernel: 2751 ms
the number of nodes is 200000, the depth is 19
npoints = 200000, DEPTH_STAT = 256, nMatrixSize = 51200000.
pre kernel start!
Time for asynchronous transfer and execute (ms): 247.149475
pre kernel end!
@ extra: 445 ms
@ kernel: 20 ms
@ CPU: 195 ms
@ search_kernel: 465 ms
@ search: 1207 ms
correct rate: 0.9928
Collected results into ../../../results/depth_tmp/vp_Hybrid_Sched_geocity.txt_8_unsorted.stats

Loading data from ../../../results/depth_tmp/vp_Hybrid_Sched_geocity.txt_8_unsorted.stats...
{'CPU:': [198.0, 160.0, 176.0, 161.0, 184.0, 146.0, 141.0, 208.0, 165.0, 195.0], 'search:': [1172.0, 1092.0, 1128.0, 1111.0, 1070.0, 1090.0, 1079.0, 1239.0, 1097.0, 1207.0], 'kernel:': [20.0, 20.0, 20.0, 20.0, 20.0, 20.0, 20.0, 20.0, 20.0, 20.0], 'init_kernel:': [2793.0, 2666.0, 2598.0, 2634.0, 2639.0, 2652.0, 2677.0, 2690.0, 2660.0, 2751.0], 'search_kernel:': [467.0, 429.0, 436.0, 430.0, 454.0, 415.0, 411.0, 478.0, 435.0, 465.0], 'extra:': [447.0, 409.0, 416.0, 410.0, 434.0, 394.0, 391.0, 458.0, 414.0, 445.0]}
Configuration: sort_flag = 0, verbose_flag = 0, nthreads=1, DIM = 2, SPLICE_DEPTH = 8, nStreams = 6, npoints = 200000, input_file=../../../input/pc/geocity.txt
@ init_kernel: 2680 ms
the number of nodes is 200000, the depth is 19
npoints = 200000, DEPTH_STAT = 256, nMatrixSize = 51200000.
pre kernel start!
Time for asynchronous transfer and execute (ms): 246.713791
pre kernel end!
@ extra: 388 ms
@ kernel: 20 ms
@ CPU: 139 ms
@ search_kernel: 408 ms
@ search: 1097 ms
correct rate: 0.9928
Collected results into ../../../results/depth_tmp/vp_Hybrid_Sched_geocity.txt_8_unsorted.stats

Loading data from ../../../results/depth_tmp/vp_Hybrid_Sched_geocity.txt_8_unsorted.stats...
{'CPU:': [198.0, 160.0, 176.0, 161.0, 184.0, 146.0, 141.0, 208.0, 165.0, 195.0, 139.0], 'search_kernel:': [467.0, 429.0, 436.0, 430.0, 454.0, 415.0, 411.0, 478.0, 435.0, 465.0, 408.0], 'kernel:': [20.0, 20.0, 20.0, 20.0, 20.0, 20.0, 20.0, 20.0, 20.0, 20.0, 20.0], 'init_kernel:': [2793.0, 2666.0, 2598.0, 2634.0, 2639.0, 2652.0, 2677.0, 2690.0, 2660.0, 2751.0, 2680.0], 'search:': [1172.0, 1092.0, 1128.0, 1111.0, 1070.0, 1090.0, 1079.0, 1239.0, 1097.0, 1207.0, 1097.0], 'extra:': [447.0, 409.0, 416.0, 410.0, 434.0, 394.0, 391.0, 458.0, 414.0, 445.0, 388.0]}
Configuration: sort_flag = 0, verbose_flag = 0, nthreads=1, DIM = 2, SPLICE_DEPTH = 8, nStreams = 6, npoints = 200000, input_file=../../../input/pc/geocity.txt
@ init_kernel: 2656 ms
the number of nodes is 200000, the depth is 19
npoints = 200000, DEPTH_STAT = 256, nMatrixSize = 51200000.
pre kernel start!
Time for asynchronous transfer and execute (ms): 246.064774
pre kernel end!
@ extra: 414 ms
@ kernel: 20 ms
@ CPU: 165 ms
@ search_kernel: 434 ms
@ search: 1072 ms
correct rate: 0.9928
Collected results into ../../../results/depth_tmp/vp_Hybrid_Sched_geocity.txt_8_unsorted.stats

Loading data from ../../../results/depth_tmp/vp_Hybrid_Sched_geocity.txt_8_unsorted.stats...
{'CPU:': [198.0, 160.0, 176.0, 161.0, 184.0, 146.0, 141.0, 208.0, 165.0, 195.0, 139.0, 165.0], 'search:': [1172.0, 1092.0, 1128.0, 1111.0, 1070.0, 1090.0, 1079.0, 1239.0, 1097.0, 1207.0, 1097.0, 1072.0], 'search_kernel:': [467.0, 429.0, 436.0, 430.0, 454.0, 415.0, 411.0, 478.0, 435.0, 465.0, 408.0, 434.0], 'init_kernel:': [2793.0, 2666.0, 2598.0, 2634.0, 2639.0, 2652.0, 2677.0, 2690.0, 2660.0, 2751.0, 2680.0, 2656.0], 'kernel:': [20.0, 20.0, 20.0, 20.0, 20.0, 20.0, 20.0, 20.0, 20.0, 20.0, 20.0, 20.0], 'extra:': [447.0, 409.0, 416.0, 410.0, 434.0, 394.0, 391.0, 458.0, 414.0, 445.0, 388.0, 414.0]}
Configuration: sort_flag = 0, verbose_flag = 0, nthreads=1, DIM = 2, SPLICE_DEPTH = 8, nStreams = 6, npoints = 200000, input_file=../../../input/pc/geocity.txt
@ init_kernel: 2634 ms
the number of nodes is 200000, the depth is 19
npoints = 200000, DEPTH_STAT = 256, nMatrixSize = 51200000.
pre kernel start!
Time for asynchronous transfer and execute (ms): 246.906586
pre kernel end!
@ extra: 404 ms
@ kernel: 20 ms
@ CPU: 154 ms
@ search_kernel: 424 ms
@ search: 1116 ms
correct rate: 0.9928
Collected results into ../../../results/depth_tmp/vp_Hybrid_Sched_geocity.txt_8_unsorted.stats

Loading data from ../../../results/depth_tmp/vp_Hybrid_Sched_geocity.txt_8_unsorted.stats...
{'kernel:': [20.0, 20.0, 20.0, 20.0, 20.0, 20.0, 20.0, 20.0, 20.0, 20.0, 20.0, 20.0, 20.0], 'CPU:': [198.0, 160.0, 176.0, 161.0, 184.0, 146.0, 141.0, 208.0, 165.0, 195.0, 139.0, 165.0, 154.0], 'search_kernel:': [467.0, 429.0, 436.0, 430.0, 454.0, 415.0, 411.0, 478.0, 435.0, 465.0, 408.0, 434.0, 424.0], 'init_kernel:': [2793.0, 2666.0, 2598.0, 2634.0, 2639.0, 2652.0, 2677.0, 2690.0, 2660.0, 2751.0, 2680.0, 2656.0, 2634.0], 'search:': [1172.0, 1092.0, 1128.0, 1111.0, 1070.0, 1090.0, 1079.0, 1239.0, 1097.0, 1207.0, 1097.0, 1072.0, 1116.0], 'extra:': [447.0, 409.0, 416.0, 410.0, 434.0, 394.0, 391.0, 458.0, 414.0, 445.0, 388.0, 414.0, 404.0]}
Configuration: sort_flag = 0, verbose_flag = 0, nthreads=1, DIM = 2, SPLICE_DEPTH = 8, nStreams = 6, npoints = 200000, input_file=../../../input/pc/geocity.txt
@ init_kernel: 2619 ms
the number of nodes is 200000, the depth is 19
npoints = 200000, DEPTH_STAT = 256, nMatrixSize = 51200000.
pre kernel start!
Time for asynchronous transfer and execute (ms): 247.007065
pre kernel end!
@ extra: 426 ms
@ kernel: 20 ms
@ CPU: 176 ms
@ search_kernel: 447 ms
@ search: 1107 ms
correct rate: 0.9928
Collected results into ../../../results/depth_tmp/vp_Hybrid_Sched_geocity.txt_8_unsorted.stats

Loading data from ../../../results/depth_tmp/vp_Hybrid_Sched_geocity.txt_8_unsorted.stats...
{'CPU:': [198.0, 160.0, 176.0, 161.0, 184.0, 146.0, 141.0, 208.0, 165.0, 195.0, 139.0, 165.0, 154.0, 176.0], 'search:': [1172.0, 1092.0, 1128.0, 1111.0, 1070.0, 1090.0, 1079.0, 1239.0, 1097.0, 1207.0, 1097.0, 1072.0, 1116.0, 1107.0], 'kernel:': [20.0, 20.0, 20.0, 20.0, 20.0, 20.0, 20.0, 20.0, 20.0, 20.0, 20.0, 20.0, 20.0, 20.0], 'init_kernel:': [2793.0, 2666.0, 2598.0, 2634.0, 2639.0, 2652.0, 2677.0, 2690.0, 2660.0, 2751.0, 2680.0, 2656.0, 2634.0, 2619.0], 'search_kernel:': [467.0, 429.0, 436.0, 430.0, 454.0, 415.0, 411.0, 478.0, 435.0, 465.0, 408.0, 434.0, 424.0, 447.0], 'extra:': [447.0, 409.0, 416.0, 410.0, 434.0, 394.0, 391.0, 458.0, 414.0, 445.0, 388.0, 414.0, 404.0, 426.0]}
Configuration: sort_flag = 0, verbose_flag = 0, nthreads=1, DIM = 2, SPLICE_DEPTH = 8, nStreams = 6, npoints = 200000, input_file=../../../input/pc/geocity.txt
@ init_kernel: 2640 ms
the number of nodes is 200000, the depth is 19
npoints = 200000, DEPTH_STAT = 256, nMatrixSize = 51200000.
pre kernel start!
Time for asynchronous transfer and execute (ms): 247.367645
pre kernel end!
@ extra: 408 ms
@ kernel: 20 ms
@ CPU: 158 ms
@ search_kernel: 429 ms
@ search: 1108 ms
correct rate: 0.9928
Collected results into ../../../results/depth_tmp/vp_Hybrid_Sched_geocity.txt_8_unsorted.stats

