Results wll be collected to ../../../results/depth_tmp/vp_Hybrid_Sched_covtype.7d_5_unsorted.stats...
Configuration: sort_flag = 0, verbose_flag = 0, nthreads=1, DIM = 7, SPLICE_DEPTH = 5, nStreams = 6, npoints = 200000, input_file=../../../input/pc/covtype.7d
@ init_kernel: 2626 ms
the number of nodes is 200000, the depth is 19
npoints = 200000, DEPTH_STAT = 32, nMatrixSize = 6400000.
pre kernel start!
Time for asynchronous transfer and execute (ms): 34.421761
pre kernel end!
@ extra: 156 ms
@ kernel: 599 ms
@ CPU: 118 ms
@ search_kernel: 755 ms
@ search: 1493 ms
correct rate: 0.8632
Collected results into ../../../results/depth_tmp/vp_Hybrid_Sched_covtype.7d_5_unsorted.stats

Loading data from ../../../results/depth_tmp/vp_Hybrid_Sched_covtype.7d_5_unsorted.stats...
{'kernel:': [599.0], 'CPU:': [118.0], 'search_kernel:': [755.0], 'init_kernel:': [2626.0], 'search:': [1493.0], 'extra:': [156.0]}
Configuration: sort_flag = 0, verbose_flag = 0, nthreads=1, DIM = 7, SPLICE_DEPTH = 5, nStreams = 6, npoints = 200000, input_file=../../../input/pc/covtype.7d
@ init_kernel: 2640 ms
the number of nodes is 200000, the depth is 19
npoints = 200000, DEPTH_STAT = 32, nMatrixSize = 6400000.
pre kernel start!
Time for asynchronous transfer and execute (ms): 35.071999
pre kernel end!
@ extra: 156 ms
@ kernel: 599 ms
@ CPU: 118 ms
@ search_kernel: 757 ms
@ search: 1501 ms
correct rate: 0.8632
Collected results into ../../../results/depth_tmp/vp_Hybrid_Sched_covtype.7d_5_unsorted.stats

Loading data from ../../../results/depth_tmp/vp_Hybrid_Sched_covtype.7d_5_unsorted.stats...
{'CPU:': [118.0, 118.0], 'search:': [1493.0, 1501.0], 'kernel:': [599.0, 599.0], 'init_kernel:': [2626.0, 2640.0], 'search_kernel:': [755.0, 757.0], 'extra:': [156.0, 156.0]}
Configuration: sort_flag = 0, verbose_flag = 0, nthreads=1, DIM = 7, SPLICE_DEPTH = 5, nStreams = 6, npoints = 200000, input_file=../../../input/pc/covtype.7d
@ init_kernel: 2620 ms
the number of nodes is 200000, the depth is 19
npoints = 200000, DEPTH_STAT = 32, nMatrixSize = 6400000.
pre kernel start!
Time for asynchronous transfer and execute (ms): 34.449921
pre kernel end!
@ extra: 155 ms
@ kernel: 600 ms
@ CPU: 118 ms
@ search_kernel: 756 ms
@ search: 1496 ms
correct rate: 0.8632
Collected results into ../../../results/depth_tmp/vp_Hybrid_Sched_covtype.7d_5_unsorted.stats

Loading data from ../../../results/depth_tmp/vp_Hybrid_Sched_covtype.7d_5_unsorted.stats...
{'CPU:': [118.0, 118.0, 118.0], 'search_kernel:': [755.0, 757.0, 756.0], 'kernel:': [599.0, 599.0, 600.0], 'init_kernel:': [2626.0, 2640.0, 2620.0], 'search:': [1493.0, 1501.0, 1496.0], 'extra:': [156.0, 156.0, 155.0]}
Configuration: sort_flag = 0, verbose_flag = 0, nthreads=1, DIM = 7, SPLICE_DEPTH = 5, nStreams = 6, npoints = 200000, input_file=../../../input/pc/covtype.7d
@ init_kernel: 2779 ms
the number of nodes is 200000, the depth is 19
npoints = 200000, DEPTH_STAT = 32, nMatrixSize = 6400000.
pre kernel start!
Time for asynchronous transfer and execute (ms): 34.193314
pre kernel end!
@ extra: 155 ms
@ kernel: 599 ms
@ CPU: 118 ms
@ search_kernel: 755 ms
@ search: 1389 ms
correct rate: 0.8632
Collected results into ../../../results/depth_tmp/vp_Hybrid_Sched_covtype.7d_5_unsorted.stats

Loading data from ../../../results/depth_tmp/vp_Hybrid_Sched_covtype.7d_5_unsorted.stats...
{'CPU:': [118.0, 118.0, 118.0, 118.0], 'search:': [1493.0, 1501.0, 1496.0, 1389.0], 'search_kernel:': [755.0, 757.0, 756.0, 755.0], 'init_kernel:': [2626.0, 2640.0, 2620.0, 2779.0], 'kernel:': [599.0, 599.0, 600.0, 599.0], 'extra:': [156.0, 156.0, 155.0, 155.0]}
Configuration: sort_flag = 0, verbose_flag = 0, nthreads=1, DIM = 7, SPLICE_DEPTH = 5, nStreams = 6, npoints = 200000, input_file=../../../input/pc/covtype.7d
@ init_kernel: 2671 ms
the number of nodes is 200000, the depth is 19
npoints = 200000, DEPTH_STAT = 32, nMatrixSize = 6400000.
pre kernel start!
Time for asynchronous transfer and execute (ms): 34.401249
pre kernel end!
@ extra: 156 ms
@ kernel: 601 ms
@ CPU: 118 ms
@ search_kernel: 757 ms
@ search: 1460 ms
correct rate: 0.8632
Collected results into ../../../results/depth_tmp/vp_Hybrid_Sched_covtype.7d_5_unsorted.stats

Loading data from ../../../results/depth_tmp/vp_Hybrid_Sched_covtype.7d_5_unsorted.stats...
{'kernel:': [599.0, 599.0, 600.0, 599.0, 601.0], 'CPU:': [118.0, 118.0, 118.0, 118.0, 118.0], 'search_kernel:': [755.0, 757.0, 756.0, 755.0, 757.0], 'init_kernel:': [2626.0, 2640.0, 2620.0, 2779.0, 2671.0], 'search:': [1493.0, 1501.0, 1496.0, 1389.0, 1460.0], 'extra:': [156.0, 156.0, 155.0, 155.0, 156.0]}
Configuration: sort_flag = 0, verbose_flag = 0, nthreads=1, DIM = 7, SPLICE_DEPTH = 5, nStreams = 6, npoints = 200000, input_file=../../../input/pc/covtype.7d
@ init_kernel: 2641 ms
the number of nodes is 200000, the depth is 19
npoints = 200000, DEPTH_STAT = 32, nMatrixSize = 6400000.
pre kernel start!
Time for asynchronous transfer and execute (ms): 35.042400
pre kernel end!
@ extra: 157 ms
@ kernel: 601 ms
@ CPU: 118 ms
@ search_kernel: 759 ms
@ search: 1501 ms
correct rate: 0.8632
Collected results into ../../../results/depth_tmp/vp_Hybrid_Sched_covtype.7d_5_unsorted.stats

Loading data from ../../../results/depth_tmp/vp_Hybrid_Sched_covtype.7d_5_unsorted.stats...
{'CPU:': [118.0, 118.0, 118.0, 118.0, 118.0, 118.0], 'search:': [1493.0, 1501.0, 1496.0, 1389.0, 1460.0, 1501.0], 'kernel:': [599.0, 599.0, 600.0, 599.0, 601.0, 601.0], 'init_kernel:': [2626.0, 2640.0, 2620.0, 2779.0, 2671.0, 2641.0], 'search_kernel:': [755.0, 757.0, 756.0, 755.0, 757.0, 759.0], 'extra:': [156.0, 156.0, 155.0, 155.0, 156.0, 157.0]}
Configuration: sort_flag = 0, verbose_flag = 0, nthreads=1, DIM = 7, SPLICE_DEPTH = 5, nStreams = 6, npoints = 200000, input_file=../../../input/pc/covtype.7d
@ init_kernel: 2604 ms
the number of nodes is 200000, the depth is 19
npoints = 200000, DEPTH_STAT = 32, nMatrixSize = 6400000.
pre kernel start!
Time for asynchronous transfer and execute (ms): 35.114208
pre kernel end!
@ extra: 157 ms
@ kernel: 601 ms
@ CPU: 119 ms
@ search_kernel: 759 ms
@ search: 1546 ms
correct rate: 0.8632
Collected results into ../../../results/depth_tmp/vp_Hybrid_Sched_covtype.7d_5_unsorted.stats

Loading data from ../../../results/depth_tmp/vp_Hybrid_Sched_covtype.7d_5_unsorted.stats...
{'CPU:': [118.0, 118.0, 118.0, 118.0, 118.0, 118.0, 119.0], 'search_kernel:': [755.0, 757.0, 756.0, 755.0, 757.0, 759.0, 759.0], 'kernel:': [599.0, 599.0, 600.0, 599.0, 601.0, 601.0, 601.0], 'init_kernel:': [2626.0, 2640.0, 2620.0, 2779.0, 2671.0, 2641.0, 2604.0], 'search:': [1493.0, 1501.0, 1496.0, 1389.0, 1460.0, 1501.0, 1546.0], 'extra:': [156.0, 156.0, 155.0, 155.0, 156.0, 157.0, 157.0]}
Configuration: sort_flag = 0, verbose_flag = 0, nthreads=1, DIM = 7, SPLICE_DEPTH = 5, nStreams = 6, npoints = 200000, input_file=../../../input/pc/covtype.7d
@ init_kernel: 2806 ms
the number of nodes is 200000, the depth is 19
npoints = 200000, DEPTH_STAT = 32, nMatrixSize = 6400000.
pre kernel start!
Time for asynchronous transfer and execute (ms): 34.631329
pre kernel end!
@ extra: 156 ms
@ kernel: 600 ms
@ CPU: 118 ms
@ search_kernel: 756 ms
@ search: 1545 ms
correct rate: 0.8632
Collected results into ../../../results/depth_tmp/vp_Hybrid_Sched_covtype.7d_5_unsorted.stats

Loading data from ../../../results/depth_tmp/vp_Hybrid_Sched_covtype.7d_5_unsorted.stats...
{'CPU:': [118.0, 118.0, 118.0, 118.0, 118.0, 118.0, 119.0, 118.0], 'search:': [1493.0, 1501.0, 1496.0, 1389.0, 1460.0, 1501.0, 1546.0, 1545.0], 'search_kernel:': [755.0, 757.0, 756.0, 755.0, 757.0, 759.0, 759.0, 756.0], 'init_kernel:': [2626.0, 2640.0, 2620.0, 2779.0, 2671.0, 2641.0, 2604.0, 2806.0], 'kernel:': [599.0, 599.0, 600.0, 599.0, 601.0, 601.0, 601.0, 600.0], 'extra:': [156.0, 156.0, 155.0, 155.0, 156.0, 157.0, 157.0, 156.0]}
Configuration: sort_flag = 0, verbose_flag = 0, nthreads=1, DIM = 7, SPLICE_DEPTH = 5, nStreams = 6, npoints = 200000, input_file=../../../input/pc/covtype.7d
@ init_kernel: 2595 ms
the number of nodes is 200000, the depth is 19
npoints = 200000, DEPTH_STAT = 32, nMatrixSize = 6400000.
pre kernel start!
Time for asynchronous transfer and execute (ms): 34.380703
pre kernel end!
@ extra: 156 ms
@ kernel: 601 ms
@ CPU: 118 ms
@ search_kernel: 757 ms
@ search: 1532 ms
correct rate: 0.8632
Collected results into ../../../results/depth_tmp/vp_Hybrid_Sched_covtype.7d_5_unsorted.stats

Loading data from ../../../results/depth_tmp/vp_Hybrid_Sched_covtype.7d_5_unsorted.stats...
{'kernel:': [599.0, 599.0, 600.0, 599.0, 601.0, 601.0, 601.0, 600.0, 601.0], 'CPU:': [118.0, 118.0, 118.0, 118.0, 118.0, 118.0, 119.0, 118.0, 118.0], 'search_kernel:': [755.0, 757.0, 756.0, 755.0, 757.0, 759.0, 759.0, 756.0, 757.0], 'init_kernel:': [2626.0, 2640.0, 2620.0, 2779.0, 2671.0, 2641.0, 2604.0, 2806.0, 2595.0], 'search:': [1493.0, 1501.0, 1496.0, 1389.0, 1460.0, 1501.0, 1546.0, 1545.0, 1532.0], 'extra:': [156.0, 156.0, 155.0, 155.0, 156.0, 157.0, 157.0, 156.0, 156.0]}
Configuration: sort_flag = 0, verbose_flag = 0, nthreads=1, DIM = 7, SPLICE_DEPTH = 5, nStreams = 6, npoints = 200000, input_file=../../../input/pc/covtype.7d
@ init_kernel: 2612 ms
the number of nodes is 200000, the depth is 19
npoints = 200000, DEPTH_STAT = 32, nMatrixSize = 6400000.
pre kernel start!
Time for asynchronous transfer and execute (ms): 35.183777
pre kernel end!
@ extra: 157 ms
@ kernel: 602 ms
@ CPU: 119 ms
@ search_kernel: 759 ms
@ search: 1499 ms
correct rate: 0.8632
Collected results into ../../../results/depth_tmp/vp_Hybrid_Sched_covtype.7d_5_unsorted.stats

Loading data from ../../../results/depth_tmp/vp_Hybrid_Sched_covtype.7d_5_unsorted.stats...
{'CPU:': [118.0, 118.0, 118.0, 118.0, 118.0, 118.0, 119.0, 118.0, 118.0, 119.0], 'search:': [1493.0, 1501.0, 1496.0, 1389.0, 1460.0, 1501.0, 1546.0, 1545.0, 1532.0, 1499.0], 'kernel:': [599.0, 599.0, 600.0, 599.0, 601.0, 601.0, 601.0, 600.0, 601.0, 602.0], 'init_kernel:': [2626.0, 2640.0, 2620.0, 2779.0, 2671.0, 2641.0, 2604.0, 2806.0, 2595.0, 2612.0], 'search_kernel:': [755.0, 757.0, 756.0, 755.0, 757.0, 759.0, 759.0, 756.0, 757.0, 759.0], 'extra:': [156.0, 156.0, 155.0, 155.0, 156.0, 157.0, 157.0, 156.0, 156.0, 157.0]}
Configuration: sort_flag = 0, verbose_flag = 0, nthreads=1, DIM = 7, SPLICE_DEPTH = 5, nStreams = 6, npoints = 200000, input_file=../../../input/pc/covtype.7d
@ init_kernel: 2606 ms
the number of nodes is 200000, the depth is 19
npoints = 200000, DEPTH_STAT = 32, nMatrixSize = 6400000.
pre kernel start!
Time for asynchronous transfer and execute (ms): 35.192993
pre kernel end!
@ extra: 157 ms
@ kernel: 600 ms
@ CPU: 118 ms
@ search_kernel: 757 ms
@ search: 1523 ms
correct rate: 0.8632
Collected results into ../../../results/depth_tmp/vp_Hybrid_Sched_covtype.7d_5_unsorted.stats

Loading data from ../../../results/depth_tmp/vp_Hybrid_Sched_covtype.7d_5_unsorted.stats...
{'CPU:': [118.0, 118.0, 118.0, 118.0, 118.0, 118.0, 119.0, 118.0, 118.0, 119.0, 118.0], 'search_kernel:': [755.0, 757.0, 756.0, 755.0, 757.0, 759.0, 759.0, 756.0, 757.0, 759.0, 757.0], 'kernel:': [599.0, 599.0, 600.0, 599.0, 601.0, 601.0, 601.0, 600.0, 601.0, 602.0, 600.0], 'init_kernel:': [2626.0, 2640.0, 2620.0, 2779.0, 2671.0, 2641.0, 2604.0, 2806.0, 2595.0, 2612.0, 2606.0], 'search:': [1493.0, 1501.0, 1496.0, 1389.0, 1460.0, 1501.0, 1546.0, 1545.0, 1532.0, 1499.0, 1523.0], 'extra:': [156.0, 156.0, 155.0, 155.0, 156.0, 157.0, 157.0, 156.0, 156.0, 157.0, 157.0]}
Configuration: sort_flag = 0, verbose_flag = 0, nthreads=1, DIM = 7, SPLICE_DEPTH = 5, nStreams = 6, npoints = 200000, input_file=../../../input/pc/covtype.7d
@ init_kernel: 2776 ms
the number of nodes is 200000, the depth is 19
npoints = 200000, DEPTH_STAT = 32, nMatrixSize = 6400000.
pre kernel start!
Time for asynchronous transfer and execute (ms): 35.434753
pre kernel end!
@ extra: 157 ms
@ kernel: 600 ms
@ CPU: 118 ms
@ search_kernel: 758 ms
@ search: 1455 ms
correct rate: 0.8632
Collected results into ../../../results/depth_tmp/vp_Hybrid_Sched_covtype.7d_5_unsorted.stats

Loading data from ../../../results/depth_tmp/vp_Hybrid_Sched_covtype.7d_5_unsorted.stats...
{'CPU:': [118.0, 118.0, 118.0, 118.0, 118.0, 118.0, 119.0, 118.0, 118.0, 119.0, 118.0, 118.0], 'search:': [1493.0, 1501.0, 1496.0, 1389.0, 1460.0, 1501.0, 1546.0, 1545.0, 1532.0, 1499.0, 1523.0, 1455.0], 'search_kernel:': [755.0, 757.0, 756.0, 755.0, 757.0, 759.0, 759.0, 756.0, 757.0, 759.0, 757.0, 758.0], 'init_kernel:': [2626.0, 2640.0, 2620.0, 2779.0, 2671.0, 2641.0, 2604.0, 2806.0, 2595.0, 2612.0, 2606.0, 2776.0], 'kernel:': [599.0, 599.0, 600.0, 599.0, 601.0, 601.0, 601.0, 600.0, 601.0, 602.0, 600.0, 600.0], 'extra:': [156.0, 156.0, 155.0, 155.0, 156.0, 157.0, 157.0, 156.0, 156.0, 157.0, 157.0, 157.0]}
Configuration: sort_flag = 0, verbose_flag = 0, nthreads=1, DIM = 7, SPLICE_DEPTH = 5, nStreams = 6, npoints = 200000, input_file=../../../input/pc/covtype.7d
@ init_kernel: 2630 ms
the number of nodes is 200000, the depth is 19
npoints = 200000, DEPTH_STAT = 32, nMatrixSize = 6400000.
pre kernel start!
Time for asynchronous transfer and execute (ms): 35.468258
pre kernel end!
@ extra: 157 ms
@ kernel: 601 ms
@ CPU: 118 ms
@ search_kernel: 760 ms
@ search: 1546 ms
correct rate: 0.8632
Collected results into ../../../results/depth_tmp/vp_Hybrid_Sched_covtype.7d_5_unsorted.stats

Loading data from ../../../results/depth_tmp/vp_Hybrid_Sched_covtype.7d_5_unsorted.stats...
{'kernel:': [599.0, 599.0, 600.0, 599.0, 601.0, 601.0, 601.0, 600.0, 601.0, 602.0, 600.0, 600.0, 601.0], 'CPU:': [118.0, 118.0, 118.0, 118.0, 118.0, 118.0, 119.0, 118.0, 118.0, 119.0, 118.0, 118.0, 118.0], 'search_kernel:': [755.0, 757.0, 756.0, 755.0, 757.0, 759.0, 759.0, 756.0, 757.0, 759.0, 757.0, 758.0, 760.0], 'init_kernel:': [2626.0, 2640.0, 2620.0, 2779.0, 2671.0, 2641.0, 2604.0, 2806.0, 2595.0, 2612.0, 2606.0, 2776.0, 2630.0], 'search:': [1493.0, 1501.0, 1496.0, 1389.0, 1460.0, 1501.0, 1546.0, 1545.0, 1532.0, 1499.0, 1523.0, 1455.0, 1546.0], 'extra:': [156.0, 156.0, 155.0, 155.0, 156.0, 157.0, 157.0, 156.0, 156.0, 157.0, 157.0, 157.0, 157.0]}
Configuration: sort_flag = 0, verbose_flag = 0, nthreads=1, DIM = 7, SPLICE_DEPTH = 5, nStreams = 6, npoints = 200000, input_file=../../../input/pc/covtype.7d
@ init_kernel: 2653 ms
the number of nodes is 200000, the depth is 19
npoints = 200000, DEPTH_STAT = 32, nMatrixSize = 6400000.
pre kernel start!
Time for asynchronous transfer and execute (ms): 35.696609
pre kernel end!
@ extra: 157 ms
@ kernel: 602 ms
@ CPU: 118 ms
@ search_kernel: 759 ms
@ search: 1484 ms
correct rate: 0.8632
Collected results into ../../../results/depth_tmp/vp_Hybrid_Sched_covtype.7d_5_unsorted.stats

Loading data from ../../../results/depth_tmp/vp_Hybrid_Sched_covtype.7d_5_unsorted.stats...
{'CPU:': [118.0, 118.0, 118.0, 118.0, 118.0, 118.0, 119.0, 118.0, 118.0, 119.0, 118.0, 118.0, 118.0, 118.0], 'search:': [1493.0, 1501.0, 1496.0, 1389.0, 1460.0, 1501.0, 1546.0, 1545.0, 1532.0, 1499.0, 1523.0, 1455.0, 1546.0, 1484.0], 'kernel:': [599.0, 599.0, 600.0, 599.0, 601.0, 601.0, 601.0, 600.0, 601.0, 602.0, 600.0, 600.0, 601.0, 602.0], 'init_kernel:': [2626.0, 2640.0, 2620.0, 2779.0, 2671.0, 2641.0, 2604.0, 2806.0, 2595.0, 2612.0, 2606.0, 2776.0, 2630.0, 2653.0], 'search_kernel:': [755.0, 757.0, 756.0, 755.0, 757.0, 759.0, 759.0, 756.0, 757.0, 759.0, 757.0, 758.0, 760.0, 759.0], 'extra:': [156.0, 156.0, 155.0, 155.0, 156.0, 157.0, 157.0, 156.0, 156.0, 157.0, 157.0, 157.0, 157.0, 157.0]}
Configuration: sort_flag = 0, verbose_flag = 0, nthreads=1, DIM = 7, SPLICE_DEPTH = 5, nStreams = 6, npoints = 200000, input_file=../../../input/pc/covtype.7d
@ init_kernel: 2642 ms
the number of nodes is 200000, the depth is 19
npoints = 200000, DEPTH_STAT = 32, nMatrixSize = 6400000.
pre kernel start!
Time for asynchronous transfer and execute (ms): 35.644642
pre kernel end!
@ extra: 157 ms
@ kernel: 599 ms
@ CPU: 118 ms
@ search_kernel: 758 ms
@ search: 1500 ms
correct rate: 0.8632
Collected results into ../../../results/depth_tmp/vp_Hybrid_Sched_covtype.7d_5_unsorted.stats

