Results wll be collected to ../../../results/depth_tmp/vp_Hybrid_Sched_covtype.7d_10_unsorted.stats...
Configuration: sort_flag = 0, verbose_flag = 0, nthreads=1, DIM = 7, SPLICE_DEPTH = 10, nStreams = 6, npoints = 200000, input_file=../../../input/pc/covtype.7d
@ init_kernel: 2601 ms
the number of nodes is 200000, the depth is 19
npoints = 200000, DEPTH_STAT = 1024, nMatrixSize = 204800000.
pre kernel start!
Time for asynchronous transfer and execute (ms): 875.778503
pre kernel end!
@ extra: 1267 ms
@ kernel: 376 ms
@ CPU: 387 ms
@ search_kernel: 1644 ms
@ search: 2417 ms
correct rate: 0.8632
Collected results into ../../../results/depth_tmp/vp_Hybrid_Sched_covtype.7d_10_unsorted.stats

Loading data from ../../../results/depth_tmp/vp_Hybrid_Sched_covtype.7d_10_unsorted.stats...
{'kernel:': [376.0], 'CPU:': [387.0], 'search_kernel:': [1644.0], 'init_kernel:': [2601.0], 'search:': [2417.0], 'extra:': [1267.0]}
Configuration: sort_flag = 0, verbose_flag = 0, nthreads=1, DIM = 7, SPLICE_DEPTH = 10, nStreams = 6, npoints = 200000, input_file=../../../input/pc/covtype.7d
@ init_kernel: 2656 ms
the number of nodes is 200000, the depth is 19
npoints = 200000, DEPTH_STAT = 1024, nMatrixSize = 204800000.
pre kernel start!
Time for asynchronous transfer and execute (ms): 871.755005
pre kernel end!
@ extra: 1264 ms
@ kernel: 378 ms
@ CPU: 388 ms
@ search_kernel: 1642 ms
@ search: 2420 ms
correct rate: 0.8632
Collected results into ../../../results/depth_tmp/vp_Hybrid_Sched_covtype.7d_10_unsorted.stats

Loading data from ../../../results/depth_tmp/vp_Hybrid_Sched_covtype.7d_10_unsorted.stats...
{'CPU:': [387.0, 388.0], 'search:': [2417.0, 2420.0], 'kernel:': [376.0, 378.0], 'init_kernel:': [2601.0, 2656.0], 'search_kernel:': [1644.0, 1642.0], 'extra:': [1267.0, 1264.0]}
Configuration: sort_flag = 0, verbose_flag = 0, nthreads=1, DIM = 7, SPLICE_DEPTH = 10, nStreams = 6, npoints = 200000, input_file=../../../input/pc/covtype.7d
@ init_kernel: 2606 ms
the number of nodes is 200000, the depth is 19
npoints = 200000, DEPTH_STAT = 1024, nMatrixSize = 204800000.
pre kernel start!
Time for asynchronous transfer and execute (ms): 828.531982
pre kernel end!
@ extra: 1222 ms
@ kernel: 378 ms
@ CPU: 390 ms
@ search_kernel: 1601 ms
@ search: 2320 ms
correct rate: 0.8632
Collected results into ../../../results/depth_tmp/vp_Hybrid_Sched_covtype.7d_10_unsorted.stats

Loading data from ../../../results/depth_tmp/vp_Hybrid_Sched_covtype.7d_10_unsorted.stats...
{'CPU:': [387.0, 388.0, 390.0], 'search_kernel:': [1644.0, 1642.0, 1601.0], 'kernel:': [376.0, 378.0, 378.0], 'init_kernel:': [2601.0, 2656.0, 2606.0], 'search:': [2417.0, 2420.0, 2320.0], 'extra:': [1267.0, 1264.0, 1222.0]}
Configuration: sort_flag = 0, verbose_flag = 0, nthreads=1, DIM = 7, SPLICE_DEPTH = 10, nStreams = 6, npoints = 200000, input_file=../../../input/pc/covtype.7d
@ init_kernel: 2776 ms
the number of nodes is 200000, the depth is 19
npoints = 200000, DEPTH_STAT = 1024, nMatrixSize = 204800000.
pre kernel start!
Time for asynchronous transfer and execute (ms): 841.389893
pre kernel end!
@ extra: 1232 ms
@ kernel: 373 ms
@ CPU: 387 ms
@ search_kernel: 1606 ms
@ search: 2303 ms
correct rate: 0.8632
Collected results into ../../../results/depth_tmp/vp_Hybrid_Sched_covtype.7d_10_unsorted.stats

Loading data from ../../../results/depth_tmp/vp_Hybrid_Sched_covtype.7d_10_unsorted.stats...
{'CPU:': [387.0, 388.0, 390.0, 387.0], 'search:': [2417.0, 2420.0, 2320.0, 2303.0], 'search_kernel:': [1644.0, 1642.0, 1601.0, 1606.0], 'init_kernel:': [2601.0, 2656.0, 2606.0, 2776.0], 'kernel:': [376.0, 378.0, 378.0, 373.0], 'extra:': [1267.0, 1264.0, 1222.0, 1232.0]}
Configuration: sort_flag = 0, verbose_flag = 0, nthreads=1, DIM = 7, SPLICE_DEPTH = 10, nStreams = 6, npoints = 200000, input_file=../../../input/pc/covtype.7d
@ init_kernel: 2609 ms
the number of nodes is 200000, the depth is 19
npoints = 200000, DEPTH_STAT = 1024, nMatrixSize = 204800000.
pre kernel start!
Time for asynchronous transfer and execute (ms): 868.556946
pre kernel end!
@ extra: 1259 ms
@ kernel: 376 ms
@ CPU: 387 ms
@ search_kernel: 1636 ms
@ search: 2445 ms
correct rate: 0.8632
Collected results into ../../../results/depth_tmp/vp_Hybrid_Sched_covtype.7d_10_unsorted.stats

Loading data from ../../../results/depth_tmp/vp_Hybrid_Sched_covtype.7d_10_unsorted.stats...
{'kernel:': [376.0, 378.0, 378.0, 373.0, 376.0], 'CPU:': [387.0, 388.0, 390.0, 387.0, 387.0], 'search_kernel:': [1644.0, 1642.0, 1601.0, 1606.0, 1636.0], 'init_kernel:': [2601.0, 2656.0, 2606.0, 2776.0, 2609.0], 'search:': [2417.0, 2420.0, 2320.0, 2303.0, 2445.0], 'extra:': [1267.0, 1264.0, 1222.0, 1232.0, 1259.0]}
Configuration: sort_flag = 0, verbose_flag = 0, nthreads=1, DIM = 7, SPLICE_DEPTH = 10, nStreams = 6, npoints = 200000, input_file=../../../input/pc/covtype.7d
@ init_kernel: 2687 ms
the number of nodes is 200000, the depth is 19
npoints = 200000, DEPTH_STAT = 1024, nMatrixSize = 204800000.
pre kernel start!
Time for asynchronous transfer and execute (ms): 783.076599
pre kernel end!
@ extra: 1174 ms
@ kernel: 376 ms
@ CPU: 387 ms
@ search_kernel: 1550 ms
@ search: 2296 ms
correct rate: 0.8632
Collected results into ../../../results/depth_tmp/vp_Hybrid_Sched_covtype.7d_10_unsorted.stats

Loading data from ../../../results/depth_tmp/vp_Hybrid_Sched_covtype.7d_10_unsorted.stats...
{'CPU:': [387.0, 388.0, 390.0, 387.0, 387.0, 387.0], 'search:': [2417.0, 2420.0, 2320.0, 2303.0, 2445.0, 2296.0], 'kernel:': [376.0, 378.0, 378.0, 373.0, 376.0, 376.0], 'init_kernel:': [2601.0, 2656.0, 2606.0, 2776.0, 2609.0, 2687.0], 'search_kernel:': [1644.0, 1642.0, 1601.0, 1606.0, 1636.0, 1550.0], 'extra:': [1267.0, 1264.0, 1222.0, 1232.0, 1259.0, 1174.0]}
Configuration: sort_flag = 0, verbose_flag = 0, nthreads=1, DIM = 7, SPLICE_DEPTH = 10, nStreams = 6, npoints = 200000, input_file=../../../input/pc/covtype.7d
@ init_kernel: 2619 ms
the number of nodes is 200000, the depth is 19
npoints = 200000, DEPTH_STAT = 1024, nMatrixSize = 204800000.
pre kernel start!
Time for asynchronous transfer and execute (ms): 861.760803
pre kernel end!
@ extra: 1252 ms
@ kernel: 376 ms
@ CPU: 386 ms
@ search_kernel: 1628 ms
@ search: 2362 ms
correct rate: 0.8632
Collected results into ../../../results/depth_tmp/vp_Hybrid_Sched_covtype.7d_10_unsorted.stats

Loading data from ../../../results/depth_tmp/vp_Hybrid_Sched_covtype.7d_10_unsorted.stats...
{'CPU:': [387.0, 388.0, 390.0, 387.0, 387.0, 387.0, 386.0], 'search_kernel:': [1644.0, 1642.0, 1601.0, 1606.0, 1636.0, 1550.0, 1628.0], 'kernel:': [376.0, 378.0, 378.0, 373.0, 376.0, 376.0, 376.0], 'init_kernel:': [2601.0, 2656.0, 2606.0, 2776.0, 2609.0, 2687.0, 2619.0], 'search:': [2417.0, 2420.0, 2320.0, 2303.0, 2445.0, 2296.0, 2362.0], 'extra:': [1267.0, 1264.0, 1222.0, 1232.0, 1259.0, 1174.0, 1252.0]}
Configuration: sort_flag = 0, verbose_flag = 0, nthreads=1, DIM = 7, SPLICE_DEPTH = 10, nStreams = 6, npoints = 200000, input_file=../../../input/pc/covtype.7d
@ init_kernel: 2647 ms
the number of nodes is 200000, the depth is 19
npoints = 200000, DEPTH_STAT = 1024, nMatrixSize = 204800000.
pre kernel start!
Time for asynchronous transfer and execute (ms): 877.938843
pre kernel end!
@ extra: 1270 ms
@ kernel: 376 ms
@ CPU: 388 ms
@ search_kernel: 1647 ms
@ search: 2406 ms
correct rate: 0.8632
Collected results into ../../../results/depth_tmp/vp_Hybrid_Sched_covtype.7d_10_unsorted.stats

Loading data from ../../../results/depth_tmp/vp_Hybrid_Sched_covtype.7d_10_unsorted.stats...
{'CPU:': [387.0, 388.0, 390.0, 387.0, 387.0, 387.0, 386.0, 388.0], 'search:': [2417.0, 2420.0, 2320.0, 2303.0, 2445.0, 2296.0, 2362.0, 2406.0], 'search_kernel:': [1644.0, 1642.0, 1601.0, 1606.0, 1636.0, 1550.0, 1628.0, 1647.0], 'init_kernel:': [2601.0, 2656.0, 2606.0, 2776.0, 2609.0, 2687.0, 2619.0, 2647.0], 'kernel:': [376.0, 378.0, 378.0, 373.0, 376.0, 376.0, 376.0, 376.0], 'extra:': [1267.0, 1264.0, 1222.0, 1232.0, 1259.0, 1174.0, 1252.0, 1270.0]}
Configuration: sort_flag = 0, verbose_flag = 0, nthreads=1, DIM = 7, SPLICE_DEPTH = 10, nStreams = 6, npoints = 200000, input_file=../../../input/pc/covtype.7d
@ init_kernel: 2647 ms
the number of nodes is 200000, the depth is 19
npoints = 200000, DEPTH_STAT = 1024, nMatrixSize = 204800000.
pre kernel start!
Time for asynchronous transfer and execute (ms): 776.160950
pre kernel end!
@ extra: 1167 ms
@ kernel: 377 ms
@ CPU: 387 ms
@ search_kernel: 1545 ms
@ search: 2339 ms
correct rate: 0.8632
Collected results into ../../../results/depth_tmp/vp_Hybrid_Sched_covtype.7d_10_unsorted.stats

Loading data from ../../../results/depth_tmp/vp_Hybrid_Sched_covtype.7d_10_unsorted.stats...
{'kernel:': [376.0, 378.0, 378.0, 373.0, 376.0, 376.0, 376.0, 376.0, 377.0], 'CPU:': [387.0, 388.0, 390.0, 387.0, 387.0, 387.0, 386.0, 388.0, 387.0], 'search_kernel:': [1644.0, 1642.0, 1601.0, 1606.0, 1636.0, 1550.0, 1628.0, 1647.0, 1545.0], 'init_kernel:': [2601.0, 2656.0, 2606.0, 2776.0, 2609.0, 2687.0, 2619.0, 2647.0, 2647.0], 'search:': [2417.0, 2420.0, 2320.0, 2303.0, 2445.0, 2296.0, 2362.0, 2406.0, 2339.0], 'extra:': [1267.0, 1264.0, 1222.0, 1232.0, 1259.0, 1174.0, 1252.0, 1270.0, 1167.0]}
Configuration: sort_flag = 0, verbose_flag = 0, nthreads=1, DIM = 7, SPLICE_DEPTH = 10, nStreams = 6, npoints = 200000, input_file=../../../input/pc/covtype.7d
@ init_kernel: 2816 ms
the number of nodes is 200000, the depth is 19
npoints = 200000, DEPTH_STAT = 1024, nMatrixSize = 204800000.
pre kernel start!
Time for asynchronous transfer and execute (ms): 871.950684
pre kernel end!
@ extra: 1263 ms
@ kernel: 377 ms
@ CPU: 387 ms
@ search_kernel: 1640 ms
@ search: 2413 ms
correct rate: 0.8632
Collected results into ../../../results/depth_tmp/vp_Hybrid_Sched_covtype.7d_10_unsorted.stats

Loading data from ../../../results/depth_tmp/vp_Hybrid_Sched_covtype.7d_10_unsorted.stats...
{'CPU:': [387.0, 388.0, 390.0, 387.0, 387.0, 387.0, 386.0, 388.0, 387.0, 387.0], 'search:': [2417.0, 2420.0, 2320.0, 2303.0, 2445.0, 2296.0, 2362.0, 2406.0, 2339.0, 2413.0], 'kernel:': [376.0, 378.0, 378.0, 373.0, 376.0, 376.0, 376.0, 376.0, 377.0, 377.0], 'init_kernel:': [2601.0, 2656.0, 2606.0, 2776.0, 2609.0, 2687.0, 2619.0, 2647.0, 2647.0, 2816.0], 'search_kernel:': [1644.0, 1642.0, 1601.0, 1606.0, 1636.0, 1550.0, 1628.0, 1647.0, 1545.0, 1640.0], 'extra:': [1267.0, 1264.0, 1222.0, 1232.0, 1259.0, 1174.0, 1252.0, 1270.0, 1167.0, 1263.0]}
Configuration: sort_flag = 0, verbose_flag = 0, nthreads=1, DIM = 7, SPLICE_DEPTH = 10, nStreams = 6, npoints = 200000, input_file=../../../input/pc/covtype.7d
@ init_kernel: 2651 ms
the number of nodes is 200000, the depth is 19
npoints = 200000, DEPTH_STAT = 1024, nMatrixSize = 204800000.
pre kernel start!
Time for asynchronous transfer and execute (ms): 868.339539
pre kernel end!
@ extra: 1260 ms
@ kernel: 376 ms
@ CPU: 387 ms
@ search_kernel: 1637 ms
@ search: 2438 ms
correct rate: 0.8632
Collected results into ../../../results/depth_tmp/vp_Hybrid_Sched_covtype.7d_10_unsorted.stats

Loading data from ../../../results/depth_tmp/vp_Hybrid_Sched_covtype.7d_10_unsorted.stats...
{'CPU:': [387.0, 388.0, 390.0, 387.0, 387.0, 387.0, 386.0, 388.0, 387.0, 387.0, 387.0], 'search_kernel:': [1644.0, 1642.0, 1601.0, 1606.0, 1636.0, 1550.0, 1628.0, 1647.0, 1545.0, 1640.0, 1637.0], 'kernel:': [376.0, 378.0, 378.0, 373.0, 376.0, 376.0, 376.0, 376.0, 377.0, 377.0, 376.0], 'init_kernel:': [2601.0, 2656.0, 2606.0, 2776.0, 2609.0, 2687.0, 2619.0, 2647.0, 2647.0, 2816.0, 2651.0], 'search:': [2417.0, 2420.0, 2320.0, 2303.0, 2445.0, 2296.0, 2362.0, 2406.0, 2339.0, 2413.0, 2438.0], 'extra:': [1267.0, 1264.0, 1222.0, 1232.0, 1259.0, 1174.0, 1252.0, 1270.0, 1167.0, 1263.0, 1260.0]}
Configuration: sort_flag = 0, verbose_flag = 0, nthreads=1, DIM = 7, SPLICE_DEPTH = 10, nStreams = 6, npoints = 200000, input_file=../../../input/pc/covtype.7d
@ init_kernel: 2650 ms
the number of nodes is 200000, the depth is 19
npoints = 200000, DEPTH_STAT = 1024, nMatrixSize = 204800000.
pre kernel start!
Time for asynchronous transfer and execute (ms): 878.297241
pre kernel end!
@ extra: 1271 ms
@ kernel: 377 ms
@ CPU: 389 ms
@ search_kernel: 1649 ms
@ search: 2410 ms
correct rate: 0.8632
Collected results into ../../../results/depth_tmp/vp_Hybrid_Sched_covtype.7d_10_unsorted.stats

Loading data from ../../../results/depth_tmp/vp_Hybrid_Sched_covtype.7d_10_unsorted.stats...
{'CPU:': [387.0, 388.0, 390.0, 387.0, 387.0, 387.0, 386.0, 388.0, 387.0, 387.0, 387.0, 389.0], 'search:': [2417.0, 2420.0, 2320.0, 2303.0, 2445.0, 2296.0, 2362.0, 2406.0, 2339.0, 2413.0, 2438.0, 2410.0], 'search_kernel:': [1644.0, 1642.0, 1601.0, 1606.0, 1636.0, 1550.0, 1628.0, 1647.0, 1545.0, 1640.0, 1637.0, 1649.0], 'init_kernel:': [2601.0, 2656.0, 2606.0, 2776.0, 2609.0, 2687.0, 2619.0, 2647.0, 2647.0, 2816.0, 2651.0, 2650.0], 'kernel:': [376.0, 378.0, 378.0, 373.0, 376.0, 376.0, 376.0, 376.0, 377.0, 377.0, 376.0, 377.0], 'extra:': [1267.0, 1264.0, 1222.0, 1232.0, 1259.0, 1174.0, 1252.0, 1270.0, 1167.0, 1263.0, 1260.0, 1271.0]}
Configuration: sort_flag = 0, verbose_flag = 0, nthreads=1, DIM = 7, SPLICE_DEPTH = 10, nStreams = 6, npoints = 200000, input_file=../../../input/pc/covtype.7d
@ init_kernel: 2755 ms
the number of nodes is 200000, the depth is 19
npoints = 200000, DEPTH_STAT = 1024, nMatrixSize = 204800000.
pre kernel start!
Time for asynchronous transfer and execute (ms): 861.554810
pre kernel end!
@ extra: 1254 ms
@ kernel: 376 ms
@ CPU: 389 ms
@ search_kernel: 1631 ms
@ search: 2347 ms
correct rate: 0.8632
Collected results into ../../../results/depth_tmp/vp_Hybrid_Sched_covtype.7d_10_unsorted.stats

Loading data from ../../../results/depth_tmp/vp_Hybrid_Sched_covtype.7d_10_unsorted.stats...
{'kernel:': [376.0, 378.0, 378.0, 373.0, 376.0, 376.0, 376.0, 376.0, 377.0, 377.0, 376.0, 377.0, 376.0], 'CPU:': [387.0, 388.0, 390.0, 387.0, 387.0, 387.0, 386.0, 388.0, 387.0, 387.0, 387.0, 389.0, 389.0], 'search_kernel:': [1644.0, 1642.0, 1601.0, 1606.0, 1636.0, 1550.0, 1628.0, 1647.0, 1545.0, 1640.0, 1637.0, 1649.0, 1631.0], 'init_kernel:': [2601.0, 2656.0, 2606.0, 2776.0, 2609.0, 2687.0, 2619.0, 2647.0, 2647.0, 2816.0, 2651.0, 2650.0, 2755.0], 'search:': [2417.0, 2420.0, 2320.0, 2303.0, 2445.0, 2296.0, 2362.0, 2406.0, 2339.0, 2413.0, 2438.0, 2410.0, 2347.0], 'extra:': [1267.0, 1264.0, 1222.0, 1232.0, 1259.0, 1174.0, 1252.0, 1270.0, 1167.0, 1263.0, 1260.0, 1271.0, 1254.0]}
Configuration: sort_flag = 0, verbose_flag = 0, nthreads=1, DIM = 7, SPLICE_DEPTH = 10, nStreams = 6, npoints = 200000, input_file=../../../input/pc/covtype.7d
@ init_kernel: 2613 ms
the number of nodes is 200000, the depth is 19
npoints = 200000, DEPTH_STAT = 1024, nMatrixSize = 204800000.
pre kernel start!
Time for asynchronous transfer and execute (ms): 867.718872
pre kernel end!
@ extra: 1259 ms
@ kernel: 378 ms
@ CPU: 387 ms
@ search_kernel: 1637 ms
@ search: 2452 ms
correct rate: 0.8632
Collected results into ../../../results/depth_tmp/vp_Hybrid_Sched_covtype.7d_10_unsorted.stats

Loading data from ../../../results/depth_tmp/vp_Hybrid_Sched_covtype.7d_10_unsorted.stats...
{'CPU:': [387.0, 388.0, 390.0, 387.0, 387.0, 387.0, 386.0, 388.0, 387.0, 387.0, 387.0, 389.0, 389.0, 387.0], 'search:': [2417.0, 2420.0, 2320.0, 2303.0, 2445.0, 2296.0, 2362.0, 2406.0, 2339.0, 2413.0, 2438.0, 2410.0, 2347.0, 2452.0], 'kernel:': [376.0, 378.0, 378.0, 373.0, 376.0, 376.0, 376.0, 376.0, 377.0, 377.0, 376.0, 377.0, 376.0, 378.0], 'init_kernel:': [2601.0, 2656.0, 2606.0, 2776.0, 2609.0, 2687.0, 2619.0, 2647.0, 2647.0, 2816.0, 2651.0, 2650.0, 2755.0, 2613.0], 'search_kernel:': [1644.0, 1642.0, 1601.0, 1606.0, 1636.0, 1550.0, 1628.0, 1647.0, 1545.0, 1640.0, 1637.0, 1649.0, 1631.0, 1637.0], 'extra:': [1267.0, 1264.0, 1222.0, 1232.0, 1259.0, 1174.0, 1252.0, 1270.0, 1167.0, 1263.0, 1260.0, 1271.0, 1254.0, 1259.0]}
Configuration: sort_flag = 0, verbose_flag = 0, nthreads=1, DIM = 7, SPLICE_DEPTH = 10, nStreams = 6, npoints = 200000, input_file=../../../input/pc/covtype.7d
@ init_kernel: 2657 ms
the number of nodes is 200000, the depth is 19
npoints = 200000, DEPTH_STAT = 1024, nMatrixSize = 204800000.
pre kernel start!
Time for asynchronous transfer and execute (ms): 770.687805
pre kernel end!
@ extra: 1162 ms
@ kernel: 376 ms
@ CPU: 387 ms
@ search_kernel: 1538 ms
@ search: 2335 ms
correct rate: 0.8632
Collected results into ../../../results/depth_tmp/vp_Hybrid_Sched_covtype.7d_10_unsorted.stats

