Results wll be collected to ../../../results/depth_tmp/vp_Hybrid_Sched_geocity.txt_12_unsorted.stats...
Configuration: sort_flag = 0, verbose_flag = 0, nthreads=1, DIM = 2, SPLICE_DEPTH = 12, nStreams = 6, npoints = 200000, input_file=../../../input/pc/geocity.txt
@ init_kernel: 2674 ms
the number of nodes is 200000, the depth is 19
npoints = 200000, DEPTH_STAT = 4096, nMatrixSize = 819200000.
pre kernel start!
Time for asynchronous transfer and execute (ms): 2811.472168
pre kernel end!
@ extra: 4112 ms
@ kernel: 13 ms
@ CPU: 1291 ms
@ search_kernel: 4125 ms
@ search: 4782 ms
correct rate: 0.9928
Collected results into ../../../results/depth_tmp/vp_Hybrid_Sched_geocity.txt_12_unsorted.stats

Loading data from ../../../results/depth_tmp/vp_Hybrid_Sched_geocity.txt_12_unsorted.stats...
{'kernel:': [13.0], 'CPU:': [1291.0], 'search_kernel:': [4125.0], 'init_kernel:': [2674.0], 'search:': [4782.0], 'extra:': [4112.0]}
Configuration: sort_flag = 0, verbose_flag = 0, nthreads=1, DIM = 2, SPLICE_DEPTH = 12, nStreams = 6, npoints = 200000, input_file=../../../input/pc/geocity.txt
@ init_kernel: 2705 ms
the number of nodes is 200000, the depth is 19
npoints = 200000, DEPTH_STAT = 4096, nMatrixSize = 819200000.
pre kernel start!
Time for asynchronous transfer and execute (ms): 2844.047607
pre kernel end!
@ extra: 4151 ms
@ kernel: 13 ms
@ CPU: 1297 ms
@ search_kernel: 4165 ms
@ search: 4964 ms
correct rate: 0.9928
Collected results into ../../../results/depth_tmp/vp_Hybrid_Sched_geocity.txt_12_unsorted.stats

Loading data from ../../../results/depth_tmp/vp_Hybrid_Sched_geocity.txt_12_unsorted.stats...
{'CPU:': [1291.0, 1297.0], 'search:': [4782.0, 4964.0], 'kernel:': [13.0, 13.0], 'init_kernel:': [2674.0, 2705.0], 'search_kernel:': [4125.0, 4165.0], 'extra:': [4112.0, 4151.0]}
Configuration: sort_flag = 0, verbose_flag = 0, nthreads=1, DIM = 2, SPLICE_DEPTH = 12, nStreams = 6, npoints = 200000, input_file=../../../input/pc/geocity.txt
@ init_kernel: 2661 ms
the number of nodes is 200000, the depth is 19
npoints = 200000, DEPTH_STAT = 4096, nMatrixSize = 819200000.
pre kernel start!
Time for asynchronous transfer and execute (ms): 2824.021240
pre kernel end!
@ extra: 4116 ms
@ kernel: 13 ms
@ CPU: 1282 ms
@ search_kernel: 4130 ms
@ search: 4795 ms
correct rate: 0.9928
Collected results into ../../../results/depth_tmp/vp_Hybrid_Sched_geocity.txt_12_unsorted.stats

Loading data from ../../../results/depth_tmp/vp_Hybrid_Sched_geocity.txt_12_unsorted.stats...
{'CPU:': [1291.0, 1297.0, 1282.0], 'search_kernel:': [4125.0, 4165.0, 4130.0], 'kernel:': [13.0, 13.0, 13.0], 'init_kernel:': [2674.0, 2705.0, 2661.0], 'search:': [4782.0, 4964.0, 4795.0], 'extra:': [4112.0, 4151.0, 4116.0]}
Configuration: sort_flag = 0, verbose_flag = 0, nthreads=1, DIM = 2, SPLICE_DEPTH = 12, nStreams = 6, npoints = 200000, input_file=../../../input/pc/geocity.txt
@ init_kernel: 2645 ms
the number of nodes is 200000, the depth is 19
npoints = 200000, DEPTH_STAT = 4096, nMatrixSize = 819200000.
pre kernel start!
Time for asynchronous transfer and execute (ms): 2813.064697
pre kernel end!
@ extra: 4112 ms
@ kernel: 14 ms
@ CPU: 1288 ms
@ search_kernel: 4125 ms
@ search: 4810 ms
correct rate: 0.9928
Collected results into ../../../results/depth_tmp/vp_Hybrid_Sched_geocity.txt_12_unsorted.stats

Loading data from ../../../results/depth_tmp/vp_Hybrid_Sched_geocity.txt_12_unsorted.stats...
{'CPU:': [1291.0, 1297.0, 1282.0, 1288.0], 'search:': [4782.0, 4964.0, 4795.0, 4810.0], 'search_kernel:': [4125.0, 4165.0, 4130.0, 4125.0], 'init_kernel:': [2674.0, 2705.0, 2661.0, 2645.0], 'kernel:': [13.0, 13.0, 13.0, 14.0], 'extra:': [4112.0, 4151.0, 4116.0, 4112.0]}
Configuration: sort_flag = 0, verbose_flag = 0, nthreads=1, DIM = 2, SPLICE_DEPTH = 12, nStreams = 6, npoints = 200000, input_file=../../../input/pc/geocity.txt
@ init_kernel: 2682 ms
the number of nodes is 200000, the depth is 19
npoints = 200000, DEPTH_STAT = 4096, nMatrixSize = 819200000.
pre kernel start!
Time for asynchronous transfer and execute (ms): 2801.333984
pre kernel end!
@ extra: 4115 ms
@ kernel: 13 ms
@ CPU: 1303 ms
@ search_kernel: 4129 ms
@ search: 4814 ms
correct rate: 0.9928
Collected results into ../../../results/depth_tmp/vp_Hybrid_Sched_geocity.txt_12_unsorted.stats

Loading data from ../../../results/depth_tmp/vp_Hybrid_Sched_geocity.txt_12_unsorted.stats...
{'kernel:': [13.0, 13.0, 13.0, 14.0, 13.0], 'CPU:': [1291.0, 1297.0, 1282.0, 1288.0, 1303.0], 'search_kernel:': [4125.0, 4165.0, 4130.0, 4125.0, 4129.0], 'init_kernel:': [2674.0, 2705.0, 2661.0, 2645.0, 2682.0], 'search:': [4782.0, 4964.0, 4795.0, 4810.0, 4814.0], 'extra:': [4112.0, 4151.0, 4116.0, 4112.0, 4115.0]}
Configuration: sort_flag = 0, verbose_flag = 0, nthreads=1, DIM = 2, SPLICE_DEPTH = 12, nStreams = 6, npoints = 200000, input_file=../../../input/pc/geocity.txt
@ init_kernel: 2792 ms
the number of nodes is 200000, the depth is 19
npoints = 200000, DEPTH_STAT = 4096, nMatrixSize = 819200000.
pre kernel start!
Time for asynchronous transfer and execute (ms): 2521.963379
pre kernel end!
@ extra: 3836 ms
@ kernel: 14 ms
@ CPU: 1304 ms
@ search_kernel: 3850 ms
@ search: 4541 ms
correct rate: 0.9928
Collected results into ../../../results/depth_tmp/vp_Hybrid_Sched_geocity.txt_12_unsorted.stats

Loading data from ../../../results/depth_tmp/vp_Hybrid_Sched_geocity.txt_12_unsorted.stats...
{'CPU:': [1291.0, 1297.0, 1282.0, 1288.0, 1303.0, 1304.0], 'search:': [4782.0, 4964.0, 4795.0, 4810.0, 4814.0, 4541.0], 'kernel:': [13.0, 13.0, 13.0, 14.0, 13.0, 14.0], 'init_kernel:': [2674.0, 2705.0, 2661.0, 2645.0, 2682.0, 2792.0], 'search_kernel:': [4125.0, 4165.0, 4130.0, 4125.0, 4129.0, 3850.0], 'extra:': [4112.0, 4151.0, 4116.0, 4112.0, 4115.0, 3836.0]}
Configuration: sort_flag = 0, verbose_flag = 0, nthreads=1, DIM = 2, SPLICE_DEPTH = 12, nStreams = 6, npoints = 200000, input_file=../../../input/pc/geocity.txt
@ init_kernel: 2761 ms
the number of nodes is 200000, the depth is 19
npoints = 200000, DEPTH_STAT = 4096, nMatrixSize = 819200000.
pre kernel start!
Time for asynchronous transfer and execute (ms): 2858.402100
pre kernel end!
@ extra: 4175 ms
@ kernel: 13 ms
@ CPU: 1307 ms
@ search_kernel: 4189 ms
@ search: 4896 ms
correct rate: 0.9928
Collected results into ../../../results/depth_tmp/vp_Hybrid_Sched_geocity.txt_12_unsorted.stats

Loading data from ../../../results/depth_tmp/vp_Hybrid_Sched_geocity.txt_12_unsorted.stats...
{'CPU:': [1291.0, 1297.0, 1282.0, 1288.0, 1303.0, 1304.0, 1307.0], 'search_kernel:': [4125.0, 4165.0, 4130.0, 4125.0, 4129.0, 3850.0, 4189.0], 'kernel:': [13.0, 13.0, 13.0, 14.0, 13.0, 14.0, 13.0], 'init_kernel:': [2674.0, 2705.0, 2661.0, 2645.0, 2682.0, 2792.0, 2761.0], 'search:': [4782.0, 4964.0, 4795.0, 4810.0, 4814.0, 4541.0, 4896.0], 'extra:': [4112.0, 4151.0, 4116.0, 4112.0, 4115.0, 3836.0, 4175.0]}
Configuration: sort_flag = 0, verbose_flag = 0, nthreads=1, DIM = 2, SPLICE_DEPTH = 12, nStreams = 6, npoints = 200000, input_file=../../../input/pc/geocity.txt
@ init_kernel: 2655 ms
the number of nodes is 200000, the depth is 19
npoints = 200000, DEPTH_STAT = 4096, nMatrixSize = 819200000.
pre kernel start!
Time for asynchronous transfer and execute (ms): 2489.943115
pre kernel end!
@ extra: 3801 ms
@ kernel: 14 ms
@ CPU: 1301 ms
@ search_kernel: 3815 ms
@ search: 4479 ms
correct rate: 0.9928
Collected results into ../../../results/depth_tmp/vp_Hybrid_Sched_geocity.txt_12_unsorted.stats

Loading data from ../../../results/depth_tmp/vp_Hybrid_Sched_geocity.txt_12_unsorted.stats...
{'CPU:': [1291.0, 1297.0, 1282.0, 1288.0, 1303.0, 1304.0, 1307.0, 1301.0], 'search:': [4782.0, 4964.0, 4795.0, 4810.0, 4814.0, 4541.0, 4896.0, 4479.0], 'search_kernel:': [4125.0, 4165.0, 4130.0, 4125.0, 4129.0, 3850.0, 4189.0, 3815.0], 'init_kernel:': [2674.0, 2705.0, 2661.0, 2645.0, 2682.0, 2792.0, 2761.0, 2655.0], 'kernel:': [13.0, 13.0, 13.0, 14.0, 13.0, 14.0, 13.0, 14.0], 'extra:': [4112.0, 4151.0, 4116.0, 4112.0, 4115.0, 3836.0, 4175.0, 3801.0]}
Configuration: sort_flag = 0, verbose_flag = 0, nthreads=1, DIM = 2, SPLICE_DEPTH = 12, nStreams = 6, npoints = 200000, input_file=../../../input/pc/geocity.txt
@ init_kernel: 2601 ms
the number of nodes is 200000, the depth is 19
npoints = 200000, DEPTH_STAT = 4096, nMatrixSize = 819200000.
pre kernel start!
Time for asynchronous transfer and execute (ms): 2842.574951
pre kernel end!
@ extra: 4153 ms
@ kernel: 14 ms
@ CPU: 1301 ms
@ search_kernel: 4167 ms
@ search: 4935 ms
correct rate: 0.9928
Collected results into ../../../results/depth_tmp/vp_Hybrid_Sched_geocity.txt_12_unsorted.stats

Loading data from ../../../results/depth_tmp/vp_Hybrid_Sched_geocity.txt_12_unsorted.stats...
{'kernel:': [13.0, 13.0, 13.0, 14.0, 13.0, 14.0, 13.0, 14.0, 14.0], 'CPU:': [1291.0, 1297.0, 1282.0, 1288.0, 1303.0, 1304.0, 1307.0, 1301.0, 1301.0], 'search_kernel:': [4125.0, 4165.0, 4130.0, 4125.0, 4129.0, 3850.0, 4189.0, 3815.0, 4167.0], 'init_kernel:': [2674.0, 2705.0, 2661.0, 2645.0, 2682.0, 2792.0, 2761.0, 2655.0, 2601.0], 'search:': [4782.0, 4964.0, 4795.0, 4810.0, 4814.0, 4541.0, 4896.0, 4479.0, 4935.0], 'extra:': [4112.0, 4151.0, 4116.0, 4112.0, 4115.0, 3836.0, 4175.0, 3801.0, 4153.0]}
Configuration: sort_flag = 0, verbose_flag = 0, nthreads=1, DIM = 2, SPLICE_DEPTH = 12, nStreams = 6, npoints = 200000, input_file=../../../input/pc/geocity.txt
@ init_kernel: 2637 ms
the number of nodes is 200000, the depth is 19
npoints = 200000, DEPTH_STAT = 4096, nMatrixSize = 819200000.
pre kernel start!
Time for asynchronous transfer and execute (ms): 2839.518799
pre kernel end!
@ extra: 4147 ms
@ kernel: 13 ms
@ CPU: 1298 ms
@ search_kernel: 4161 ms
@ search: 4841 ms
correct rate: 0.9928
Collected results into ../../../results/depth_tmp/vp_Hybrid_Sched_geocity.txt_12_unsorted.stats

Loading data from ../../../results/depth_tmp/vp_Hybrid_Sched_geocity.txt_12_unsorted.stats...
{'CPU:': [1291.0, 1297.0, 1282.0, 1288.0, 1303.0, 1304.0, 1307.0, 1301.0, 1301.0, 1298.0], 'search:': [4782.0, 4964.0, 4795.0, 4810.0, 4814.0, 4541.0, 4896.0, 4479.0, 4935.0, 4841.0], 'kernel:': [13.0, 13.0, 13.0, 14.0, 13.0, 14.0, 13.0, 14.0, 14.0, 13.0], 'init_kernel:': [2674.0, 2705.0, 2661.0, 2645.0, 2682.0, 2792.0, 2761.0, 2655.0, 2601.0, 2637.0], 'search_kernel:': [4125.0, 4165.0, 4130.0, 4125.0, 4129.0, 3850.0, 4189.0, 3815.0, 4167.0, 4161.0], 'extra:': [4112.0, 4151.0, 4116.0, 4112.0, 4115.0, 3836.0, 4175.0, 3801.0, 4153.0, 4147.0]}
Configuration: sort_flag = 0, verbose_flag = 0, nthreads=1, DIM = 2, SPLICE_DEPTH = 12, nStreams = 6, npoints = 200000, input_file=../../../input/pc/geocity.txt
@ init_kernel: 2729 ms
the number of nodes is 200000, the depth is 19
npoints = 200000, DEPTH_STAT = 4096, nMatrixSize = 819200000.
pre kernel start!
Time for asynchronous transfer and execute (ms): 2866.348633
pre kernel end!
@ extra: 4182 ms
@ kernel: 13 ms
@ CPU: 1307 ms
@ search_kernel: 4196 ms
@ search: 4926 ms
correct rate: 0.9928
Collected results into ../../../results/depth_tmp/vp_Hybrid_Sched_geocity.txt_12_unsorted.stats

Loading data from ../../../results/depth_tmp/vp_Hybrid_Sched_geocity.txt_12_unsorted.stats...
{'CPU:': [1291.0, 1297.0, 1282.0, 1288.0, 1303.0, 1304.0, 1307.0, 1301.0, 1301.0, 1298.0, 1307.0], 'search_kernel:': [4125.0, 4165.0, 4130.0, 4125.0, 4129.0, 3850.0, 4189.0, 3815.0, 4167.0, 4161.0, 4196.0], 'kernel:': [13.0, 13.0, 13.0, 14.0, 13.0, 14.0, 13.0, 14.0, 14.0, 13.0, 13.0], 'init_kernel:': [2674.0, 2705.0, 2661.0, 2645.0, 2682.0, 2792.0, 2761.0, 2655.0, 2601.0, 2637.0, 2729.0], 'search:': [4782.0, 4964.0, 4795.0, 4810.0, 4814.0, 4541.0, 4896.0, 4479.0, 4935.0, 4841.0, 4926.0], 'extra:': [4112.0, 4151.0, 4116.0, 4112.0, 4115.0, 3836.0, 4175.0, 3801.0, 4153.0, 4147.0, 4182.0]}
Configuration: sort_flag = 0, verbose_flag = 0, nthreads=1, DIM = 2, SPLICE_DEPTH = 12, nStreams = 6, npoints = 200000, input_file=../../../input/pc/geocity.txt
@ init_kernel: 2679 ms
the number of nodes is 200000, the depth is 19
npoints = 200000, DEPTH_STAT = 4096, nMatrixSize = 819200000.
pre kernel start!
Time for asynchronous transfer and execute (ms): 2861.220215
pre kernel end!
@ extra: 4171 ms
@ kernel: 14 ms
@ CPU: 1299 ms
@ search_kernel: 4185 ms
@ search: 4823 ms
correct rate: 0.9928
Collected results into ../../../results/depth_tmp/vp_Hybrid_Sched_geocity.txt_12_unsorted.stats

Loading data from ../../../results/depth_tmp/vp_Hybrid_Sched_geocity.txt_12_unsorted.stats...
{'CPU:': [1291.0, 1297.0, 1282.0, 1288.0, 1303.0, 1304.0, 1307.0, 1301.0, 1301.0, 1298.0, 1307.0, 1299.0], 'search:': [4782.0, 4964.0, 4795.0, 4810.0, 4814.0, 4541.0, 4896.0, 4479.0, 4935.0, 4841.0, 4926.0, 4823.0], 'search_kernel:': [4125.0, 4165.0, 4130.0, 4125.0, 4129.0, 3850.0, 4189.0, 3815.0, 4167.0, 4161.0, 4196.0, 4185.0], 'init_kernel:': [2674.0, 2705.0, 2661.0, 2645.0, 2682.0, 2792.0, 2761.0, 2655.0, 2601.0, 2637.0, 2729.0, 2679.0], 'kernel:': [13.0, 13.0, 13.0, 14.0, 13.0, 14.0, 13.0, 14.0, 14.0, 13.0, 13.0, 14.0], 'extra:': [4112.0, 4151.0, 4116.0, 4112.0, 4115.0, 3836.0, 4175.0, 3801.0, 4153.0, 4147.0, 4182.0, 4171.0]}
Configuration: sort_flag = 0, verbose_flag = 0, nthreads=1, DIM = 2, SPLICE_DEPTH = 12, nStreams = 6, npoints = 200000, input_file=../../../input/pc/geocity.txt
@ init_kernel: 2660 ms
the number of nodes is 200000, the depth is 19
npoints = 200000, DEPTH_STAT = 4096, nMatrixSize = 819200000.
pre kernel start!
Time for asynchronous transfer and execute (ms): 2855.525391
pre kernel end!
@ extra: 4166 ms
@ kernel: 13 ms
@ CPU: 1300 ms
@ search_kernel: 4180 ms
@ search: 4852 ms
correct rate: 0.9928
Collected results into ../../../results/depth_tmp/vp_Hybrid_Sched_geocity.txt_12_unsorted.stats

Loading data from ../../../results/depth_tmp/vp_Hybrid_Sched_geocity.txt_12_unsorted.stats...
{'kernel:': [13.0, 13.0, 13.0, 14.0, 13.0, 14.0, 13.0, 14.0, 14.0, 13.0, 13.0, 14.0, 13.0], 'CPU:': [1291.0, 1297.0, 1282.0, 1288.0, 1303.0, 1304.0, 1307.0, 1301.0, 1301.0, 1298.0, 1307.0, 1299.0, 1300.0], 'search_kernel:': [4125.0, 4165.0, 4130.0, 4125.0, 4129.0, 3850.0, 4189.0, 3815.0, 4167.0, 4161.0, 4196.0, 4185.0, 4180.0], 'init_kernel:': [2674.0, 2705.0, 2661.0, 2645.0, 2682.0, 2792.0, 2761.0, 2655.0, 2601.0, 2637.0, 2729.0, 2679.0, 2660.0], 'search:': [4782.0, 4964.0, 4795.0, 4810.0, 4814.0, 4541.0, 4896.0, 4479.0, 4935.0, 4841.0, 4926.0, 4823.0, 4852.0], 'extra:': [4112.0, 4151.0, 4116.0, 4112.0, 4115.0, 3836.0, 4175.0, 3801.0, 4153.0, 4147.0, 4182.0, 4171.0, 4166.0]}
Configuration: sort_flag = 0, verbose_flag = 0, nthreads=1, DIM = 2, SPLICE_DEPTH = 12, nStreams = 6, npoints = 200000, input_file=../../../input/pc/geocity.txt
@ init_kernel: 2796 ms
the number of nodes is 200000, the depth is 19
npoints = 200000, DEPTH_STAT = 4096, nMatrixSize = 819200000.
pre kernel start!
Time for asynchronous transfer and execute (ms): 2885.436035
pre kernel end!
@ extra: 4209 ms
@ kernel: 14 ms
@ CPU: 1313 ms
@ search_kernel: 4223 ms
@ search: 4937 ms
correct rate: 0.9928
Collected results into ../../../results/depth_tmp/vp_Hybrid_Sched_geocity.txt_12_unsorted.stats

Loading data from ../../../results/depth_tmp/vp_Hybrid_Sched_geocity.txt_12_unsorted.stats...
{'CPU:': [1291.0, 1297.0, 1282.0, 1288.0, 1303.0, 1304.0, 1307.0, 1301.0, 1301.0, 1298.0, 1307.0, 1299.0, 1300.0, 1313.0], 'search:': [4782.0, 4964.0, 4795.0, 4810.0, 4814.0, 4541.0, 4896.0, 4479.0, 4935.0, 4841.0, 4926.0, 4823.0, 4852.0, 4937.0], 'kernel:': [13.0, 13.0, 13.0, 14.0, 13.0, 14.0, 13.0, 14.0, 14.0, 13.0, 13.0, 14.0, 13.0, 14.0], 'init_kernel:': [2674.0, 2705.0, 2661.0, 2645.0, 2682.0, 2792.0, 2761.0, 2655.0, 2601.0, 2637.0, 2729.0, 2679.0, 2660.0, 2796.0], 'search_kernel:': [4125.0, 4165.0, 4130.0, 4125.0, 4129.0, 3850.0, 4189.0, 3815.0, 4167.0, 4161.0, 4196.0, 4185.0, 4180.0, 4223.0], 'extra:': [4112.0, 4151.0, 4116.0, 4112.0, 4115.0, 3836.0, 4175.0, 3801.0, 4153.0, 4147.0, 4182.0, 4171.0, 4166.0, 4209.0]}
Configuration: sort_flag = 0, verbose_flag = 0, nthreads=1, DIM = 2, SPLICE_DEPTH = 12, nStreams = 6, npoints = 200000, input_file=../../../input/pc/geocity.txt
@ init_kernel: 2698 ms
the number of nodes is 200000, the depth is 19
npoints = 200000, DEPTH_STAT = 4096, nMatrixSize = 819200000.
pre kernel start!
Time for asynchronous transfer and execute (ms): 2893.425049
pre kernel end!
@ extra: 4207 ms
@ kernel: 14 ms
@ CPU: 1303 ms
@ search_kernel: 4221 ms
@ search: 4982 ms
correct rate: 0.9928
Collected results into ../../../results/depth_tmp/vp_Hybrid_Sched_geocity.txt_12_unsorted.stats

