Results wll be collected to ../../../results/tmp/bh_FSM_Lockstep_BarnesHutPlummer200K.in_sorted.stats...
Configuration: nbodies = 200000, ntimesteps = 1, dtime = 0.025000 eps = 0.050000, tol = 0.500000
Time step 0:
the depth of the tree is: 18, and the number of nodes is: 296357.
@ build_tree: 102 ms
@ compute_bb:  6 ms
@ compute_cofm: 39 ms
@ force_calc: 2860 ms
@ init_kernel: 2633 ms
@ gpu_copy_tree_to: 21 ms
@ kernel: 68 ms
@ gpu_copy_tree_from: 37 ms
@ build_tree_gpu: 101 ms
@ pointer_table:  2 ms
@ adv_point: 25 ms
@ read_input: 792 ms
@ overall: 3894 ms
Collected results into ../../../results/tmp/bh_FSM_Lockstep_BarnesHutPlummer200K.in_sorted.stats

Loading data from ../../../results/tmp/bh_FSM_Lockstep_BarnesHutPlummer200K.in_sorted.stats...
{'build_tree_gpu:': [101.0], 'gpu_copy_tree_from:': [37.0], 'gpu_copy_tree_to:': [21.0], 'init_kernel:': [2633.0], 'compute_cofm:': [39.0], 'kernel:': [68.0], 'overall:': [3894.0], 'adv_point:': [25.0], 'read_input:': [792.0], 'compute_bb:': [6.0], 'force_calc:': [2860.0], 'pointer_table:': [2.0], 'build_tree:': [102.0]}
Configuration: nbodies = 200000, ntimesteps = 1, dtime = 0.025000 eps = 0.050000, tol = 0.500000
Time step 0:
the depth of the tree is: 18, and the number of nodes is: 296357.
@ build_tree: 102 ms
@ compute_bb:  6 ms
@ compute_cofm: 39 ms
@ force_calc: 2958 ms
@ init_kernel: 2730 ms
@ gpu_copy_tree_to: 24 ms
@ kernel: 68 ms
@ gpu_copy_tree_from: 35 ms
@ build_tree_gpu: 100 ms
@ pointer_table:  2 ms
@ adv_point: 22 ms
@ read_input: 768 ms
@ overall: 3956 ms
Collected results into ../../../results/tmp/bh_FSM_Lockstep_BarnesHutPlummer200K.in_sorted.stats

Loading data from ../../../results/tmp/bh_FSM_Lockstep_BarnesHutPlummer200K.in_sorted.stats...
{'build_tree_gpu:': [101.0, 100.0], 'gpu_copy_tree_from:': [37.0, 35.0], 'gpu_copy_tree_to:': [21.0, 24.0], 'init_kernel:': [2633.0, 2730.0], 'read_input:': [792.0, 768.0], 'kernel:': [68.0, 68.0], 'overall:': [3894.0, 3956.0], 'adv_point:': [25.0, 22.0], 'compute_cofm:': [39.0, 39.0], 'compute_bb:': [6.0, 6.0], 'force_calc:': [2860.0, 2958.0], 'pointer_table:': [2.0, 2.0], 'build_tree:': [102.0, 102.0]}
Configuration: nbodies = 200000, ntimesteps = 1, dtime = 0.025000 eps = 0.050000, tol = 0.500000
Time step 0:
the depth of the tree is: 18, and the number of nodes is: 296357.
@ build_tree: 102 ms
@ compute_bb:  5 ms
@ compute_cofm: 40 ms
@ force_calc: 2914 ms
@ init_kernel: 2697 ms
@ gpu_copy_tree_to: 20 ms
@ kernel: 68 ms
@ gpu_copy_tree_from: 28 ms
@ build_tree_gpu: 101 ms
@ pointer_table:  2 ms
@ adv_point: 18 ms
@ read_input: 804 ms
@ overall: 3934 ms
Collected results into ../../../results/tmp/bh_FSM_Lockstep_BarnesHutPlummer200K.in_sorted.stats

Loading data from ../../../results/tmp/bh_FSM_Lockstep_BarnesHutPlummer200K.in_sorted.stats...
{'build_tree_gpu:': [101.0, 100.0, 101.0], 'gpu_copy_tree_from:': [37.0, 35.0, 28.0], 'gpu_copy_tree_to:': [21.0, 24.0, 20.0], 'init_kernel:': [2633.0, 2730.0, 2697.0], 'compute_cofm:': [39.0, 39.0, 40.0], 'kernel:': [68.0, 68.0, 68.0], 'overall:': [3894.0, 3956.0, 3934.0], 'adv_point:': [25.0, 22.0, 18.0], 'read_input:': [792.0, 768.0, 804.0], 'compute_bb:': [6.0, 6.0, 5.0], 'force_calc:': [2860.0, 2958.0, 2914.0], 'pointer_table:': [2.0, 2.0, 2.0], 'build_tree:': [102.0, 102.0, 102.0]}
Configuration: nbodies = 200000, ntimesteps = 1, dtime = 0.025000 eps = 0.050000, tol = 0.500000
Time step 0:
the depth of the tree is: 18, and the number of nodes is: 296357.
@ build_tree: 102 ms
@ compute_bb:  5 ms
@ compute_cofm: 39 ms
@ force_calc: 2857 ms
@ init_kernel: 2630 ms
@ gpu_copy_tree_to: 21 ms
@ kernel: 68 ms
@ gpu_copy_tree_from: 37 ms
@ build_tree_gpu: 101 ms
@ pointer_table:  2 ms
@ adv_point: 25 ms
@ read_input: 775 ms
@ overall: 3874 ms
Collected results into ../../../results/tmp/bh_FSM_Lockstep_BarnesHutPlummer200K.in_sorted.stats

Loading data from ../../../results/tmp/bh_FSM_Lockstep_BarnesHutPlummer200K.in_sorted.stats...
{'build_tree_gpu:': [101.0, 100.0, 101.0, 101.0], 'gpu_copy_tree_from:': [37.0, 35.0, 28.0, 37.0], 'gpu_copy_tree_to:': [21.0, 24.0, 20.0, 21.0], 'init_kernel:': [2633.0, 2730.0, 2697.0, 2630.0], 'read_input:': [792.0, 768.0, 804.0, 775.0], 'kernel:': [68.0, 68.0, 68.0, 68.0], 'overall:': [3894.0, 3956.0, 3934.0, 3874.0], 'adv_point:': [25.0, 22.0, 18.0, 25.0], 'compute_cofm:': [39.0, 39.0, 40.0, 39.0], 'compute_bb:': [6.0, 6.0, 5.0, 5.0], 'force_calc:': [2860.0, 2958.0, 2914.0, 2857.0], 'pointer_table:': [2.0, 2.0, 2.0, 2.0], 'build_tree:': [102.0, 102.0, 102.0, 102.0]}
Configuration: nbodies = 200000, ntimesteps = 1, dtime = 0.025000 eps = 0.050000, tol = 0.500000
Time step 0:
the depth of the tree is: 18, and the number of nodes is: 296357.
@ build_tree: 103 ms
@ compute_bb:  6 ms
@ compute_cofm: 40 ms
@ force_calc: 2817 ms
@ init_kernel: 2589 ms
@ gpu_copy_tree_to: 21 ms
@ kernel: 68 ms
@ gpu_copy_tree_from: 37 ms
@ build_tree_gpu: 103 ms
@ pointer_table:  2 ms
@ adv_point: 26 ms
@ read_input: 772 ms
@ overall: 3834 ms
Collected results into ../../../results/tmp/bh_FSM_Lockstep_BarnesHutPlummer200K.in_sorted.stats

Loading data from ../../../results/tmp/bh_FSM_Lockstep_BarnesHutPlummer200K.in_sorted.stats...
{'build_tree_gpu:': [101.0, 100.0, 101.0, 101.0, 103.0], 'gpu_copy_tree_from:': [37.0, 35.0, 28.0, 37.0, 37.0], 'gpu_copy_tree_to:': [21.0, 24.0, 20.0, 21.0, 21.0], 'init_kernel:': [2633.0, 2730.0, 2697.0, 2630.0, 2589.0], 'compute_cofm:': [39.0, 39.0, 40.0, 39.0, 40.0], 'kernel:': [68.0, 68.0, 68.0, 68.0, 68.0], 'overall:': [3894.0, 3956.0, 3934.0, 3874.0, 3834.0], 'adv_point:': [25.0, 22.0, 18.0, 25.0, 26.0], 'read_input:': [792.0, 768.0, 804.0, 775.0, 772.0], 'compute_bb:': [6.0, 6.0, 5.0, 5.0, 6.0], 'force_calc:': [2860.0, 2958.0, 2914.0, 2857.0, 2817.0], 'pointer_table:': [2.0, 2.0, 2.0, 2.0, 2.0], 'build_tree:': [102.0, 102.0, 102.0, 102.0, 103.0]}
Configuration: nbodies = 200000, ntimesteps = 1, dtime = 0.025000 eps = 0.050000, tol = 0.500000
Time step 0:
the depth of the tree is: 18, and the number of nodes is: 296357.
@ build_tree: 102 ms
@ compute_bb:  5 ms
@ compute_cofm: 39 ms
@ force_calc: 2973 ms
@ init_kernel: 2747 ms
@ gpu_copy_tree_to: 21 ms
@ kernel: 68 ms
@ gpu_copy_tree_from: 36 ms
@ build_tree_gpu: 100 ms
@ pointer_table:  2 ms
@ adv_point: 25 ms
@ read_input: 761 ms
@ overall: 3975 ms
Collected results into ../../../results/tmp/bh_FSM_Lockstep_BarnesHutPlummer200K.in_sorted.stats

Loading data from ../../../results/tmp/bh_FSM_Lockstep_BarnesHutPlummer200K.in_sorted.stats...
{'build_tree_gpu:': [101.0, 100.0, 101.0, 101.0, 103.0, 100.0], 'gpu_copy_tree_from:': [37.0, 35.0, 28.0, 37.0, 37.0, 36.0], 'gpu_copy_tree_to:': [21.0, 24.0, 20.0, 21.0, 21.0, 21.0], 'init_kernel:': [2633.0, 2730.0, 2697.0, 2630.0, 2589.0, 2747.0], 'read_input:': [792.0, 768.0, 804.0, 775.0, 772.0, 761.0], 'kernel:': [68.0, 68.0, 68.0, 68.0, 68.0, 68.0], 'overall:': [3894.0, 3956.0, 3934.0, 3874.0, 3834.0, 3975.0], 'adv_point:': [25.0, 22.0, 18.0, 25.0, 26.0, 25.0], 'compute_cofm:': [39.0, 39.0, 40.0, 39.0, 40.0, 39.0], 'compute_bb:': [6.0, 6.0, 5.0, 5.0, 6.0, 5.0], 'force_calc:': [2860.0, 2958.0, 2914.0, 2857.0, 2817.0, 2973.0], 'pointer_table:': [2.0, 2.0, 2.0, 2.0, 2.0, 2.0], 'build_tree:': [102.0, 102.0, 102.0, 102.0, 103.0, 102.0]}
Configuration: nbodies = 200000, ntimesteps = 1, dtime = 0.025000 eps = 0.050000, tol = 0.500000
Time step 0:
the depth of the tree is: 18, and the number of nodes is: 296357.
@ build_tree: 102 ms
@ compute_bb:  5 ms
@ compute_cofm: 39 ms
@ force_calc: 2844 ms
@ init_kernel: 2628 ms
@ gpu_copy_tree_to: 20 ms
@ kernel: 68 ms
@ gpu_copy_tree_from: 28 ms
@ build_tree_gpu: 100 ms
@ pointer_table:  2 ms
@ adv_point: 17 ms
@ read_input: 749 ms
@ overall: 3806 ms
Collected results into ../../../results/tmp/bh_FSM_Lockstep_BarnesHutPlummer200K.in_sorted.stats

Loading data from ../../../results/tmp/bh_FSM_Lockstep_BarnesHutPlummer200K.in_sorted.stats...
{'build_tree_gpu:': [101.0, 100.0, 101.0, 101.0, 103.0, 100.0, 100.0], 'gpu_copy_tree_from:': [37.0, 35.0, 28.0, 37.0, 37.0, 36.0, 28.0], 'gpu_copy_tree_to:': [21.0, 24.0, 20.0, 21.0, 21.0, 21.0, 20.0], 'init_kernel:': [2633.0, 2730.0, 2697.0, 2630.0, 2589.0, 2747.0, 2628.0], 'compute_cofm:': [39.0, 39.0, 40.0, 39.0, 40.0, 39.0, 39.0], 'kernel:': [68.0, 68.0, 68.0, 68.0, 68.0, 68.0, 68.0], 'overall:': [3894.0, 3956.0, 3934.0, 3874.0, 3834.0, 3975.0, 3806.0], 'adv_point:': [25.0, 22.0, 18.0, 25.0, 26.0, 25.0, 17.0], 'read_input:': [792.0, 768.0, 804.0, 775.0, 772.0, 761.0, 749.0], 'compute_bb:': [6.0, 6.0, 5.0, 5.0, 6.0, 5.0, 5.0], 'force_calc:': [2860.0, 2958.0, 2914.0, 2857.0, 2817.0, 2973.0, 2844.0], 'pointer_table:': [2.0, 2.0, 2.0, 2.0, 2.0, 2.0, 2.0], 'build_tree:': [102.0, 102.0, 102.0, 102.0, 103.0, 102.0, 102.0]}
Configuration: nbodies = 200000, ntimesteps = 1, dtime = 0.025000 eps = 0.050000, tol = 0.500000
Time step 0:
the depth of the tree is: 18, and the number of nodes is: 296357.
@ build_tree: 102 ms
@ compute_bb:  6 ms
@ compute_cofm: 39 ms
@ force_calc: 2853 ms
@ init_kernel: 2627 ms
@ gpu_copy_tree_to: 21 ms
@ kernel: 68 ms
@ gpu_copy_tree_from: 37 ms
@ build_tree_gpu: 101 ms
@ pointer_table:  2 ms
@ adv_point: 25 ms
@ read_input: 795 ms
@ overall: 3890 ms
Collected results into ../../../results/tmp/bh_FSM_Lockstep_BarnesHutPlummer200K.in_sorted.stats

Loading data from ../../../results/tmp/bh_FSM_Lockstep_BarnesHutPlummer200K.in_sorted.stats...
{'build_tree_gpu:': [101.0, 100.0, 101.0, 101.0, 103.0, 100.0, 100.0, 101.0], 'gpu_copy_tree_from:': [37.0, 35.0, 28.0, 37.0, 37.0, 36.0, 28.0, 37.0], 'gpu_copy_tree_to:': [21.0, 24.0, 20.0, 21.0, 21.0, 21.0, 20.0, 21.0], 'init_kernel:': [2633.0, 2730.0, 2697.0, 2630.0, 2589.0, 2747.0, 2628.0, 2627.0], 'read_input:': [792.0, 768.0, 804.0, 775.0, 772.0, 761.0, 749.0, 795.0], 'kernel:': [68.0, 68.0, 68.0, 68.0, 68.0, 68.0, 68.0, 68.0], 'overall:': [3894.0, 3956.0, 3934.0, 3874.0, 3834.0, 3975.0, 3806.0, 3890.0], 'adv_point:': [25.0, 22.0, 18.0, 25.0, 26.0, 25.0, 17.0, 25.0], 'compute_cofm:': [39.0, 39.0, 40.0, 39.0, 40.0, 39.0, 39.0, 39.0], 'compute_bb:': [6.0, 6.0, 5.0, 5.0, 6.0, 5.0, 5.0, 6.0], 'force_calc:': [2860.0, 2958.0, 2914.0, 2857.0, 2817.0, 2973.0, 2844.0, 2853.0], 'pointer_table:': [2.0, 2.0, 2.0, 2.0, 2.0, 2.0, 2.0, 2.0], 'build_tree:': [102.0, 102.0, 102.0, 102.0, 103.0, 102.0, 102.0, 102.0]}
Configuration: nbodies = 200000, ntimesteps = 1, dtime = 0.025000 eps = 0.050000, tol = 0.500000
Time step 0:
the depth of the tree is: 18, and the number of nodes is: 296357.
@ build_tree: 102 ms
@ compute_bb:  5 ms
@ compute_cofm: 39 ms
@ force_calc: 2826 ms
@ init_kernel: 2600 ms
@ gpu_copy_tree_to: 21 ms
@ kernel: 68 ms
@ gpu_copy_tree_from: 37 ms
@ build_tree_gpu: 101 ms
@ pointer_table:  2 ms
@ adv_point: 26 ms
@ read_input: 787 ms
@ overall: 3856 ms
Collected results into ../../../results/tmp/bh_FSM_Lockstep_BarnesHutPlummer200K.in_sorted.stats

Loading data from ../../../results/tmp/bh_FSM_Lockstep_BarnesHutPlummer200K.in_sorted.stats...
{'build_tree_gpu:': [101.0, 100.0, 101.0, 101.0, 103.0, 100.0, 100.0, 101.0, 101.0], 'gpu_copy_tree_from:': [37.0, 35.0, 28.0, 37.0, 37.0, 36.0, 28.0, 37.0, 37.0], 'gpu_copy_tree_to:': [21.0, 24.0, 20.0, 21.0, 21.0, 21.0, 20.0, 21.0, 21.0], 'init_kernel:': [2633.0, 2730.0, 2697.0, 2630.0, 2589.0, 2747.0, 2628.0, 2627.0, 2600.0], 'compute_cofm:': [39.0, 39.0, 40.0, 39.0, 40.0, 39.0, 39.0, 39.0, 39.0], 'kernel:': [68.0, 68.0, 68.0, 68.0, 68.0, 68.0, 68.0, 68.0, 68.0], 'overall:': [3894.0, 3956.0, 3934.0, 3874.0, 3834.0, 3975.0, 3806.0, 3890.0, 3856.0], 'adv_point:': [25.0, 22.0, 18.0, 25.0, 26.0, 25.0, 17.0, 25.0, 26.0], 'read_input:': [792.0, 768.0, 804.0, 775.0, 772.0, 761.0, 749.0, 795.0, 787.0], 'compute_bb:': [6.0, 6.0, 5.0, 5.0, 6.0, 5.0, 5.0, 6.0, 5.0], 'force_calc:': [2860.0, 2958.0, 2914.0, 2857.0, 2817.0, 2973.0, 2844.0, 2853.0, 2826.0], 'pointer_table:': [2.0, 2.0, 2.0, 2.0, 2.0, 2.0, 2.0, 2.0, 2.0], 'build_tree:': [102.0, 102.0, 102.0, 102.0, 103.0, 102.0, 102.0, 102.0, 102.0]}
Configuration: nbodies = 200000, ntimesteps = 1, dtime = 0.025000 eps = 0.050000, tol = 0.500000
Time step 0:
the depth of the tree is: 18, and the number of nodes is: 296357.
@ build_tree: 103 ms
@ compute_bb:  6 ms
@ compute_cofm: 40 ms
@ force_calc: 2990 ms
@ init_kernel: 2762 ms
@ gpu_copy_tree_to: 21 ms
@ kernel: 68 ms
@ gpu_copy_tree_from: 37 ms
@ build_tree_gpu: 103 ms
@ pointer_table:  2 ms
@ adv_point: 26 ms
@ read_input: 779 ms
@ overall: 4014 ms
Collected results into ../../../results/tmp/bh_FSM_Lockstep_BarnesHutPlummer200K.in_sorted.stats

Loading data from ../../../results/tmp/bh_FSM_Lockstep_BarnesHutPlummer200K.in_sorted.stats...
{'build_tree_gpu:': [101.0, 100.0, 101.0, 101.0, 103.0, 100.0, 100.0, 101.0, 101.0, 103.0], 'gpu_copy_tree_from:': [37.0, 35.0, 28.0, 37.0, 37.0, 36.0, 28.0, 37.0, 37.0, 37.0], 'gpu_copy_tree_to:': [21.0, 24.0, 20.0, 21.0, 21.0, 21.0, 20.0, 21.0, 21.0, 21.0], 'init_kernel:': [2633.0, 2730.0, 2697.0, 2630.0, 2589.0, 2747.0, 2628.0, 2627.0, 2600.0, 2762.0], 'read_input:': [792.0, 768.0, 804.0, 775.0, 772.0, 761.0, 749.0, 795.0, 787.0, 779.0], 'kernel:': [68.0, 68.0, 68.0, 68.0, 68.0, 68.0, 68.0, 68.0, 68.0, 68.0], 'overall:': [3894.0, 3956.0, 3934.0, 3874.0, 3834.0, 3975.0, 3806.0, 3890.0, 3856.0, 4014.0], 'adv_point:': [25.0, 22.0, 18.0, 25.0, 26.0, 25.0, 17.0, 25.0, 26.0, 26.0], 'compute_cofm:': [39.0, 39.0, 40.0, 39.0, 40.0, 39.0, 39.0, 39.0, 39.0, 40.0], 'compute_bb:': [6.0, 6.0, 5.0, 5.0, 6.0, 5.0, 5.0, 6.0, 5.0, 6.0], 'force_calc:': [2860.0, 2958.0, 2914.0, 2857.0, 2817.0, 2973.0, 2844.0, 2853.0, 2826.0, 2990.0], 'pointer_table:': [2.0, 2.0, 2.0, 2.0, 2.0, 2.0, 2.0, 2.0, 2.0, 2.0], 'build_tree:': [102.0, 102.0, 102.0, 102.0, 103.0, 102.0, 102.0, 102.0, 102.0, 103.0]}
Configuration: nbodies = 200000, ntimesteps = 1, dtime = 0.025000 eps = 0.050000, tol = 0.500000
Time step 0:
the depth of the tree is: 18, and the number of nodes is: 296357.
@ build_tree: 102 ms
@ compute_bb:  6 ms
@ compute_cofm: 39 ms
@ force_calc: 3050 ms
@ init_kernel: 2822 ms
@ gpu_copy_tree_to: 24 ms
@ kernel: 68 ms
@ gpu_copy_tree_from: 35 ms
@ build_tree_gpu: 101 ms
@ pointer_table:  3 ms
@ adv_point: 22 ms
@ read_input: 757 ms
@ overall: 4038 ms
Collected results into ../../../results/tmp/bh_FSM_Lockstep_BarnesHutPlummer200K.in_sorted.stats

Loading data from ../../../results/tmp/bh_FSM_Lockstep_BarnesHutPlummer200K.in_sorted.stats...
{'build_tree_gpu:': [101.0, 100.0, 101.0, 101.0, 103.0, 100.0, 100.0, 101.0, 101.0, 103.0, 101.0], 'gpu_copy_tree_from:': [37.0, 35.0, 28.0, 37.0, 37.0, 36.0, 28.0, 37.0, 37.0, 37.0, 35.0], 'gpu_copy_tree_to:': [21.0, 24.0, 20.0, 21.0, 21.0, 21.0, 20.0, 21.0, 21.0, 21.0, 24.0], 'init_kernel:': [2633.0, 2730.0, 2697.0, 2630.0, 2589.0, 2747.0, 2628.0, 2627.0, 2600.0, 2762.0, 2822.0], 'compute_cofm:': [39.0, 39.0, 40.0, 39.0, 40.0, 39.0, 39.0, 39.0, 39.0, 40.0, 39.0], 'kernel:': [68.0, 68.0, 68.0, 68.0, 68.0, 68.0, 68.0, 68.0, 68.0, 68.0, 68.0], 'overall:': [3894.0, 3956.0, 3934.0, 3874.0, 3834.0, 3975.0, 3806.0, 3890.0, 3856.0, 4014.0, 4038.0], 'adv_point:': [25.0, 22.0, 18.0, 25.0, 26.0, 25.0, 17.0, 25.0, 26.0, 26.0, 22.0], 'read_input:': [792.0, 768.0, 804.0, 775.0, 772.0, 761.0, 749.0, 795.0, 787.0, 779.0, 757.0], 'compute_bb:': [6.0, 6.0, 5.0, 5.0, 6.0, 5.0, 5.0, 6.0, 5.0, 6.0, 6.0], 'force_calc:': [2860.0, 2958.0, 2914.0, 2857.0, 2817.0, 2973.0, 2844.0, 2853.0, 2826.0, 2990.0, 3050.0], 'pointer_table:': [2.0, 2.0, 2.0, 2.0, 2.0, 2.0, 2.0, 2.0, 2.0, 2.0, 3.0], 'build_tree:': [102.0, 102.0, 102.0, 102.0, 103.0, 102.0, 102.0, 102.0, 102.0, 103.0, 102.0]}
Configuration: nbodies = 200000, ntimesteps = 1, dtime = 0.025000 eps = 0.050000, tol = 0.500000
Time step 0:
the depth of the tree is: 18, and the number of nodes is: 296357.
@ build_tree: 102 ms
@ compute_bb:  6 ms
@ compute_cofm: 39 ms
@ force_calc: 2842 ms
@ init_kernel: 2605 ms
@ gpu_copy_tree_to: 29 ms
@ kernel: 68 ms
@ gpu_copy_tree_from: 40 ms
@ build_tree_gpu: 101 ms
@ pointer_table:  2 ms
@ adv_point: 25 ms
@ read_input: 831 ms
@ overall: 3916 ms
Collected results into ../../../results/tmp/bh_FSM_Lockstep_BarnesHutPlummer200K.in_sorted.stats

Loading data from ../../../results/tmp/bh_FSM_Lockstep_BarnesHutPlummer200K.in_sorted.stats...
{'build_tree_gpu:': [101.0, 100.0, 101.0, 101.0, 103.0, 100.0, 100.0, 101.0, 101.0, 103.0, 101.0, 101.0], 'gpu_copy_tree_from:': [37.0, 35.0, 28.0, 37.0, 37.0, 36.0, 28.0, 37.0, 37.0, 37.0, 35.0, 40.0], 'gpu_copy_tree_to:': [21.0, 24.0, 20.0, 21.0, 21.0, 21.0, 20.0, 21.0, 21.0, 21.0, 24.0, 29.0], 'init_kernel:': [2633.0, 2730.0, 2697.0, 2630.0, 2589.0, 2747.0, 2628.0, 2627.0, 2600.0, 2762.0, 2822.0, 2605.0], 'read_input:': [792.0, 768.0, 804.0, 775.0, 772.0, 761.0, 749.0, 795.0, 787.0, 779.0, 757.0, 831.0], 'kernel:': [68.0, 68.0, 68.0, 68.0, 68.0, 68.0, 68.0, 68.0, 68.0, 68.0, 68.0, 68.0], 'overall:': [3894.0, 3956.0, 3934.0, 3874.0, 3834.0, 3975.0, 3806.0, 3890.0, 3856.0, 4014.0, 4038.0, 3916.0], 'adv_point:': [25.0, 22.0, 18.0, 25.0, 26.0, 25.0, 17.0, 25.0, 26.0, 26.0, 22.0, 25.0], 'compute_cofm:': [39.0, 39.0, 40.0, 39.0, 40.0, 39.0, 39.0, 39.0, 39.0, 40.0, 39.0, 39.0], 'compute_bb:': [6.0, 6.0, 5.0, 5.0, 6.0, 5.0, 5.0, 6.0, 5.0, 6.0, 6.0, 6.0], 'force_calc:': [2860.0, 2958.0, 2914.0, 2857.0, 2817.0, 2973.0, 2844.0, 2853.0, 2826.0, 2990.0, 3050.0, 2842.0], 'pointer_table:': [2.0, 2.0, 2.0, 2.0, 2.0, 2.0, 2.0, 2.0, 2.0, 2.0, 3.0, 2.0], 'build_tree:': [102.0, 102.0, 102.0, 102.0, 103.0, 102.0, 102.0, 102.0, 102.0, 103.0, 102.0, 102.0]}
Configuration: nbodies = 200000, ntimesteps = 1, dtime = 0.025000 eps = 0.050000, tol = 0.500000
Time step 0:
the depth of the tree is: 18, and the number of nodes is: 296357.
@ build_tree: 102 ms
@ compute_bb:  5 ms
@ compute_cofm: 39 ms
@ force_calc: 2900 ms
@ init_kernel: 2674 ms
@ gpu_copy_tree_to: 21 ms
@ kernel: 68 ms
@ gpu_copy_tree_from: 36 ms
@ build_tree_gpu: 101 ms
@ pointer_table:  2 ms
@ adv_point: 25 ms
@ read_input: 786 ms
@ overall: 3928 ms
Collected results into ../../../results/tmp/bh_FSM_Lockstep_BarnesHutPlummer200K.in_sorted.stats

Loading data from ../../../results/tmp/bh_FSM_Lockstep_BarnesHutPlummer200K.in_sorted.stats...
{'build_tree_gpu:': [101.0, 100.0, 101.0, 101.0, 103.0, 100.0, 100.0, 101.0, 101.0, 103.0, 101.0, 101.0, 101.0], 'gpu_copy_tree_from:': [37.0, 35.0, 28.0, 37.0, 37.0, 36.0, 28.0, 37.0, 37.0, 37.0, 35.0, 40.0, 36.0], 'gpu_copy_tree_to:': [21.0, 24.0, 20.0, 21.0, 21.0, 21.0, 20.0, 21.0, 21.0, 21.0, 24.0, 29.0, 21.0], 'init_kernel:': [2633.0, 2730.0, 2697.0, 2630.0, 2589.0, 2747.0, 2628.0, 2627.0, 2600.0, 2762.0, 2822.0, 2605.0, 2674.0], 'compute_cofm:': [39.0, 39.0, 40.0, 39.0, 40.0, 39.0, 39.0, 39.0, 39.0, 40.0, 39.0, 39.0, 39.0], 'kernel:': [68.0, 68.0, 68.0, 68.0, 68.0, 68.0, 68.0, 68.0, 68.0, 68.0, 68.0, 68.0, 68.0], 'overall:': [3894.0, 3956.0, 3934.0, 3874.0, 3834.0, 3975.0, 3806.0, 3890.0, 3856.0, 4014.0, 4038.0, 3916.0, 3928.0], 'adv_point:': [25.0, 22.0, 18.0, 25.0, 26.0, 25.0, 17.0, 25.0, 26.0, 26.0, 22.0, 25.0, 25.0], 'read_input:': [792.0, 768.0, 804.0, 775.0, 772.0, 761.0, 749.0, 795.0, 787.0, 779.0, 757.0, 831.0, 786.0], 'compute_bb:': [6.0, 6.0, 5.0, 5.0, 6.0, 5.0, 5.0, 6.0, 5.0, 6.0, 6.0, 6.0, 5.0], 'force_calc:': [2860.0, 2958.0, 2914.0, 2857.0, 2817.0, 2973.0, 2844.0, 2853.0, 2826.0, 2990.0, 3050.0, 2842.0, 2900.0], 'pointer_table:': [2.0, 2.0, 2.0, 2.0, 2.0, 2.0, 2.0, 2.0, 2.0, 2.0, 3.0, 2.0, 2.0], 'build_tree:': [102.0, 102.0, 102.0, 102.0, 103.0, 102.0, 102.0, 102.0, 102.0, 103.0, 102.0, 102.0, 102.0]}
Configuration: nbodies = 200000, ntimesteps = 1, dtime = 0.025000 eps = 0.050000, tol = 0.500000
Time step 0:
the depth of the tree is: 18, and the number of nodes is: 296357.
@ build_tree: 104 ms
@ compute_bb:  5 ms
@ compute_cofm: 40 ms
@ force_calc: 2913 ms
@ init_kernel: 2685 ms
@ gpu_copy_tree_to: 21 ms
@ kernel: 68 ms
@ gpu_copy_tree_from: 37 ms
@ build_tree_gpu: 102 ms
@ pointer_table:  2 ms
@ adv_point: 26 ms
@ read_input: 808 ms
@ overall: 3967 ms
Collected results into ../../../results/tmp/bh_FSM_Lockstep_BarnesHutPlummer200K.in_sorted.stats

Loading data from ../../../results/tmp/bh_FSM_Lockstep_BarnesHutPlummer200K.in_sorted.stats...
{'build_tree_gpu:': [101.0, 100.0, 101.0, 101.0, 103.0, 100.0, 100.0, 101.0, 101.0, 103.0, 101.0, 101.0, 101.0, 102.0], 'gpu_copy_tree_from:': [37.0, 35.0, 28.0, 37.0, 37.0, 36.0, 28.0, 37.0, 37.0, 37.0, 35.0, 40.0, 36.0, 37.0], 'gpu_copy_tree_to:': [21.0, 24.0, 20.0, 21.0, 21.0, 21.0, 20.0, 21.0, 21.0, 21.0, 24.0, 29.0, 21.0, 21.0], 'init_kernel:': [2633.0, 2730.0, 2697.0, 2630.0, 2589.0, 2747.0, 2628.0, 2627.0, 2600.0, 2762.0, 2822.0, 2605.0, 2674.0, 2685.0], 'read_input:': [792.0, 768.0, 804.0, 775.0, 772.0, 761.0, 749.0, 795.0, 787.0, 779.0, 757.0, 831.0, 786.0, 808.0], 'kernel:': [68.0, 68.0, 68.0, 68.0, 68.0, 68.0, 68.0, 68.0, 68.0, 68.0, 68.0, 68.0, 68.0, 68.0], 'overall:': [3894.0, 3956.0, 3934.0, 3874.0, 3834.0, 3975.0, 3806.0, 3890.0, 3856.0, 4014.0, 4038.0, 3916.0, 3928.0, 3967.0], 'adv_point:': [25.0, 22.0, 18.0, 25.0, 26.0, 25.0, 17.0, 25.0, 26.0, 26.0, 22.0, 25.0, 25.0, 26.0], 'compute_cofm:': [39.0, 39.0, 40.0, 39.0, 40.0, 39.0, 39.0, 39.0, 39.0, 40.0, 39.0, 39.0, 39.0, 40.0], 'compute_bb:': [6.0, 6.0, 5.0, 5.0, 6.0, 5.0, 5.0, 6.0, 5.0, 6.0, 6.0, 6.0, 5.0, 5.0], 'force_calc:': [2860.0, 2958.0, 2914.0, 2857.0, 2817.0, 2973.0, 2844.0, 2853.0, 2826.0, 2990.0, 3050.0, 2842.0, 2900.0, 2913.0], 'pointer_table:': [2.0, 2.0, 2.0, 2.0, 2.0, 2.0, 2.0, 2.0, 2.0, 2.0, 3.0, 2.0, 2.0, 2.0], 'build_tree:': [102.0, 102.0, 102.0, 102.0, 103.0, 102.0, 102.0, 102.0, 102.0, 103.0, 102.0, 102.0, 102.0, 104.0]}
Configuration: nbodies = 200000, ntimesteps = 1, dtime = 0.025000 eps = 0.050000, tol = 0.500000
Time step 0:
the depth of the tree is: 18, and the number of nodes is: 296357.
@ build_tree: 103 ms
@ compute_bb:  6 ms
@ compute_cofm: 40 ms
@ force_calc: 2950 ms
@ init_kernel: 2722 ms
@ gpu_copy_tree_to: 21 ms
@ kernel: 68 ms
@ gpu_copy_tree_from: 37 ms
@ build_tree_gpu: 103 ms
@ pointer_table:  2 ms
@ adv_point: 26 ms
@ read_input: 763 ms
@ overall: 3957 ms
Collected results into ../../../results/tmp/bh_FSM_Lockstep_BarnesHutPlummer200K.in_sorted.stats

