Results wll be collected to ../../../results/tmp/bh_FSM_Lockstep_BarnesHutRandom1M_diff_mass.in_unsorted.stats...
Configuration: nbodies = 1000000, ntimesteps = 1, dtime = 0.025000 eps = 0.050000, tol = 0.500000
Time step 0:
the depth of the tree is: 15, and the number of nodes is: 1479291.
@ build_tree: 618 ms
@ compute_bb: 25 ms
@ compute_cofm: 202 ms
@ force_calc: 4712 ms
@ init_kernel: 2626 ms
@ gpu_copy_tree_to: 301 ms
@ kernel: 1172 ms
@ gpu_copy_tree_from: 113 ms
@ build_tree_gpu: 500 ms
@ pointer_table:  7 ms
@ adv_point: 65 ms
@ read_input: 3986 ms
@ overall: 9773 ms
Collected results into ../../../results/tmp/bh_FSM_Lockstep_BarnesHutRandom1M_diff_mass.in_unsorted.stats

Loading data from ../../../results/tmp/bh_FSM_Lockstep_BarnesHutRandom1M_diff_mass.in_unsorted.stats...
{'build_tree_gpu:': [500.0], 'gpu_copy_tree_from:': [113.0], 'gpu_copy_tree_to:': [301.0], 'init_kernel:': [2626.0], 'compute_cofm:': [202.0], 'kernel:': [1172.0], 'overall:': [9773.0], 'adv_point:': [65.0], 'read_input:': [3986.0], 'compute_bb:': [25.0], 'force_calc:': [4712.0], 'pointer_table:': [7.0], 'build_tree:': [618.0]}
Configuration: nbodies = 1000000, ntimesteps = 1, dtime = 0.025000 eps = 0.050000, tol = 0.500000
Time step 0:
the depth of the tree is: 15, and the number of nodes is: 1479291.
@ build_tree: 643 ms
@ compute_bb: 31 ms
@ compute_cofm: 220 ms
@ force_calc: 4946 ms
@ init_kernel: 2742 ms
@ gpu_copy_tree_to: 350 ms
@ kernel: 1173 ms
@ gpu_copy_tree_from: 119 ms
@ build_tree_gpu: 562 ms
@ pointer_table:  7 ms
@ adv_point: 94 ms
@ read_input: 3887 ms
@ overall: 10056 ms
Collected results into ../../../results/tmp/bh_FSM_Lockstep_BarnesHutRandom1M_diff_mass.in_unsorted.stats

Loading data from ../../../results/tmp/bh_FSM_Lockstep_BarnesHutRandom1M_diff_mass.in_unsorted.stats...
{'build_tree_gpu:': [500.0, 562.0], 'gpu_copy_tree_from:': [113.0, 119.0], 'gpu_copy_tree_to:': [301.0, 350.0], 'init_kernel:': [2626.0, 2742.0], 'read_input:': [3986.0, 3887.0], 'kernel:': [1172.0, 1173.0], 'overall:': [9773.0, 10056.0], 'adv_point:': [65.0, 94.0], 'compute_cofm:': [202.0, 220.0], 'compute_bb:': [25.0, 31.0], 'force_calc:': [4712.0, 4946.0], 'pointer_table:': [7.0, 7.0], 'build_tree:': [618.0, 643.0]}
Configuration: nbodies = 1000000, ntimesteps = 1, dtime = 0.025000 eps = 0.050000, tol = 0.500000
Time step 0:
the depth of the tree is: 15, and the number of nodes is: 1479291.
@ build_tree: 624 ms
@ compute_bb: 25 ms
@ compute_cofm: 201 ms
@ force_calc: 4818 ms
@ init_kernel: 2631 ms
@ gpu_copy_tree_to: 359 ms
@ kernel: 1172 ms
@ gpu_copy_tree_from: 145 ms
@ build_tree_gpu: 510 ms
@ pointer_table:  7 ms
@ adv_point: 109 ms
@ read_input: 3862 ms
@ overall: 9915 ms
Collected results into ../../../results/tmp/bh_FSM_Lockstep_BarnesHutRandom1M_diff_mass.in_unsorted.stats

Loading data from ../../../results/tmp/bh_FSM_Lockstep_BarnesHutRandom1M_diff_mass.in_unsorted.stats...
{'build_tree_gpu:': [500.0, 562.0, 510.0], 'gpu_copy_tree_from:': [113.0, 119.0, 145.0], 'gpu_copy_tree_to:': [301.0, 350.0, 359.0], 'init_kernel:': [2626.0, 2742.0, 2631.0], 'compute_cofm:': [202.0, 220.0, 201.0], 'kernel:': [1172.0, 1173.0, 1172.0], 'overall:': [9773.0, 10056.0, 9915.0], 'adv_point:': [65.0, 94.0, 109.0], 'read_input:': [3986.0, 3887.0, 3862.0], 'compute_bb:': [25.0, 31.0, 25.0], 'force_calc:': [4712.0, 4946.0, 4818.0], 'pointer_table:': [7.0, 7.0, 7.0], 'build_tree:': [618.0, 643.0, 624.0]}
Configuration: nbodies = 1000000, ntimesteps = 1, dtime = 0.025000 eps = 0.050000, tol = 0.500000
Time step 0:
the depth of the tree is: 15, and the number of nodes is: 1479291.
@ build_tree: 626 ms
@ compute_bb: 25 ms
@ compute_cofm: 203 ms
@ force_calc: 4741 ms
@ init_kernel: 2564 ms
@ gpu_copy_tree_to: 317 ms
@ kernel: 1178 ms
@ gpu_copy_tree_from: 168 ms
@ build_tree_gpu: 513 ms
@ pointer_table:  7 ms
@ adv_point: 125 ms
@ read_input: 3885 ms
@ overall: 9941 ms
Collected results into ../../../results/tmp/bh_FSM_Lockstep_BarnesHutRandom1M_diff_mass.in_unsorted.stats

Loading data from ../../../results/tmp/bh_FSM_Lockstep_BarnesHutRandom1M_diff_mass.in_unsorted.stats...
{'build_tree_gpu:': [500.0, 562.0, 510.0, 513.0], 'gpu_copy_tree_from:': [113.0, 119.0, 145.0, 168.0], 'gpu_copy_tree_to:': [301.0, 350.0, 359.0, 317.0], 'init_kernel:': [2626.0, 2742.0, 2631.0, 2564.0], 'read_input:': [3986.0, 3887.0, 3862.0, 3885.0], 'kernel:': [1172.0, 1173.0, 1172.0, 1178.0], 'overall:': [9773.0, 10056.0, 9915.0, 9941.0], 'adv_point:': [65.0, 94.0, 109.0, 125.0], 'compute_cofm:': [202.0, 220.0, 201.0, 203.0], 'compute_bb:': [25.0, 31.0, 25.0, 25.0], 'force_calc:': [4712.0, 4946.0, 4818.0, 4741.0], 'pointer_table:': [7.0, 7.0, 7.0, 7.0], 'build_tree:': [618.0, 643.0, 624.0, 626.0]}
Configuration: nbodies = 1000000, ntimesteps = 1, dtime = 0.025000 eps = 0.050000, tol = 0.500000
Time step 0:
the depth of the tree is: 15, and the number of nodes is: 1479291.
@ build_tree: 624 ms
@ compute_bb: 25 ms
@ compute_cofm: 201 ms
@ force_calc: 4862 ms
@ init_kernel: 2727 ms
@ gpu_copy_tree_to: 307 ms
@ kernel: 1172 ms
@ gpu_copy_tree_from: 144 ms
@ build_tree_gpu: 511 ms
@ pointer_table:  7 ms
@ adv_point: 108 ms
@ read_input: 3901 ms
@ overall: 9997 ms
Collected results into ../../../results/tmp/bh_FSM_Lockstep_BarnesHutRandom1M_diff_mass.in_unsorted.stats

Loading data from ../../../results/tmp/bh_FSM_Lockstep_BarnesHutRandom1M_diff_mass.in_unsorted.stats...
{'build_tree_gpu:': [500.0, 562.0, 510.0, 513.0, 511.0], 'gpu_copy_tree_from:': [113.0, 119.0, 145.0, 168.0, 144.0], 'gpu_copy_tree_to:': [301.0, 350.0, 359.0, 317.0, 307.0], 'init_kernel:': [2626.0, 2742.0, 2631.0, 2564.0, 2727.0], 'compute_cofm:': [202.0, 220.0, 201.0, 203.0, 201.0], 'kernel:': [1172.0, 1173.0, 1172.0, 1178.0, 1172.0], 'overall:': [9773.0, 10056.0, 9915.0, 9941.0, 9997.0], 'adv_point:': [65.0, 94.0, 109.0, 125.0, 108.0], 'read_input:': [3986.0, 3887.0, 3862.0, 3885.0, 3901.0], 'compute_bb:': [25.0, 31.0, 25.0, 25.0, 25.0], 'force_calc:': [4712.0, 4946.0, 4818.0, 4741.0, 4862.0], 'pointer_table:': [7.0, 7.0, 7.0, 7.0, 7.0], 'build_tree:': [618.0, 643.0, 624.0, 626.0, 624.0]}
Configuration: nbodies = 1000000, ntimesteps = 1, dtime = 0.025000 eps = 0.050000, tol = 0.500000
Time step 0:
the depth of the tree is: 15, and the number of nodes is: 1479291.
@ build_tree: 630 ms
@ compute_bb: 31 ms
@ compute_cofm: 218 ms
@ force_calc: 4856 ms
@ init_kernel: 2708 ms
@ gpu_copy_tree_to: 300 ms
@ kernel: 1178 ms
@ gpu_copy_tree_from: 118 ms
@ build_tree_gpu: 553 ms
@ pointer_table:  7 ms
@ adv_point: 93 ms
@ read_input: 3871 ms
@ overall: 9933 ms
Collected results into ../../../results/tmp/bh_FSM_Lockstep_BarnesHutRandom1M_diff_mass.in_unsorted.stats

Loading data from ../../../results/tmp/bh_FSM_Lockstep_BarnesHutRandom1M_diff_mass.in_unsorted.stats...
{'build_tree_gpu:': [500.0, 562.0, 510.0, 513.0, 511.0, 553.0], 'gpu_copy_tree_from:': [113.0, 119.0, 145.0, 168.0, 144.0, 118.0], 'gpu_copy_tree_to:': [301.0, 350.0, 359.0, 317.0, 307.0, 300.0], 'init_kernel:': [2626.0, 2742.0, 2631.0, 2564.0, 2727.0, 2708.0], 'read_input:': [3986.0, 3887.0, 3862.0, 3885.0, 3901.0, 3871.0], 'kernel:': [1172.0, 1173.0, 1172.0, 1178.0, 1172.0, 1178.0], 'overall:': [9773.0, 10056.0, 9915.0, 9941.0, 9997.0, 9933.0], 'adv_point:': [65.0, 94.0, 109.0, 125.0, 108.0, 93.0], 'compute_cofm:': [202.0, 220.0, 201.0, 203.0, 201.0, 218.0], 'compute_bb:': [25.0, 31.0, 25.0, 25.0, 25.0, 31.0], 'force_calc:': [4712.0, 4946.0, 4818.0, 4741.0, 4862.0, 4856.0], 'pointer_table:': [7.0, 7.0, 7.0, 7.0, 7.0, 7.0], 'build_tree:': [618.0, 643.0, 624.0, 626.0, 624.0, 630.0]}
Configuration: nbodies = 1000000, ntimesteps = 1, dtime = 0.025000 eps = 0.050000, tol = 0.500000
Time step 0:
the depth of the tree is: 15, and the number of nodes is: 1479291.
@ build_tree: 625 ms
@ compute_bb: 25 ms
@ compute_cofm: 202 ms
@ force_calc: 4693 ms
@ init_kernel: 2596 ms
@ gpu_copy_tree_to: 328 ms
@ kernel: 1172 ms
@ gpu_copy_tree_from: 93 ms
@ build_tree_gpu: 504 ms
@ pointer_table:  7 ms
@ adv_point: 64 ms
@ read_input: 3897 ms
@ overall: 9671 ms
Collected results into ../../../results/tmp/bh_FSM_Lockstep_BarnesHutRandom1M_diff_mass.in_unsorted.stats

Loading data from ../../../results/tmp/bh_FSM_Lockstep_BarnesHutRandom1M_diff_mass.in_unsorted.stats...
{'build_tree_gpu:': [500.0, 562.0, 510.0, 513.0, 511.0, 553.0, 504.0], 'gpu_copy_tree_from:': [113.0, 119.0, 145.0, 168.0, 144.0, 118.0, 93.0], 'gpu_copy_tree_to:': [301.0, 350.0, 359.0, 317.0, 307.0, 300.0, 328.0], 'init_kernel:': [2626.0, 2742.0, 2631.0, 2564.0, 2727.0, 2708.0, 2596.0], 'compute_cofm:': [202.0, 220.0, 201.0, 203.0, 201.0, 218.0, 202.0], 'kernel:': [1172.0, 1173.0, 1172.0, 1178.0, 1172.0, 1178.0, 1172.0], 'overall:': [9773.0, 10056.0, 9915.0, 9941.0, 9997.0, 9933.0, 9671.0], 'adv_point:': [65.0, 94.0, 109.0, 125.0, 108.0, 93.0, 64.0], 'read_input:': [3986.0, 3887.0, 3862.0, 3885.0, 3901.0, 3871.0, 3897.0], 'compute_bb:': [25.0, 31.0, 25.0, 25.0, 25.0, 31.0, 25.0], 'force_calc:': [4712.0, 4946.0, 4818.0, 4741.0, 4862.0, 4856.0, 4693.0], 'pointer_table:': [7.0, 7.0, 7.0, 7.0, 7.0, 7.0, 7.0], 'build_tree:': [618.0, 643.0, 624.0, 626.0, 624.0, 630.0, 625.0]}
Configuration: nbodies = 1000000, ntimesteps = 1, dtime = 0.025000 eps = 0.050000, tol = 0.500000
Time step 0:
the depth of the tree is: 15, and the number of nodes is: 1479291.
@ build_tree: 620 ms
@ compute_bb: 25 ms
@ compute_cofm: 199 ms
@ force_calc: 4710 ms
@ init_kernel: 2605 ms
@ gpu_copy_tree_to: 290 ms
@ kernel: 1173 ms
@ gpu_copy_tree_from: 139 ms
@ build_tree_gpu: 503 ms
@ pointer_table:  8 ms
@ adv_point: 104 ms
@ read_input: 3896 ms
@ overall: 9828 ms
Collected results into ../../../results/tmp/bh_FSM_Lockstep_BarnesHutRandom1M_diff_mass.in_unsorted.stats

Loading data from ../../../results/tmp/bh_FSM_Lockstep_BarnesHutRandom1M_diff_mass.in_unsorted.stats...
{'build_tree_gpu:': [500.0, 562.0, 510.0, 513.0, 511.0, 553.0, 504.0, 503.0], 'gpu_copy_tree_from:': [113.0, 119.0, 145.0, 168.0, 144.0, 118.0, 93.0, 139.0], 'gpu_copy_tree_to:': [301.0, 350.0, 359.0, 317.0, 307.0, 300.0, 328.0, 290.0], 'init_kernel:': [2626.0, 2742.0, 2631.0, 2564.0, 2727.0, 2708.0, 2596.0, 2605.0], 'read_input:': [3986.0, 3887.0, 3862.0, 3885.0, 3901.0, 3871.0, 3897.0, 3896.0], 'kernel:': [1172.0, 1173.0, 1172.0, 1178.0, 1172.0, 1178.0, 1172.0, 1173.0], 'overall:': [9773.0, 10056.0, 9915.0, 9941.0, 9997.0, 9933.0, 9671.0, 9828.0], 'adv_point:': [65.0, 94.0, 109.0, 125.0, 108.0, 93.0, 64.0, 104.0], 'compute_cofm:': [202.0, 220.0, 201.0, 203.0, 201.0, 218.0, 202.0, 199.0], 'compute_bb:': [25.0, 31.0, 25.0, 25.0, 25.0, 31.0, 25.0, 25.0], 'force_calc:': [4712.0, 4946.0, 4818.0, 4741.0, 4862.0, 4856.0, 4693.0, 4710.0], 'pointer_table:': [7.0, 7.0, 7.0, 7.0, 7.0, 7.0, 7.0, 8.0], 'build_tree:': [618.0, 643.0, 624.0, 626.0, 624.0, 630.0, 625.0, 620.0]}
Configuration: nbodies = 1000000, ntimesteps = 1, dtime = 0.025000 eps = 0.050000, tol = 0.500000
Time step 0:
the depth of the tree is: 15, and the number of nodes is: 1479291.
@ build_tree: 634 ms
@ compute_bb: 26 ms
@ compute_cofm: 203 ms
@ force_calc: 4780 ms
@ init_kernel: 2658 ms
@ gpu_copy_tree_to: 329 ms
@ kernel: 1173 ms
@ gpu_copy_tree_from: 104 ms
@ build_tree_gpu: 515 ms
@ pointer_table:  7 ms
@ adv_point: 66 ms
@ read_input: 3878 ms
@ overall: 9752 ms
Collected results into ../../../results/tmp/bh_FSM_Lockstep_BarnesHutRandom1M_diff_mass.in_unsorted.stats

Loading data from ../../../results/tmp/bh_FSM_Lockstep_BarnesHutRandom1M_diff_mass.in_unsorted.stats...
{'build_tree_gpu:': [500.0, 562.0, 510.0, 513.0, 511.0, 553.0, 504.0, 503.0, 515.0], 'gpu_copy_tree_from:': [113.0, 119.0, 145.0, 168.0, 144.0, 118.0, 93.0, 139.0, 104.0], 'gpu_copy_tree_to:': [301.0, 350.0, 359.0, 317.0, 307.0, 300.0, 328.0, 290.0, 329.0], 'init_kernel:': [2626.0, 2742.0, 2631.0, 2564.0, 2727.0, 2708.0, 2596.0, 2605.0, 2658.0], 'compute_cofm:': [202.0, 220.0, 201.0, 203.0, 201.0, 218.0, 202.0, 199.0, 203.0], 'kernel:': [1172.0, 1173.0, 1172.0, 1178.0, 1172.0, 1178.0, 1172.0, 1173.0, 1173.0], 'overall:': [9773.0, 10056.0, 9915.0, 9941.0, 9997.0, 9933.0, 9671.0, 9828.0, 9752.0], 'adv_point:': [65.0, 94.0, 109.0, 125.0, 108.0, 93.0, 64.0, 104.0, 66.0], 'read_input:': [3986.0, 3887.0, 3862.0, 3885.0, 3901.0, 3871.0, 3897.0, 3896.0, 3878.0], 'compute_bb:': [25.0, 31.0, 25.0, 25.0, 25.0, 31.0, 25.0, 25.0, 26.0], 'force_calc:': [4712.0, 4946.0, 4818.0, 4741.0, 4862.0, 4856.0, 4693.0, 4710.0, 4780.0], 'pointer_table:': [7.0, 7.0, 7.0, 7.0, 7.0, 7.0, 7.0, 8.0, 7.0], 'build_tree:': [618.0, 643.0, 624.0, 626.0, 624.0, 630.0, 625.0, 620.0, 634.0]}
Configuration: nbodies = 1000000, ntimesteps = 1, dtime = 0.025000 eps = 0.050000, tol = 0.500000
Time step 0:
the depth of the tree is: 15, and the number of nodes is: 1479291.
@ build_tree: 624 ms
@ compute_bb: 25 ms
@ compute_cofm: 200 ms
@ force_calc: 4727 ms
@ init_kernel: 2633 ms
@ gpu_copy_tree_to: 327 ms
@ kernel: 1172 ms
@ gpu_copy_tree_from: 91 ms
@ build_tree_gpu: 503 ms
@ pointer_table:  7 ms
@ adv_point: 60 ms
@ read_input: 3884 ms
@ overall: 9683 ms
Collected results into ../../../results/tmp/bh_FSM_Lockstep_BarnesHutRandom1M_diff_mass.in_unsorted.stats

Loading data from ../../../results/tmp/bh_FSM_Lockstep_BarnesHutRandom1M_diff_mass.in_unsorted.stats...
{'build_tree_gpu:': [500.0, 562.0, 510.0, 513.0, 511.0, 553.0, 504.0, 503.0, 515.0, 503.0], 'gpu_copy_tree_from:': [113.0, 119.0, 145.0, 168.0, 144.0, 118.0, 93.0, 139.0, 104.0, 91.0], 'gpu_copy_tree_to:': [301.0, 350.0, 359.0, 317.0, 307.0, 300.0, 328.0, 290.0, 329.0, 327.0], 'init_kernel:': [2626.0, 2742.0, 2631.0, 2564.0, 2727.0, 2708.0, 2596.0, 2605.0, 2658.0, 2633.0], 'read_input:': [3986.0, 3887.0, 3862.0, 3885.0, 3901.0, 3871.0, 3897.0, 3896.0, 3878.0, 3884.0], 'kernel:': [1172.0, 1173.0, 1172.0, 1178.0, 1172.0, 1178.0, 1172.0, 1173.0, 1173.0, 1172.0], 'overall:': [9773.0, 10056.0, 9915.0, 9941.0, 9997.0, 9933.0, 9671.0, 9828.0, 9752.0, 9683.0], 'adv_point:': [65.0, 94.0, 109.0, 125.0, 108.0, 93.0, 64.0, 104.0, 66.0, 60.0], 'compute_cofm:': [202.0, 220.0, 201.0, 203.0, 201.0, 218.0, 202.0, 199.0, 203.0, 200.0], 'compute_bb:': [25.0, 31.0, 25.0, 25.0, 25.0, 31.0, 25.0, 25.0, 26.0, 25.0], 'force_calc:': [4712.0, 4946.0, 4818.0, 4741.0, 4862.0, 4856.0, 4693.0, 4710.0, 4780.0, 4727.0], 'pointer_table:': [7.0, 7.0, 7.0, 7.0, 7.0, 7.0, 7.0, 8.0, 7.0, 7.0], 'build_tree:': [618.0, 643.0, 624.0, 626.0, 624.0, 630.0, 625.0, 620.0, 634.0, 624.0]}
Configuration: nbodies = 1000000, ntimesteps = 1, dtime = 0.025000 eps = 0.050000, tol = 0.500000
Time step 0:
the depth of the tree is: 15, and the number of nodes is: 1479291.
@ build_tree: 624 ms
@ compute_bb: 25 ms
@ compute_cofm: 200 ms
@ force_calc: 4864 ms
@ init_kernel: 2688 ms
@ gpu_copy_tree_to: 359 ms
@ kernel: 1171 ms
@ gpu_copy_tree_from: 139 ms
@ build_tree_gpu: 507 ms
@ pointer_table:  7 ms
@ adv_point: 104 ms
@ read_input: 3964 ms
@ overall: 10056 ms
Collected results into ../../../results/tmp/bh_FSM_Lockstep_BarnesHutRandom1M_diff_mass.in_unsorted.stats

Loading data from ../../../results/tmp/bh_FSM_Lockstep_BarnesHutRandom1M_diff_mass.in_unsorted.stats...
{'build_tree_gpu:': [500.0, 562.0, 510.0, 513.0, 511.0, 553.0, 504.0, 503.0, 515.0, 503.0, 507.0], 'gpu_copy_tree_from:': [113.0, 119.0, 145.0, 168.0, 144.0, 118.0, 93.0, 139.0, 104.0, 91.0, 139.0], 'gpu_copy_tree_to:': [301.0, 350.0, 359.0, 317.0, 307.0, 300.0, 328.0, 290.0, 329.0, 327.0, 359.0], 'init_kernel:': [2626.0, 2742.0, 2631.0, 2564.0, 2727.0, 2708.0, 2596.0, 2605.0, 2658.0, 2633.0, 2688.0], 'compute_cofm:': [202.0, 220.0, 201.0, 203.0, 201.0, 218.0, 202.0, 199.0, 203.0, 200.0, 200.0], 'kernel:': [1172.0, 1173.0, 1172.0, 1178.0, 1172.0, 1178.0, 1172.0, 1173.0, 1173.0, 1172.0, 1171.0], 'overall:': [9773.0, 10056.0, 9915.0, 9941.0, 9997.0, 9933.0, 9671.0, 9828.0, 9752.0, 9683.0, 10056.0], 'adv_point:': [65.0, 94.0, 109.0, 125.0, 108.0, 93.0, 64.0, 104.0, 66.0, 60.0, 104.0], 'read_input:': [3986.0, 3887.0, 3862.0, 3885.0, 3901.0, 3871.0, 3897.0, 3896.0, 3878.0, 3884.0, 3964.0], 'compute_bb:': [25.0, 31.0, 25.0, 25.0, 25.0, 31.0, 25.0, 25.0, 26.0, 25.0, 25.0], 'force_calc:': [4712.0, 4946.0, 4818.0, 4741.0, 4862.0, 4856.0, 4693.0, 4710.0, 4780.0, 4727.0, 4864.0], 'pointer_table:': [7.0, 7.0, 7.0, 7.0, 7.0, 7.0, 7.0, 8.0, 7.0, 7.0, 7.0], 'build_tree:': [618.0, 643.0, 624.0, 626.0, 624.0, 630.0, 625.0, 620.0, 634.0, 624.0, 624.0]}
Configuration: nbodies = 1000000, ntimesteps = 1, dtime = 0.025000 eps = 0.050000, tol = 0.500000
Time step 0:
the depth of the tree is: 15, and the number of nodes is: 1479291.
@ build_tree: 605 ms
@ compute_bb: 25 ms
@ compute_cofm: 195 ms
@ force_calc: 4769 ms
@ init_kernel: 2668 ms
@ gpu_copy_tree_to: 300 ms
@ kernel: 1172 ms
@ gpu_copy_tree_from: 136 ms
@ build_tree_gpu: 493 ms
@ pointer_table:  7 ms
@ adv_point: 104 ms
@ read_input: 3917 ms
@ overall: 9888 ms
Collected results into ../../../results/tmp/bh_FSM_Lockstep_BarnesHutRandom1M_diff_mass.in_unsorted.stats

Loading data from ../../../results/tmp/bh_FSM_Lockstep_BarnesHutRandom1M_diff_mass.in_unsorted.stats...
{'build_tree_gpu:': [500.0, 562.0, 510.0, 513.0, 511.0, 553.0, 504.0, 503.0, 515.0, 503.0, 507.0, 493.0], 'gpu_copy_tree_from:': [113.0, 119.0, 145.0, 168.0, 144.0, 118.0, 93.0, 139.0, 104.0, 91.0, 139.0, 136.0], 'gpu_copy_tree_to:': [301.0, 350.0, 359.0, 317.0, 307.0, 300.0, 328.0, 290.0, 329.0, 327.0, 359.0, 300.0], 'init_kernel:': [2626.0, 2742.0, 2631.0, 2564.0, 2727.0, 2708.0, 2596.0, 2605.0, 2658.0, 2633.0, 2688.0, 2668.0], 'read_input:': [3986.0, 3887.0, 3862.0, 3885.0, 3901.0, 3871.0, 3897.0, 3896.0, 3878.0, 3884.0, 3964.0, 3917.0], 'kernel:': [1172.0, 1173.0, 1172.0, 1178.0, 1172.0, 1178.0, 1172.0, 1173.0, 1173.0, 1172.0, 1171.0, 1172.0], 'overall:': [9773.0, 10056.0, 9915.0, 9941.0, 9997.0, 9933.0, 9671.0, 9828.0, 9752.0, 9683.0, 10056.0, 9888.0], 'adv_point:': [65.0, 94.0, 109.0, 125.0, 108.0, 93.0, 64.0, 104.0, 66.0, 60.0, 104.0, 104.0], 'compute_cofm:': [202.0, 220.0, 201.0, 203.0, 201.0, 218.0, 202.0, 199.0, 203.0, 200.0, 200.0, 195.0], 'compute_bb:': [25.0, 31.0, 25.0, 25.0, 25.0, 31.0, 25.0, 25.0, 26.0, 25.0, 25.0, 25.0], 'force_calc:': [4712.0, 4946.0, 4818.0, 4741.0, 4862.0, 4856.0, 4693.0, 4710.0, 4780.0, 4727.0, 4864.0, 4769.0], 'pointer_table:': [7.0, 7.0, 7.0, 7.0, 7.0, 7.0, 7.0, 8.0, 7.0, 7.0, 7.0, 7.0], 'build_tree:': [618.0, 643.0, 624.0, 626.0, 624.0, 630.0, 625.0, 620.0, 634.0, 624.0, 624.0, 605.0]}
Configuration: nbodies = 1000000, ntimesteps = 1, dtime = 0.025000 eps = 0.050000, tol = 0.500000
Time step 0:
the depth of the tree is: 15, and the number of nodes is: 1479291.
@ build_tree: 615 ms
@ compute_bb: 26 ms
@ compute_cofm: 197 ms
@ force_calc: 4709 ms
@ init_kernel: 2651 ms
@ gpu_copy_tree_to: 294 ms
@ kernel: 1170 ms
@ gpu_copy_tree_from: 92 ms
@ build_tree_gpu: 501 ms
@ pointer_table:  7 ms
@ adv_point: 61 ms
@ read_input: 3881 ms
@ overall: 9650 ms
Collected results into ../../../results/tmp/bh_FSM_Lockstep_BarnesHutRandom1M_diff_mass.in_unsorted.stats

Loading data from ../../../results/tmp/bh_FSM_Lockstep_BarnesHutRandom1M_diff_mass.in_unsorted.stats...
{'build_tree_gpu:': [500.0, 562.0, 510.0, 513.0, 511.0, 553.0, 504.0, 503.0, 515.0, 503.0, 507.0, 493.0, 501.0], 'gpu_copy_tree_from:': [113.0, 119.0, 145.0, 168.0, 144.0, 118.0, 93.0, 139.0, 104.0, 91.0, 139.0, 136.0, 92.0], 'gpu_copy_tree_to:': [301.0, 350.0, 359.0, 317.0, 307.0, 300.0, 328.0, 290.0, 329.0, 327.0, 359.0, 300.0, 294.0], 'init_kernel:': [2626.0, 2742.0, 2631.0, 2564.0, 2727.0, 2708.0, 2596.0, 2605.0, 2658.0, 2633.0, 2688.0, 2668.0, 2651.0], 'compute_cofm:': [202.0, 220.0, 201.0, 203.0, 201.0, 218.0, 202.0, 199.0, 203.0, 200.0, 200.0, 195.0, 197.0], 'kernel:': [1172.0, 1173.0, 1172.0, 1178.0, 1172.0, 1178.0, 1172.0, 1173.0, 1173.0, 1172.0, 1171.0, 1172.0, 1170.0], 'overall:': [9773.0, 10056.0, 9915.0, 9941.0, 9997.0, 9933.0, 9671.0, 9828.0, 9752.0, 9683.0, 10056.0, 9888.0, 9650.0], 'adv_point:': [65.0, 94.0, 109.0, 125.0, 108.0, 93.0, 64.0, 104.0, 66.0, 60.0, 104.0, 104.0, 61.0], 'read_input:': [3986.0, 3887.0, 3862.0, 3885.0, 3901.0, 3871.0, 3897.0, 3896.0, 3878.0, 3884.0, 3964.0, 3917.0, 3881.0], 'compute_bb:': [25.0, 31.0, 25.0, 25.0, 25.0, 31.0, 25.0, 25.0, 26.0, 25.0, 25.0, 25.0, 26.0], 'force_calc:': [4712.0, 4946.0, 4818.0, 4741.0, 4862.0, 4856.0, 4693.0, 4710.0, 4780.0, 4727.0, 4864.0, 4769.0, 4709.0], 'pointer_table:': [7.0, 7.0, 7.0, 7.0, 7.0, 7.0, 7.0, 8.0, 7.0, 7.0, 7.0, 7.0, 7.0], 'build_tree:': [618.0, 643.0, 624.0, 626.0, 624.0, 630.0, 625.0, 620.0, 634.0, 624.0, 624.0, 605.0, 615.0]}
Configuration: nbodies = 1000000, ntimesteps = 1, dtime = 0.025000 eps = 0.050000, tol = 0.500000
Time step 0:
the depth of the tree is: 15, and the number of nodes is: 1479291.
@ build_tree: 643 ms
@ compute_bb: 31 ms
@ compute_cofm: 238 ms
@ force_calc: 4752 ms
@ init_kernel: 2553 ms
@ gpu_copy_tree_to: 346 ms
@ kernel: 1172 ms
@ gpu_copy_tree_from: 123 ms
@ build_tree_gpu: 557 ms
@ pointer_table:  7 ms
@ adv_point: 95 ms
@ read_input: 3903 ms
@ overall: 9911 ms
Collected results into ../../../results/tmp/bh_FSM_Lockstep_BarnesHutRandom1M_diff_mass.in_unsorted.stats

Loading data from ../../../results/tmp/bh_FSM_Lockstep_BarnesHutRandom1M_diff_mass.in_unsorted.stats...
{'build_tree_gpu:': [500.0, 562.0, 510.0, 513.0, 511.0, 553.0, 504.0, 503.0, 515.0, 503.0, 507.0, 493.0, 501.0, 557.0], 'gpu_copy_tree_from:': [113.0, 119.0, 145.0, 168.0, 144.0, 118.0, 93.0, 139.0, 104.0, 91.0, 139.0, 136.0, 92.0, 123.0], 'gpu_copy_tree_to:': [301.0, 350.0, 359.0, 317.0, 307.0, 300.0, 328.0, 290.0, 329.0, 327.0, 359.0, 300.0, 294.0, 346.0], 'init_kernel:': [2626.0, 2742.0, 2631.0, 2564.0, 2727.0, 2708.0, 2596.0, 2605.0, 2658.0, 2633.0, 2688.0, 2668.0, 2651.0, 2553.0], 'read_input:': [3986.0, 3887.0, 3862.0, 3885.0, 3901.0, 3871.0, 3897.0, 3896.0, 3878.0, 3884.0, 3964.0, 3917.0, 3881.0, 3903.0], 'kernel:': [1172.0, 1173.0, 1172.0, 1178.0, 1172.0, 1178.0, 1172.0, 1173.0, 1173.0, 1172.0, 1171.0, 1172.0, 1170.0, 1172.0], 'overall:': [9773.0, 10056.0, 9915.0, 9941.0, 9997.0, 9933.0, 9671.0, 9828.0, 9752.0, 9683.0, 10056.0, 9888.0, 9650.0, 9911.0], 'adv_point:': [65.0, 94.0, 109.0, 125.0, 108.0, 93.0, 64.0, 104.0, 66.0, 60.0, 104.0, 104.0, 61.0, 95.0], 'compute_cofm:': [202.0, 220.0, 201.0, 203.0, 201.0, 218.0, 202.0, 199.0, 203.0, 200.0, 200.0, 195.0, 197.0, 238.0], 'compute_bb:': [25.0, 31.0, 25.0, 25.0, 25.0, 31.0, 25.0, 25.0, 26.0, 25.0, 25.0, 25.0, 26.0, 31.0], 'force_calc:': [4712.0, 4946.0, 4818.0, 4741.0, 4862.0, 4856.0, 4693.0, 4710.0, 4780.0, 4727.0, 4864.0, 4769.0, 4709.0, 4752.0], 'pointer_table:': [7.0, 7.0, 7.0, 7.0, 7.0, 7.0, 7.0, 8.0, 7.0, 7.0, 7.0, 7.0, 7.0, 7.0], 'build_tree:': [618.0, 643.0, 624.0, 626.0, 624.0, 630.0, 625.0, 620.0, 634.0, 624.0, 624.0, 605.0, 615.0, 643.0]}
Configuration: nbodies = 1000000, ntimesteps = 1, dtime = 0.025000 eps = 0.050000, tol = 0.500000
Time step 0:
the depth of the tree is: 15, and the number of nodes is: 1479291.
@ build_tree: 630 ms
@ compute_bb: 25 ms
@ compute_cofm: 193 ms
@ force_calc: 4890 ms
@ init_kernel: 2765 ms
@ gpu_copy_tree_to: 322 ms
@ kernel: 1171 ms
@ gpu_copy_tree_from: 139 ms
@ build_tree_gpu: 492 ms
@ pointer_table:  7 ms
@ adv_point: 104 ms
@ read_input: 3846 ms
@ overall: 9955 ms
Collected results into ../../../results/tmp/bh_FSM_Lockstep_BarnesHutRandom1M_diff_mass.in_unsorted.stats

