Results wll be collected to ../../../results/tmp/bh_Hybrid_Sched_BarnesHutPlummer200K.in_unsorted.stats...
Configuration: nbodies = 200000, ntimesteps = 1, dtime = 0.025000 eps = 0.050000, tol = 0.500000
Time step 0:
the depth of the tree is: 18, and the number of nodes is: 296357.
Time for asynchronous transfer and execute (ms): 4.535648
SPLICE_DEPTH = 1, DEPTH_STAT = 8.
@ extra: 30 ms
@ build_tree: 104 ms
@ compute_bb:  5 ms
@ compute_cofm: 40 ms
@ force_calc: 3424 ms
@ init_kernel: 2807 ms
@ gpu_copy_tree_to: 67 ms
@ kernel: 391 ms
@ gpu_copy_tree_from: 21 ms
@ build_tree_gpu: 107 ms
@ pointer_table:  2 ms
@ adv_point: 13 ms
@ read_input: 1201 ms
@ overall: 4817 ms
Collected results into ../../../results/tmp/bh_Hybrid_Sched_BarnesHutPlummer200K.in_unsorted.stats

Loading data from ../../../results/tmp/bh_Hybrid_Sched_BarnesHutPlummer200K.in_unsorted.stats...
{'build_tree_gpu:': [107.0], 'gpu_copy_tree_from:': [21.0], 'gpu_copy_tree_to:': [67.0], 'init_kernel:': [2807.0], 'compute_cofm:': [40.0], 'kernel:': [391.0], 'overall:': [4817.0], 'adv_point:': [13.0], 'read_input:': [1201.0], 'compute_bb:': [5.0], 'force_calc:': [3424.0], 'extra:': [30.0], 'build_tree:': [104.0], 'pointer_table:': [2.0]}
Configuration: nbodies = 200000, ntimesteps = 1, dtime = 0.025000 eps = 0.050000, tol = 0.500000
Time step 0:
the depth of the tree is: 18, and the number of nodes is: 296357.
Time for asynchronous transfer and execute (ms): 4.523616
SPLICE_DEPTH = 1, DEPTH_STAT = 8.
@ extra: 31 ms
@ build_tree: 103 ms
@ compute_bb:  5 ms
@ compute_cofm: 39 ms
@ force_calc: 3225 ms
@ init_kernel: 2594 ms
@ gpu_copy_tree_to: 70 ms
@ kernel: 392 ms
@ gpu_copy_tree_from: 31 ms
@ build_tree_gpu: 107 ms
@ pointer_table:  3 ms
@ adv_point: 22 ms
@ read_input: 861 ms
@ overall: 4304 ms
Collected results into ../../../results/tmp/bh_Hybrid_Sched_BarnesHutPlummer200K.in_unsorted.stats

Loading data from ../../../results/tmp/bh_Hybrid_Sched_BarnesHutPlummer200K.in_unsorted.stats...
{'build_tree_gpu:': [107.0, 107.0], 'gpu_copy_tree_from:': [21.0, 31.0], 'gpu_copy_tree_to:': [67.0, 70.0], 'init_kernel:': [2807.0, 2594.0], 'read_input:': [1201.0, 861.0], 'kernel:': [391.0, 392.0], 'overall:': [4817.0, 4304.0], 'adv_point:': [13.0, 22.0], 'compute_cofm:': [40.0, 39.0], 'compute_bb:': [5.0, 5.0], 'force_calc:': [3424.0, 3225.0], 'extra:': [30.0, 31.0], 'build_tree:': [104.0, 103.0], 'pointer_table:': [2.0, 3.0]}
Configuration: nbodies = 200000, ntimesteps = 1, dtime = 0.025000 eps = 0.050000, tol = 0.500000
Time step 0:
the depth of the tree is: 18, and the number of nodes is: 296357.
Time for asynchronous transfer and execute (ms): 4.564768
SPLICE_DEPTH = 1, DEPTH_STAT = 8.
@ extra: 30 ms
@ build_tree: 103 ms
@ compute_bb:  5 ms
@ compute_cofm: 39 ms
@ force_calc: 3380 ms
@ init_kernel: 2760 ms
@ gpu_copy_tree_to: 69 ms
@ kernel: 392 ms
@ gpu_copy_tree_from: 23 ms
@ build_tree_gpu: 106 ms
@ pointer_table:  3 ms
@ adv_point: 17 ms
@ read_input: 828 ms
@ overall: 4413 ms
Collected results into ../../../results/tmp/bh_Hybrid_Sched_BarnesHutPlummer200K.in_unsorted.stats

Loading data from ../../../results/tmp/bh_Hybrid_Sched_BarnesHutPlummer200K.in_unsorted.stats...
{'build_tree_gpu:': [107.0, 107.0, 106.0], 'gpu_copy_tree_from:': [21.0, 31.0, 23.0], 'gpu_copy_tree_to:': [67.0, 70.0, 69.0], 'init_kernel:': [2807.0, 2594.0, 2760.0], 'compute_cofm:': [40.0, 39.0, 39.0], 'kernel:': [391.0, 392.0, 392.0], 'overall:': [4817.0, 4304.0, 4413.0], 'adv_point:': [13.0, 22.0, 17.0], 'read_input:': [1201.0, 861.0, 828.0], 'compute_bb:': [5.0, 5.0, 5.0], 'force_calc:': [3424.0, 3225.0, 3380.0], 'extra:': [30.0, 31.0, 30.0], 'build_tree:': [104.0, 103.0, 103.0], 'pointer_table:': [2.0, 3.0, 3.0]}
Configuration: nbodies = 200000, ntimesteps = 1, dtime = 0.025000 eps = 0.050000, tol = 0.500000
Time step 0:
the depth of the tree is: 18, and the number of nodes is: 296357.
Time for asynchronous transfer and execute (ms): 4.549312
SPLICE_DEPTH = 1, DEPTH_STAT = 8.
@ extra: 30 ms
@ build_tree: 100 ms
@ compute_bb:  5 ms
@ compute_cofm: 40 ms
@ force_calc: 3404 ms
@ init_kernel: 2786 ms
@ gpu_copy_tree_to: 67 ms
@ kernel: 392 ms
@ gpu_copy_tree_from: 21 ms
@ build_tree_gpu: 107 ms
@ pointer_table:  2 ms
@ adv_point: 13 ms
@ read_input: 874 ms
@ overall: 4466 ms
Collected results into ../../../results/tmp/bh_Hybrid_Sched_BarnesHutPlummer200K.in_unsorted.stats

Loading data from ../../../results/tmp/bh_Hybrid_Sched_BarnesHutPlummer200K.in_unsorted.stats...
{'build_tree_gpu:': [107.0, 107.0, 106.0, 107.0], 'gpu_copy_tree_from:': [21.0, 31.0, 23.0, 21.0], 'gpu_copy_tree_to:': [67.0, 70.0, 69.0, 67.0], 'init_kernel:': [2807.0, 2594.0, 2760.0, 2786.0], 'read_input:': [1201.0, 861.0, 828.0, 874.0], 'kernel:': [391.0, 392.0, 392.0, 392.0], 'overall:': [4817.0, 4304.0, 4413.0, 4466.0], 'adv_point:': [13.0, 22.0, 17.0, 13.0], 'compute_cofm:': [40.0, 39.0, 39.0, 40.0], 'compute_bb:': [5.0, 5.0, 5.0, 5.0], 'force_calc:': [3424.0, 3225.0, 3380.0, 3404.0], 'extra:': [30.0, 31.0, 30.0, 30.0], 'build_tree:': [104.0, 103.0, 103.0, 100.0], 'pointer_table:': [2.0, 3.0, 3.0, 2.0]}
Configuration: nbodies = 200000, ntimesteps = 1, dtime = 0.025000 eps = 0.050000, tol = 0.500000
Time step 0:
the depth of the tree is: 18, and the number of nodes is: 296357.
Time for asynchronous transfer and execute (ms): 4.537408
SPLICE_DEPTH = 1, DEPTH_STAT = 8.
@ extra: 30 ms
@ build_tree: 102 ms
@ compute_bb:  5 ms
@ compute_cofm: 39 ms
@ force_calc: 3256 ms
@ init_kernel: 2625 ms
@ gpu_copy_tree_to: 70 ms
@ kernel: 393 ms
@ gpu_copy_tree_from: 31 ms
@ build_tree_gpu: 107 ms
@ pointer_table:  3 ms
@ adv_point: 22 ms
@ read_input: 912 ms
@ overall: 4385 ms
Collected results into ../../../results/tmp/bh_Hybrid_Sched_BarnesHutPlummer200K.in_unsorted.stats

Loading data from ../../../results/tmp/bh_Hybrid_Sched_BarnesHutPlummer200K.in_unsorted.stats...
{'build_tree_gpu:': [107.0, 107.0, 106.0, 107.0, 107.0], 'gpu_copy_tree_from:': [21.0, 31.0, 23.0, 21.0, 31.0], 'gpu_copy_tree_to:': [67.0, 70.0, 69.0, 67.0, 70.0], 'init_kernel:': [2807.0, 2594.0, 2760.0, 2786.0, 2625.0], 'compute_cofm:': [40.0, 39.0, 39.0, 40.0, 39.0], 'kernel:': [391.0, 392.0, 392.0, 392.0, 393.0], 'overall:': [4817.0, 4304.0, 4413.0, 4466.0, 4385.0], 'adv_point:': [13.0, 22.0, 17.0, 13.0, 22.0], 'read_input:': [1201.0, 861.0, 828.0, 874.0, 912.0], 'compute_bb:': [5.0, 5.0, 5.0, 5.0, 5.0], 'force_calc:': [3424.0, 3225.0, 3380.0, 3404.0, 3256.0], 'extra:': [30.0, 31.0, 30.0, 30.0, 30.0], 'build_tree:': [104.0, 103.0, 103.0, 100.0, 102.0], 'pointer_table:': [2.0, 3.0, 3.0, 2.0, 3.0]}
Configuration: nbodies = 200000, ntimesteps = 1, dtime = 0.025000 eps = 0.050000, tol = 0.500000
Time step 0:
the depth of the tree is: 18, and the number of nodes is: 296357.
Time for asynchronous transfer and execute (ms): 4.600608
SPLICE_DEPTH = 1, DEPTH_STAT = 8.
@ extra: 31 ms
@ build_tree: 102 ms
@ compute_bb:  5 ms
@ compute_cofm: 38 ms
@ force_calc: 3375 ms
@ init_kernel: 2756 ms
@ gpu_copy_tree_to: 69 ms
@ kernel: 393 ms
@ gpu_copy_tree_from: 23 ms
@ build_tree_gpu: 104 ms
@ pointer_table:  3 ms
@ adv_point: 16 ms
@ read_input: 821 ms
@ overall: 4398 ms
Collected results into ../../../results/tmp/bh_Hybrid_Sched_BarnesHutPlummer200K.in_unsorted.stats

Loading data from ../../../results/tmp/bh_Hybrid_Sched_BarnesHutPlummer200K.in_unsorted.stats...
{'build_tree_gpu:': [107.0, 107.0, 106.0, 107.0, 107.0, 104.0], 'gpu_copy_tree_from:': [21.0, 31.0, 23.0, 21.0, 31.0, 23.0], 'gpu_copy_tree_to:': [67.0, 70.0, 69.0, 67.0, 70.0, 69.0], 'init_kernel:': [2807.0, 2594.0, 2760.0, 2786.0, 2625.0, 2756.0], 'read_input:': [1201.0, 861.0, 828.0, 874.0, 912.0, 821.0], 'kernel:': [391.0, 392.0, 392.0, 392.0, 393.0, 393.0], 'overall:': [4817.0, 4304.0, 4413.0, 4466.0, 4385.0, 4398.0], 'adv_point:': [13.0, 22.0, 17.0, 13.0, 22.0, 16.0], 'compute_cofm:': [40.0, 39.0, 39.0, 40.0, 39.0, 38.0], 'compute_bb:': [5.0, 5.0, 5.0, 5.0, 5.0, 5.0], 'force_calc:': [3424.0, 3225.0, 3380.0, 3404.0, 3256.0, 3375.0], 'extra:': [30.0, 31.0, 30.0, 30.0, 30.0, 31.0], 'build_tree:': [104.0, 103.0, 103.0, 100.0, 102.0, 102.0], 'pointer_table:': [2.0, 3.0, 3.0, 2.0, 3.0, 3.0]}
Configuration: nbodies = 200000, ntimesteps = 1, dtime = 0.025000 eps = 0.050000, tol = 0.500000
Time step 0:
the depth of the tree is: 18, and the number of nodes is: 296357.
Time for asynchronous transfer and execute (ms): 4.533728
SPLICE_DEPTH = 1, DEPTH_STAT = 8.
@ extra: 31 ms
@ build_tree: 103 ms
@ compute_bb:  5 ms
@ compute_cofm: 39 ms
@ force_calc: 3286 ms
@ init_kernel: 2652 ms
@ gpu_copy_tree_to: 71 ms
@ kernel: 393 ms
@ gpu_copy_tree_from: 31 ms
@ build_tree_gpu: 108 ms
@ pointer_table:  3 ms
@ adv_point: 22 ms
@ read_input: 871 ms
@ overall: 4375 ms
Collected results into ../../../results/tmp/bh_Hybrid_Sched_BarnesHutPlummer200K.in_unsorted.stats

Loading data from ../../../results/tmp/bh_Hybrid_Sched_BarnesHutPlummer200K.in_unsorted.stats...
{'build_tree_gpu:': [107.0, 107.0, 106.0, 107.0, 107.0, 104.0, 108.0], 'gpu_copy_tree_from:': [21.0, 31.0, 23.0, 21.0, 31.0, 23.0, 31.0], 'gpu_copy_tree_to:': [67.0, 70.0, 69.0, 67.0, 70.0, 69.0, 71.0], 'init_kernel:': [2807.0, 2594.0, 2760.0, 2786.0, 2625.0, 2756.0, 2652.0], 'compute_cofm:': [40.0, 39.0, 39.0, 40.0, 39.0, 38.0, 39.0], 'kernel:': [391.0, 392.0, 392.0, 392.0, 393.0, 393.0, 393.0], 'overall:': [4817.0, 4304.0, 4413.0, 4466.0, 4385.0, 4398.0, 4375.0], 'adv_point:': [13.0, 22.0, 17.0, 13.0, 22.0, 16.0, 22.0], 'read_input:': [1201.0, 861.0, 828.0, 874.0, 912.0, 821.0, 871.0], 'compute_bb:': [5.0, 5.0, 5.0, 5.0, 5.0, 5.0, 5.0], 'force_calc:': [3424.0, 3225.0, 3380.0, 3404.0, 3256.0, 3375.0, 3286.0], 'extra:': [30.0, 31.0, 30.0, 30.0, 30.0, 31.0, 31.0], 'build_tree:': [104.0, 103.0, 103.0, 100.0, 102.0, 102.0, 103.0], 'pointer_table:': [2.0, 3.0, 3.0, 2.0, 3.0, 3.0, 3.0]}
Configuration: nbodies = 200000, ntimesteps = 1, dtime = 0.025000 eps = 0.050000, tol = 0.500000
Time step 0:
the depth of the tree is: 18, and the number of nodes is: 296357.
Time for asynchronous transfer and execute (ms): 4.524064
SPLICE_DEPTH = 1, DEPTH_STAT = 8.
@ extra: 31 ms
@ build_tree: 102 ms
@ compute_bb:  6 ms
@ compute_cofm: 39 ms
@ force_calc: 3211 ms
@ init_kernel: 2584 ms
@ gpu_copy_tree_to: 70 ms
@ kernel: 391 ms
@ gpu_copy_tree_from: 29 ms
@ build_tree_gpu: 107 ms
@ pointer_table:  3 ms
@ adv_point: 22 ms
@ read_input: 806 ms
@ overall: 4232 ms
Collected results into ../../../results/tmp/bh_Hybrid_Sched_BarnesHutPlummer200K.in_unsorted.stats

Loading data from ../../../results/tmp/bh_Hybrid_Sched_BarnesHutPlummer200K.in_unsorted.stats...
{'build_tree_gpu:': [107.0, 107.0, 106.0, 107.0, 107.0, 104.0, 108.0, 107.0], 'gpu_copy_tree_from:': [21.0, 31.0, 23.0, 21.0, 31.0, 23.0, 31.0, 29.0], 'gpu_copy_tree_to:': [67.0, 70.0, 69.0, 67.0, 70.0, 69.0, 71.0, 70.0], 'init_kernel:': [2807.0, 2594.0, 2760.0, 2786.0, 2625.0, 2756.0, 2652.0, 2584.0], 'read_input:': [1201.0, 861.0, 828.0, 874.0, 912.0, 821.0, 871.0, 806.0], 'kernel:': [391.0, 392.0, 392.0, 392.0, 393.0, 393.0, 393.0, 391.0], 'overall:': [4817.0, 4304.0, 4413.0, 4466.0, 4385.0, 4398.0, 4375.0, 4232.0], 'adv_point:': [13.0, 22.0, 17.0, 13.0, 22.0, 16.0, 22.0, 22.0], 'compute_cofm:': [40.0, 39.0, 39.0, 40.0, 39.0, 38.0, 39.0, 39.0], 'compute_bb:': [5.0, 5.0, 5.0, 5.0, 5.0, 5.0, 5.0, 6.0], 'force_calc:': [3424.0, 3225.0, 3380.0, 3404.0, 3256.0, 3375.0, 3286.0, 3211.0], 'extra:': [30.0, 31.0, 30.0, 30.0, 30.0, 31.0, 31.0, 31.0], 'build_tree:': [104.0, 103.0, 103.0, 100.0, 102.0, 102.0, 103.0, 102.0], 'pointer_table:': [2.0, 3.0, 3.0, 2.0, 3.0, 3.0, 3.0, 3.0]}
Configuration: nbodies = 200000, ntimesteps = 1, dtime = 0.025000 eps = 0.050000, tol = 0.500000
Time step 0:
the depth of the tree is: 18, and the number of nodes is: 296357.
Time for asynchronous transfer and execute (ms): 4.558944
SPLICE_DEPTH = 1, DEPTH_STAT = 8.
@ extra: 31 ms
@ build_tree: 102 ms
@ compute_bb:  5 ms
@ compute_cofm: 39 ms
@ force_calc: 3345 ms
@ init_kernel: 2711 ms
@ gpu_copy_tree_to: 70 ms
@ kernel: 395 ms
@ gpu_copy_tree_from: 31 ms
@ build_tree_gpu: 107 ms
@ pointer_table:  3 ms
@ adv_point: 22 ms
@ read_input: 913 ms
@ overall: 4476 ms
Collected results into ../../../results/tmp/bh_Hybrid_Sched_BarnesHutPlummer200K.in_unsorted.stats

Loading data from ../../../results/tmp/bh_Hybrid_Sched_BarnesHutPlummer200K.in_unsorted.stats...
{'build_tree_gpu:': [107.0, 107.0, 106.0, 107.0, 107.0, 104.0, 108.0, 107.0, 107.0], 'gpu_copy_tree_from:': [21.0, 31.0, 23.0, 21.0, 31.0, 23.0, 31.0, 29.0, 31.0], 'gpu_copy_tree_to:': [67.0, 70.0, 69.0, 67.0, 70.0, 69.0, 71.0, 70.0, 70.0], 'init_kernel:': [2807.0, 2594.0, 2760.0, 2786.0, 2625.0, 2756.0, 2652.0, 2584.0, 2711.0], 'compute_cofm:': [40.0, 39.0, 39.0, 40.0, 39.0, 38.0, 39.0, 39.0, 39.0], 'kernel:': [391.0, 392.0, 392.0, 392.0, 393.0, 393.0, 393.0, 391.0, 395.0], 'overall:': [4817.0, 4304.0, 4413.0, 4466.0, 4385.0, 4398.0, 4375.0, 4232.0, 4476.0], 'adv_point:': [13.0, 22.0, 17.0, 13.0, 22.0, 16.0, 22.0, 22.0, 22.0], 'read_input:': [1201.0, 861.0, 828.0, 874.0, 912.0, 821.0, 871.0, 806.0, 913.0], 'compute_bb:': [5.0, 5.0, 5.0, 5.0, 5.0, 5.0, 5.0, 6.0, 5.0], 'force_calc:': [3424.0, 3225.0, 3380.0, 3404.0, 3256.0, 3375.0, 3286.0, 3211.0, 3345.0], 'extra:': [30.0, 31.0, 30.0, 30.0, 30.0, 31.0, 31.0, 31.0, 31.0], 'build_tree:': [104.0, 103.0, 103.0, 100.0, 102.0, 102.0, 103.0, 102.0, 102.0], 'pointer_table:': [2.0, 3.0, 3.0, 2.0, 3.0, 3.0, 3.0, 3.0, 3.0]}
Configuration: nbodies = 200000, ntimesteps = 1, dtime = 0.025000 eps = 0.050000, tol = 0.500000
Time step 0:
the depth of the tree is: 18, and the number of nodes is: 296357.
Time for asynchronous transfer and execute (ms): 4.561664
SPLICE_DEPTH = 1, DEPTH_STAT = 8.
@ extra: 30 ms
@ build_tree: 103 ms
@ compute_bb:  5 ms
@ compute_cofm: 39 ms
@ force_calc: 3416 ms
@ init_kernel: 2796 ms
@ gpu_copy_tree_to: 67 ms
@ kernel: 396 ms
@ gpu_copy_tree_from: 20 ms
@ build_tree_gpu: 107 ms
@ pointer_table:  2 ms
@ adv_point: 13 ms
@ read_input: 923 ms
@ overall: 4527 ms
Collected results into ../../../results/tmp/bh_Hybrid_Sched_BarnesHutPlummer200K.in_unsorted.stats

Loading data from ../../../results/tmp/bh_Hybrid_Sched_BarnesHutPlummer200K.in_unsorted.stats...
{'build_tree_gpu:': [107.0, 107.0, 106.0, 107.0, 107.0, 104.0, 108.0, 107.0, 107.0, 107.0], 'gpu_copy_tree_from:': [21.0, 31.0, 23.0, 21.0, 31.0, 23.0, 31.0, 29.0, 31.0, 20.0], 'gpu_copy_tree_to:': [67.0, 70.0, 69.0, 67.0, 70.0, 69.0, 71.0, 70.0, 70.0, 67.0], 'init_kernel:': [2807.0, 2594.0, 2760.0, 2786.0, 2625.0, 2756.0, 2652.0, 2584.0, 2711.0, 2796.0], 'read_input:': [1201.0, 861.0, 828.0, 874.0, 912.0, 821.0, 871.0, 806.0, 913.0, 923.0], 'kernel:': [391.0, 392.0, 392.0, 392.0, 393.0, 393.0, 393.0, 391.0, 395.0, 396.0], 'overall:': [4817.0, 4304.0, 4413.0, 4466.0, 4385.0, 4398.0, 4375.0, 4232.0, 4476.0, 4527.0], 'adv_point:': [13.0, 22.0, 17.0, 13.0, 22.0, 16.0, 22.0, 22.0, 22.0, 13.0], 'compute_cofm:': [40.0, 39.0, 39.0, 40.0, 39.0, 38.0, 39.0, 39.0, 39.0, 39.0], 'compute_bb:': [5.0, 5.0, 5.0, 5.0, 5.0, 5.0, 5.0, 6.0, 5.0, 5.0], 'force_calc:': [3424.0, 3225.0, 3380.0, 3404.0, 3256.0, 3375.0, 3286.0, 3211.0, 3345.0, 3416.0], 'extra:': [30.0, 31.0, 30.0, 30.0, 30.0, 31.0, 31.0, 31.0, 31.0, 30.0], 'build_tree:': [104.0, 103.0, 103.0, 100.0, 102.0, 102.0, 103.0, 102.0, 102.0, 103.0], 'pointer_table:': [2.0, 3.0, 3.0, 2.0, 3.0, 3.0, 3.0, 3.0, 3.0, 2.0]}
Configuration: nbodies = 200000, ntimesteps = 1, dtime = 0.025000 eps = 0.050000, tol = 0.500000
Time step 0:
the depth of the tree is: 18, and the number of nodes is: 296357.
Time for asynchronous transfer and execute (ms): 4.576160
SPLICE_DEPTH = 1, DEPTH_STAT = 8.
@ extra: 31 ms
@ build_tree: 102 ms
@ compute_bb:  5 ms
@ compute_cofm: 40 ms
@ force_calc: 3223 ms
@ init_kernel: 2590 ms
@ gpu_copy_tree_to: 70 ms
@ kernel: 394 ms
@ gpu_copy_tree_from: 31 ms
@ build_tree_gpu: 108 ms
@ pointer_table:  2 ms
@ adv_point: 22 ms
@ read_input: 898 ms
@ overall: 4339 ms
Collected results into ../../../results/tmp/bh_Hybrid_Sched_BarnesHutPlummer200K.in_unsorted.stats

Loading data from ../../../results/tmp/bh_Hybrid_Sched_BarnesHutPlummer200K.in_unsorted.stats...
{'build_tree_gpu:': [107.0, 107.0, 106.0, 107.0, 107.0, 104.0, 108.0, 107.0, 107.0, 107.0, 108.0], 'gpu_copy_tree_from:': [21.0, 31.0, 23.0, 21.0, 31.0, 23.0, 31.0, 29.0, 31.0, 20.0, 31.0], 'gpu_copy_tree_to:': [67.0, 70.0, 69.0, 67.0, 70.0, 69.0, 71.0, 70.0, 70.0, 67.0, 70.0], 'init_kernel:': [2807.0, 2594.0, 2760.0, 2786.0, 2625.0, 2756.0, 2652.0, 2584.0, 2711.0, 2796.0, 2590.0], 'compute_cofm:': [40.0, 39.0, 39.0, 40.0, 39.0, 38.0, 39.0, 39.0, 39.0, 39.0, 40.0], 'kernel:': [391.0, 392.0, 392.0, 392.0, 393.0, 393.0, 393.0, 391.0, 395.0, 396.0, 394.0], 'overall:': [4817.0, 4304.0, 4413.0, 4466.0, 4385.0, 4398.0, 4375.0, 4232.0, 4476.0, 4527.0, 4339.0], 'adv_point:': [13.0, 22.0, 17.0, 13.0, 22.0, 16.0, 22.0, 22.0, 22.0, 13.0, 22.0], 'read_input:': [1201.0, 861.0, 828.0, 874.0, 912.0, 821.0, 871.0, 806.0, 913.0, 923.0, 898.0], 'compute_bb:': [5.0, 5.0, 5.0, 5.0, 5.0, 5.0, 5.0, 6.0, 5.0, 5.0, 5.0], 'force_calc:': [3424.0, 3225.0, 3380.0, 3404.0, 3256.0, 3375.0, 3286.0, 3211.0, 3345.0, 3416.0, 3223.0], 'extra:': [30.0, 31.0, 30.0, 30.0, 30.0, 31.0, 31.0, 31.0, 31.0, 30.0, 31.0], 'build_tree:': [104.0, 103.0, 103.0, 100.0, 102.0, 102.0, 103.0, 102.0, 102.0, 103.0, 102.0], 'pointer_table:': [2.0, 3.0, 3.0, 2.0, 3.0, 3.0, 3.0, 3.0, 3.0, 2.0, 2.0]}
Configuration: nbodies = 200000, ntimesteps = 1, dtime = 0.025000 eps = 0.050000, tol = 0.500000
Time step 0:
the depth of the tree is: 18, and the number of nodes is: 296357.
Time for asynchronous transfer and execute (ms): 4.529600
SPLICE_DEPTH = 1, DEPTH_STAT = 8.
@ extra: 30 ms
@ build_tree: 103 ms
@ compute_bb:  5 ms
@ compute_cofm: 39 ms
@ force_calc: 3416 ms
@ init_kernel: 2794 ms
@ gpu_copy_tree_to: 68 ms
@ kernel: 395 ms
@ gpu_copy_tree_from: 23 ms
@ build_tree_gpu: 106 ms
@ pointer_table:  2 ms
@ adv_point: 17 ms
@ read_input: 850 ms
@ overall: 4471 ms
Collected results into ../../../results/tmp/bh_Hybrid_Sched_BarnesHutPlummer200K.in_unsorted.stats

Loading data from ../../../results/tmp/bh_Hybrid_Sched_BarnesHutPlummer200K.in_unsorted.stats...
{'build_tree_gpu:': [107.0, 107.0, 106.0, 107.0, 107.0, 104.0, 108.0, 107.0, 107.0, 107.0, 108.0, 106.0], 'gpu_copy_tree_from:': [21.0, 31.0, 23.0, 21.0, 31.0, 23.0, 31.0, 29.0, 31.0, 20.0, 31.0, 23.0], 'gpu_copy_tree_to:': [67.0, 70.0, 69.0, 67.0, 70.0, 69.0, 71.0, 70.0, 70.0, 67.0, 70.0, 68.0], 'init_kernel:': [2807.0, 2594.0, 2760.0, 2786.0, 2625.0, 2756.0, 2652.0, 2584.0, 2711.0, 2796.0, 2590.0, 2794.0], 'read_input:': [1201.0, 861.0, 828.0, 874.0, 912.0, 821.0, 871.0, 806.0, 913.0, 923.0, 898.0, 850.0], 'kernel:': [391.0, 392.0, 392.0, 392.0, 393.0, 393.0, 393.0, 391.0, 395.0, 396.0, 394.0, 395.0], 'overall:': [4817.0, 4304.0, 4413.0, 4466.0, 4385.0, 4398.0, 4375.0, 4232.0, 4476.0, 4527.0, 4339.0, 4471.0], 'adv_point:': [13.0, 22.0, 17.0, 13.0, 22.0, 16.0, 22.0, 22.0, 22.0, 13.0, 22.0, 17.0], 'compute_cofm:': [40.0, 39.0, 39.0, 40.0, 39.0, 38.0, 39.0, 39.0, 39.0, 39.0, 40.0, 39.0], 'compute_bb:': [5.0, 5.0, 5.0, 5.0, 5.0, 5.0, 5.0, 6.0, 5.0, 5.0, 5.0, 5.0], 'force_calc:': [3424.0, 3225.0, 3380.0, 3404.0, 3256.0, 3375.0, 3286.0, 3211.0, 3345.0, 3416.0, 3223.0, 3416.0], 'extra:': [30.0, 31.0, 30.0, 30.0, 30.0, 31.0, 31.0, 31.0, 31.0, 30.0, 31.0, 30.0], 'build_tree:': [104.0, 103.0, 103.0, 100.0, 102.0, 102.0, 103.0, 102.0, 102.0, 103.0, 102.0, 103.0], 'pointer_table:': [2.0, 3.0, 3.0, 2.0, 3.0, 3.0, 3.0, 3.0, 3.0, 2.0, 2.0, 2.0]}
Configuration: nbodies = 200000, ntimesteps = 1, dtime = 0.025000 eps = 0.050000, tol = 0.500000
Time step 0:
the depth of the tree is: 18, and the number of nodes is: 296357.
Time for asynchronous transfer and execute (ms): 4.565984
SPLICE_DEPTH = 1, DEPTH_STAT = 8.
@ extra: 31 ms
@ build_tree: 102 ms
@ compute_bb:  5 ms
@ compute_cofm: 37 ms
@ force_calc: 3263 ms
@ init_kernel: 2633 ms
@ gpu_copy_tree_to: 70 ms
@ kernel: 393 ms
@ gpu_copy_tree_from: 31 ms
@ build_tree_gpu: 106 ms
@ pointer_table:  3 ms
@ adv_point: 22 ms
@ read_input: 865 ms
@ overall: 4343 ms
Collected results into ../../../results/tmp/bh_Hybrid_Sched_BarnesHutPlummer200K.in_unsorted.stats

Loading data from ../../../results/tmp/bh_Hybrid_Sched_BarnesHutPlummer200K.in_unsorted.stats...
{'build_tree_gpu:': [107.0, 107.0, 106.0, 107.0, 107.0, 104.0, 108.0, 107.0, 107.0, 107.0, 108.0, 106.0, 106.0], 'gpu_copy_tree_from:': [21.0, 31.0, 23.0, 21.0, 31.0, 23.0, 31.0, 29.0, 31.0, 20.0, 31.0, 23.0, 31.0], 'gpu_copy_tree_to:': [67.0, 70.0, 69.0, 67.0, 70.0, 69.0, 71.0, 70.0, 70.0, 67.0, 70.0, 68.0, 70.0], 'init_kernel:': [2807.0, 2594.0, 2760.0, 2786.0, 2625.0, 2756.0, 2652.0, 2584.0, 2711.0, 2796.0, 2590.0, 2794.0, 2633.0], 'compute_cofm:': [40.0, 39.0, 39.0, 40.0, 39.0, 38.0, 39.0, 39.0, 39.0, 39.0, 40.0, 39.0, 37.0], 'kernel:': [391.0, 392.0, 392.0, 392.0, 393.0, 393.0, 393.0, 391.0, 395.0, 396.0, 394.0, 395.0, 393.0], 'overall:': [4817.0, 4304.0, 4413.0, 4466.0, 4385.0, 4398.0, 4375.0, 4232.0, 4476.0, 4527.0, 4339.0, 4471.0, 4343.0], 'adv_point:': [13.0, 22.0, 17.0, 13.0, 22.0, 16.0, 22.0, 22.0, 22.0, 13.0, 22.0, 17.0, 22.0], 'read_input:': [1201.0, 861.0, 828.0, 874.0, 912.0, 821.0, 871.0, 806.0, 913.0, 923.0, 898.0, 850.0, 865.0], 'compute_bb:': [5.0, 5.0, 5.0, 5.0, 5.0, 5.0, 5.0, 6.0, 5.0, 5.0, 5.0, 5.0, 5.0], 'force_calc:': [3424.0, 3225.0, 3380.0, 3404.0, 3256.0, 3375.0, 3286.0, 3211.0, 3345.0, 3416.0, 3223.0, 3416.0, 3263.0], 'extra:': [30.0, 31.0, 30.0, 30.0, 30.0, 31.0, 31.0, 31.0, 31.0, 30.0, 31.0, 30.0, 31.0], 'build_tree:': [104.0, 103.0, 103.0, 100.0, 102.0, 102.0, 103.0, 102.0, 102.0, 103.0, 102.0, 103.0, 102.0], 'pointer_table:': [2.0, 3.0, 3.0, 2.0, 3.0, 3.0, 3.0, 3.0, 3.0, 2.0, 2.0, 2.0, 3.0]}
Configuration: nbodies = 200000, ntimesteps = 1, dtime = 0.025000 eps = 0.050000, tol = 0.500000
Time step 0:
the depth of the tree is: 18, and the number of nodes is: 296357.
Time for asynchronous transfer and execute (ms): 5.240832
SPLICE_DEPTH = 1, DEPTH_STAT = 8.
@ extra: 31 ms
@ build_tree: 103 ms
@ compute_bb:  5 ms
@ compute_cofm: 39 ms
@ force_calc: 3317 ms
@ init_kernel: 2688 ms
@ gpu_copy_tree_to: 70 ms
@ kernel: 397 ms
@ gpu_copy_tree_from: 25 ms
@ build_tree_gpu: 106 ms
@ pointer_table:  2 ms
@ adv_point: 12 ms
@ read_input: 815 ms
@ overall: 4321 ms
Collected results into ../../../results/tmp/bh_Hybrid_Sched_BarnesHutPlummer200K.in_unsorted.stats

Loading data from ../../../results/tmp/bh_Hybrid_Sched_BarnesHutPlummer200K.in_unsorted.stats...
{'build_tree_gpu:': [107.0, 107.0, 106.0, 107.0, 107.0, 104.0, 108.0, 107.0, 107.0, 107.0, 108.0, 106.0, 106.0, 106.0], 'gpu_copy_tree_from:': [21.0, 31.0, 23.0, 21.0, 31.0, 23.0, 31.0, 29.0, 31.0, 20.0, 31.0, 23.0, 31.0, 25.0], 'gpu_copy_tree_to:': [67.0, 70.0, 69.0, 67.0, 70.0, 69.0, 71.0, 70.0, 70.0, 67.0, 70.0, 68.0, 70.0, 70.0], 'init_kernel:': [2807.0, 2594.0, 2760.0, 2786.0, 2625.0, 2756.0, 2652.0, 2584.0, 2711.0, 2796.0, 2590.0, 2794.0, 2633.0, 2688.0], 'read_input:': [1201.0, 861.0, 828.0, 874.0, 912.0, 821.0, 871.0, 806.0, 913.0, 923.0, 898.0, 850.0, 865.0, 815.0], 'kernel:': [391.0, 392.0, 392.0, 392.0, 393.0, 393.0, 393.0, 391.0, 395.0, 396.0, 394.0, 395.0, 393.0, 397.0], 'overall:': [4817.0, 4304.0, 4413.0, 4466.0, 4385.0, 4398.0, 4375.0, 4232.0, 4476.0, 4527.0, 4339.0, 4471.0, 4343.0, 4321.0], 'adv_point:': [13.0, 22.0, 17.0, 13.0, 22.0, 16.0, 22.0, 22.0, 22.0, 13.0, 22.0, 17.0, 22.0, 12.0], 'compute_cofm:': [40.0, 39.0, 39.0, 40.0, 39.0, 38.0, 39.0, 39.0, 39.0, 39.0, 40.0, 39.0, 37.0, 39.0], 'compute_bb:': [5.0, 5.0, 5.0, 5.0, 5.0, 5.0, 5.0, 6.0, 5.0, 5.0, 5.0, 5.0, 5.0, 5.0], 'force_calc:': [3424.0, 3225.0, 3380.0, 3404.0, 3256.0, 3375.0, 3286.0, 3211.0, 3345.0, 3416.0, 3223.0, 3416.0, 3263.0, 3317.0], 'extra:': [30.0, 31.0, 30.0, 30.0, 30.0, 31.0, 31.0, 31.0, 31.0, 30.0, 31.0, 30.0, 31.0, 31.0], 'build_tree:': [104.0, 103.0, 103.0, 100.0, 102.0, 102.0, 103.0, 102.0, 102.0, 103.0, 102.0, 103.0, 102.0, 103.0], 'pointer_table:': [2.0, 3.0, 3.0, 2.0, 3.0, 3.0, 3.0, 3.0, 3.0, 2.0, 2.0, 2.0, 3.0, 2.0]}
Configuration: nbodies = 200000, ntimesteps = 1, dtime = 0.025000 eps = 0.050000, tol = 0.500000
Time step 0:
the depth of the tree is: 18, and the number of nodes is: 296357.
Time for asynchronous transfer and execute (ms): 4.606944
SPLICE_DEPTH = 1, DEPTH_STAT = 8.
@ extra: 30 ms
@ build_tree: 110 ms
@ compute_bb:  5 ms
@ compute_cofm: 36 ms
@ force_calc: 3230 ms
@ init_kernel: 2606 ms
@ gpu_copy_tree_to: 70 ms
@ kernel: 392 ms
@ gpu_copy_tree_from: 30 ms
@ build_tree_gpu: 101 ms
@ pointer_table:  3 ms
@ adv_point: 21 ms
@ read_input: 868 ms
@ overall: 4318 ms
Collected results into ../../../results/tmp/bh_Hybrid_Sched_BarnesHutPlummer200K.in_unsorted.stats

