Results wll be collected to ../../../results/tmp/bh_Original_Lockstep_BarnesHutPlummer200K.in_unsorted.stats...
Configuration: nbodies = 200000, ntimesteps = 1, dtime = 0.025000 eps = 0.050000, tol = 0.500000
Time step 0:
the depth of the tree is: 18, and the number of nodes is: 296357.
@ build_tree: 103 ms
@ compute_bb:  5 ms
@ compute_cofm: 40 ms
@ force_calc: 3498 ms
@ init_kernel: 2594 ms
@ gpu_copy_tree_to: 70 ms
@ kernel: 711 ms
@ gpu_copy_tree_from: 21 ms
@ build_tree_gpu: 102 ms
@ pointer_table:  2 ms
@ adv_point: 13 ms
@ read_input: 776 ms
@ overall: 4467 ms
Collected results into ../../../results/tmp/bh_Original_Lockstep_BarnesHutPlummer200K.in_unsorted.stats

Loading data from ../../../results/tmp/bh_Original_Lockstep_BarnesHutPlummer200K.in_unsorted.stats...
{'build_tree_gpu:': [102.0], 'gpu_copy_tree_from:': [21.0], 'gpu_copy_tree_to:': [70.0], 'init_kernel:': [2594.0], 'compute_cofm:': [40.0], 'kernel:': [711.0], 'overall:': [4467.0], 'adv_point:': [13.0], 'read_input:': [776.0], 'compute_bb:': [5.0], 'force_calc:': [3498.0], 'pointer_table:': [2.0], 'build_tree:': [103.0]}
Configuration: nbodies = 200000, ntimesteps = 1, dtime = 0.025000 eps = 0.050000, tol = 0.500000
Time step 0:
the depth of the tree is: 18, and the number of nodes is: 296357.
@ build_tree: 103 ms
@ compute_bb:  5 ms
@ compute_cofm: 39 ms
@ force_calc: 3495 ms
@ init_kernel: 2595 ms
@ gpu_copy_tree_to: 66 ms
@ kernel: 709 ms
@ gpu_copy_tree_from: 24 ms
@ build_tree_gpu: 101 ms
@ pointer_table:  2 ms
@ adv_point: 17 ms
@ read_input: 814 ms
@ overall: 4517 ms
Collected results into ../../../results/tmp/bh_Original_Lockstep_BarnesHutPlummer200K.in_unsorted.stats

Loading data from ../../../results/tmp/bh_Original_Lockstep_BarnesHutPlummer200K.in_unsorted.stats...
{'build_tree_gpu:': [102.0, 101.0], 'gpu_copy_tree_from:': [21.0, 24.0], 'gpu_copy_tree_to:': [70.0, 66.0], 'init_kernel:': [2594.0, 2595.0], 'read_input:': [776.0, 814.0], 'kernel:': [711.0, 709.0], 'overall:': [4467.0, 4517.0], 'adv_point:': [13.0, 17.0], 'compute_cofm:': [40.0, 39.0], 'compute_bb:': [5.0, 5.0], 'force_calc:': [3498.0, 3495.0], 'pointer_table:': [2.0, 2.0], 'build_tree:': [103.0, 103.0]}
Configuration: nbodies = 200000, ntimesteps = 1, dtime = 0.025000 eps = 0.050000, tol = 0.500000
Time step 0:
the depth of the tree is: 18, and the number of nodes is: 296357.
@ build_tree: 103 ms
@ compute_bb:  5 ms
@ compute_cofm: 39 ms
@ force_calc: 3482 ms
@ init_kernel: 2585 ms
@ gpu_copy_tree_to: 66 ms
@ kernel: 710 ms
@ gpu_copy_tree_from: 21 ms
@ build_tree_gpu: 100 ms
@ pointer_table:  2 ms
@ adv_point: 13 ms
@ read_input: 849 ms
@ overall: 4523 ms
Collected results into ../../../results/tmp/bh_Original_Lockstep_BarnesHutPlummer200K.in_unsorted.stats

Loading data from ../../../results/tmp/bh_Original_Lockstep_BarnesHutPlummer200K.in_unsorted.stats...
{'build_tree_gpu:': [102.0, 101.0, 100.0], 'gpu_copy_tree_from:': [21.0, 24.0, 21.0], 'gpu_copy_tree_to:': [70.0, 66.0, 66.0], 'init_kernel:': [2594.0, 2595.0, 2585.0], 'compute_cofm:': [40.0, 39.0, 39.0], 'kernel:': [711.0, 709.0, 710.0], 'overall:': [4467.0, 4517.0, 4523.0], 'adv_point:': [13.0, 17.0, 13.0], 'read_input:': [776.0, 814.0, 849.0], 'compute_bb:': [5.0, 5.0, 5.0], 'force_calc:': [3498.0, 3495.0, 3482.0], 'pointer_table:': [2.0, 2.0, 2.0], 'build_tree:': [103.0, 103.0, 103.0]}
Configuration: nbodies = 200000, ntimesteps = 1, dtime = 0.025000 eps = 0.050000, tol = 0.500000
Time step 0:
the depth of the tree is: 18, and the number of nodes is: 296357.
@ build_tree: 102 ms
@ compute_bb:  5 ms
@ compute_cofm: 39 ms
@ force_calc: 3519 ms
@ init_kernel: 2609 ms
@ gpu_copy_tree_to: 68 ms
@ kernel: 712 ms
@ gpu_copy_tree_from: 30 ms
@ build_tree_gpu: 101 ms
@ pointer_table:  2 ms
@ adv_point: 21 ms
@ read_input: 871 ms
@ overall: 4611 ms
Collected results into ../../../results/tmp/bh_Original_Lockstep_BarnesHutPlummer200K.in_unsorted.stats

Loading data from ../../../results/tmp/bh_Original_Lockstep_BarnesHutPlummer200K.in_unsorted.stats...
{'build_tree_gpu:': [102.0, 101.0, 100.0, 101.0], 'gpu_copy_tree_from:': [21.0, 24.0, 21.0, 30.0], 'gpu_copy_tree_to:': [70.0, 66.0, 66.0, 68.0], 'init_kernel:': [2594.0, 2595.0, 2585.0, 2609.0], 'read_input:': [776.0, 814.0, 849.0, 871.0], 'kernel:': [711.0, 709.0, 710.0, 712.0], 'overall:': [4467.0, 4517.0, 4523.0, 4611.0], 'adv_point:': [13.0, 17.0, 13.0, 21.0], 'compute_cofm:': [40.0, 39.0, 39.0, 39.0], 'compute_bb:': [5.0, 5.0, 5.0, 5.0], 'force_calc:': [3498.0, 3495.0, 3482.0, 3519.0], 'pointer_table:': [2.0, 2.0, 2.0, 2.0], 'build_tree:': [103.0, 103.0, 103.0, 102.0]}
Configuration: nbodies = 200000, ntimesteps = 1, dtime = 0.025000 eps = 0.050000, tol = 0.500000
Time step 0:
the depth of the tree is: 18, and the number of nodes is: 296357.
@ build_tree: 102 ms
@ compute_bb:  5 ms
@ compute_cofm: 39 ms
@ force_calc: 3579 ms
@ init_kernel: 2678 ms
@ gpu_copy_tree_to: 66 ms
@ kernel: 712 ms
@ gpu_copy_tree_from: 23 ms
@ build_tree_gpu: 100 ms
@ pointer_table:  2 ms
@ adv_point: 17 ms
@ read_input: 836 ms
@ overall: 4621 ms
Collected results into ../../../results/tmp/bh_Original_Lockstep_BarnesHutPlummer200K.in_unsorted.stats

Loading data from ../../../results/tmp/bh_Original_Lockstep_BarnesHutPlummer200K.in_unsorted.stats...
{'build_tree_gpu:': [102.0, 101.0, 100.0, 101.0, 100.0], 'gpu_copy_tree_from:': [21.0, 24.0, 21.0, 30.0, 23.0], 'gpu_copy_tree_to:': [70.0, 66.0, 66.0, 68.0, 66.0], 'init_kernel:': [2594.0, 2595.0, 2585.0, 2609.0, 2678.0], 'compute_cofm:': [40.0, 39.0, 39.0, 39.0, 39.0], 'kernel:': [711.0, 709.0, 710.0, 712.0, 712.0], 'overall:': [4467.0, 4517.0, 4523.0, 4611.0, 4621.0], 'adv_point:': [13.0, 17.0, 13.0, 21.0, 17.0], 'read_input:': [776.0, 814.0, 849.0, 871.0, 836.0], 'compute_bb:': [5.0, 5.0, 5.0, 5.0, 5.0], 'force_calc:': [3498.0, 3495.0, 3482.0, 3519.0, 3579.0], 'pointer_table:': [2.0, 2.0, 2.0, 2.0, 2.0], 'build_tree:': [103.0, 103.0, 103.0, 102.0, 102.0]}
Configuration: nbodies = 200000, ntimesteps = 1, dtime = 0.025000 eps = 0.050000, tol = 0.500000
Time step 0:
the depth of the tree is: 18, and the number of nodes is: 296357.
@ build_tree: 99 ms
@ compute_bb:  5 ms
@ compute_cofm: 39 ms
@ force_calc: 3629 ms
@ init_kernel: 2720 ms
@ gpu_copy_tree_to: 68 ms
@ kernel: 712 ms
@ gpu_copy_tree_from: 30 ms
@ build_tree_gpu: 99 ms
@ pointer_table:  2 ms
@ adv_point: 21 ms
@ read_input: 760 ms
@ overall: 4606 ms
Collected results into ../../../results/tmp/bh_Original_Lockstep_BarnesHutPlummer200K.in_unsorted.stats

Loading data from ../../../results/tmp/bh_Original_Lockstep_BarnesHutPlummer200K.in_unsorted.stats...
{'build_tree_gpu:': [102.0, 101.0, 100.0, 101.0, 100.0, 99.0], 'gpu_copy_tree_from:': [21.0, 24.0, 21.0, 30.0, 23.0, 30.0], 'gpu_copy_tree_to:': [70.0, 66.0, 66.0, 68.0, 66.0, 68.0], 'init_kernel:': [2594.0, 2595.0, 2585.0, 2609.0, 2678.0, 2720.0], 'read_input:': [776.0, 814.0, 849.0, 871.0, 836.0, 760.0], 'kernel:': [711.0, 709.0, 710.0, 712.0, 712.0, 712.0], 'overall:': [4467.0, 4517.0, 4523.0, 4611.0, 4621.0, 4606.0], 'adv_point:': [13.0, 17.0, 13.0, 21.0, 17.0, 21.0], 'compute_cofm:': [40.0, 39.0, 39.0, 39.0, 39.0, 39.0], 'compute_bb:': [5.0, 5.0, 5.0, 5.0, 5.0, 5.0], 'force_calc:': [3498.0, 3495.0, 3482.0, 3519.0, 3579.0, 3629.0], 'pointer_table:': [2.0, 2.0, 2.0, 2.0, 2.0, 2.0], 'build_tree:': [103.0, 103.0, 103.0, 102.0, 102.0, 99.0]}
Configuration: nbodies = 200000, ntimesteps = 1, dtime = 0.025000 eps = 0.050000, tol = 0.500000
Time step 0:
the depth of the tree is: 18, and the number of nodes is: 296357.
@ build_tree: 103 ms
@ compute_bb:  5 ms
@ compute_cofm: 39 ms
@ force_calc: 3620 ms
@ init_kernel: 2720 ms
@ gpu_copy_tree_to: 66 ms
@ kernel: 711 ms
@ gpu_copy_tree_from: 21 ms
@ build_tree_gpu: 102 ms
@ pointer_table:  2 ms
@ adv_point: 13 ms
@ read_input: 794 ms
@ overall: 4606 ms
Collected results into ../../../results/tmp/bh_Original_Lockstep_BarnesHutPlummer200K.in_unsorted.stats

Loading data from ../../../results/tmp/bh_Original_Lockstep_BarnesHutPlummer200K.in_unsorted.stats...
{'build_tree_gpu:': [102.0, 101.0, 100.0, 101.0, 100.0, 99.0, 102.0], 'gpu_copy_tree_from:': [21.0, 24.0, 21.0, 30.0, 23.0, 30.0, 21.0], 'gpu_copy_tree_to:': [70.0, 66.0, 66.0, 68.0, 66.0, 68.0, 66.0], 'init_kernel:': [2594.0, 2595.0, 2585.0, 2609.0, 2678.0, 2720.0, 2720.0], 'compute_cofm:': [40.0, 39.0, 39.0, 39.0, 39.0, 39.0, 39.0], 'kernel:': [711.0, 709.0, 710.0, 712.0, 712.0, 712.0, 711.0], 'overall:': [4467.0, 4517.0, 4523.0, 4611.0, 4621.0, 4606.0, 4606.0], 'adv_point:': [13.0, 17.0, 13.0, 21.0, 17.0, 21.0, 13.0], 'read_input:': [776.0, 814.0, 849.0, 871.0, 836.0, 760.0, 794.0], 'compute_bb:': [5.0, 5.0, 5.0, 5.0, 5.0, 5.0, 5.0], 'force_calc:': [3498.0, 3495.0, 3482.0, 3519.0, 3579.0, 3629.0, 3620.0], 'pointer_table:': [2.0, 2.0, 2.0, 2.0, 2.0, 2.0, 2.0], 'build_tree:': [103.0, 103.0, 103.0, 102.0, 102.0, 99.0, 103.0]}
Configuration: nbodies = 200000, ntimesteps = 1, dtime = 0.025000 eps = 0.050000, tol = 0.500000
Time step 0:
the depth of the tree is: 18, and the number of nodes is: 296357.
@ build_tree: 102 ms
@ compute_bb:  5 ms
@ compute_cofm: 39 ms
@ force_calc: 3520 ms
@ init_kernel: 2611 ms
@ gpu_copy_tree_to: 68 ms
@ kernel: 711 ms
@ gpu_copy_tree_from: 30 ms
@ build_tree_gpu: 99 ms
@ pointer_table:  2 ms
@ adv_point: 21 ms
@ read_input: 845 ms
@ overall: 4585 ms
Collected results into ../../../results/tmp/bh_Original_Lockstep_BarnesHutPlummer200K.in_unsorted.stats

Loading data from ../../../results/tmp/bh_Original_Lockstep_BarnesHutPlummer200K.in_unsorted.stats...
{'build_tree_gpu:': [102.0, 101.0, 100.0, 101.0, 100.0, 99.0, 102.0, 99.0], 'gpu_copy_tree_from:': [21.0, 24.0, 21.0, 30.0, 23.0, 30.0, 21.0, 30.0], 'gpu_copy_tree_to:': [70.0, 66.0, 66.0, 68.0, 66.0, 68.0, 66.0, 68.0], 'init_kernel:': [2594.0, 2595.0, 2585.0, 2609.0, 2678.0, 2720.0, 2720.0, 2611.0], 'read_input:': [776.0, 814.0, 849.0, 871.0, 836.0, 760.0, 794.0, 845.0], 'kernel:': [711.0, 709.0, 710.0, 712.0, 712.0, 712.0, 711.0, 711.0], 'overall:': [4467.0, 4517.0, 4523.0, 4611.0, 4621.0, 4606.0, 4606.0, 4585.0], 'adv_point:': [13.0, 17.0, 13.0, 21.0, 17.0, 21.0, 13.0, 21.0], 'compute_cofm:': [40.0, 39.0, 39.0, 39.0, 39.0, 39.0, 39.0, 39.0], 'compute_bb:': [5.0, 5.0, 5.0, 5.0, 5.0, 5.0, 5.0, 5.0], 'force_calc:': [3498.0, 3495.0, 3482.0, 3519.0, 3579.0, 3629.0, 3620.0, 3520.0], 'pointer_table:': [2.0, 2.0, 2.0, 2.0, 2.0, 2.0, 2.0, 2.0], 'build_tree:': [103.0, 103.0, 103.0, 102.0, 102.0, 99.0, 103.0, 102.0]}
Configuration: nbodies = 200000, ntimesteps = 1, dtime = 0.025000 eps = 0.050000, tol = 0.500000
Time step 0:
the depth of the tree is: 18, and the number of nodes is: 296357.
@ build_tree: 103 ms
@ compute_bb:  5 ms
@ compute_cofm: 39 ms
@ force_calc: 3461 ms
@ init_kernel: 2565 ms
@ gpu_copy_tree_to: 66 ms
@ kernel: 710 ms
@ gpu_copy_tree_from: 21 ms
@ build_tree_gpu: 101 ms
@ pointer_table:  2 ms
@ adv_point: 13 ms
@ read_input: 771 ms
@ overall: 4423 ms
Collected results into ../../../results/tmp/bh_Original_Lockstep_BarnesHutPlummer200K.in_unsorted.stats

Loading data from ../../../results/tmp/bh_Original_Lockstep_BarnesHutPlummer200K.in_unsorted.stats...
{'build_tree_gpu:': [102.0, 101.0, 100.0, 101.0, 100.0, 99.0, 102.0, 99.0, 101.0], 'gpu_copy_tree_from:': [21.0, 24.0, 21.0, 30.0, 23.0, 30.0, 21.0, 30.0, 21.0], 'gpu_copy_tree_to:': [70.0, 66.0, 66.0, 68.0, 66.0, 68.0, 66.0, 68.0, 66.0], 'init_kernel:': [2594.0, 2595.0, 2585.0, 2609.0, 2678.0, 2720.0, 2720.0, 2611.0, 2565.0], 'compute_cofm:': [40.0, 39.0, 39.0, 39.0, 39.0, 39.0, 39.0, 39.0, 39.0], 'kernel:': [711.0, 709.0, 710.0, 712.0, 712.0, 712.0, 711.0, 711.0, 710.0], 'overall:': [4467.0, 4517.0, 4523.0, 4611.0, 4621.0, 4606.0, 4606.0, 4585.0, 4423.0], 'adv_point:': [13.0, 17.0, 13.0, 21.0, 17.0, 21.0, 13.0, 21.0, 13.0], 'read_input:': [776.0, 814.0, 849.0, 871.0, 836.0, 760.0, 794.0, 845.0, 771.0], 'compute_bb:': [5.0, 5.0, 5.0, 5.0, 5.0, 5.0, 5.0, 5.0, 5.0], 'force_calc:': [3498.0, 3495.0, 3482.0, 3519.0, 3579.0, 3629.0, 3620.0, 3520.0, 3461.0], 'pointer_table:': [2.0, 2.0, 2.0, 2.0, 2.0, 2.0, 2.0, 2.0, 2.0], 'build_tree:': [103.0, 103.0, 103.0, 102.0, 102.0, 99.0, 103.0, 102.0, 103.0]}
Configuration: nbodies = 200000, ntimesteps = 1, dtime = 0.025000 eps = 0.050000, tol = 0.500000
Time step 0:
the depth of the tree is: 18, and the number of nodes is: 296357.
@ build_tree: 103 ms
@ compute_bb:  5 ms
@ compute_cofm: 40 ms
@ force_calc: 3568 ms
@ init_kernel: 2654 ms
@ gpu_copy_tree_to: 68 ms
@ kernel: 712 ms
@ gpu_copy_tree_from: 33 ms
@ build_tree_gpu: 102 ms
@ pointer_table:  2 ms
@ adv_point: 26 ms
@ read_input: 848 ms
@ overall: 4660 ms
Collected results into ../../../results/tmp/bh_Original_Lockstep_BarnesHutPlummer200K.in_unsorted.stats

Loading data from ../../../results/tmp/bh_Original_Lockstep_BarnesHutPlummer200K.in_unsorted.stats...
{'build_tree_gpu:': [102.0, 101.0, 100.0, 101.0, 100.0, 99.0, 102.0, 99.0, 101.0, 102.0], 'gpu_copy_tree_from:': [21.0, 24.0, 21.0, 30.0, 23.0, 30.0, 21.0, 30.0, 21.0, 33.0], 'gpu_copy_tree_to:': [70.0, 66.0, 66.0, 68.0, 66.0, 68.0, 66.0, 68.0, 66.0, 68.0], 'init_kernel:': [2594.0, 2595.0, 2585.0, 2609.0, 2678.0, 2720.0, 2720.0, 2611.0, 2565.0, 2654.0], 'read_input:': [776.0, 814.0, 849.0, 871.0, 836.0, 760.0, 794.0, 845.0, 771.0, 848.0], 'kernel:': [711.0, 709.0, 710.0, 712.0, 712.0, 712.0, 711.0, 711.0, 710.0, 712.0], 'overall:': [4467.0, 4517.0, 4523.0, 4611.0, 4621.0, 4606.0, 4606.0, 4585.0, 4423.0, 4660.0], 'adv_point:': [13.0, 17.0, 13.0, 21.0, 17.0, 21.0, 13.0, 21.0, 13.0, 26.0], 'compute_cofm:': [40.0, 39.0, 39.0, 39.0, 39.0, 39.0, 39.0, 39.0, 39.0, 40.0], 'compute_bb:': [5.0, 5.0, 5.0, 5.0, 5.0, 5.0, 5.0, 5.0, 5.0, 5.0], 'force_calc:': [3498.0, 3495.0, 3482.0, 3519.0, 3579.0, 3629.0, 3620.0, 3520.0, 3461.0, 3568.0], 'pointer_table:': [2.0, 2.0, 2.0, 2.0, 2.0, 2.0, 2.0, 2.0, 2.0, 2.0], 'build_tree:': [103.0, 103.0, 103.0, 102.0, 102.0, 99.0, 103.0, 102.0, 103.0, 103.0]}
Configuration: nbodies = 200000, ntimesteps = 1, dtime = 0.025000 eps = 0.050000, tol = 0.500000
Time step 0:
the depth of the tree is: 18, and the number of nodes is: 296357.
@ build_tree: 102 ms
@ compute_bb:  5 ms
@ compute_cofm: 39 ms
@ force_calc: 3628 ms
@ init_kernel: 2718 ms
@ gpu_copy_tree_to: 68 ms
@ kernel: 713 ms
@ gpu_copy_tree_from: 30 ms
@ build_tree_gpu: 100 ms
@ pointer_table:  2 ms
@ adv_point: 21 ms
@ read_input: 868 ms
@ overall: 4716 ms
Collected results into ../../../results/tmp/bh_Original_Lockstep_BarnesHutPlummer200K.in_unsorted.stats

Loading data from ../../../results/tmp/bh_Original_Lockstep_BarnesHutPlummer200K.in_unsorted.stats...
{'build_tree_gpu:': [102.0, 101.0, 100.0, 101.0, 100.0, 99.0, 102.0, 99.0, 101.0, 102.0, 100.0], 'gpu_copy_tree_from:': [21.0, 24.0, 21.0, 30.0, 23.0, 30.0, 21.0, 30.0, 21.0, 33.0, 30.0], 'gpu_copy_tree_to:': [70.0, 66.0, 66.0, 68.0, 66.0, 68.0, 66.0, 68.0, 66.0, 68.0, 68.0], 'init_kernel:': [2594.0, 2595.0, 2585.0, 2609.0, 2678.0, 2720.0, 2720.0, 2611.0, 2565.0, 2654.0, 2718.0], 'compute_cofm:': [40.0, 39.0, 39.0, 39.0, 39.0, 39.0, 39.0, 39.0, 39.0, 40.0, 39.0], 'kernel:': [711.0, 709.0, 710.0, 712.0, 712.0, 712.0, 711.0, 711.0, 710.0, 712.0, 713.0], 'overall:': [4467.0, 4517.0, 4523.0, 4611.0, 4621.0, 4606.0, 4606.0, 4585.0, 4423.0, 4660.0, 4716.0], 'adv_point:': [13.0, 17.0, 13.0, 21.0, 17.0, 21.0, 13.0, 21.0, 13.0, 26.0, 21.0], 'read_input:': [776.0, 814.0, 849.0, 871.0, 836.0, 760.0, 794.0, 845.0, 771.0, 848.0, 868.0], 'compute_bb:': [5.0, 5.0, 5.0, 5.0, 5.0, 5.0, 5.0, 5.0, 5.0, 5.0, 5.0], 'force_calc:': [3498.0, 3495.0, 3482.0, 3519.0, 3579.0, 3629.0, 3620.0, 3520.0, 3461.0, 3568.0, 3628.0], 'pointer_table:': [2.0, 2.0, 2.0, 2.0, 2.0, 2.0, 2.0, 2.0, 2.0, 2.0, 2.0], 'build_tree:': [103.0, 103.0, 103.0, 102.0, 102.0, 99.0, 103.0, 102.0, 103.0, 103.0, 102.0]}
Configuration: nbodies = 200000, ntimesteps = 1, dtime = 0.025000 eps = 0.050000, tol = 0.500000
Time step 0:
the depth of the tree is: 18, and the number of nodes is: 296357.
@ build_tree: 101 ms
@ compute_bb:  5 ms
@ compute_cofm: 39 ms
@ force_calc: 3578 ms
@ init_kernel: 2671 ms
@ gpu_copy_tree_to: 68 ms
@ kernel: 710 ms
@ gpu_copy_tree_from: 30 ms
@ build_tree_gpu: 99 ms
@ pointer_table:  2 ms
@ adv_point: 21 ms
@ read_input: 886 ms
@ overall: 4682 ms
Collected results into ../../../results/tmp/bh_Original_Lockstep_BarnesHutPlummer200K.in_unsorted.stats

Loading data from ../../../results/tmp/bh_Original_Lockstep_BarnesHutPlummer200K.in_unsorted.stats...
{'build_tree_gpu:': [102.0, 101.0, 100.0, 101.0, 100.0, 99.0, 102.0, 99.0, 101.0, 102.0, 100.0, 99.0], 'gpu_copy_tree_from:': [21.0, 24.0, 21.0, 30.0, 23.0, 30.0, 21.0, 30.0, 21.0, 33.0, 30.0, 30.0], 'gpu_copy_tree_to:': [70.0, 66.0, 66.0, 68.0, 66.0, 68.0, 66.0, 68.0, 66.0, 68.0, 68.0, 68.0], 'init_kernel:': [2594.0, 2595.0, 2585.0, 2609.0, 2678.0, 2720.0, 2720.0, 2611.0, 2565.0, 2654.0, 2718.0, 2671.0], 'read_input:': [776.0, 814.0, 849.0, 871.0, 836.0, 760.0, 794.0, 845.0, 771.0, 848.0, 868.0, 886.0], 'kernel:': [711.0, 709.0, 710.0, 712.0, 712.0, 712.0, 711.0, 711.0, 710.0, 712.0, 713.0, 710.0], 'overall:': [4467.0, 4517.0, 4523.0, 4611.0, 4621.0, 4606.0, 4606.0, 4585.0, 4423.0, 4660.0, 4716.0, 4682.0], 'adv_point:': [13.0, 17.0, 13.0, 21.0, 17.0, 21.0, 13.0, 21.0, 13.0, 26.0, 21.0, 21.0], 'compute_cofm:': [40.0, 39.0, 39.0, 39.0, 39.0, 39.0, 39.0, 39.0, 39.0, 40.0, 39.0, 39.0], 'compute_bb:': [5.0, 5.0, 5.0, 5.0, 5.0, 5.0, 5.0, 5.0, 5.0, 5.0, 5.0, 5.0], 'force_calc:': [3498.0, 3495.0, 3482.0, 3519.0, 3579.0, 3629.0, 3620.0, 3520.0, 3461.0, 3568.0, 3628.0, 3578.0], 'pointer_table:': [2.0, 2.0, 2.0, 2.0, 2.0, 2.0, 2.0, 2.0, 2.0, 2.0, 2.0, 2.0], 'build_tree:': [103.0, 103.0, 103.0, 102.0, 102.0, 99.0, 103.0, 102.0, 103.0, 103.0, 102.0, 101.0]}
Configuration: nbodies = 200000, ntimesteps = 1, dtime = 0.025000 eps = 0.050000, tol = 0.500000
Time step 0:
the depth of the tree is: 18, and the number of nodes is: 296357.
@ build_tree: 101 ms
@ compute_bb:  5 ms
@ compute_cofm: 39 ms
@ force_calc: 3539 ms
@ init_kernel: 2630 ms
@ gpu_copy_tree_to: 67 ms
@ kernel: 711 ms
@ gpu_copy_tree_from: 30 ms
@ build_tree_gpu: 100 ms
@ pointer_table:  2 ms
@ adv_point: 21 ms
@ read_input: 760 ms
@ overall: 4517 ms
Collected results into ../../../results/tmp/bh_Original_Lockstep_BarnesHutPlummer200K.in_unsorted.stats

Loading data from ../../../results/tmp/bh_Original_Lockstep_BarnesHutPlummer200K.in_unsorted.stats...
{'build_tree_gpu:': [102.0, 101.0, 100.0, 101.0, 100.0, 99.0, 102.0, 99.0, 101.0, 102.0, 100.0, 99.0, 100.0], 'gpu_copy_tree_from:': [21.0, 24.0, 21.0, 30.0, 23.0, 30.0, 21.0, 30.0, 21.0, 33.0, 30.0, 30.0, 30.0], 'gpu_copy_tree_to:': [70.0, 66.0, 66.0, 68.0, 66.0, 68.0, 66.0, 68.0, 66.0, 68.0, 68.0, 68.0, 67.0], 'init_kernel:': [2594.0, 2595.0, 2585.0, 2609.0, 2678.0, 2720.0, 2720.0, 2611.0, 2565.0, 2654.0, 2718.0, 2671.0, 2630.0], 'compute_cofm:': [40.0, 39.0, 39.0, 39.0, 39.0, 39.0, 39.0, 39.0, 39.0, 40.0, 39.0, 39.0, 39.0], 'kernel:': [711.0, 709.0, 710.0, 712.0, 712.0, 712.0, 711.0, 711.0, 710.0, 712.0, 713.0, 710.0, 711.0], 'overall:': [4467.0, 4517.0, 4523.0, 4611.0, 4621.0, 4606.0, 4606.0, 4585.0, 4423.0, 4660.0, 4716.0, 4682.0, 4517.0], 'adv_point:': [13.0, 17.0, 13.0, 21.0, 17.0, 21.0, 13.0, 21.0, 13.0, 26.0, 21.0, 21.0, 21.0], 'read_input:': [776.0, 814.0, 849.0, 871.0, 836.0, 760.0, 794.0, 845.0, 771.0, 848.0, 868.0, 886.0, 760.0], 'compute_bb:': [5.0, 5.0, 5.0, 5.0, 5.0, 5.0, 5.0, 5.0, 5.0, 5.0, 5.0, 5.0, 5.0], 'force_calc:': [3498.0, 3495.0, 3482.0, 3519.0, 3579.0, 3629.0, 3620.0, 3520.0, 3461.0, 3568.0, 3628.0, 3578.0, 3539.0], 'pointer_table:': [2.0, 2.0, 2.0, 2.0, 2.0, 2.0, 2.0, 2.0, 2.0, 2.0, 2.0, 2.0, 2.0], 'build_tree:': [103.0, 103.0, 103.0, 102.0, 102.0, 99.0, 103.0, 102.0, 103.0, 103.0, 102.0, 101.0, 101.0]}
Configuration: nbodies = 200000, ntimesteps = 1, dtime = 0.025000 eps = 0.050000, tol = 0.500000
Time step 0:
the depth of the tree is: 18, and the number of nodes is: 296357.
@ build_tree: 103 ms
@ compute_bb:  5 ms
@ compute_cofm: 39 ms
@ force_calc: 3561 ms
@ init_kernel: 2644 ms
@ gpu_copy_tree_to: 69 ms
@ kernel: 711 ms
@ gpu_copy_tree_from: 36 ms
@ build_tree_gpu: 100 ms
@ pointer_table:  2 ms
@ adv_point: 29 ms
@ read_input: 816 ms
@ overall: 4635 ms
Collected results into ../../../results/tmp/bh_Original_Lockstep_BarnesHutPlummer200K.in_unsorted.stats

Loading data from ../../../results/tmp/bh_Original_Lockstep_BarnesHutPlummer200K.in_unsorted.stats...
{'build_tree_gpu:': [102.0, 101.0, 100.0, 101.0, 100.0, 99.0, 102.0, 99.0, 101.0, 102.0, 100.0, 99.0, 100.0, 100.0], 'gpu_copy_tree_from:': [21.0, 24.0, 21.0, 30.0, 23.0, 30.0, 21.0, 30.0, 21.0, 33.0, 30.0, 30.0, 30.0, 36.0], 'gpu_copy_tree_to:': [70.0, 66.0, 66.0, 68.0, 66.0, 68.0, 66.0, 68.0, 66.0, 68.0, 68.0, 68.0, 67.0, 69.0], 'init_kernel:': [2594.0, 2595.0, 2585.0, 2609.0, 2678.0, 2720.0, 2720.0, 2611.0, 2565.0, 2654.0, 2718.0, 2671.0, 2630.0, 2644.0], 'read_input:': [776.0, 814.0, 849.0, 871.0, 836.0, 760.0, 794.0, 845.0, 771.0, 848.0, 868.0, 886.0, 760.0, 816.0], 'kernel:': [711.0, 709.0, 710.0, 712.0, 712.0, 712.0, 711.0, 711.0, 710.0, 712.0, 713.0, 710.0, 711.0, 711.0], 'overall:': [4467.0, 4517.0, 4523.0, 4611.0, 4621.0, 4606.0, 4606.0, 4585.0, 4423.0, 4660.0, 4716.0, 4682.0, 4517.0, 4635.0], 'adv_point:': [13.0, 17.0, 13.0, 21.0, 17.0, 21.0, 13.0, 21.0, 13.0, 26.0, 21.0, 21.0, 21.0, 29.0], 'compute_cofm:': [40.0, 39.0, 39.0, 39.0, 39.0, 39.0, 39.0, 39.0, 39.0, 40.0, 39.0, 39.0, 39.0, 39.0], 'compute_bb:': [5.0, 5.0, 5.0, 5.0, 5.0, 5.0, 5.0, 5.0, 5.0, 5.0, 5.0, 5.0, 5.0, 5.0], 'force_calc:': [3498.0, 3495.0, 3482.0, 3519.0, 3579.0, 3629.0, 3620.0, 3520.0, 3461.0, 3568.0, 3628.0, 3578.0, 3539.0, 3561.0], 'pointer_table:': [2.0, 2.0, 2.0, 2.0, 2.0, 2.0, 2.0, 2.0, 2.0, 2.0, 2.0, 2.0, 2.0, 2.0], 'build_tree:': [103.0, 103.0, 103.0, 102.0, 102.0, 99.0, 103.0, 102.0, 103.0, 103.0, 102.0, 101.0, 101.0, 103.0]}
Configuration: nbodies = 200000, ntimesteps = 1, dtime = 0.025000 eps = 0.050000, tol = 0.500000
Time step 0:
the depth of the tree is: 18, and the number of nodes is: 296357.
@ build_tree: 101 ms
@ compute_bb:  5 ms
@ compute_cofm: 38 ms
@ force_calc: 3695 ms
@ init_kernel: 2786 ms
@ gpu_copy_tree_to: 68 ms
@ kernel: 712 ms
@ gpu_copy_tree_from: 30 ms
@ build_tree_gpu: 99 ms
@ pointer_table:  2 ms
@ adv_point: 21 ms
@ read_input: 792 ms
@ overall: 4704 ms
Collected results into ../../../results/tmp/bh_Original_Lockstep_BarnesHutPlummer200K.in_unsorted.stats

