Results wll be collected to ../../../results/tmp/bt_Original_Lockstep_mnist.7d_sorted.stats...
configuration: sort_flag=1, check_flag = 0, verbose_flag=0, K=5, input_file=../../../input/pc/mnist.7d, npoints=200000, nsearchpoints=200000
The max depth is 31, the nodes number is 399999.
The ratio is 0.428605.
@ read_data: 1710 ms
@ build_tree: 620 ms
@ sort: 846 ms
@ kernel: 1161 ms
@ traversal: 1170 ms
Collected results into ../../../results/tmp/bt_Original_Lockstep_mnist.7d_sorted.stats

Loading data from ../../../results/tmp/bt_Original_Lockstep_mnist.7d_sorted.stats...
{'kernel:': [1161.0], 'read_data:': [1710.0], 'traversal:': [1170.0], 'sort:': [846.0], 'build_tree:': [620.0]}
configuration: sort_flag=1, check_flag = 0, verbose_flag=0, K=5, input_file=../../../input/pc/mnist.7d, npoints=200000, nsearchpoints=200000
The max depth is 31, the nodes number is 399999.
The ratio is 0.428605.
@ read_data: 1684 ms
@ build_tree: 618 ms
@ sort: 850 ms
@ kernel: 1163 ms
@ traversal: 1172 ms
Collected results into ../../../results/tmp/bt_Original_Lockstep_mnist.7d_sorted.stats

Loading data from ../../../results/tmp/bt_Original_Lockstep_mnist.7d_sorted.stats...
{'kernel:': [1161.0, 1163.0], 'read_data:': [1710.0, 1684.0], 'traversal:': [1170.0, 1172.0], 'sort:': [846.0, 850.0], 'build_tree:': [620.0, 618.0]}
configuration: sort_flag=1, check_flag = 0, verbose_flag=0, K=5, input_file=../../../input/pc/mnist.7d, npoints=200000, nsearchpoints=200000
The max depth is 31, the nodes number is 399999.
The ratio is 0.428605.
@ read_data: 1686 ms
@ build_tree: 632 ms
@ sort: 847 ms
@ kernel: 1164 ms
@ traversal: 1173 ms
Collected results into ../../../results/tmp/bt_Original_Lockstep_mnist.7d_sorted.stats

Loading data from ../../../results/tmp/bt_Original_Lockstep_mnist.7d_sorted.stats...
{'kernel:': [1161.0, 1163.0, 1164.0], 'read_data:': [1710.0, 1684.0, 1686.0], 'traversal:': [1170.0, 1172.0, 1173.0], 'sort:': [846.0, 850.0, 847.0], 'build_tree:': [620.0, 618.0, 632.0]}
configuration: sort_flag=1, check_flag = 0, verbose_flag=0, K=5, input_file=../../../input/pc/mnist.7d, npoints=200000, nsearchpoints=200000
The max depth is 31, the nodes number is 399999.
The ratio is 0.428605.
@ read_data: 1667 ms
@ build_tree: 623 ms
@ sort: 846 ms
@ kernel: 1162 ms
@ traversal: 1173 ms
Collected results into ../../../results/tmp/bt_Original_Lockstep_mnist.7d_sorted.stats

Loading data from ../../../results/tmp/bt_Original_Lockstep_mnist.7d_sorted.stats...
{'kernel:': [1161.0, 1163.0, 1164.0, 1162.0], 'read_data:': [1710.0, 1684.0, 1686.0, 1667.0], 'traversal:': [1170.0, 1172.0, 1173.0, 1173.0], 'sort:': [846.0, 850.0, 847.0, 846.0], 'build_tree:': [620.0, 618.0, 632.0, 623.0]}
configuration: sort_flag=1, check_flag = 0, verbose_flag=0, K=5, input_file=../../../input/pc/mnist.7d, npoints=200000, nsearchpoints=200000
The max depth is 31, the nodes number is 399999.
The ratio is 0.428605.
@ read_data: 1690 ms
@ build_tree: 620 ms
@ sort: 843 ms
@ kernel: 1167 ms
@ traversal: 1176 ms
Collected results into ../../../results/tmp/bt_Original_Lockstep_mnist.7d_sorted.stats

Loading data from ../../../results/tmp/bt_Original_Lockstep_mnist.7d_sorted.stats...
{'kernel:': [1161.0, 1163.0, 1164.0, 1162.0, 1167.0], 'read_data:': [1710.0, 1684.0, 1686.0, 1667.0, 1690.0], 'traversal:': [1170.0, 1172.0, 1173.0, 1173.0, 1176.0], 'sort:': [846.0, 850.0, 847.0, 846.0, 843.0], 'build_tree:': [620.0, 618.0, 632.0, 623.0, 620.0]}
configuration: sort_flag=1, check_flag = 0, verbose_flag=0, K=5, input_file=../../../input/pc/mnist.7d, npoints=200000, nsearchpoints=200000
The max depth is 31, the nodes number is 399999.
The ratio is 0.428605.
@ read_data: 1668 ms
@ build_tree: 623 ms
@ sort: 848 ms
@ kernel: 1158 ms
@ traversal: 1167 ms
Collected results into ../../../results/tmp/bt_Original_Lockstep_mnist.7d_sorted.stats

Loading data from ../../../results/tmp/bt_Original_Lockstep_mnist.7d_sorted.stats...
{'kernel:': [1161.0, 1163.0, 1164.0, 1162.0, 1167.0, 1158.0], 'read_data:': [1710.0, 1684.0, 1686.0, 1667.0, 1690.0, 1668.0], 'traversal:': [1170.0, 1172.0, 1173.0, 1173.0, 1176.0, 1167.0], 'sort:': [846.0, 850.0, 847.0, 846.0, 843.0, 848.0], 'build_tree:': [620.0, 618.0, 632.0, 623.0, 620.0, 623.0]}
configuration: sort_flag=1, check_flag = 0, verbose_flag=0, K=5, input_file=../../../input/pc/mnist.7d, npoints=200000, nsearchpoints=200000
The max depth is 31, the nodes number is 399999.
The ratio is 0.428605.
@ read_data: 1732 ms
@ build_tree: 623 ms
@ sort: 847 ms
@ kernel: 1162 ms
@ traversal: 1174 ms
Collected results into ../../../results/tmp/bt_Original_Lockstep_mnist.7d_sorted.stats

Loading data from ../../../results/tmp/bt_Original_Lockstep_mnist.7d_sorted.stats...
{'kernel:': [1161.0, 1163.0, 1164.0, 1162.0, 1167.0, 1158.0, 1162.0], 'read_data:': [1710.0, 1684.0, 1686.0, 1667.0, 1690.0, 1668.0, 1732.0], 'traversal:': [1170.0, 1172.0, 1173.0, 1173.0, 1176.0, 1167.0, 1174.0], 'sort:': [846.0, 850.0, 847.0, 846.0, 843.0, 848.0, 847.0], 'build_tree:': [620.0, 618.0, 632.0, 623.0, 620.0, 623.0, 623.0]}
configuration: sort_flag=1, check_flag = 0, verbose_flag=0, K=5, input_file=../../../input/pc/mnist.7d, npoints=200000, nsearchpoints=200000
The max depth is 31, the nodes number is 399999.
The ratio is 0.428605.
@ read_data: 1775 ms
@ build_tree: 621 ms
@ sort: 850 ms
@ kernel: 1159 ms
@ traversal: 1168 ms
Collected results into ../../../results/tmp/bt_Original_Lockstep_mnist.7d_sorted.stats

Loading data from ../../../results/tmp/bt_Original_Lockstep_mnist.7d_sorted.stats...
{'kernel:': [1161.0, 1163.0, 1164.0, 1162.0, 1167.0, 1158.0, 1162.0, 1159.0], 'read_data:': [1710.0, 1684.0, 1686.0, 1667.0, 1690.0, 1668.0, 1732.0, 1775.0], 'traversal:': [1170.0, 1172.0, 1173.0, 1173.0, 1176.0, 1167.0, 1174.0, 1168.0], 'sort:': [846.0, 850.0, 847.0, 846.0, 843.0, 848.0, 847.0, 850.0], 'build_tree:': [620.0, 618.0, 632.0, 623.0, 620.0, 623.0, 623.0, 621.0]}
configuration: sort_flag=1, check_flag = 0, verbose_flag=0, K=5, input_file=../../../input/pc/mnist.7d, npoints=200000, nsearchpoints=200000
The max depth is 31, the nodes number is 399999.
The ratio is 0.428605.
@ read_data: 1671 ms
@ build_tree: 620 ms
@ sort: 851 ms
@ kernel: 1161 ms
@ traversal: 1170 ms
Collected results into ../../../results/tmp/bt_Original_Lockstep_mnist.7d_sorted.stats

Loading data from ../../../results/tmp/bt_Original_Lockstep_mnist.7d_sorted.stats...
{'kernel:': [1161.0, 1163.0, 1164.0, 1162.0, 1167.0, 1158.0, 1162.0, 1159.0, 1161.0], 'read_data:': [1710.0, 1684.0, 1686.0, 1667.0, 1690.0, 1668.0, 1732.0, 1775.0, 1671.0], 'traversal:': [1170.0, 1172.0, 1173.0, 1173.0, 1176.0, 1167.0, 1174.0, 1168.0, 1170.0], 'sort:': [846.0, 850.0, 847.0, 846.0, 843.0, 848.0, 847.0, 850.0, 851.0], 'build_tree:': [620.0, 618.0, 632.0, 623.0, 620.0, 623.0, 623.0, 621.0, 620.0]}
configuration: sort_flag=1, check_flag = 0, verbose_flag=0, K=5, input_file=../../../input/pc/mnist.7d, npoints=200000, nsearchpoints=200000
The max depth is 31, the nodes number is 399999.
The ratio is 0.428605.
@ read_data: 1697 ms
@ build_tree: 621 ms
@ sort: 846 ms
@ kernel: 1161 ms
@ traversal: 1172 ms
Collected results into ../../../results/tmp/bt_Original_Lockstep_mnist.7d_sorted.stats

Loading data from ../../../results/tmp/bt_Original_Lockstep_mnist.7d_sorted.stats...
{'kernel:': [1161.0, 1163.0, 1164.0, 1162.0, 1167.0, 1158.0, 1162.0, 1159.0, 1161.0, 1161.0], 'read_data:': [1710.0, 1684.0, 1686.0, 1667.0, 1690.0, 1668.0, 1732.0, 1775.0, 1671.0, 1697.0], 'traversal:': [1170.0, 1172.0, 1173.0, 1173.0, 1176.0, 1167.0, 1174.0, 1168.0, 1170.0, 1172.0], 'sort:': [846.0, 850.0, 847.0, 846.0, 843.0, 848.0, 847.0, 850.0, 851.0, 846.0], 'build_tree:': [620.0, 618.0, 632.0, 623.0, 620.0, 623.0, 623.0, 621.0, 620.0, 621.0]}
configuration: sort_flag=1, check_flag = 0, verbose_flag=0, K=5, input_file=../../../input/pc/mnist.7d, npoints=200000, nsearchpoints=200000
The max depth is 31, the nodes number is 399999.
The ratio is 0.428605.
@ read_data: 1692 ms
@ build_tree: 623 ms
@ sort: 846 ms
@ kernel: 1160 ms
@ traversal: 1171 ms
Collected results into ../../../results/tmp/bt_Original_Lockstep_mnist.7d_sorted.stats

Loading data from ../../../results/tmp/bt_Original_Lockstep_mnist.7d_sorted.stats...
{'kernel:': [1161.0, 1163.0, 1164.0, 1162.0, 1167.0, 1158.0, 1162.0, 1159.0, 1161.0, 1161.0, 1160.0], 'read_data:': [1710.0, 1684.0, 1686.0, 1667.0, 1690.0, 1668.0, 1732.0, 1775.0, 1671.0, 1697.0, 1692.0], 'traversal:': [1170.0, 1172.0, 1173.0, 1173.0, 1176.0, 1167.0, 1174.0, 1168.0, 1170.0, 1172.0, 1171.0], 'sort:': [846.0, 850.0, 847.0, 846.0, 843.0, 848.0, 847.0, 850.0, 851.0, 846.0, 846.0], 'build_tree:': [620.0, 618.0, 632.0, 623.0, 620.0, 623.0, 623.0, 621.0, 620.0, 621.0, 623.0]}
configuration: sort_flag=1, check_flag = 0, verbose_flag=0, K=5, input_file=../../../input/pc/mnist.7d, npoints=200000, nsearchpoints=200000
The max depth is 31, the nodes number is 399999.
The ratio is 0.428605.
@ read_data: 1685 ms
@ build_tree: 621 ms
@ sort: 846 ms
@ kernel: 1165 ms
@ traversal: 1174 ms
Collected results into ../../../results/tmp/bt_Original_Lockstep_mnist.7d_sorted.stats

Loading data from ../../../results/tmp/bt_Original_Lockstep_mnist.7d_sorted.stats...
{'kernel:': [1161.0, 1163.0, 1164.0, 1162.0, 1167.0, 1158.0, 1162.0, 1159.0, 1161.0, 1161.0, 1160.0, 1165.0], 'read_data:': [1710.0, 1684.0, 1686.0, 1667.0, 1690.0, 1668.0, 1732.0, 1775.0, 1671.0, 1697.0, 1692.0, 1685.0], 'traversal:': [1170.0, 1172.0, 1173.0, 1173.0, 1176.0, 1167.0, 1174.0, 1168.0, 1170.0, 1172.0, 1171.0, 1174.0], 'sort:': [846.0, 850.0, 847.0, 846.0, 843.0, 848.0, 847.0, 850.0, 851.0, 846.0, 846.0, 846.0], 'build_tree:': [620.0, 618.0, 632.0, 623.0, 620.0, 623.0, 623.0, 621.0, 620.0, 621.0, 623.0, 621.0]}
configuration: sort_flag=1, check_flag = 0, verbose_flag=0, K=5, input_file=../../../input/pc/mnist.7d, npoints=200000, nsearchpoints=200000
The max depth is 31, the nodes number is 399999.
The ratio is 0.428605.
@ read_data: 1761 ms
@ build_tree: 619 ms
@ sort: 846 ms
@ kernel: 1165 ms
@ traversal: 1177 ms
Collected results into ../../../results/tmp/bt_Original_Lockstep_mnist.7d_sorted.stats

Loading data from ../../../results/tmp/bt_Original_Lockstep_mnist.7d_sorted.stats...
{'kernel:': [1161.0, 1163.0, 1164.0, 1162.0, 1167.0, 1158.0, 1162.0, 1159.0, 1161.0, 1161.0, 1160.0, 1165.0, 1165.0], 'read_data:': [1710.0, 1684.0, 1686.0, 1667.0, 1690.0, 1668.0, 1732.0, 1775.0, 1671.0, 1697.0, 1692.0, 1685.0, 1761.0], 'traversal:': [1170.0, 1172.0, 1173.0, 1173.0, 1176.0, 1167.0, 1174.0, 1168.0, 1170.0, 1172.0, 1171.0, 1174.0, 1177.0], 'sort:': [846.0, 850.0, 847.0, 846.0, 843.0, 848.0, 847.0, 850.0, 851.0, 846.0, 846.0, 846.0, 846.0], 'build_tree:': [620.0, 618.0, 632.0, 623.0, 620.0, 623.0, 623.0, 621.0, 620.0, 621.0, 623.0, 621.0, 619.0]}
configuration: sort_flag=1, check_flag = 0, verbose_flag=0, K=5, input_file=../../../input/pc/mnist.7d, npoints=200000, nsearchpoints=200000
The max depth is 31, the nodes number is 399999.
The ratio is 0.428605.
@ read_data: 1653 ms
@ build_tree: 620 ms
@ sort: 848 ms
@ kernel: 1166 ms
@ traversal: 1175 ms
Collected results into ../../../results/tmp/bt_Original_Lockstep_mnist.7d_sorted.stats

Loading data from ../../../results/tmp/bt_Original_Lockstep_mnist.7d_sorted.stats...
{'kernel:': [1161.0, 1163.0, 1164.0, 1162.0, 1167.0, 1158.0, 1162.0, 1159.0, 1161.0, 1161.0, 1160.0, 1165.0, 1165.0, 1166.0], 'read_data:': [1710.0, 1684.0, 1686.0, 1667.0, 1690.0, 1668.0, 1732.0, 1775.0, 1671.0, 1697.0, 1692.0, 1685.0, 1761.0, 1653.0], 'traversal:': [1170.0, 1172.0, 1173.0, 1173.0, 1176.0, 1167.0, 1174.0, 1168.0, 1170.0, 1172.0, 1171.0, 1174.0, 1177.0, 1175.0], 'sort:': [846.0, 850.0, 847.0, 846.0, 843.0, 848.0, 847.0, 850.0, 851.0, 846.0, 846.0, 846.0, 846.0, 848.0], 'build_tree:': [620.0, 618.0, 632.0, 623.0, 620.0, 623.0, 623.0, 621.0, 620.0, 621.0, 623.0, 621.0, 619.0, 620.0]}
configuration: sort_flag=1, check_flag = 0, verbose_flag=0, K=5, input_file=../../../input/pc/mnist.7d, npoints=200000, nsearchpoints=200000
The max depth is 31, the nodes number is 399999.
The ratio is 0.428605.
@ read_data: 1712 ms
@ build_tree: 635 ms
@ sort: 848 ms
@ kernel: 1163 ms
@ traversal: 1173 ms
Collected results into ../../../results/tmp/bt_Original_Lockstep_mnist.7d_sorted.stats

