Results wll be collected to ../../../results/tmp/bt_Original_Lockstep_random.7d_unsorted.stats...
configuration: sort_flag=0, check_flag = 0, verbose_flag=0, K=5, input_file=../../../input/pc/random.7d, npoints=200000, nsearchpoints=200000
The max depth is 26, the nodes number is 399999.
The ratio is 0.000000.
@ read_data: 1571 ms
@ build_tree: 586 ms
@ sort:  0 ms
@ kernel: 5004 ms
@ traversal: 5014 ms
Collected results into ../../../results/tmp/bt_Original_Lockstep_random.7d_unsorted.stats

Loading data from ../../../results/tmp/bt_Original_Lockstep_random.7d_unsorted.stats...
{'kernel:': [5004.0], 'read_data:': [1571.0], 'traversal:': [5014.0], 'sort:': [0.0], 'build_tree:': [586.0]}
configuration: sort_flag=0, check_flag = 0, verbose_flag=0, K=5, input_file=../../../input/pc/random.7d, npoints=200000, nsearchpoints=200000
The max depth is 26, the nodes number is 399999.
The ratio is 0.000000.
@ read_data: 1629 ms
@ build_tree: 589 ms
@ sort:  0 ms
@ kernel: 4996 ms
@ traversal: 5005 ms
Collected results into ../../../results/tmp/bt_Original_Lockstep_random.7d_unsorted.stats

Loading data from ../../../results/tmp/bt_Original_Lockstep_random.7d_unsorted.stats...
{'kernel:': [5004.0, 4996.0], 'read_data:': [1571.0, 1629.0], 'traversal:': [5014.0, 5005.0], 'sort:': [0.0, 0.0], 'build_tree:': [586.0, 589.0]}
configuration: sort_flag=0, check_flag = 0, verbose_flag=0, K=5, input_file=../../../input/pc/random.7d, npoints=200000, nsearchpoints=200000
The max depth is 26, the nodes number is 399999.
The ratio is 0.000000.
@ read_data: 1594 ms
@ build_tree: 585 ms
@ sort:  0 ms
@ kernel: 4999 ms
@ traversal: 5011 ms
Collected results into ../../../results/tmp/bt_Original_Lockstep_random.7d_unsorted.stats

Loading data from ../../../results/tmp/bt_Original_Lockstep_random.7d_unsorted.stats...
{'kernel:': [5004.0, 4996.0, 4999.0], 'read_data:': [1571.0, 1629.0, 1594.0], 'traversal:': [5014.0, 5005.0, 5011.0], 'sort:': [0.0, 0.0, 0.0], 'build_tree:': [586.0, 589.0, 585.0]}
configuration: sort_flag=0, check_flag = 0, verbose_flag=0, K=5, input_file=../../../input/pc/random.7d, npoints=200000, nsearchpoints=200000
The max depth is 26, the nodes number is 399999.
The ratio is 0.000000.
@ read_data: 1652 ms
@ build_tree: 600 ms
@ sort:  0 ms
@ kernel: 5002 ms
@ traversal: 5014 ms
Collected results into ../../../results/tmp/bt_Original_Lockstep_random.7d_unsorted.stats

Loading data from ../../../results/tmp/bt_Original_Lockstep_random.7d_unsorted.stats...
{'kernel:': [5004.0, 4996.0, 4999.0, 5002.0], 'read_data:': [1571.0, 1629.0, 1594.0, 1652.0], 'traversal:': [5014.0, 5005.0, 5011.0, 5014.0], 'sort:': [0.0, 0.0, 0.0, 0.0], 'build_tree:': [586.0, 589.0, 585.0, 600.0]}
configuration: sort_flag=0, check_flag = 0, verbose_flag=0, K=5, input_file=../../../input/pc/random.7d, npoints=200000, nsearchpoints=200000
The max depth is 26, the nodes number is 399999.
The ratio is 0.000000.
@ read_data: 1649 ms
@ build_tree: 584 ms
@ sort:  0 ms
@ kernel: 4997 ms
@ traversal: 5006 ms
Collected results into ../../../results/tmp/bt_Original_Lockstep_random.7d_unsorted.stats

Loading data from ../../../results/tmp/bt_Original_Lockstep_random.7d_unsorted.stats...
{'kernel:': [5004.0, 4996.0, 4999.0, 5002.0, 4997.0], 'read_data:': [1571.0, 1629.0, 1594.0, 1652.0, 1649.0], 'traversal:': [5014.0, 5005.0, 5011.0, 5014.0, 5006.0], 'sort:': [0.0, 0.0, 0.0, 0.0, 0.0], 'build_tree:': [586.0, 589.0, 585.0, 600.0, 584.0]}
configuration: sort_flag=0, check_flag = 0, verbose_flag=0, K=5, input_file=../../../input/pc/random.7d, npoints=200000, nsearchpoints=200000
The max depth is 26, the nodes number is 399999.
The ratio is 0.000000.
@ read_data: 1585 ms
@ build_tree: 583 ms
@ sort:  0 ms
@ kernel: 5005 ms
@ traversal: 5014 ms
Collected results into ../../../results/tmp/bt_Original_Lockstep_random.7d_unsorted.stats

Loading data from ../../../results/tmp/bt_Original_Lockstep_random.7d_unsorted.stats...
{'kernel:': [5004.0, 4996.0, 4999.0, 5002.0, 4997.0, 5005.0], 'read_data:': [1571.0, 1629.0, 1594.0, 1652.0, 1649.0, 1585.0], 'traversal:': [5014.0, 5005.0, 5011.0, 5014.0, 5006.0, 5014.0], 'sort:': [0.0, 0.0, 0.0, 0.0, 0.0, 0.0], 'build_tree:': [586.0, 589.0, 585.0, 600.0, 584.0, 583.0]}
configuration: sort_flag=0, check_flag = 0, verbose_flag=0, K=5, input_file=../../../input/pc/random.7d, npoints=200000, nsearchpoints=200000
The max depth is 26, the nodes number is 399999.
The ratio is 0.000000.
@ read_data: 1644 ms
@ build_tree: 585 ms
@ sort:  0 ms
@ kernel: 5001 ms
@ traversal: 5011 ms
Collected results into ../../../results/tmp/bt_Original_Lockstep_random.7d_unsorted.stats

Loading data from ../../../results/tmp/bt_Original_Lockstep_random.7d_unsorted.stats...
{'kernel:': [5004.0, 4996.0, 4999.0, 5002.0, 4997.0, 5005.0, 5001.0], 'read_data:': [1571.0, 1629.0, 1594.0, 1652.0, 1649.0, 1585.0, 1644.0], 'traversal:': [5014.0, 5005.0, 5011.0, 5014.0, 5006.0, 5014.0, 5011.0], 'sort:': [0.0, 0.0, 0.0, 0.0, 0.0, 0.0, 0.0], 'build_tree:': [586.0, 589.0, 585.0, 600.0, 584.0, 583.0, 585.0]}
configuration: sort_flag=0, check_flag = 0, verbose_flag=0, K=5, input_file=../../../input/pc/random.7d, npoints=200000, nsearchpoints=200000
The max depth is 26, the nodes number is 399999.
The ratio is 0.000000.
@ read_data: 1626 ms
@ build_tree: 588 ms
@ sort:  0 ms
@ kernel: 5007 ms
@ traversal: 5016 ms
Collected results into ../../../results/tmp/bt_Original_Lockstep_random.7d_unsorted.stats

Loading data from ../../../results/tmp/bt_Original_Lockstep_random.7d_unsorted.stats...
{'kernel:': [5004.0, 4996.0, 4999.0, 5002.0, 4997.0, 5005.0, 5001.0, 5007.0], 'read_data:': [1571.0, 1629.0, 1594.0, 1652.0, 1649.0, 1585.0, 1644.0, 1626.0], 'traversal:': [5014.0, 5005.0, 5011.0, 5014.0, 5006.0, 5014.0, 5011.0, 5016.0], 'sort:': [0.0, 0.0, 0.0, 0.0, 0.0, 0.0, 0.0, 0.0], 'build_tree:': [586.0, 589.0, 585.0, 600.0, 584.0, 583.0, 585.0, 588.0]}
configuration: sort_flag=0, check_flag = 0, verbose_flag=0, K=5, input_file=../../../input/pc/random.7d, npoints=200000, nsearchpoints=200000
The max depth is 26, the nodes number is 399999.
The ratio is 0.000000.
@ read_data: 1663 ms
@ build_tree: 599 ms
@ sort:  0 ms
@ kernel: 5005 ms
@ traversal: 5012 ms
Collected results into ../../../results/tmp/bt_Original_Lockstep_random.7d_unsorted.stats

Loading data from ../../../results/tmp/bt_Original_Lockstep_random.7d_unsorted.stats...
{'kernel:': [5004.0, 4996.0, 4999.0, 5002.0, 4997.0, 5005.0, 5001.0, 5007.0, 5005.0], 'read_data:': [1571.0, 1629.0, 1594.0, 1652.0, 1649.0, 1585.0, 1644.0, 1626.0, 1663.0], 'traversal:': [5014.0, 5005.0, 5011.0, 5014.0, 5006.0, 5014.0, 5011.0, 5016.0, 5012.0], 'sort:': [0.0, 0.0, 0.0, 0.0, 0.0, 0.0, 0.0, 0.0, 0.0], 'build_tree:': [586.0, 589.0, 585.0, 600.0, 584.0, 583.0, 585.0, 588.0, 599.0]}
configuration: sort_flag=0, check_flag = 0, verbose_flag=0, K=5, input_file=../../../input/pc/random.7d, npoints=200000, nsearchpoints=200000
The max depth is 26, the nodes number is 399999.
The ratio is 0.000000.
@ read_data: 1634 ms
@ build_tree: 588 ms
@ sort:  0 ms
@ kernel: 5015 ms
@ traversal: 5024 ms
Collected results into ../../../results/tmp/bt_Original_Lockstep_random.7d_unsorted.stats

Loading data from ../../../results/tmp/bt_Original_Lockstep_random.7d_unsorted.stats...
{'kernel:': [5004.0, 4996.0, 4999.0, 5002.0, 4997.0, 5005.0, 5001.0, 5007.0, 5005.0, 5015.0], 'read_data:': [1571.0, 1629.0, 1594.0, 1652.0, 1649.0, 1585.0, 1644.0, 1626.0, 1663.0, 1634.0], 'traversal:': [5014.0, 5005.0, 5011.0, 5014.0, 5006.0, 5014.0, 5011.0, 5016.0, 5012.0, 5024.0], 'sort:': [0.0, 0.0, 0.0, 0.0, 0.0, 0.0, 0.0, 0.0, 0.0, 0.0], 'build_tree:': [586.0, 589.0, 585.0, 600.0, 584.0, 583.0, 585.0, 588.0, 599.0, 588.0]}
configuration: sort_flag=0, check_flag = 0, verbose_flag=0, K=5, input_file=../../../input/pc/random.7d, npoints=200000, nsearchpoints=200000
The max depth is 26, the nodes number is 399999.
The ratio is 0.000000.
@ read_data: 1605 ms
@ build_tree: 583 ms
@ sort:  0 ms
@ kernel: 5019 ms
@ traversal: 5029 ms
Collected results into ../../../results/tmp/bt_Original_Lockstep_random.7d_unsorted.stats

Loading data from ../../../results/tmp/bt_Original_Lockstep_random.7d_unsorted.stats...
{'kernel:': [5004.0, 4996.0, 4999.0, 5002.0, 4997.0, 5005.0, 5001.0, 5007.0, 5005.0, 5015.0, 5019.0], 'read_data:': [1571.0, 1629.0, 1594.0, 1652.0, 1649.0, 1585.0, 1644.0, 1626.0, 1663.0, 1634.0, 1605.0], 'traversal:': [5014.0, 5005.0, 5011.0, 5014.0, 5006.0, 5014.0, 5011.0, 5016.0, 5012.0, 5024.0, 5029.0], 'sort:': [0.0, 0.0, 0.0, 0.0, 0.0, 0.0, 0.0, 0.0, 0.0, 0.0, 0.0], 'build_tree:': [586.0, 589.0, 585.0, 600.0, 584.0, 583.0, 585.0, 588.0, 599.0, 588.0, 583.0]}
configuration: sort_flag=0, check_flag = 0, verbose_flag=0, K=5, input_file=../../../input/pc/random.7d, npoints=200000, nsearchpoints=200000
The max depth is 26, the nodes number is 399999.
The ratio is 0.000000.
@ read_data: 1632 ms
@ build_tree: 590 ms
@ sort:  0 ms
@ kernel: 4995 ms
@ traversal: 5004 ms
Collected results into ../../../results/tmp/bt_Original_Lockstep_random.7d_unsorted.stats

Loading data from ../../../results/tmp/bt_Original_Lockstep_random.7d_unsorted.stats...
{'kernel:': [5004.0, 4996.0, 4999.0, 5002.0, 4997.0, 5005.0, 5001.0, 5007.0, 5005.0, 5015.0, 5019.0, 4995.0], 'read_data:': [1571.0, 1629.0, 1594.0, 1652.0, 1649.0, 1585.0, 1644.0, 1626.0, 1663.0, 1634.0, 1605.0, 1632.0], 'traversal:': [5014.0, 5005.0, 5011.0, 5014.0, 5006.0, 5014.0, 5011.0, 5016.0, 5012.0, 5024.0, 5029.0, 5004.0], 'sort:': [0.0, 0.0, 0.0, 0.0, 0.0, 0.0, 0.0, 0.0, 0.0, 0.0, 0.0, 0.0], 'build_tree:': [586.0, 589.0, 585.0, 600.0, 584.0, 583.0, 585.0, 588.0, 599.0, 588.0, 583.0, 590.0]}
configuration: sort_flag=0, check_flag = 0, verbose_flag=0, K=5, input_file=../../../input/pc/random.7d, npoints=200000, nsearchpoints=200000
The max depth is 26, the nodes number is 399999.
The ratio is 0.000000.
@ read_data: 1677 ms
@ build_tree: 586 ms
@ sort:  0 ms
@ kernel: 5000 ms
@ traversal: 5010 ms
Collected results into ../../../results/tmp/bt_Original_Lockstep_random.7d_unsorted.stats

Loading data from ../../../results/tmp/bt_Original_Lockstep_random.7d_unsorted.stats...
{'kernel:': [5004.0, 4996.0, 4999.0, 5002.0, 4997.0, 5005.0, 5001.0, 5007.0, 5005.0, 5015.0, 5019.0, 4995.0, 5000.0], 'read_data:': [1571.0, 1629.0, 1594.0, 1652.0, 1649.0, 1585.0, 1644.0, 1626.0, 1663.0, 1634.0, 1605.0, 1632.0, 1677.0], 'traversal:': [5014.0, 5005.0, 5011.0, 5014.0, 5006.0, 5014.0, 5011.0, 5016.0, 5012.0, 5024.0, 5029.0, 5004.0, 5010.0], 'sort:': [0.0, 0.0, 0.0, 0.0, 0.0, 0.0, 0.0, 0.0, 0.0, 0.0, 0.0, 0.0, 0.0], 'build_tree:': [586.0, 589.0, 585.0, 600.0, 584.0, 583.0, 585.0, 588.0, 599.0, 588.0, 583.0, 590.0, 586.0]}
configuration: sort_flag=0, check_flag = 0, verbose_flag=0, K=5, input_file=../../../input/pc/random.7d, npoints=200000, nsearchpoints=200000
The max depth is 26, the nodes number is 399999.
The ratio is 0.000000.
@ read_data: 1612 ms
@ build_tree: 588 ms
@ sort:  0 ms
@ kernel: 5007 ms
@ traversal: 5017 ms
Collected results into ../../../results/tmp/bt_Original_Lockstep_random.7d_unsorted.stats

Loading data from ../../../results/tmp/bt_Original_Lockstep_random.7d_unsorted.stats...
{'kernel:': [5004.0, 4996.0, 4999.0, 5002.0, 4997.0, 5005.0, 5001.0, 5007.0, 5005.0, 5015.0, 5019.0, 4995.0, 5000.0, 5007.0], 'read_data:': [1571.0, 1629.0, 1594.0, 1652.0, 1649.0, 1585.0, 1644.0, 1626.0, 1663.0, 1634.0, 1605.0, 1632.0, 1677.0, 1612.0], 'traversal:': [5014.0, 5005.0, 5011.0, 5014.0, 5006.0, 5014.0, 5011.0, 5016.0, 5012.0, 5024.0, 5029.0, 5004.0, 5010.0, 5017.0], 'sort:': [0.0, 0.0, 0.0, 0.0, 0.0, 0.0, 0.0, 0.0, 0.0, 0.0, 0.0, 0.0, 0.0, 0.0], 'build_tree:': [586.0, 589.0, 585.0, 600.0, 584.0, 583.0, 585.0, 588.0, 599.0, 588.0, 583.0, 590.0, 586.0, 588.0]}
configuration: sort_flag=0, check_flag = 0, verbose_flag=0, K=5, input_file=../../../input/pc/random.7d, npoints=200000, nsearchpoints=200000
The max depth is 26, the nodes number is 399999.
The ratio is 0.000000.
@ read_data: 1621 ms
@ build_tree: 588 ms
@ sort:  0 ms
@ kernel: 5008 ms
@ traversal: 5019 ms
Collected results into ../../../results/tmp/bt_Original_Lockstep_random.7d_unsorted.stats

