Results wll be collected to ../../../results/tmp/knn_Original_Lockstep_random.7d_sorted.stats...
configuration: sort_flag=1, check_flag = 0, verbose_flag=0, K=8, input_file=../../../input/pc/random.7d, npoints=200000, nsearchpoints=200000
@ construct_tree: 1739 ms
@ gpu_build_tree: 21 ms
@ init_kernel: 2769 ms
@ gpu_copy_tree_to: 15 ms
@ kernel: 2961 ms
@ sort: 873 ms
@ gpu_copy_tree_from: 14 ms
@ traversal_time: 5781 ms
@ runtime: 7519 ms
Collected results into ../../../results/tmp/knn_Original_Lockstep_random.7d_sorted.stats

Loading data from ../../../results/tmp/knn_Original_Lockstep_random.7d_sorted.stats...
{'traversal_time:': [5781.0], 'gpu_copy_tree_from:': [14.0], 'gpu_copy_tree_to:': [15.0], 'construct_tree:': [1739.0], 'init_kernel:': [2769.0], 'gpu_build_tree:': [21.0], 'kernel:': [2961.0], 'sort:': [873.0], 'runtime:': [7519.0]}
configuration: sort_flag=1, check_flag = 0, verbose_flag=0, K=8, input_file=../../../input/pc/random.7d, npoints=200000, nsearchpoints=200000
@ construct_tree: 1734 ms
@ gpu_build_tree: 23 ms
@ init_kernel: 2561 ms
@ gpu_copy_tree_to: 16 ms
@ kernel: 2964 ms
@ sort: 867 ms
@ gpu_copy_tree_from: 14 ms
@ traversal_time: 5577 ms
@ runtime: 7312 ms
Collected results into ../../../results/tmp/knn_Original_Lockstep_random.7d_sorted.stats

Loading data from ../../../results/tmp/knn_Original_Lockstep_random.7d_sorted.stats...
{'traversal_time:': [5781.0, 5577.0], 'gpu_copy_tree_from:': [14.0, 14.0], 'gpu_copy_tree_to:': [15.0, 16.0], 'construct_tree:': [1739.0, 1734.0], 'init_kernel:': [2769.0, 2561.0], 'gpu_build_tree:': [21.0, 23.0], 'kernel:': [2961.0, 2964.0], 'sort:': [873.0, 867.0], 'runtime:': [7519.0, 7312.0]}
configuration: sort_flag=1, check_flag = 0, verbose_flag=0, K=8, input_file=../../../input/pc/random.7d, npoints=200000, nsearchpoints=200000
@ construct_tree: 1740 ms
@ gpu_build_tree: 23 ms
@ init_kernel: 2730 ms
@ gpu_copy_tree_to: 15 ms
@ kernel: 2963 ms
@ sort: 875 ms
@ gpu_copy_tree_from: 15 ms
@ traversal_time: 5746 ms
@ runtime: 7486 ms
Collected results into ../../../results/tmp/knn_Original_Lockstep_random.7d_sorted.stats

Loading data from ../../../results/tmp/knn_Original_Lockstep_random.7d_sorted.stats...
{'traversal_time:': [5781.0, 5577.0, 5746.0], 'gpu_copy_tree_from:': [14.0, 14.0, 15.0], 'gpu_copy_tree_to:': [15.0, 16.0, 15.0], 'construct_tree:': [1739.0, 1734.0, 1740.0], 'init_kernel:': [2769.0, 2561.0, 2730.0], 'gpu_build_tree:': [21.0, 23.0, 23.0], 'kernel:': [2961.0, 2964.0, 2963.0], 'sort:': [873.0, 867.0, 875.0], 'runtime:': [7519.0, 7312.0, 7486.0]}
configuration: sort_flag=1, check_flag = 0, verbose_flag=0, K=8, input_file=../../../input/pc/random.7d, npoints=200000, nsearchpoints=200000
@ construct_tree: 1735 ms
@ gpu_build_tree: 22 ms
@ init_kernel: 2590 ms
@ gpu_copy_tree_to: 16 ms
@ kernel: 2964 ms
@ sort: 867 ms
@ gpu_copy_tree_from: 14 ms
@ traversal_time: 5605 ms
@ runtime: 7340 ms
Collected results into ../../../results/tmp/knn_Original_Lockstep_random.7d_sorted.stats

Loading data from ../../../results/tmp/knn_Original_Lockstep_random.7d_sorted.stats...
{'traversal_time:': [5781.0, 5577.0, 5746.0, 5605.0], 'gpu_copy_tree_from:': [14.0, 14.0, 15.0, 14.0], 'gpu_copy_tree_to:': [15.0, 16.0, 15.0, 16.0], 'construct_tree:': [1739.0, 1734.0, 1740.0, 1735.0], 'init_kernel:': [2769.0, 2561.0, 2730.0, 2590.0], 'gpu_build_tree:': [21.0, 23.0, 23.0, 22.0], 'kernel:': [2961.0, 2964.0, 2963.0, 2964.0], 'sort:': [873.0, 867.0, 875.0, 867.0], 'runtime:': [7519.0, 7312.0, 7486.0, 7340.0]}
configuration: sort_flag=1, check_flag = 0, verbose_flag=0, K=8, input_file=../../../input/pc/random.7d, npoints=200000, nsearchpoints=200000
@ construct_tree: 1738 ms
@ gpu_build_tree: 23 ms
@ init_kernel: 2775 ms
@ gpu_copy_tree_to: 16 ms
@ kernel: 2963 ms
@ sort: 874 ms
@ gpu_copy_tree_from: 14 ms
@ traversal_time: 5790 ms
@ runtime: 7528 ms
Collected results into ../../../results/tmp/knn_Original_Lockstep_random.7d_sorted.stats

Loading data from ../../../results/tmp/knn_Original_Lockstep_random.7d_sorted.stats...
{'traversal_time:': [5781.0, 5577.0, 5746.0, 5605.0, 5790.0], 'gpu_copy_tree_from:': [14.0, 14.0, 15.0, 14.0, 14.0], 'gpu_copy_tree_to:': [15.0, 16.0, 15.0, 16.0, 16.0], 'construct_tree:': [1739.0, 1734.0, 1740.0, 1735.0, 1738.0], 'init_kernel:': [2769.0, 2561.0, 2730.0, 2590.0, 2775.0], 'gpu_build_tree:': [21.0, 23.0, 23.0, 22.0, 23.0], 'kernel:': [2961.0, 2964.0, 2963.0, 2964.0, 2963.0], 'sort:': [873.0, 867.0, 875.0, 867.0, 874.0], 'runtime:': [7519.0, 7312.0, 7486.0, 7340.0, 7528.0]}
configuration: sort_flag=1, check_flag = 0, verbose_flag=0, K=8, input_file=../../../input/pc/random.7d, npoints=200000, nsearchpoints=200000
@ construct_tree: 1734 ms
@ gpu_build_tree: 22 ms
@ init_kernel: 2558 ms
@ gpu_copy_tree_to: 16 ms
@ kernel: 2964 ms
@ sort: 867 ms
@ gpu_copy_tree_from: 14 ms
@ traversal_time: 5573 ms
@ runtime: 7308 ms
Collected results into ../../../results/tmp/knn_Original_Lockstep_random.7d_sorted.stats

Loading data from ../../../results/tmp/knn_Original_Lockstep_random.7d_sorted.stats...
{'traversal_time:': [5781.0, 5577.0, 5746.0, 5605.0, 5790.0, 5573.0], 'gpu_copy_tree_from:': [14.0, 14.0, 15.0, 14.0, 14.0, 14.0], 'gpu_copy_tree_to:': [15.0, 16.0, 15.0, 16.0, 16.0, 16.0], 'construct_tree:': [1739.0, 1734.0, 1740.0, 1735.0, 1738.0, 1734.0], 'init_kernel:': [2769.0, 2561.0, 2730.0, 2590.0, 2775.0, 2558.0], 'gpu_build_tree:': [21.0, 23.0, 23.0, 22.0, 23.0, 22.0], 'kernel:': [2961.0, 2964.0, 2963.0, 2964.0, 2963.0, 2964.0], 'sort:': [873.0, 867.0, 875.0, 867.0, 874.0, 867.0], 'runtime:': [7519.0, 7312.0, 7486.0, 7340.0, 7528.0, 7308.0]}
configuration: sort_flag=1, check_flag = 0, verbose_flag=0, K=8, input_file=../../../input/pc/random.7d, npoints=200000, nsearchpoints=200000
@ construct_tree: 1740 ms
@ gpu_build_tree: 23 ms
@ init_kernel: 2730 ms
@ gpu_copy_tree_to: 16 ms
@ kernel: 2963 ms
@ sort: 875 ms
@ gpu_copy_tree_from: 14 ms
@ traversal_time: 5746 ms
@ runtime: 7486 ms
Collected results into ../../../results/tmp/knn_Original_Lockstep_random.7d_sorted.stats

Loading data from ../../../results/tmp/knn_Original_Lockstep_random.7d_sorted.stats...
{'traversal_time:': [5781.0, 5577.0, 5746.0, 5605.0, 5790.0, 5573.0, 5746.0], 'gpu_copy_tree_from:': [14.0, 14.0, 15.0, 14.0, 14.0, 14.0, 14.0], 'gpu_copy_tree_to:': [15.0, 16.0, 15.0, 16.0, 16.0, 16.0, 16.0], 'construct_tree:': [1739.0, 1734.0, 1740.0, 1735.0, 1738.0, 1734.0, 1740.0], 'init_kernel:': [2769.0, 2561.0, 2730.0, 2590.0, 2775.0, 2558.0, 2730.0], 'gpu_build_tree:': [21.0, 23.0, 23.0, 22.0, 23.0, 22.0, 23.0], 'kernel:': [2961.0, 2964.0, 2963.0, 2964.0, 2963.0, 2964.0, 2963.0], 'sort:': [873.0, 867.0, 875.0, 867.0, 874.0, 867.0, 875.0], 'runtime:': [7519.0, 7312.0, 7486.0, 7340.0, 7528.0, 7308.0, 7486.0]}
configuration: sort_flag=1, check_flag = 0, verbose_flag=0, K=8, input_file=../../../input/pc/random.7d, npoints=200000, nsearchpoints=200000
@ construct_tree: 1733 ms
@ gpu_build_tree: 23 ms
@ init_kernel: 2751 ms
@ gpu_copy_tree_to: 16 ms
@ kernel: 2960 ms
@ sort: 866 ms
@ gpu_copy_tree_from: 14 ms
@ traversal_time: 5764 ms
@ runtime: 7497 ms
Collected results into ../../../results/tmp/knn_Original_Lockstep_random.7d_sorted.stats

Loading data from ../../../results/tmp/knn_Original_Lockstep_random.7d_sorted.stats...
{'traversal_time:': [5781.0, 5577.0, 5746.0, 5605.0, 5790.0, 5573.0, 5746.0, 5764.0], 'gpu_copy_tree_from:': [14.0, 14.0, 15.0, 14.0, 14.0, 14.0, 14.0, 14.0], 'gpu_copy_tree_to:': [15.0, 16.0, 15.0, 16.0, 16.0, 16.0, 16.0, 16.0], 'construct_tree:': [1739.0, 1734.0, 1740.0, 1735.0, 1738.0, 1734.0, 1740.0, 1733.0], 'init_kernel:': [2769.0, 2561.0, 2730.0, 2590.0, 2775.0, 2558.0, 2730.0, 2751.0], 'gpu_build_tree:': [21.0, 23.0, 23.0, 22.0, 23.0, 22.0, 23.0, 23.0], 'kernel:': [2961.0, 2964.0, 2963.0, 2964.0, 2963.0, 2964.0, 2963.0, 2960.0], 'sort:': [873.0, 867.0, 875.0, 867.0, 874.0, 867.0, 875.0, 866.0], 'runtime:': [7519.0, 7312.0, 7486.0, 7340.0, 7528.0, 7308.0, 7486.0, 7497.0]}
configuration: sort_flag=1, check_flag = 0, verbose_flag=0, K=8, input_file=../../../input/pc/random.7d, npoints=200000, nsearchpoints=200000
@ construct_tree: 1741 ms
@ gpu_build_tree: 21 ms
@ init_kernel: 2618 ms
@ gpu_copy_tree_to: 16 ms
@ kernel: 2963 ms
@ sort: 875 ms
@ gpu_copy_tree_from: 14 ms
@ traversal_time: 5632 ms
@ runtime: 7372 ms
Collected results into ../../../results/tmp/knn_Original_Lockstep_random.7d_sorted.stats

Loading data from ../../../results/tmp/knn_Original_Lockstep_random.7d_sorted.stats...
{'traversal_time:': [5781.0, 5577.0, 5746.0, 5605.0, 5790.0, 5573.0, 5746.0, 5764.0, 5632.0], 'gpu_copy_tree_from:': [14.0, 14.0, 15.0, 14.0, 14.0, 14.0, 14.0, 14.0, 14.0], 'gpu_copy_tree_to:': [15.0, 16.0, 15.0, 16.0, 16.0, 16.0, 16.0, 16.0, 16.0], 'construct_tree:': [1739.0, 1734.0, 1740.0, 1735.0, 1738.0, 1734.0, 1740.0, 1733.0, 1741.0], 'init_kernel:': [2769.0, 2561.0, 2730.0, 2590.0, 2775.0, 2558.0, 2730.0, 2751.0, 2618.0], 'gpu_build_tree:': [21.0, 23.0, 23.0, 22.0, 23.0, 22.0, 23.0, 23.0, 21.0], 'kernel:': [2961.0, 2964.0, 2963.0, 2964.0, 2963.0, 2964.0, 2963.0, 2960.0, 2963.0], 'sort:': [873.0, 867.0, 875.0, 867.0, 874.0, 867.0, 875.0, 866.0, 875.0], 'runtime:': [7519.0, 7312.0, 7486.0, 7340.0, 7528.0, 7308.0, 7486.0, 7497.0, 7372.0]}
configuration: sort_flag=1, check_flag = 0, verbose_flag=0, K=8, input_file=../../../input/pc/random.7d, npoints=200000, nsearchpoints=200000
@ construct_tree: 1735 ms
@ gpu_build_tree: 23 ms
@ init_kernel: 2606 ms
@ gpu_copy_tree_to: 16 ms
@ kernel: 2963 ms
@ sort: 866 ms
@ gpu_copy_tree_from: 14 ms
@ traversal_time: 5622 ms
@ runtime: 7357 ms
Collected results into ../../../results/tmp/knn_Original_Lockstep_random.7d_sorted.stats

Loading data from ../../../results/tmp/knn_Original_Lockstep_random.7d_sorted.stats...
{'traversal_time:': [5781.0, 5577.0, 5746.0, 5605.0, 5790.0, 5573.0, 5746.0, 5764.0, 5632.0, 5622.0], 'gpu_copy_tree_from:': [14.0, 14.0, 15.0, 14.0, 14.0, 14.0, 14.0, 14.0, 14.0, 14.0], 'gpu_copy_tree_to:': [15.0, 16.0, 15.0, 16.0, 16.0, 16.0, 16.0, 16.0, 16.0, 16.0], 'construct_tree:': [1739.0, 1734.0, 1740.0, 1735.0, 1738.0, 1734.0, 1740.0, 1733.0, 1741.0, 1735.0], 'init_kernel:': [2769.0, 2561.0, 2730.0, 2590.0, 2775.0, 2558.0, 2730.0, 2751.0, 2618.0, 2606.0], 'gpu_build_tree:': [21.0, 23.0, 23.0, 22.0, 23.0, 22.0, 23.0, 23.0, 21.0, 23.0], 'kernel:': [2961.0, 2964.0, 2963.0, 2964.0, 2963.0, 2964.0, 2963.0, 2960.0, 2963.0, 2963.0], 'sort:': [873.0, 867.0, 875.0, 867.0, 874.0, 867.0, 875.0, 866.0, 875.0, 866.0], 'runtime:': [7519.0, 7312.0, 7486.0, 7340.0, 7528.0, 7308.0, 7486.0, 7497.0, 7372.0, 7357.0]}
configuration: sort_flag=1, check_flag = 0, verbose_flag=0, K=8, input_file=../../../input/pc/random.7d, npoints=200000, nsearchpoints=200000
@ construct_tree: 1729 ms
@ gpu_build_tree: 21 ms
@ init_kernel: 2648 ms
@ gpu_copy_tree_to: 16 ms
@ kernel: 2964 ms
@ sort: 865 ms
@ gpu_copy_tree_from: 14 ms
@ traversal_time: 5664 ms
@ runtime: 7393 ms
Collected results into ../../../results/tmp/knn_Original_Lockstep_random.7d_sorted.stats

Loading data from ../../../results/tmp/knn_Original_Lockstep_random.7d_sorted.stats...
{'traversal_time:': [5781.0, 5577.0, 5746.0, 5605.0, 5790.0, 5573.0, 5746.0, 5764.0, 5632.0, 5622.0, 5664.0], 'gpu_copy_tree_from:': [14.0, 14.0, 15.0, 14.0, 14.0, 14.0, 14.0, 14.0, 14.0, 14.0, 14.0], 'gpu_copy_tree_to:': [15.0, 16.0, 15.0, 16.0, 16.0, 16.0, 16.0, 16.0, 16.0, 16.0, 16.0], 'construct_tree:': [1739.0, 1734.0, 1740.0, 1735.0, 1738.0, 1734.0, 1740.0, 1733.0, 1741.0, 1735.0, 1729.0], 'init_kernel:': [2769.0, 2561.0, 2730.0, 2590.0, 2775.0, 2558.0, 2730.0, 2751.0, 2618.0, 2606.0, 2648.0], 'gpu_build_tree:': [21.0, 23.0, 23.0, 22.0, 23.0, 22.0, 23.0, 23.0, 21.0, 23.0, 21.0], 'kernel:': [2961.0, 2964.0, 2963.0, 2964.0, 2963.0, 2964.0, 2963.0, 2960.0, 2963.0, 2963.0, 2964.0], 'sort:': [873.0, 867.0, 875.0, 867.0, 874.0, 867.0, 875.0, 866.0, 875.0, 866.0, 865.0], 'runtime:': [7519.0, 7312.0, 7486.0, 7340.0, 7528.0, 7308.0, 7486.0, 7497.0, 7372.0, 7357.0, 7393.0]}
configuration: sort_flag=1, check_flag = 0, verbose_flag=0, K=8, input_file=../../../input/pc/random.7d, npoints=200000, nsearchpoints=200000
@ construct_tree: 1733 ms
@ gpu_build_tree: 23 ms
@ init_kernel: 2635 ms
@ gpu_copy_tree_to: 16 ms
@ kernel: 2967 ms
@ sort: 866 ms
@ gpu_copy_tree_from: 14 ms
@ traversal_time: 5655 ms
@ runtime: 7387 ms
Collected results into ../../../results/tmp/knn_Original_Lockstep_random.7d_sorted.stats

Loading data from ../../../results/tmp/knn_Original_Lockstep_random.7d_sorted.stats...
{'traversal_time:': [5781.0, 5577.0, 5746.0, 5605.0, 5790.0, 5573.0, 5746.0, 5764.0, 5632.0, 5622.0, 5664.0, 5655.0], 'gpu_copy_tree_from:': [14.0, 14.0, 15.0, 14.0, 14.0, 14.0, 14.0, 14.0, 14.0, 14.0, 14.0, 14.0], 'gpu_copy_tree_to:': [15.0, 16.0, 15.0, 16.0, 16.0, 16.0, 16.0, 16.0, 16.0, 16.0, 16.0, 16.0], 'construct_tree:': [1739.0, 1734.0, 1740.0, 1735.0, 1738.0, 1734.0, 1740.0, 1733.0, 1741.0, 1735.0, 1729.0, 1733.0], 'init_kernel:': [2769.0, 2561.0, 2730.0, 2590.0, 2775.0, 2558.0, 2730.0, 2751.0, 2618.0, 2606.0, 2648.0, 2635.0], 'gpu_build_tree:': [21.0, 23.0, 23.0, 22.0, 23.0, 22.0, 23.0, 23.0, 21.0, 23.0, 21.0, 23.0], 'kernel:': [2961.0, 2964.0, 2963.0, 2964.0, 2963.0, 2964.0, 2963.0, 2960.0, 2963.0, 2963.0, 2964.0, 2967.0], 'sort:': [873.0, 867.0, 875.0, 867.0, 874.0, 867.0, 875.0, 866.0, 875.0, 866.0, 865.0, 866.0], 'runtime:': [7519.0, 7312.0, 7486.0, 7340.0, 7528.0, 7308.0, 7486.0, 7497.0, 7372.0, 7357.0, 7393.0, 7387.0]}
configuration: sort_flag=1, check_flag = 0, verbose_flag=0, K=8, input_file=../../../input/pc/random.7d, npoints=200000, nsearchpoints=200000
@ construct_tree: 1731 ms
@ gpu_build_tree: 22 ms
@ init_kernel: 2641 ms
@ gpu_copy_tree_to: 16 ms
@ kernel: 2964 ms
@ sort: 867 ms
@ gpu_copy_tree_from: 13 ms
@ traversal_time: 5656 ms
@ runtime: 7386 ms
Collected results into ../../../results/tmp/knn_Original_Lockstep_random.7d_sorted.stats

Loading data from ../../../results/tmp/knn_Original_Lockstep_random.7d_sorted.stats...
{'traversal_time:': [5781.0, 5577.0, 5746.0, 5605.0, 5790.0, 5573.0, 5746.0, 5764.0, 5632.0, 5622.0, 5664.0, 5655.0, 5656.0], 'gpu_copy_tree_from:': [14.0, 14.0, 15.0, 14.0, 14.0, 14.0, 14.0, 14.0, 14.0, 14.0, 14.0, 14.0, 13.0], 'gpu_copy_tree_to:': [15.0, 16.0, 15.0, 16.0, 16.0, 16.0, 16.0, 16.0, 16.0, 16.0, 16.0, 16.0, 16.0], 'construct_tree:': [1739.0, 1734.0, 1740.0, 1735.0, 1738.0, 1734.0, 1740.0, 1733.0, 1741.0, 1735.0, 1729.0, 1733.0, 1731.0], 'init_kernel:': [2769.0, 2561.0, 2730.0, 2590.0, 2775.0, 2558.0, 2730.0, 2751.0, 2618.0, 2606.0, 2648.0, 2635.0, 2641.0], 'gpu_build_tree:': [21.0, 23.0, 23.0, 22.0, 23.0, 22.0, 23.0, 23.0, 21.0, 23.0, 21.0, 23.0, 22.0], 'kernel:': [2961.0, 2964.0, 2963.0, 2964.0, 2963.0, 2964.0, 2963.0, 2960.0, 2963.0, 2963.0, 2964.0, 2967.0, 2964.0], 'sort:': [873.0, 867.0, 875.0, 867.0, 874.0, 867.0, 875.0, 866.0, 875.0, 866.0, 865.0, 866.0, 867.0], 'runtime:': [7519.0, 7312.0, 7486.0, 7340.0, 7528.0, 7308.0, 7486.0, 7497.0, 7372.0, 7357.0, 7393.0, 7387.0, 7386.0]}
configuration: sort_flag=1, check_flag = 0, verbose_flag=0, K=8, input_file=../../../input/pc/random.7d, npoints=200000, nsearchpoints=200000
@ construct_tree: 1735 ms
@ gpu_build_tree: 23 ms
@ init_kernel: 2581 ms
@ gpu_copy_tree_to: 16 ms
@ kernel: 2959 ms
@ sort: 867 ms
@ gpu_copy_tree_from: 14 ms
@ traversal_time: 5593 ms
@ runtime: 7328 ms
Collected results into ../../../results/tmp/knn_Original_Lockstep_random.7d_sorted.stats

Loading data from ../../../results/tmp/knn_Original_Lockstep_random.7d_sorted.stats...
{'traversal_time:': [5781.0, 5577.0, 5746.0, 5605.0, 5790.0, 5573.0, 5746.0, 5764.0, 5632.0, 5622.0, 5664.0, 5655.0, 5656.0, 5593.0], 'gpu_copy_tree_from:': [14.0, 14.0, 15.0, 14.0, 14.0, 14.0, 14.0, 14.0, 14.0, 14.0, 14.0, 14.0, 13.0, 14.0], 'gpu_copy_tree_to:': [15.0, 16.0, 15.0, 16.0, 16.0, 16.0, 16.0, 16.0, 16.0, 16.0, 16.0, 16.0, 16.0, 16.0], 'construct_tree:': [1739.0, 1734.0, 1740.0, 1735.0, 1738.0, 1734.0, 1740.0, 1733.0, 1741.0, 1735.0, 1729.0, 1733.0, 1731.0, 1735.0], 'init_kernel:': [2769.0, 2561.0, 2730.0, 2590.0, 2775.0, 2558.0, 2730.0, 2751.0, 2618.0, 2606.0, 2648.0, 2635.0, 2641.0, 2581.0], 'gpu_build_tree:': [21.0, 23.0, 23.0, 22.0, 23.0, 22.0, 23.0, 23.0, 21.0, 23.0, 21.0, 23.0, 22.0, 23.0], 'kernel:': [2961.0, 2964.0, 2963.0, 2964.0, 2963.0, 2964.0, 2963.0, 2960.0, 2963.0, 2963.0, 2964.0, 2967.0, 2964.0, 2959.0], 'sort:': [873.0, 867.0, 875.0, 867.0, 874.0, 867.0, 875.0, 866.0, 875.0, 866.0, 865.0, 866.0, 867.0, 867.0], 'runtime:': [7519.0, 7312.0, 7486.0, 7340.0, 7528.0, 7308.0, 7486.0, 7497.0, 7372.0, 7357.0, 7393.0, 7387.0, 7386.0, 7328.0]}
configuration: sort_flag=1, check_flag = 0, verbose_flag=0, K=8, input_file=../../../input/pc/random.7d, npoints=200000, nsearchpoints=200000
@ construct_tree: 1737 ms
@ gpu_build_tree: 21 ms
@ init_kernel: 2678 ms
@ gpu_copy_tree_to: 19 ms
@ kernel: 2964 ms
@ sort: 873 ms
@ gpu_copy_tree_from: 19 ms
@ traversal_time: 5700 ms
@ runtime: 7438 ms
Collected results into ../../../results/tmp/knn_Original_Lockstep_random.7d_sorted.stats

