Results wll be collected to ../../../results/tmp/knn_FSM_Lockstep_random.7d_sorted.stats...
configuration: sort_flag=1, check_flag = 0, verbose_flag=0, K=8, input_file=../../../input/pc/random.7d, npoints=200000, nsearchpoints=200000
GPU root id -> 99999
@ construct_tree: 1735 ms
@ gpu_build_tree: 21 ms
@ init_kernel: 2712 ms
@ gpu_copy_tree_to: 16 ms
@ kernel: 1891 ms
@ sort: 870 ms
@ gpu_copy_tree_from: 13 ms
@ traversal_time: 4653 ms
@ runtime: 6388 ms
Collected results into ../../../results/tmp/knn_FSM_Lockstep_random.7d_sorted.stats

Loading data from ../../../results/tmp/knn_FSM_Lockstep_random.7d_sorted.stats...
{'traversal_time:': [4653.0], 'gpu_copy_tree_from:': [13.0], 'gpu_copy_tree_to:': [16.0], 'construct_tree:': [1735.0], 'init_kernel:': [2712.0], 'gpu_build_tree:': [21.0], 'kernel:': [1891.0], 'sort:': [870.0], 'runtime:': [6388.0]}
configuration: sort_flag=1, check_flag = 0, verbose_flag=0, K=8, input_file=../../../input/pc/random.7d, npoints=200000, nsearchpoints=200000
GPU root id -> 99999
@ construct_tree: 1736 ms
@ gpu_build_tree: 21 ms
@ init_kernel: 2643 ms
@ gpu_copy_tree_to: 16 ms
@ kernel: 1889 ms
@ sort: 869 ms
@ gpu_copy_tree_from: 14 ms
@ traversal_time: 4583 ms
@ runtime: 6319 ms
Collected results into ../../../results/tmp/knn_FSM_Lockstep_random.7d_sorted.stats

Loading data from ../../../results/tmp/knn_FSM_Lockstep_random.7d_sorted.stats...
{'traversal_time:': [4653.0, 4583.0], 'gpu_copy_tree_from:': [13.0, 14.0], 'gpu_copy_tree_to:': [16.0, 16.0], 'construct_tree:': [1735.0, 1736.0], 'init_kernel:': [2712.0, 2643.0], 'gpu_build_tree:': [21.0, 21.0], 'kernel:': [1891.0, 1889.0], 'sort:': [870.0, 869.0], 'runtime:': [6388.0, 6319.0]}
configuration: sort_flag=1, check_flag = 0, verbose_flag=0, K=8, input_file=../../../input/pc/random.7d, npoints=200000, nsearchpoints=200000
GPU root id -> 99999
@ construct_tree: 1739 ms
@ gpu_build_tree: 21 ms
@ init_kernel: 2637 ms
@ gpu_copy_tree_to: 17 ms
@ kernel: 1893 ms
@ sort: 870 ms
@ gpu_copy_tree_from: 14 ms
@ traversal_time: 4582 ms
@ runtime: 6321 ms
Collected results into ../../../results/tmp/knn_FSM_Lockstep_random.7d_sorted.stats

Loading data from ../../../results/tmp/knn_FSM_Lockstep_random.7d_sorted.stats...
{'traversal_time:': [4653.0, 4583.0, 4582.0], 'gpu_copy_tree_from:': [13.0, 14.0, 14.0], 'gpu_copy_tree_to:': [16.0, 16.0, 17.0], 'construct_tree:': [1735.0, 1736.0, 1739.0], 'init_kernel:': [2712.0, 2643.0, 2637.0], 'gpu_build_tree:': [21.0, 21.0, 21.0], 'kernel:': [1891.0, 1889.0, 1893.0], 'sort:': [870.0, 869.0, 870.0], 'runtime:': [6388.0, 6319.0, 6321.0]}
configuration: sort_flag=1, check_flag = 0, verbose_flag=0, K=8, input_file=../../../input/pc/random.7d, npoints=200000, nsearchpoints=200000
GPU root id -> 99999
@ construct_tree: 1735 ms
@ gpu_build_tree: 21 ms
@ init_kernel: 2665 ms
@ gpu_copy_tree_to: 22 ms
@ kernel: 1893 ms
@ sort: 869 ms
@ gpu_copy_tree_from: 16 ms
@ traversal_time: 4617 ms
@ runtime: 6352 ms
Collected results into ../../../results/tmp/knn_FSM_Lockstep_random.7d_sorted.stats

Loading data from ../../../results/tmp/knn_FSM_Lockstep_random.7d_sorted.stats...
{'traversal_time:': [4653.0, 4583.0, 4582.0, 4617.0], 'gpu_copy_tree_from:': [13.0, 14.0, 14.0, 16.0], 'gpu_copy_tree_to:': [16.0, 16.0, 17.0, 22.0], 'construct_tree:': [1735.0, 1736.0, 1739.0, 1735.0], 'init_kernel:': [2712.0, 2643.0, 2637.0, 2665.0], 'gpu_build_tree:': [21.0, 21.0, 21.0, 21.0], 'kernel:': [1891.0, 1889.0, 1893.0, 1893.0], 'sort:': [870.0, 869.0, 870.0, 869.0], 'runtime:': [6388.0, 6319.0, 6321.0, 6352.0]}
configuration: sort_flag=1, check_flag = 0, verbose_flag=0, K=8, input_file=../../../input/pc/random.7d, npoints=200000, nsearchpoints=200000
GPU root id -> 99999
@ construct_tree: 1735 ms
@ gpu_build_tree: 21 ms
@ init_kernel: 2569 ms
@ gpu_copy_tree_to: 15 ms
@ kernel: 1890 ms
@ sort: 870 ms
@ gpu_copy_tree_from: 13 ms
@ traversal_time: 4509 ms
@ runtime: 6244 ms
Collected results into ../../../results/tmp/knn_FSM_Lockstep_random.7d_sorted.stats

Loading data from ../../../results/tmp/knn_FSM_Lockstep_random.7d_sorted.stats...
{'traversal_time:': [4653.0, 4583.0, 4582.0, 4617.0, 4509.0], 'gpu_copy_tree_from:': [13.0, 14.0, 14.0, 16.0, 13.0], 'gpu_copy_tree_to:': [16.0, 16.0, 17.0, 22.0, 15.0], 'construct_tree:': [1735.0, 1736.0, 1739.0, 1735.0, 1735.0], 'init_kernel:': [2712.0, 2643.0, 2637.0, 2665.0, 2569.0], 'gpu_build_tree:': [21.0, 21.0, 21.0, 21.0, 21.0], 'kernel:': [1891.0, 1889.0, 1893.0, 1893.0, 1890.0], 'sort:': [870.0, 869.0, 870.0, 869.0, 870.0], 'runtime:': [6388.0, 6319.0, 6321.0, 6352.0, 6244.0]}
configuration: sort_flag=1, check_flag = 0, verbose_flag=0, K=8, input_file=../../../input/pc/random.7d, npoints=200000, nsearchpoints=200000
GPU root id -> 99999
@ construct_tree: 1739 ms
@ gpu_build_tree: 22 ms
@ init_kernel: 2643 ms
@ gpu_copy_tree_to: 16 ms
@ kernel: 1891 ms
@ sort: 874 ms
@ gpu_copy_tree_from: 13 ms
@ traversal_time: 4584 ms
@ runtime: 6324 ms
Collected results into ../../../results/tmp/knn_FSM_Lockstep_random.7d_sorted.stats

Loading data from ../../../results/tmp/knn_FSM_Lockstep_random.7d_sorted.stats...
{'traversal_time:': [4653.0, 4583.0, 4582.0, 4617.0, 4509.0, 4584.0], 'gpu_copy_tree_from:': [13.0, 14.0, 14.0, 16.0, 13.0, 13.0], 'gpu_copy_tree_to:': [16.0, 16.0, 17.0, 22.0, 15.0, 16.0], 'construct_tree:': [1735.0, 1736.0, 1739.0, 1735.0, 1735.0, 1739.0], 'init_kernel:': [2712.0, 2643.0, 2637.0, 2665.0, 2569.0, 2643.0], 'gpu_build_tree:': [21.0, 21.0, 21.0, 21.0, 21.0, 22.0], 'kernel:': [1891.0, 1889.0, 1893.0, 1893.0, 1890.0, 1891.0], 'sort:': [870.0, 869.0, 870.0, 869.0, 870.0, 874.0], 'runtime:': [6388.0, 6319.0, 6321.0, 6352.0, 6244.0, 6324.0]}
configuration: sort_flag=1, check_flag = 0, verbose_flag=0, K=8, input_file=../../../input/pc/random.7d, npoints=200000, nsearchpoints=200000
GPU root id -> 99999
@ construct_tree: 1738 ms
@ gpu_build_tree: 21 ms
@ init_kernel: 2578 ms
@ gpu_copy_tree_to: 16 ms
@ kernel: 1892 ms
@ sort: 869 ms
@ gpu_copy_tree_from: 13 ms
@ traversal_time: 4520 ms
@ runtime: 6257 ms
Collected results into ../../../results/tmp/knn_FSM_Lockstep_random.7d_sorted.stats

Loading data from ../../../results/tmp/knn_FSM_Lockstep_random.7d_sorted.stats...
{'traversal_time:': [4653.0, 4583.0, 4582.0, 4617.0, 4509.0, 4584.0, 4520.0], 'gpu_copy_tree_from:': [13.0, 14.0, 14.0, 16.0, 13.0, 13.0, 13.0], 'gpu_copy_tree_to:': [16.0, 16.0, 17.0, 22.0, 15.0, 16.0, 16.0], 'construct_tree:': [1735.0, 1736.0, 1739.0, 1735.0, 1735.0, 1739.0, 1738.0], 'init_kernel:': [2712.0, 2643.0, 2637.0, 2665.0, 2569.0, 2643.0, 2578.0], 'gpu_build_tree:': [21.0, 21.0, 21.0, 21.0, 21.0, 22.0, 21.0], 'kernel:': [1891.0, 1889.0, 1893.0, 1893.0, 1890.0, 1891.0, 1892.0], 'sort:': [870.0, 869.0, 870.0, 869.0, 870.0, 874.0, 869.0], 'runtime:': [6388.0, 6319.0, 6321.0, 6352.0, 6244.0, 6324.0, 6257.0]}
configuration: sort_flag=1, check_flag = 0, verbose_flag=0, K=8, input_file=../../../input/pc/random.7d, npoints=200000, nsearchpoints=200000
GPU root id -> 99999
@ construct_tree: 1744 ms
@ gpu_build_tree: 22 ms
@ init_kernel: 2806 ms
@ gpu_copy_tree_to: 15 ms
@ kernel: 1894 ms
@ sort: 877 ms
@ gpu_copy_tree_from: 14 ms
@ traversal_time: 4751 ms
@ runtime: 6495 ms
Collected results into ../../../results/tmp/knn_FSM_Lockstep_random.7d_sorted.stats

Loading data from ../../../results/tmp/knn_FSM_Lockstep_random.7d_sorted.stats...
{'traversal_time:': [4653.0, 4583.0, 4582.0, 4617.0, 4509.0, 4584.0, 4520.0, 4751.0], 'gpu_copy_tree_from:': [13.0, 14.0, 14.0, 16.0, 13.0, 13.0, 13.0, 14.0], 'gpu_copy_tree_to:': [16.0, 16.0, 17.0, 22.0, 15.0, 16.0, 16.0, 15.0], 'construct_tree:': [1735.0, 1736.0, 1739.0, 1735.0, 1735.0, 1739.0, 1738.0, 1744.0], 'init_kernel:': [2712.0, 2643.0, 2637.0, 2665.0, 2569.0, 2643.0, 2578.0, 2806.0], 'gpu_build_tree:': [21.0, 21.0, 21.0, 21.0, 21.0, 22.0, 21.0, 22.0], 'kernel:': [1891.0, 1889.0, 1893.0, 1893.0, 1890.0, 1891.0, 1892.0, 1894.0], 'sort:': [870.0, 869.0, 870.0, 869.0, 870.0, 874.0, 869.0, 877.0], 'runtime:': [6388.0, 6319.0, 6321.0, 6352.0, 6244.0, 6324.0, 6257.0, 6495.0]}
configuration: sort_flag=1, check_flag = 0, verbose_flag=0, K=8, input_file=../../../input/pc/random.7d, npoints=200000, nsearchpoints=200000
GPU root id -> 99999
@ construct_tree: 1737 ms
@ gpu_build_tree: 22 ms
@ init_kernel: 2566 ms
@ gpu_copy_tree_to: 15 ms
@ kernel: 1892 ms
@ sort: 868 ms
@ gpu_copy_tree_from: 13 ms
@ traversal_time: 4509 ms
@ runtime: 6246 ms
Collected results into ../../../results/tmp/knn_FSM_Lockstep_random.7d_sorted.stats

Loading data from ../../../results/tmp/knn_FSM_Lockstep_random.7d_sorted.stats...
{'traversal_time:': [4653.0, 4583.0, 4582.0, 4617.0, 4509.0, 4584.0, 4520.0, 4751.0, 4509.0], 'gpu_copy_tree_from:': [13.0, 14.0, 14.0, 16.0, 13.0, 13.0, 13.0, 14.0, 13.0], 'gpu_copy_tree_to:': [16.0, 16.0, 17.0, 22.0, 15.0, 16.0, 16.0, 15.0, 15.0], 'construct_tree:': [1735.0, 1736.0, 1739.0, 1735.0, 1735.0, 1739.0, 1738.0, 1744.0, 1737.0], 'init_kernel:': [2712.0, 2643.0, 2637.0, 2665.0, 2569.0, 2643.0, 2578.0, 2806.0, 2566.0], 'gpu_build_tree:': [21.0, 21.0, 21.0, 21.0, 21.0, 22.0, 21.0, 22.0, 22.0], 'kernel:': [1891.0, 1889.0, 1893.0, 1893.0, 1890.0, 1891.0, 1892.0, 1894.0, 1892.0], 'sort:': [870.0, 869.0, 870.0, 869.0, 870.0, 874.0, 869.0, 877.0, 868.0], 'runtime:': [6388.0, 6319.0, 6321.0, 6352.0, 6244.0, 6324.0, 6257.0, 6495.0, 6246.0]}
configuration: sort_flag=1, check_flag = 0, verbose_flag=0, K=8, input_file=../../../input/pc/random.7d, npoints=200000, nsearchpoints=200000
GPU root id -> 99999
@ construct_tree: 1735 ms
@ gpu_build_tree: 22 ms
@ init_kernel: 2803 ms
@ gpu_copy_tree_to: 16 ms
@ kernel: 1888 ms
@ sort: 867 ms
@ gpu_copy_tree_from: 14 ms
@ traversal_time: 4744 ms
@ runtime: 6478 ms
Collected results into ../../../results/tmp/knn_FSM_Lockstep_random.7d_sorted.stats

Loading data from ../../../results/tmp/knn_FSM_Lockstep_random.7d_sorted.stats...
{'traversal_time:': [4653.0, 4583.0, 4582.0, 4617.0, 4509.0, 4584.0, 4520.0, 4751.0, 4509.0, 4744.0], 'gpu_copy_tree_from:': [13.0, 14.0, 14.0, 16.0, 13.0, 13.0, 13.0, 14.0, 13.0, 14.0], 'gpu_copy_tree_to:': [16.0, 16.0, 17.0, 22.0, 15.0, 16.0, 16.0, 15.0, 15.0, 16.0], 'construct_tree:': [1735.0, 1736.0, 1739.0, 1735.0, 1735.0, 1739.0, 1738.0, 1744.0, 1737.0, 1735.0], 'init_kernel:': [2712.0, 2643.0, 2637.0, 2665.0, 2569.0, 2643.0, 2578.0, 2806.0, 2566.0, 2803.0], 'gpu_build_tree:': [21.0, 21.0, 21.0, 21.0, 21.0, 22.0, 21.0, 22.0, 22.0, 22.0], 'kernel:': [1891.0, 1889.0, 1893.0, 1893.0, 1890.0, 1891.0, 1892.0, 1894.0, 1892.0, 1888.0], 'sort:': [870.0, 869.0, 870.0, 869.0, 870.0, 874.0, 869.0, 877.0, 868.0, 867.0], 'runtime:': [6388.0, 6319.0, 6321.0, 6352.0, 6244.0, 6324.0, 6257.0, 6495.0, 6246.0, 6478.0]}
configuration: sort_flag=1, check_flag = 0, verbose_flag=0, K=8, input_file=../../../input/pc/random.7d, npoints=200000, nsearchpoints=200000
GPU root id -> 99999
@ construct_tree: 1735 ms
@ gpu_build_tree: 21 ms
@ init_kernel: 2627 ms
@ gpu_copy_tree_to: 15 ms
@ kernel: 1892 ms
@ sort: 867 ms
@ gpu_copy_tree_from: 13 ms
@ traversal_time: 4568 ms
@ runtime: 6302 ms
Collected results into ../../../results/tmp/knn_FSM_Lockstep_random.7d_sorted.stats

Loading data from ../../../results/tmp/knn_FSM_Lockstep_random.7d_sorted.stats...
{'traversal_time:': [4653.0, 4583.0, 4582.0, 4617.0, 4509.0, 4584.0, 4520.0, 4751.0, 4509.0, 4744.0, 4568.0], 'gpu_copy_tree_from:': [13.0, 14.0, 14.0, 16.0, 13.0, 13.0, 13.0, 14.0, 13.0, 14.0, 13.0], 'gpu_copy_tree_to:': [16.0, 16.0, 17.0, 22.0, 15.0, 16.0, 16.0, 15.0, 15.0, 16.0, 15.0], 'construct_tree:': [1735.0, 1736.0, 1739.0, 1735.0, 1735.0, 1739.0, 1738.0, 1744.0, 1737.0, 1735.0, 1735.0], 'init_kernel:': [2712.0, 2643.0, 2637.0, 2665.0, 2569.0, 2643.0, 2578.0, 2806.0, 2566.0, 2803.0, 2627.0], 'gpu_build_tree:': [21.0, 21.0, 21.0, 21.0, 21.0, 22.0, 21.0, 22.0, 22.0, 22.0, 21.0], 'kernel:': [1891.0, 1889.0, 1893.0, 1893.0, 1890.0, 1891.0, 1892.0, 1894.0, 1892.0, 1888.0, 1892.0], 'sort:': [870.0, 869.0, 870.0, 869.0, 870.0, 874.0, 869.0, 877.0, 868.0, 867.0, 867.0], 'runtime:': [6388.0, 6319.0, 6321.0, 6352.0, 6244.0, 6324.0, 6257.0, 6495.0, 6246.0, 6478.0, 6302.0]}
configuration: sort_flag=1, check_flag = 0, verbose_flag=0, K=8, input_file=../../../input/pc/random.7d, npoints=200000, nsearchpoints=200000
GPU root id -> 99999
@ construct_tree: 1742 ms
@ gpu_build_tree: 21 ms
@ init_kernel: 2578 ms
@ gpu_copy_tree_to: 18 ms
@ kernel: 1891 ms
@ sort: 874 ms
@ gpu_copy_tree_from: 18 ms
@ traversal_time: 4526 ms
@ runtime: 6269 ms
Collected results into ../../../results/tmp/knn_FSM_Lockstep_random.7d_sorted.stats

Loading data from ../../../results/tmp/knn_FSM_Lockstep_random.7d_sorted.stats...
{'traversal_time:': [4653.0, 4583.0, 4582.0, 4617.0, 4509.0, 4584.0, 4520.0, 4751.0, 4509.0, 4744.0, 4568.0, 4526.0], 'gpu_copy_tree_from:': [13.0, 14.0, 14.0, 16.0, 13.0, 13.0, 13.0, 14.0, 13.0, 14.0, 13.0, 18.0], 'gpu_copy_tree_to:': [16.0, 16.0, 17.0, 22.0, 15.0, 16.0, 16.0, 15.0, 15.0, 16.0, 15.0, 18.0], 'construct_tree:': [1735.0, 1736.0, 1739.0, 1735.0, 1735.0, 1739.0, 1738.0, 1744.0, 1737.0, 1735.0, 1735.0, 1742.0], 'init_kernel:': [2712.0, 2643.0, 2637.0, 2665.0, 2569.0, 2643.0, 2578.0, 2806.0, 2566.0, 2803.0, 2627.0, 2578.0], 'gpu_build_tree:': [21.0, 21.0, 21.0, 21.0, 21.0, 22.0, 21.0, 22.0, 22.0, 22.0, 21.0, 21.0], 'kernel:': [1891.0, 1889.0, 1893.0, 1893.0, 1890.0, 1891.0, 1892.0, 1894.0, 1892.0, 1888.0, 1892.0, 1891.0], 'sort:': [870.0, 869.0, 870.0, 869.0, 870.0, 874.0, 869.0, 877.0, 868.0, 867.0, 867.0, 874.0], 'runtime:': [6388.0, 6319.0, 6321.0, 6352.0, 6244.0, 6324.0, 6257.0, 6495.0, 6246.0, 6478.0, 6302.0, 6269.0]}
configuration: sort_flag=1, check_flag = 0, verbose_flag=0, K=8, input_file=../../../input/pc/random.7d, npoints=200000, nsearchpoints=200000
GPU root id -> 99999
@ construct_tree: 1737 ms
@ gpu_build_tree: 22 ms
@ init_kernel: 2738 ms
@ gpu_copy_tree_to: 15 ms
@ kernel: 1892 ms
@ sort: 869 ms
@ gpu_copy_tree_from: 13 ms
@ traversal_time: 4680 ms
@ runtime: 6418 ms
Collected results into ../../../results/tmp/knn_FSM_Lockstep_random.7d_sorted.stats

Loading data from ../../../results/tmp/knn_FSM_Lockstep_random.7d_sorted.stats...
{'traversal_time:': [4653.0, 4583.0, 4582.0, 4617.0, 4509.0, 4584.0, 4520.0, 4751.0, 4509.0, 4744.0, 4568.0, 4526.0, 4680.0], 'gpu_copy_tree_from:': [13.0, 14.0, 14.0, 16.0, 13.0, 13.0, 13.0, 14.0, 13.0, 14.0, 13.0, 18.0, 13.0], 'gpu_copy_tree_to:': [16.0, 16.0, 17.0, 22.0, 15.0, 16.0, 16.0, 15.0, 15.0, 16.0, 15.0, 18.0, 15.0], 'construct_tree:': [1735.0, 1736.0, 1739.0, 1735.0, 1735.0, 1739.0, 1738.0, 1744.0, 1737.0, 1735.0, 1735.0, 1742.0, 1737.0], 'init_kernel:': [2712.0, 2643.0, 2637.0, 2665.0, 2569.0, 2643.0, 2578.0, 2806.0, 2566.0, 2803.0, 2627.0, 2578.0, 2738.0], 'gpu_build_tree:': [21.0, 21.0, 21.0, 21.0, 21.0, 22.0, 21.0, 22.0, 22.0, 22.0, 21.0, 21.0, 22.0], 'kernel:': [1891.0, 1889.0, 1893.0, 1893.0, 1890.0, 1891.0, 1892.0, 1894.0, 1892.0, 1888.0, 1892.0, 1891.0, 1892.0], 'sort:': [870.0, 869.0, 870.0, 869.0, 870.0, 874.0, 869.0, 877.0, 868.0, 867.0, 867.0, 874.0, 869.0], 'runtime:': [6388.0, 6319.0, 6321.0, 6352.0, 6244.0, 6324.0, 6257.0, 6495.0, 6246.0, 6478.0, 6302.0, 6269.0, 6418.0]}
configuration: sort_flag=1, check_flag = 0, verbose_flag=0, K=8, input_file=../../../input/pc/random.7d, npoints=200000, nsearchpoints=200000
GPU root id -> 99999
@ construct_tree: 1740 ms
@ gpu_build_tree: 21 ms
@ init_kernel: 2640 ms
@ gpu_copy_tree_to: 15 ms
@ kernel: 1891 ms
@ sort: 875 ms
@ gpu_copy_tree_from: 15 ms
@ traversal_time: 4582 ms
@ runtime: 6322 ms
Collected results into ../../../results/tmp/knn_FSM_Lockstep_random.7d_sorted.stats

Loading data from ../../../results/tmp/knn_FSM_Lockstep_random.7d_sorted.stats...
{'traversal_time:': [4653.0, 4583.0, 4582.0, 4617.0, 4509.0, 4584.0, 4520.0, 4751.0, 4509.0, 4744.0, 4568.0, 4526.0, 4680.0, 4582.0], 'gpu_copy_tree_from:': [13.0, 14.0, 14.0, 16.0, 13.0, 13.0, 13.0, 14.0, 13.0, 14.0, 13.0, 18.0, 13.0, 15.0], 'gpu_copy_tree_to:': [16.0, 16.0, 17.0, 22.0, 15.0, 16.0, 16.0, 15.0, 15.0, 16.0, 15.0, 18.0, 15.0, 15.0], 'construct_tree:': [1735.0, 1736.0, 1739.0, 1735.0, 1735.0, 1739.0, 1738.0, 1744.0, 1737.0, 1735.0, 1735.0, 1742.0, 1737.0, 1740.0], 'init_kernel:': [2712.0, 2643.0, 2637.0, 2665.0, 2569.0, 2643.0, 2578.0, 2806.0, 2566.0, 2803.0, 2627.0, 2578.0, 2738.0, 2640.0], 'gpu_build_tree:': [21.0, 21.0, 21.0, 21.0, 21.0, 22.0, 21.0, 22.0, 22.0, 22.0, 21.0, 21.0, 22.0, 21.0], 'kernel:': [1891.0, 1889.0, 1893.0, 1893.0, 1890.0, 1891.0, 1892.0, 1894.0, 1892.0, 1888.0, 1892.0, 1891.0, 1892.0, 1891.0], 'sort:': [870.0, 869.0, 870.0, 869.0, 870.0, 874.0, 869.0, 877.0, 868.0, 867.0, 867.0, 874.0, 869.0, 875.0], 'runtime:': [6388.0, 6319.0, 6321.0, 6352.0, 6244.0, 6324.0, 6257.0, 6495.0, 6246.0, 6478.0, 6302.0, 6269.0, 6418.0, 6322.0]}
configuration: sort_flag=1, check_flag = 0, verbose_flag=0, K=8, input_file=../../../input/pc/random.7d, npoints=200000, nsearchpoints=200000
GPU root id -> 99999
@ construct_tree: 1736 ms
@ gpu_build_tree: 21 ms
@ init_kernel: 2628 ms
@ gpu_copy_tree_to: 15 ms
@ kernel: 1893 ms
@ sort: 868 ms
@ gpu_copy_tree_from: 14 ms
@ traversal_time: 4571 ms
@ runtime: 6307 ms
Collected results into ../../../results/tmp/knn_FSM_Lockstep_random.7d_sorted.stats

