Results wll be collected to ../../../results/tmp/knn_Original_Lockstep_geocity.txt_sorted.stats...
configuration: sort_flag=1, check_flag = 0, verbose_flag=0, K=8, input_file=../../../input/pc/geocity.txt, npoints=200000, nsearchpoints=200000
@ construct_tree: 1982 ms
@ gpu_build_tree: 10 ms
@ init_kernel: 2562 ms
@ gpu_copy_tree_to: 11 ms
@ kernel: 100 ms
@ sort: 992 ms
@ gpu_copy_tree_from: 25 ms
@ traversal_time: 2710 ms
@ runtime: 4692 ms
Collected results into ../../../results/tmp/knn_Original_Lockstep_geocity.txt_sorted.stats

Loading data from ../../../results/tmp/knn_Original_Lockstep_geocity.txt_sorted.stats...
{'traversal_time:': [2710.0], 'gpu_copy_tree_from:': [25.0], 'gpu_copy_tree_to:': [11.0], 'construct_tree:': [1982.0], 'init_kernel:': [2562.0], 'gpu_build_tree:': [10.0], 'kernel:': [100.0], 'sort:': [992.0], 'runtime:': [4692.0]}
configuration: sort_flag=1, check_flag = 0, verbose_flag=0, K=8, input_file=../../../input/pc/geocity.txt, npoints=200000, nsearchpoints=200000
@ construct_tree: 1983 ms
@ gpu_build_tree: 11 ms
@ init_kernel: 2690 ms
@ gpu_copy_tree_to: 10 ms
@ kernel: 100 ms
@ sort: 992 ms
@ gpu_copy_tree_from: 17 ms
@ traversal_time: 2828 ms
@ runtime: 4811 ms
Collected results into ../../../results/tmp/knn_Original_Lockstep_geocity.txt_sorted.stats

Loading data from ../../../results/tmp/knn_Original_Lockstep_geocity.txt_sorted.stats...
{'traversal_time:': [2710.0, 2828.0], 'gpu_copy_tree_from:': [25.0, 17.0], 'gpu_copy_tree_to:': [11.0, 10.0], 'construct_tree:': [1982.0, 1983.0], 'init_kernel:': [2562.0, 2690.0], 'gpu_build_tree:': [10.0, 11.0], 'kernel:': [100.0, 100.0], 'sort:': [992.0, 992.0], 'runtime:': [4692.0, 4811.0]}
configuration: sort_flag=1, check_flag = 0, verbose_flag=0, K=8, input_file=../../../input/pc/geocity.txt, npoints=200000, nsearchpoints=200000
@ construct_tree: 1989 ms
@ gpu_build_tree: 11 ms
@ init_kernel: 2603 ms
@ gpu_copy_tree_to: 11 ms
@ kernel: 100 ms
@ sort: 995 ms
@ gpu_copy_tree_from: 22 ms
@ traversal_time: 2746 ms
@ runtime: 4735 ms
Collected results into ../../../results/tmp/knn_Original_Lockstep_geocity.txt_sorted.stats

Loading data from ../../../results/tmp/knn_Original_Lockstep_geocity.txt_sorted.stats...
{'traversal_time:': [2710.0, 2828.0, 2746.0], 'gpu_copy_tree_from:': [25.0, 17.0, 22.0], 'gpu_copy_tree_to:': [11.0, 10.0, 11.0], 'construct_tree:': [1982.0, 1983.0, 1989.0], 'init_kernel:': [2562.0, 2690.0, 2603.0], 'gpu_build_tree:': [10.0, 11.0, 11.0], 'kernel:': [100.0, 100.0, 100.0], 'sort:': [992.0, 992.0, 995.0], 'runtime:': [4692.0, 4811.0, 4735.0]}
configuration: sort_flag=1, check_flag = 0, verbose_flag=0, K=8, input_file=../../../input/pc/geocity.txt, npoints=200000, nsearchpoints=200000
@ construct_tree: 1983 ms
@ gpu_build_tree: 10 ms
@ init_kernel: 2650 ms
@ gpu_copy_tree_to: 11 ms
@ kernel: 100 ms
@ sort: 994 ms
@ gpu_copy_tree_from: 22 ms
@ traversal_time: 2793 ms
@ runtime: 4776 ms
Collected results into ../../../results/tmp/knn_Original_Lockstep_geocity.txt_sorted.stats

Loading data from ../../../results/tmp/knn_Original_Lockstep_geocity.txt_sorted.stats...
{'traversal_time:': [2710.0, 2828.0, 2746.0, 2793.0], 'gpu_copy_tree_from:': [25.0, 17.0, 22.0, 22.0], 'gpu_copy_tree_to:': [11.0, 10.0, 11.0, 11.0], 'construct_tree:': [1982.0, 1983.0, 1989.0, 1983.0], 'init_kernel:': [2562.0, 2690.0, 2603.0, 2650.0], 'gpu_build_tree:': [10.0, 11.0, 11.0, 10.0], 'kernel:': [100.0, 100.0, 100.0, 100.0], 'sort:': [992.0, 992.0, 995.0, 994.0], 'runtime:': [4692.0, 4811.0, 4735.0, 4776.0]}
configuration: sort_flag=1, check_flag = 0, verbose_flag=0, K=8, input_file=../../../input/pc/geocity.txt, npoints=200000, nsearchpoints=200000
@ construct_tree: 1983 ms
@ gpu_build_tree: 10 ms
@ init_kernel: 2714 ms
@ gpu_copy_tree_to: 13 ms
@ kernel: 100 ms
@ sort: 993 ms
@ gpu_copy_tree_from: 26 ms
@ traversal_time: 2864 ms
@ runtime: 4847 ms
Collected results into ../../../results/tmp/knn_Original_Lockstep_geocity.txt_sorted.stats

Loading data from ../../../results/tmp/knn_Original_Lockstep_geocity.txt_sorted.stats...
{'traversal_time:': [2710.0, 2828.0, 2746.0, 2793.0, 2864.0], 'gpu_copy_tree_from:': [25.0, 17.0, 22.0, 22.0, 26.0], 'gpu_copy_tree_to:': [11.0, 10.0, 11.0, 11.0, 13.0], 'construct_tree:': [1982.0, 1983.0, 1989.0, 1983.0, 1983.0], 'init_kernel:': [2562.0, 2690.0, 2603.0, 2650.0, 2714.0], 'gpu_build_tree:': [10.0, 11.0, 11.0, 10.0, 10.0], 'kernel:': [100.0, 100.0, 100.0, 100.0, 100.0], 'sort:': [992.0, 992.0, 995.0, 994.0, 993.0], 'runtime:': [4692.0, 4811.0, 4735.0, 4776.0, 4847.0]}
configuration: sort_flag=1, check_flag = 0, verbose_flag=0, K=8, input_file=../../../input/pc/geocity.txt, npoints=200000, nsearchpoints=200000
@ construct_tree: 1989 ms
@ gpu_build_tree: 11 ms
@ init_kernel: 2612 ms
@ gpu_copy_tree_to: 11 ms
@ kernel: 102 ms
@ sort: 996 ms
@ gpu_copy_tree_from: 22 ms
@ traversal_time: 2756 ms
@ runtime: 4745 ms
Collected results into ../../../results/tmp/knn_Original_Lockstep_geocity.txt_sorted.stats

Loading data from ../../../results/tmp/knn_Original_Lockstep_geocity.txt_sorted.stats...
{'traversal_time:': [2710.0, 2828.0, 2746.0, 2793.0, 2864.0, 2756.0], 'gpu_copy_tree_from:': [25.0, 17.0, 22.0, 22.0, 26.0, 22.0], 'gpu_copy_tree_to:': [11.0, 10.0, 11.0, 11.0, 13.0, 11.0], 'construct_tree:': [1982.0, 1983.0, 1989.0, 1983.0, 1983.0, 1989.0], 'init_kernel:': [2562.0, 2690.0, 2603.0, 2650.0, 2714.0, 2612.0], 'gpu_build_tree:': [10.0, 11.0, 11.0, 10.0, 10.0, 11.0], 'kernel:': [100.0, 100.0, 100.0, 100.0, 100.0, 102.0], 'sort:': [992.0, 992.0, 995.0, 994.0, 993.0, 996.0], 'runtime:': [4692.0, 4811.0, 4735.0, 4776.0, 4847.0, 4745.0]}
configuration: sort_flag=1, check_flag = 0, verbose_flag=0, K=8, input_file=../../../input/pc/geocity.txt, npoints=200000, nsearchpoints=200000
@ construct_tree: 1982 ms
@ gpu_build_tree: 11 ms
@ init_kernel: 2662 ms
@ gpu_copy_tree_to: 11 ms
@ kernel: 100 ms
@ sort: 992 ms
@ gpu_copy_tree_from: 22 ms
@ traversal_time: 2806 ms
@ runtime: 4788 ms
Collected results into ../../../results/tmp/knn_Original_Lockstep_geocity.txt_sorted.stats

Loading data from ../../../results/tmp/knn_Original_Lockstep_geocity.txt_sorted.stats...
{'traversal_time:': [2710.0, 2828.0, 2746.0, 2793.0, 2864.0, 2756.0, 2806.0], 'gpu_copy_tree_from:': [25.0, 17.0, 22.0, 22.0, 26.0, 22.0, 22.0], 'gpu_copy_tree_to:': [11.0, 10.0, 11.0, 11.0, 13.0, 11.0, 11.0], 'construct_tree:': [1982.0, 1983.0, 1989.0, 1983.0, 1983.0, 1989.0, 1982.0], 'init_kernel:': [2562.0, 2690.0, 2603.0, 2650.0, 2714.0, 2612.0, 2662.0], 'gpu_build_tree:': [10.0, 11.0, 11.0, 10.0, 10.0, 11.0, 11.0], 'kernel:': [100.0, 100.0, 100.0, 100.0, 100.0, 102.0, 100.0], 'sort:': [992.0, 992.0, 995.0, 994.0, 993.0, 996.0, 992.0], 'runtime:': [4692.0, 4811.0, 4735.0, 4776.0, 4847.0, 4745.0, 4788.0]}
configuration: sort_flag=1, check_flag = 0, verbose_flag=0, K=8, input_file=../../../input/pc/geocity.txt, npoints=200000, nsearchpoints=200000
@ construct_tree: 1981 ms
@ gpu_build_tree: 10 ms
@ init_kernel: 2675 ms
@ gpu_copy_tree_to: 10 ms
@ kernel: 101 ms
@ sort: 992 ms
@ gpu_copy_tree_from: 23 ms
@ traversal_time: 2819 ms
@ runtime: 4800 ms
Collected results into ../../../results/tmp/knn_Original_Lockstep_geocity.txt_sorted.stats

Loading data from ../../../results/tmp/knn_Original_Lockstep_geocity.txt_sorted.stats...
{'traversal_time:': [2710.0, 2828.0, 2746.0, 2793.0, 2864.0, 2756.0, 2806.0, 2819.0], 'gpu_copy_tree_from:': [25.0, 17.0, 22.0, 22.0, 26.0, 22.0, 22.0, 23.0], 'gpu_copy_tree_to:': [11.0, 10.0, 11.0, 11.0, 13.0, 11.0, 11.0, 10.0], 'construct_tree:': [1982.0, 1983.0, 1989.0, 1983.0, 1983.0, 1989.0, 1982.0, 1981.0], 'init_kernel:': [2562.0, 2690.0, 2603.0, 2650.0, 2714.0, 2612.0, 2662.0, 2675.0], 'gpu_build_tree:': [10.0, 11.0, 11.0, 10.0, 10.0, 11.0, 11.0, 10.0], 'kernel:': [100.0, 100.0, 100.0, 100.0, 100.0, 102.0, 100.0, 101.0], 'sort:': [992.0, 992.0, 995.0, 994.0, 993.0, 996.0, 992.0, 992.0], 'runtime:': [4692.0, 4811.0, 4735.0, 4776.0, 4847.0, 4745.0, 4788.0, 4800.0]}
configuration: sort_flag=1, check_flag = 0, verbose_flag=0, K=8, input_file=../../../input/pc/geocity.txt, npoints=200000, nsearchpoints=200000
@ construct_tree: 1988 ms
@ gpu_build_tree: 11 ms
@ init_kernel: 2625 ms
@ gpu_copy_tree_to: 11 ms
@ kernel: 101 ms
@ sort: 995 ms
@ gpu_copy_tree_from: 22 ms
@ traversal_time: 2769 ms
@ runtime: 4757 ms
Collected results into ../../../results/tmp/knn_Original_Lockstep_geocity.txt_sorted.stats

Loading data from ../../../results/tmp/knn_Original_Lockstep_geocity.txt_sorted.stats...
{'traversal_time:': [2710.0, 2828.0, 2746.0, 2793.0, 2864.0, 2756.0, 2806.0, 2819.0, 2769.0], 'gpu_copy_tree_from:': [25.0, 17.0, 22.0, 22.0, 26.0, 22.0, 22.0, 23.0, 22.0], 'gpu_copy_tree_to:': [11.0, 10.0, 11.0, 11.0, 13.0, 11.0, 11.0, 10.0, 11.0], 'construct_tree:': [1982.0, 1983.0, 1989.0, 1983.0, 1983.0, 1989.0, 1982.0, 1981.0, 1988.0], 'init_kernel:': [2562.0, 2690.0, 2603.0, 2650.0, 2714.0, 2612.0, 2662.0, 2675.0, 2625.0], 'gpu_build_tree:': [10.0, 11.0, 11.0, 10.0, 10.0, 11.0, 11.0, 10.0, 11.0], 'kernel:': [100.0, 100.0, 100.0, 100.0, 100.0, 102.0, 100.0, 101.0, 101.0], 'sort:': [992.0, 992.0, 995.0, 994.0, 993.0, 996.0, 992.0, 992.0, 995.0], 'runtime:': [4692.0, 4811.0, 4735.0, 4776.0, 4847.0, 4745.0, 4788.0, 4800.0, 4757.0]}
configuration: sort_flag=1, check_flag = 0, verbose_flag=0, K=8, input_file=../../../input/pc/geocity.txt, npoints=200000, nsearchpoints=200000
@ construct_tree: 1985 ms
@ gpu_build_tree: 11 ms
@ init_kernel: 2613 ms
@ gpu_copy_tree_to: 11 ms
@ kernel: 101 ms
@ sort: 994 ms
@ gpu_copy_tree_from: 23 ms
@ traversal_time: 2758 ms
@ runtime: 4743 ms
Collected results into ../../../results/tmp/knn_Original_Lockstep_geocity.txt_sorted.stats

Loading data from ../../../results/tmp/knn_Original_Lockstep_geocity.txt_sorted.stats...
{'traversal_time:': [2710.0, 2828.0, 2746.0, 2793.0, 2864.0, 2756.0, 2806.0, 2819.0, 2769.0, 2758.0], 'gpu_copy_tree_from:': [25.0, 17.0, 22.0, 22.0, 26.0, 22.0, 22.0, 23.0, 22.0, 23.0], 'gpu_copy_tree_to:': [11.0, 10.0, 11.0, 11.0, 13.0, 11.0, 11.0, 10.0, 11.0, 11.0], 'construct_tree:': [1982.0, 1983.0, 1989.0, 1983.0, 1983.0, 1989.0, 1982.0, 1981.0, 1988.0, 1985.0], 'init_kernel:': [2562.0, 2690.0, 2603.0, 2650.0, 2714.0, 2612.0, 2662.0, 2675.0, 2625.0, 2613.0], 'gpu_build_tree:': [10.0, 11.0, 11.0, 10.0, 10.0, 11.0, 11.0, 10.0, 11.0, 11.0], 'kernel:': [100.0, 100.0, 100.0, 100.0, 100.0, 102.0, 100.0, 101.0, 101.0, 101.0], 'sort:': [992.0, 992.0, 995.0, 994.0, 993.0, 996.0, 992.0, 992.0, 995.0, 994.0], 'runtime:': [4692.0, 4811.0, 4735.0, 4776.0, 4847.0, 4745.0, 4788.0, 4800.0, 4757.0, 4743.0]}
configuration: sort_flag=1, check_flag = 0, verbose_flag=0, K=8, input_file=../../../input/pc/geocity.txt, npoints=200000, nsearchpoints=200000
@ construct_tree: 1986 ms
@ gpu_build_tree: 11 ms
@ init_kernel: 2695 ms
@ gpu_copy_tree_to: 11 ms
@ kernel: 100 ms
@ sort: 995 ms
@ gpu_copy_tree_from: 22 ms
@ traversal_time: 2838 ms
@ runtime: 4824 ms
Collected results into ../../../results/tmp/knn_Original_Lockstep_geocity.txt_sorted.stats

Loading data from ../../../results/tmp/knn_Original_Lockstep_geocity.txt_sorted.stats...
{'traversal_time:': [2710.0, 2828.0, 2746.0, 2793.0, 2864.0, 2756.0, 2806.0, 2819.0, 2769.0, 2758.0, 2838.0], 'gpu_copy_tree_from:': [25.0, 17.0, 22.0, 22.0, 26.0, 22.0, 22.0, 23.0, 22.0, 23.0, 22.0], 'gpu_copy_tree_to:': [11.0, 10.0, 11.0, 11.0, 13.0, 11.0, 11.0, 10.0, 11.0, 11.0, 11.0], 'construct_tree:': [1982.0, 1983.0, 1989.0, 1983.0, 1983.0, 1989.0, 1982.0, 1981.0, 1988.0, 1985.0, 1986.0], 'init_kernel:': [2562.0, 2690.0, 2603.0, 2650.0, 2714.0, 2612.0, 2662.0, 2675.0, 2625.0, 2613.0, 2695.0], 'gpu_build_tree:': [10.0, 11.0, 11.0, 10.0, 10.0, 11.0, 11.0, 10.0, 11.0, 11.0, 11.0], 'kernel:': [100.0, 100.0, 100.0, 100.0, 100.0, 102.0, 100.0, 101.0, 101.0, 101.0, 100.0], 'sort:': [992.0, 992.0, 995.0, 994.0, 993.0, 996.0, 992.0, 992.0, 995.0, 994.0, 995.0], 'runtime:': [4692.0, 4811.0, 4735.0, 4776.0, 4847.0, 4745.0, 4788.0, 4800.0, 4757.0, 4743.0, 4824.0]}
configuration: sort_flag=1, check_flag = 0, verbose_flag=0, K=8, input_file=../../../input/pc/geocity.txt, npoints=200000, nsearchpoints=200000
@ construct_tree: 1989 ms
@ gpu_build_tree: 11 ms
@ init_kernel: 2745 ms
@ gpu_copy_tree_to: 11 ms
@ kernel: 101 ms
@ sort: 996 ms
@ gpu_copy_tree_from: 22 ms
@ traversal_time: 2889 ms
@ runtime: 4878 ms
Collected results into ../../../results/tmp/knn_Original_Lockstep_geocity.txt_sorted.stats

Loading data from ../../../results/tmp/knn_Original_Lockstep_geocity.txt_sorted.stats...
{'traversal_time:': [2710.0, 2828.0, 2746.0, 2793.0, 2864.0, 2756.0, 2806.0, 2819.0, 2769.0, 2758.0, 2838.0, 2889.0], 'gpu_copy_tree_from:': [25.0, 17.0, 22.0, 22.0, 26.0, 22.0, 22.0, 23.0, 22.0, 23.0, 22.0, 22.0], 'gpu_copy_tree_to:': [11.0, 10.0, 11.0, 11.0, 13.0, 11.0, 11.0, 10.0, 11.0, 11.0, 11.0, 11.0], 'construct_tree:': [1982.0, 1983.0, 1989.0, 1983.0, 1983.0, 1989.0, 1982.0, 1981.0, 1988.0, 1985.0, 1986.0, 1989.0], 'init_kernel:': [2562.0, 2690.0, 2603.0, 2650.0, 2714.0, 2612.0, 2662.0, 2675.0, 2625.0, 2613.0, 2695.0, 2745.0], 'gpu_build_tree:': [10.0, 11.0, 11.0, 10.0, 10.0, 11.0, 11.0, 10.0, 11.0, 11.0, 11.0, 11.0], 'kernel:': [100.0, 100.0, 100.0, 100.0, 100.0, 102.0, 100.0, 101.0, 101.0, 101.0, 100.0, 101.0], 'sort:': [992.0, 992.0, 995.0, 994.0, 993.0, 996.0, 992.0, 992.0, 995.0, 994.0, 995.0, 996.0], 'runtime:': [4692.0, 4811.0, 4735.0, 4776.0, 4847.0, 4745.0, 4788.0, 4800.0, 4757.0, 4743.0, 4824.0, 4878.0]}
configuration: sort_flag=1, check_flag = 0, verbose_flag=0, K=8, input_file=../../../input/pc/geocity.txt, npoints=200000, nsearchpoints=200000
@ construct_tree: 1981 ms
@ gpu_build_tree: 11 ms
@ init_kernel: 2587 ms
@ gpu_copy_tree_to: 11 ms
@ kernel: 101 ms
@ sort: 993 ms
@ gpu_copy_tree_from: 26 ms
@ traversal_time: 2736 ms
@ runtime: 4717 ms
Collected results into ../../../results/tmp/knn_Original_Lockstep_geocity.txt_sorted.stats

Loading data from ../../../results/tmp/knn_Original_Lockstep_geocity.txt_sorted.stats...
{'traversal_time:': [2710.0, 2828.0, 2746.0, 2793.0, 2864.0, 2756.0, 2806.0, 2819.0, 2769.0, 2758.0, 2838.0, 2889.0, 2736.0], 'gpu_copy_tree_from:': [25.0, 17.0, 22.0, 22.0, 26.0, 22.0, 22.0, 23.0, 22.0, 23.0, 22.0, 22.0, 26.0], 'gpu_copy_tree_to:': [11.0, 10.0, 11.0, 11.0, 13.0, 11.0, 11.0, 10.0, 11.0, 11.0, 11.0, 11.0, 11.0], 'construct_tree:': [1982.0, 1983.0, 1989.0, 1983.0, 1983.0, 1989.0, 1982.0, 1981.0, 1988.0, 1985.0, 1986.0, 1989.0, 1981.0], 'init_kernel:': [2562.0, 2690.0, 2603.0, 2650.0, 2714.0, 2612.0, 2662.0, 2675.0, 2625.0, 2613.0, 2695.0, 2745.0, 2587.0], 'gpu_build_tree:': [10.0, 11.0, 11.0, 10.0, 10.0, 11.0, 11.0, 10.0, 11.0, 11.0, 11.0, 11.0, 11.0], 'kernel:': [100.0, 100.0, 100.0, 100.0, 100.0, 102.0, 100.0, 101.0, 101.0, 101.0, 100.0, 101.0, 101.0], 'sort:': [992.0, 992.0, 995.0, 994.0, 993.0, 996.0, 992.0, 992.0, 995.0, 994.0, 995.0, 996.0, 993.0], 'runtime:': [4692.0, 4811.0, 4735.0, 4776.0, 4847.0, 4745.0, 4788.0, 4800.0, 4757.0, 4743.0, 4824.0, 4878.0, 4717.0]}
configuration: sort_flag=1, check_flag = 0, verbose_flag=0, K=8, input_file=../../../input/pc/geocity.txt, npoints=200000, nsearchpoints=200000
@ construct_tree: 1979 ms
@ gpu_build_tree: 10 ms
@ init_kernel: 2746 ms
@ gpu_copy_tree_to: 10 ms
@ kernel: 101 ms
@ sort: 992 ms
@ gpu_copy_tree_from: 22 ms
@ traversal_time: 2890 ms
@ runtime: 4869 ms
Collected results into ../../../results/tmp/knn_Original_Lockstep_geocity.txt_sorted.stats

Loading data from ../../../results/tmp/knn_Original_Lockstep_geocity.txt_sorted.stats...
{'traversal_time:': [2710.0, 2828.0, 2746.0, 2793.0, 2864.0, 2756.0, 2806.0, 2819.0, 2769.0, 2758.0, 2838.0, 2889.0, 2736.0, 2890.0], 'gpu_copy_tree_from:': [25.0, 17.0, 22.0, 22.0, 26.0, 22.0, 22.0, 23.0, 22.0, 23.0, 22.0, 22.0, 26.0, 22.0], 'gpu_copy_tree_to:': [11.0, 10.0, 11.0, 11.0, 13.0, 11.0, 11.0, 10.0, 11.0, 11.0, 11.0, 11.0, 11.0, 10.0], 'construct_tree:': [1982.0, 1983.0, 1989.0, 1983.0, 1983.0, 1989.0, 1982.0, 1981.0, 1988.0, 1985.0, 1986.0, 1989.0, 1981.0, 1979.0], 'init_kernel:': [2562.0, 2690.0, 2603.0, 2650.0, 2714.0, 2612.0, 2662.0, 2675.0, 2625.0, 2613.0, 2695.0, 2745.0, 2587.0, 2746.0], 'gpu_build_tree:': [10.0, 11.0, 11.0, 10.0, 10.0, 11.0, 11.0, 10.0, 11.0, 11.0, 11.0, 11.0, 11.0, 10.0], 'kernel:': [100.0, 100.0, 100.0, 100.0, 100.0, 102.0, 100.0, 101.0, 101.0, 101.0, 100.0, 101.0, 101.0, 101.0], 'sort:': [992.0, 992.0, 995.0, 994.0, 993.0, 996.0, 992.0, 992.0, 995.0, 994.0, 995.0, 996.0, 993.0, 992.0], 'runtime:': [4692.0, 4811.0, 4735.0, 4776.0, 4847.0, 4745.0, 4788.0, 4800.0, 4757.0, 4743.0, 4824.0, 4878.0, 4717.0, 4869.0]}
configuration: sort_flag=1, check_flag = 0, verbose_flag=0, K=8, input_file=../../../input/pc/geocity.txt, npoints=200000, nsearchpoints=200000
@ construct_tree: 1988 ms
@ gpu_build_tree: 11 ms
@ init_kernel: 2619 ms
@ gpu_copy_tree_to: 11 ms
@ kernel: 101 ms
@ sort: 996 ms
@ gpu_copy_tree_from: 22 ms
@ traversal_time: 2763 ms
@ runtime: 4752 ms
Collected results into ../../../results/tmp/knn_Original_Lockstep_geocity.txt_sorted.stats

