Results wll be collected to ../../../results/tmp/nn_Non_Lockstep_random.7d_sorted.stats...
configuration: sort_flag=1 verbose_flag=0 check_flag=0 DIM = 7 npoints = 200000 nsearchpoints = 200000
correct rate: 1.0000
@ construct_tree: 1853 ms
@ gpu_build_tree: 64 ms
@ init_kernel: 2601 ms
@ gpu_copy_to: 33 ms
@ kernel: 1362 ms
@ sort: 855 ms
@ gpu_copy_from: 14 ms
@ traversal_time: 4074 ms
@ runtime: 5928 ms
Collected results into ../../../results/tmp/nn_Non_Lockstep_random.7d_sorted.stats

