Results wll be collected to ../../../results/tmp/pc_FSM_Lockstep_geocity.txt_unsorted.stats...
our cuda printf fifo buffer size is 52428800.
the number of input argument is: 3
37.990799*********
configuration: sort_flag = 0, verbose_flag=0, check_flag=0, npoints=200000, radius=0.100000
Kernel start!
avg corr: 80.943069
@ overall: 5803 ms
@ read_input: 522 ms
@ build_tree: 959 ms
@ hashtab: 131 ms
@ gpu_tree_build: 60 ms
@ init_kernel:  0 ms
@ gpu_tree_copy_to: 10 ms
@ kernel: 4098 ms
@ extra: 884 ms
@ traverse: 4317 ms
@ gpu_tree_copy_from: 17 ms
Collected results into ../../../results/tmp/pc_FSM_Lockstep_geocity.txt_unsorted.stats

Loading data from ../../../results/tmp/pc_FSM_Lockstep_geocity.txt_unsorted.stats...
{'gpu_tree_copy_to:': [10.0], 'gpu_tree_build:': [60.0], 'init_kernel:': [0.0], 'traverse:': [4317.0], 'hashtab:': [131.0], 'kernel:': [4098.0], 'overall:': [5803.0], 'read_input:': [522.0], 'extra:': [884.0], 'gpu_tree_copy_from:': [17.0], 'build_tree:': [959.0]}
our cuda printf fifo buffer size is 52428800.
the number of input argument is: 3
37.990799*********
configuration: sort_flag = 0, verbose_flag=0, check_flag=0, npoints=200000, radius=0.100000
Kernel start!
avg corr: 80.943069
@ overall: 5759 ms
@ read_input: 480 ms
@ build_tree: 974 ms
@ hashtab: 132 ms
@ gpu_tree_build: 62 ms
@ init_kernel:  0 ms
@ gpu_tree_copy_to: 10 ms
@ kernel: 4077 ms
@ extra: 898 ms
@ traverse: 4300 ms
@ gpu_tree_copy_from: 17 ms
Collected results into ../../../results/tmp/pc_FSM_Lockstep_geocity.txt_unsorted.stats

Loading data from ../../../results/tmp/pc_FSM_Lockstep_geocity.txt_unsorted.stats...
{'gpu_tree_copy_to:': [10.0, 10.0], 'gpu_tree_build:': [60.0, 62.0], 'init_kernel:': [0.0, 0.0], 'hashtab:': [131.0, 132.0], 'traverse:': [4317.0, 4300.0], 'kernel:': [4098.0, 4077.0], 'overall:': [5803.0, 5759.0], 'read_input:': [522.0, 480.0], 'extra:': [884.0, 898.0], 'gpu_tree_copy_from:': [17.0, 17.0], 'build_tree:': [959.0, 974.0]}
our cuda printf fifo buffer size is 52428800.
the number of input argument is: 3
37.990799*********
configuration: sort_flag = 0, verbose_flag=0, check_flag=0, npoints=200000, radius=0.100000
Kernel start!
avg corr: 80.943069
@ overall: 5763 ms
@ read_input: 482 ms
@ build_tree: 971 ms
@ hashtab: 133 ms
@ gpu_tree_build: 62 ms
@ init_kernel:  0 ms
@ gpu_tree_copy_to: 10 ms
@ kernel: 4083 ms
@ extra: 894 ms
@ traverse: 4306 ms
@ gpu_tree_copy_from: 17 ms
Collected results into ../../../results/tmp/pc_FSM_Lockstep_geocity.txt_unsorted.stats

Loading data from ../../../results/tmp/pc_FSM_Lockstep_geocity.txt_unsorted.stats...
{'gpu_tree_copy_to:': [10.0, 10.0, 10.0], 'gpu_tree_build:': [60.0, 62.0, 62.0], 'init_kernel:': [0.0, 0.0, 0.0], 'traverse:': [4317.0, 4300.0, 4306.0], 'hashtab:': [131.0, 132.0, 133.0], 'kernel:': [4098.0, 4077.0, 4083.0], 'overall:': [5803.0, 5759.0, 5763.0], 'read_input:': [522.0, 480.0, 482.0], 'extra:': [884.0, 898.0, 894.0], 'gpu_tree_copy_from:': [17.0, 17.0, 17.0], 'build_tree:': [959.0, 974.0, 971.0]}
our cuda printf fifo buffer size is 52428800.
the number of input argument is: 3
37.990799*********
configuration: sort_flag = 0, verbose_flag=0, check_flag=0, npoints=200000, radius=0.100000
Kernel start!
avg corr: 80.943069
@ overall: 5666 ms
@ read_input: 414 ms
@ build_tree: 961 ms
@ hashtab: 134 ms
@ gpu_tree_build: 60 ms
@ init_kernel:  0 ms
@ gpu_tree_copy_to: 10 ms
@ kernel: 4064 ms
@ extra: 885 ms
@ traverse: 4286 ms
@ gpu_tree_copy_from: 17 ms
Collected results into ../../../results/tmp/pc_FSM_Lockstep_geocity.txt_unsorted.stats

Loading data from ../../../results/tmp/pc_FSM_Lockstep_geocity.txt_unsorted.stats...
{'gpu_tree_copy_to:': [10.0, 10.0, 10.0, 10.0], 'gpu_tree_build:': [60.0, 62.0, 62.0, 60.0], 'init_kernel:': [0.0, 0.0, 0.0, 0.0], 'hashtab:': [131.0, 132.0, 133.0, 134.0], 'traverse:': [4317.0, 4300.0, 4306.0, 4286.0], 'kernel:': [4098.0, 4077.0, 4083.0, 4064.0], 'overall:': [5803.0, 5759.0, 5763.0, 5666.0], 'read_input:': [522.0, 480.0, 482.0, 414.0], 'extra:': [884.0, 898.0, 894.0, 885.0], 'gpu_tree_copy_from:': [17.0, 17.0, 17.0, 17.0], 'build_tree:': [959.0, 974.0, 971.0, 961.0]}
our cuda printf fifo buffer size is 52428800.
the number of input argument is: 3
37.990799*********
configuration: sort_flag = 0, verbose_flag=0, check_flag=0, npoints=200000, radius=0.100000
Kernel start!
avg corr: 80.943069
@ overall: 5764 ms
@ read_input: 499 ms
@ build_tree: 963 ms
@ hashtab: 134 ms
@ gpu_tree_build: 59 ms
@ init_kernel:  0 ms
@ gpu_tree_copy_to: 10 ms
@ kernel: 4077 ms
@ extra: 886 ms
@ traverse: 4297 ms
@ gpu_tree_copy_from: 17 ms
Collected results into ../../../results/tmp/pc_FSM_Lockstep_geocity.txt_unsorted.stats

Loading data from ../../../results/tmp/pc_FSM_Lockstep_geocity.txt_unsorted.stats...
{'gpu_tree_copy_to:': [10.0, 10.0, 10.0, 10.0, 10.0], 'gpu_tree_build:': [60.0, 62.0, 62.0, 60.0, 59.0], 'init_kernel:': [0.0, 0.0, 0.0, 0.0, 0.0], 'traverse:': [4317.0, 4300.0, 4306.0, 4286.0, 4297.0], 'hashtab:': [131.0, 132.0, 133.0, 134.0, 134.0], 'kernel:': [4098.0, 4077.0, 4083.0, 4064.0, 4077.0], 'overall:': [5803.0, 5759.0, 5763.0, 5666.0, 5764.0], 'read_input:': [522.0, 480.0, 482.0, 414.0, 499.0], 'extra:': [884.0, 898.0, 894.0, 885.0, 886.0], 'gpu_tree_copy_from:': [17.0, 17.0, 17.0, 17.0, 17.0], 'build_tree:': [959.0, 974.0, 971.0, 961.0, 963.0]}
our cuda printf fifo buffer size is 52428800.
the number of input argument is: 3
37.990799*********
configuration: sort_flag = 0, verbose_flag=0, check_flag=0, npoints=200000, radius=0.100000
Kernel start!
avg corr: 80.943069
@ overall: 5686 ms
@ read_input: 424 ms
@ build_tree: 961 ms
@ hashtab: 134 ms
@ gpu_tree_build: 60 ms
@ init_kernel:  0 ms
@ gpu_tree_copy_to: 10 ms
@ kernel: 4075 ms
@ extra: 885 ms
@ traverse: 4296 ms
@ gpu_tree_copy_from: 17 ms
Collected results into ../../../results/tmp/pc_FSM_Lockstep_geocity.txt_unsorted.stats

Loading data from ../../../results/tmp/pc_FSM_Lockstep_geocity.txt_unsorted.stats...
{'gpu_tree_copy_to:': [10.0, 10.0, 10.0, 10.0, 10.0, 10.0], 'gpu_tree_build:': [60.0, 62.0, 62.0, 60.0, 59.0, 60.0], 'init_kernel:': [0.0, 0.0, 0.0, 0.0, 0.0, 0.0], 'hashtab:': [131.0, 132.0, 133.0, 134.0, 134.0, 134.0], 'traverse:': [4317.0, 4300.0, 4306.0, 4286.0, 4297.0, 4296.0], 'kernel:': [4098.0, 4077.0, 4083.0, 4064.0, 4077.0, 4075.0], 'overall:': [5803.0, 5759.0, 5763.0, 5666.0, 5764.0, 5686.0], 'read_input:': [522.0, 480.0, 482.0, 414.0, 499.0, 424.0], 'extra:': [884.0, 898.0, 894.0, 885.0, 886.0, 885.0], 'gpu_tree_copy_from:': [17.0, 17.0, 17.0, 17.0, 17.0, 17.0], 'build_tree:': [959.0, 974.0, 971.0, 961.0, 963.0, 961.0]}
our cuda printf fifo buffer size is 52428800.
the number of input argument is: 3
37.990799*********
configuration: sort_flag = 0, verbose_flag=0, check_flag=0, npoints=200000, radius=0.100000
Kernel start!
avg corr: 80.943069
@ overall: 5759 ms
@ read_input: 457 ms
@ build_tree: 972 ms
@ hashtab: 133 ms
@ gpu_tree_build: 62 ms
@ init_kernel:  0 ms
@ gpu_tree_copy_to: 10 ms
@ kernel: 4102 ms
@ extra: 896 ms
@ traverse: 4325 ms
@ gpu_tree_copy_from: 17 ms
Collected results into ../../../results/tmp/pc_FSM_Lockstep_geocity.txt_unsorted.stats

Loading data from ../../../results/tmp/pc_FSM_Lockstep_geocity.txt_unsorted.stats...
{'gpu_tree_copy_to:': [10.0, 10.0, 10.0, 10.0, 10.0, 10.0, 10.0], 'gpu_tree_build:': [60.0, 62.0, 62.0, 60.0, 59.0, 60.0, 62.0], 'init_kernel:': [0.0, 0.0, 0.0, 0.0, 0.0, 0.0, 0.0], 'traverse:': [4317.0, 4300.0, 4306.0, 4286.0, 4297.0, 4296.0, 4325.0], 'hashtab:': [131.0, 132.0, 133.0, 134.0, 134.0, 134.0, 133.0], 'kernel:': [4098.0, 4077.0, 4083.0, 4064.0, 4077.0, 4075.0, 4102.0], 'overall:': [5803.0, 5759.0, 5763.0, 5666.0, 5764.0, 5686.0, 5759.0], 'read_input:': [522.0, 480.0, 482.0, 414.0, 499.0, 424.0, 457.0], 'extra:': [884.0, 898.0, 894.0, 885.0, 886.0, 885.0, 896.0], 'gpu_tree_copy_from:': [17.0, 17.0, 17.0, 17.0, 17.0, 17.0, 17.0], 'build_tree:': [959.0, 974.0, 971.0, 961.0, 963.0, 961.0, 972.0]}
our cuda printf fifo buffer size is 52428800.
the number of input argument is: 3
37.990799*********
configuration: sort_flag = 0, verbose_flag=0, check_flag=0, npoints=200000, radius=0.100000
Kernel start!
avg corr: 80.943069
@ overall: 5767 ms
@ read_input: 487 ms
@ build_tree: 959 ms
@ hashtab: 133 ms
@ gpu_tree_build: 59 ms
@ init_kernel:  0 ms
@ gpu_tree_copy_to: 10 ms
@ kernel: 4096 ms
@ extra: 882 ms
@ traverse: 4316 ms
@ gpu_tree_copy_from: 17 ms
Collected results into ../../../results/tmp/pc_FSM_Lockstep_geocity.txt_unsorted.stats

Loading data from ../../../results/tmp/pc_FSM_Lockstep_geocity.txt_unsorted.stats...
{'gpu_tree_copy_to:': [10.0, 10.0, 10.0, 10.0, 10.0, 10.0, 10.0, 10.0], 'gpu_tree_build:': [60.0, 62.0, 62.0, 60.0, 59.0, 60.0, 62.0, 59.0], 'init_kernel:': [0.0, 0.0, 0.0, 0.0, 0.0, 0.0, 0.0, 0.0], 'hashtab:': [131.0, 132.0, 133.0, 134.0, 134.0, 134.0, 133.0, 133.0], 'traverse:': [4317.0, 4300.0, 4306.0, 4286.0, 4297.0, 4296.0, 4325.0, 4316.0], 'kernel:': [4098.0, 4077.0, 4083.0, 4064.0, 4077.0, 4075.0, 4102.0, 4096.0], 'overall:': [5803.0, 5759.0, 5763.0, 5666.0, 5764.0, 5686.0, 5759.0, 5767.0], 'read_input:': [522.0, 480.0, 482.0, 414.0, 499.0, 424.0, 457.0, 487.0], 'extra:': [884.0, 898.0, 894.0, 885.0, 886.0, 885.0, 896.0, 882.0], 'gpu_tree_copy_from:': [17.0, 17.0, 17.0, 17.0, 17.0, 17.0, 17.0, 17.0], 'build_tree:': [959.0, 974.0, 971.0, 961.0, 963.0, 961.0, 972.0, 959.0]}
our cuda printf fifo buffer size is 52428800.
the number of input argument is: 3
37.990799*********
configuration: sort_flag = 0, verbose_flag=0, check_flag=0, npoints=200000, radius=0.100000
Kernel start!
avg corr: 80.943069
@ overall: 5685 ms
@ read_input: 425 ms
@ build_tree: 959 ms
@ hashtab: 131 ms
@ gpu_tree_build: 60 ms
@ init_kernel:  0 ms
@ gpu_tree_copy_to: 10 ms
@ kernel: 4078 ms
@ extra: 883 ms
@ traverse: 4296 ms
@ gpu_tree_copy_from: 17 ms
Collected results into ../../../results/tmp/pc_FSM_Lockstep_geocity.txt_unsorted.stats

Loading data from ../../../results/tmp/pc_FSM_Lockstep_geocity.txt_unsorted.stats...
{'gpu_tree_copy_to:': [10.0, 10.0, 10.0, 10.0, 10.0, 10.0, 10.0, 10.0, 10.0], 'gpu_tree_build:': [60.0, 62.0, 62.0, 60.0, 59.0, 60.0, 62.0, 59.0, 60.0], 'init_kernel:': [0.0, 0.0, 0.0, 0.0, 0.0, 0.0, 0.0, 0.0, 0.0], 'traverse:': [4317.0, 4300.0, 4306.0, 4286.0, 4297.0, 4296.0, 4325.0, 4316.0, 4296.0], 'hashtab:': [131.0, 132.0, 133.0, 134.0, 134.0, 134.0, 133.0, 133.0, 131.0], 'kernel:': [4098.0, 4077.0, 4083.0, 4064.0, 4077.0, 4075.0, 4102.0, 4096.0, 4078.0], 'overall:': [5803.0, 5759.0, 5763.0, 5666.0, 5764.0, 5686.0, 5759.0, 5767.0, 5685.0], 'read_input:': [522.0, 480.0, 482.0, 414.0, 499.0, 424.0, 457.0, 487.0, 425.0], 'extra:': [884.0, 898.0, 894.0, 885.0, 886.0, 885.0, 896.0, 882.0, 883.0], 'gpu_tree_copy_from:': [17.0, 17.0, 17.0, 17.0, 17.0, 17.0, 17.0, 17.0, 17.0], 'build_tree:': [959.0, 974.0, 971.0, 961.0, 963.0, 961.0, 972.0, 959.0, 959.0]}
our cuda printf fifo buffer size is 52428800.
the number of input argument is: 3
37.990799*********
configuration: sort_flag = 0, verbose_flag=0, check_flag=0, npoints=200000, radius=0.100000
Kernel start!
avg corr: 80.943069
@ overall: 5778 ms
@ read_input: 525 ms
@ build_tree: 959 ms
@ hashtab: 132 ms
@ gpu_tree_build: 58 ms
@ init_kernel:  0 ms
@ gpu_tree_copy_to: 10 ms
@ kernel: 4071 ms
@ extra: 884 ms
@ traverse: 4288 ms
@ gpu_tree_copy_from: 17 ms
Collected results into ../../../results/tmp/pc_FSM_Lockstep_geocity.txt_unsorted.stats

Loading data from ../../../results/tmp/pc_FSM_Lockstep_geocity.txt_unsorted.stats...
{'gpu_tree_copy_to:': [10.0, 10.0, 10.0, 10.0, 10.0, 10.0, 10.0, 10.0, 10.0, 10.0], 'gpu_tree_build:': [60.0, 62.0, 62.0, 60.0, 59.0, 60.0, 62.0, 59.0, 60.0, 58.0], 'init_kernel:': [0.0, 0.0, 0.0, 0.0, 0.0, 0.0, 0.0, 0.0, 0.0, 0.0], 'hashtab:': [131.0, 132.0, 133.0, 134.0, 134.0, 134.0, 133.0, 133.0, 131.0, 132.0], 'traverse:': [4317.0, 4300.0, 4306.0, 4286.0, 4297.0, 4296.0, 4325.0, 4316.0, 4296.0, 4288.0], 'kernel:': [4098.0, 4077.0, 4083.0, 4064.0, 4077.0, 4075.0, 4102.0, 4096.0, 4078.0, 4071.0], 'overall:': [5803.0, 5759.0, 5763.0, 5666.0, 5764.0, 5686.0, 5759.0, 5767.0, 5685.0, 5778.0], 'read_input:': [522.0, 480.0, 482.0, 414.0, 499.0, 424.0, 457.0, 487.0, 425.0, 525.0], 'extra:': [884.0, 898.0, 894.0, 885.0, 886.0, 885.0, 896.0, 882.0, 883.0, 884.0], 'gpu_tree_copy_from:': [17.0, 17.0, 17.0, 17.0, 17.0, 17.0, 17.0, 17.0, 17.0, 17.0], 'build_tree:': [959.0, 974.0, 971.0, 961.0, 963.0, 961.0, 972.0, 959.0, 959.0, 959.0]}
our cuda printf fifo buffer size is 52428800.
the number of input argument is: 3
37.990799*********
configuration: sort_flag = 0, verbose_flag=0, check_flag=0, npoints=200000, radius=0.100000
Kernel start!
avg corr: 80.943069
@ overall: 5760 ms
@ read_input: 493 ms
@ build_tree: 960 ms
@ hashtab: 130 ms
@ gpu_tree_build: 60 ms
@ init_kernel:  0 ms
@ gpu_tree_copy_to: 10 ms
@ kernel: 4084 ms
@ extra: 885 ms
@ traverse: 4302 ms
@ gpu_tree_copy_from: 17 ms
Collected results into ../../../results/tmp/pc_FSM_Lockstep_geocity.txt_unsorted.stats

Loading data from ../../../results/tmp/pc_FSM_Lockstep_geocity.txt_unsorted.stats...
{'gpu_tree_copy_to:': [10.0, 10.0, 10.0, 10.0, 10.0, 10.0, 10.0, 10.0, 10.0, 10.0, 10.0], 'gpu_tree_build:': [60.0, 62.0, 62.0, 60.0, 59.0, 60.0, 62.0, 59.0, 60.0, 58.0, 60.0], 'init_kernel:': [0.0, 0.0, 0.0, 0.0, 0.0, 0.0, 0.0, 0.0, 0.0, 0.0, 0.0], 'traverse:': [4317.0, 4300.0, 4306.0, 4286.0, 4297.0, 4296.0, 4325.0, 4316.0, 4296.0, 4288.0, 4302.0], 'hashtab:': [131.0, 132.0, 133.0, 134.0, 134.0, 134.0, 133.0, 133.0, 131.0, 132.0, 130.0], 'kernel:': [4098.0, 4077.0, 4083.0, 4064.0, 4077.0, 4075.0, 4102.0, 4096.0, 4078.0, 4071.0, 4084.0], 'overall:': [5803.0, 5759.0, 5763.0, 5666.0, 5764.0, 5686.0, 5759.0, 5767.0, 5685.0, 5778.0, 5760.0], 'read_input:': [522.0, 480.0, 482.0, 414.0, 499.0, 424.0, 457.0, 487.0, 425.0, 525.0, 493.0], 'extra:': [884.0, 898.0, 894.0, 885.0, 886.0, 885.0, 896.0, 882.0, 883.0, 884.0, 885.0], 'gpu_tree_copy_from:': [17.0, 17.0, 17.0, 17.0, 17.0, 17.0, 17.0, 17.0, 17.0, 17.0, 17.0], 'build_tree:': [959.0, 974.0, 971.0, 961.0, 963.0, 961.0, 972.0, 959.0, 959.0, 959.0, 960.0]}
our cuda printf fifo buffer size is 52428800.
the number of input argument is: 3
37.990799*********
configuration: sort_flag = 0, verbose_flag=0, check_flag=0, npoints=200000, radius=0.100000
Kernel start!
avg corr: 80.943069
@ overall: 5757 ms
@ read_input: 497 ms
@ build_tree: 961 ms
@ hashtab: 132 ms
@ gpu_tree_build: 59 ms
@ init_kernel:  0 ms
@ gpu_tree_copy_to: 10 ms
@ kernel: 4077 ms
@ extra: 885 ms
@ traverse: 4295 ms
@ gpu_tree_copy_from: 17 ms
Collected results into ../../../results/tmp/pc_FSM_Lockstep_geocity.txt_unsorted.stats

Loading data from ../../../results/tmp/pc_FSM_Lockstep_geocity.txt_unsorted.stats...
{'gpu_tree_copy_to:': [10.0, 10.0, 10.0, 10.0, 10.0, 10.0, 10.0, 10.0, 10.0, 10.0, 10.0, 10.0], 'gpu_tree_build:': [60.0, 62.0, 62.0, 60.0, 59.0, 60.0, 62.0, 59.0, 60.0, 58.0, 60.0, 59.0], 'init_kernel:': [0.0, 0.0, 0.0, 0.0, 0.0, 0.0, 0.0, 0.0, 0.0, 0.0, 0.0, 0.0], 'hashtab:': [131.0, 132.0, 133.0, 134.0, 134.0, 134.0, 133.0, 133.0, 131.0, 132.0, 130.0, 132.0], 'traverse:': [4317.0, 4300.0, 4306.0, 4286.0, 4297.0, 4296.0, 4325.0, 4316.0, 4296.0, 4288.0, 4302.0, 4295.0], 'kernel:': [4098.0, 4077.0, 4083.0, 4064.0, 4077.0, 4075.0, 4102.0, 4096.0, 4078.0, 4071.0, 4084.0, 4077.0], 'overall:': [5803.0, 5759.0, 5763.0, 5666.0, 5764.0, 5686.0, 5759.0, 5767.0, 5685.0, 5778.0, 5760.0, 5757.0], 'read_input:': [522.0, 480.0, 482.0, 414.0, 499.0, 424.0, 457.0, 487.0, 425.0, 525.0, 493.0, 497.0], 'extra:': [884.0, 898.0, 894.0, 885.0, 886.0, 885.0, 896.0, 882.0, 883.0, 884.0, 885.0, 885.0], 'gpu_tree_copy_from:': [17.0, 17.0, 17.0, 17.0, 17.0, 17.0, 17.0, 17.0, 17.0, 17.0, 17.0, 17.0], 'build_tree:': [959.0, 974.0, 971.0, 961.0, 963.0, 961.0, 972.0, 959.0, 959.0, 959.0, 960.0, 961.0]}
our cuda printf fifo buffer size is 52428800.
the number of input argument is: 3
37.990799*********
configuration: sort_flag = 0, verbose_flag=0, check_flag=0, npoints=200000, radius=0.100000
Kernel start!
avg corr: 80.943069
@ overall: 5761 ms
@ read_input: 516 ms
@ build_tree: 957 ms
@ hashtab: 131 ms
@ gpu_tree_build: 57 ms
@ init_kernel:  0 ms
@ gpu_tree_copy_to:  9 ms
@ kernel: 4069 ms
@ extra: 881 ms
@ traverse: 4283 ms
@ gpu_tree_copy_from: 16 ms
Collected results into ../../../results/tmp/pc_FSM_Lockstep_geocity.txt_unsorted.stats

Loading data from ../../../results/tmp/pc_FSM_Lockstep_geocity.txt_unsorted.stats...
{'gpu_tree_copy_to:': [10.0, 10.0, 10.0, 10.0, 10.0, 10.0, 10.0, 10.0, 10.0, 10.0, 10.0, 10.0, 9.0], 'gpu_tree_build:': [60.0, 62.0, 62.0, 60.0, 59.0, 60.0, 62.0, 59.0, 60.0, 58.0, 60.0, 59.0, 57.0], 'init_kernel:': [0.0, 0.0, 0.0, 0.0, 0.0, 0.0, 0.0, 0.0, 0.0, 0.0, 0.0, 0.0, 0.0], 'traverse:': [4317.0, 4300.0, 4306.0, 4286.0, 4297.0, 4296.0, 4325.0, 4316.0, 4296.0, 4288.0, 4302.0, 4295.0, 4283.0], 'hashtab:': [131.0, 132.0, 133.0, 134.0, 134.0, 134.0, 133.0, 133.0, 131.0, 132.0, 130.0, 132.0, 131.0], 'kernel:': [4098.0, 4077.0, 4083.0, 4064.0, 4077.0, 4075.0, 4102.0, 4096.0, 4078.0, 4071.0, 4084.0, 4077.0, 4069.0], 'overall:': [5803.0, 5759.0, 5763.0, 5666.0, 5764.0, 5686.0, 5759.0, 5767.0, 5685.0, 5778.0, 5760.0, 5757.0, 5761.0], 'read_input:': [522.0, 480.0, 482.0, 414.0, 499.0, 424.0, 457.0, 487.0, 425.0, 525.0, 493.0, 497.0, 516.0], 'extra:': [884.0, 898.0, 894.0, 885.0, 886.0, 885.0, 896.0, 882.0, 883.0, 884.0, 885.0, 885.0, 881.0], 'gpu_tree_copy_from:': [17.0, 17.0, 17.0, 17.0, 17.0, 17.0, 17.0, 17.0, 17.0, 17.0, 17.0, 17.0, 16.0], 'build_tree:': [959.0, 974.0, 971.0, 961.0, 963.0, 961.0, 972.0, 959.0, 959.0, 959.0, 960.0, 961.0, 957.0]}
our cuda printf fifo buffer size is 52428800.
the number of input argument is: 3
37.990799*********
configuration: sort_flag = 0, verbose_flag=0, check_flag=0, npoints=200000, radius=0.100000
Kernel start!
avg corr: 80.943069
@ overall: 5735 ms
@ read_input: 470 ms
@ build_tree: 971 ms
@ hashtab: 130 ms
@ gpu_tree_build: 60 ms
@ init_kernel:  0 ms
@ gpu_tree_copy_to:  9 ms
@ kernel: 4073 ms
@ extra: 895 ms
@ traverse: 4289 ms
@ gpu_tree_copy_from: 16 ms
Collected results into ../../../results/tmp/pc_FSM_Lockstep_geocity.txt_unsorted.stats

Loading data from ../../../results/tmp/pc_FSM_Lockstep_geocity.txt_unsorted.stats...
{'gpu_tree_copy_to:': [10.0, 10.0, 10.0, 10.0, 10.0, 10.0, 10.0, 10.0, 10.0, 10.0, 10.0, 10.0, 9.0, 9.0], 'gpu_tree_build:': [60.0, 62.0, 62.0, 60.0, 59.0, 60.0, 62.0, 59.0, 60.0, 58.0, 60.0, 59.0, 57.0, 60.0], 'init_kernel:': [0.0, 0.0, 0.0, 0.0, 0.0, 0.0, 0.0, 0.0, 0.0, 0.0, 0.0, 0.0, 0.0, 0.0], 'hashtab:': [131.0, 132.0, 133.0, 134.0, 134.0, 134.0, 133.0, 133.0, 131.0, 132.0, 130.0, 132.0, 131.0, 130.0], 'traverse:': [4317.0, 4300.0, 4306.0, 4286.0, 4297.0, 4296.0, 4325.0, 4316.0, 4296.0, 4288.0, 4302.0, 4295.0, 4283.0, 4289.0], 'kernel:': [4098.0, 4077.0, 4083.0, 4064.0, 4077.0, 4075.0, 4102.0, 4096.0, 4078.0, 4071.0, 4084.0, 4077.0, 4069.0, 4073.0], 'overall:': [5803.0, 5759.0, 5763.0, 5666.0, 5764.0, 5686.0, 5759.0, 5767.0, 5685.0, 5778.0, 5760.0, 5757.0, 5761.0, 5735.0], 'read_input:': [522.0, 480.0, 482.0, 414.0, 499.0, 424.0, 457.0, 487.0, 425.0, 525.0, 493.0, 497.0, 516.0, 470.0], 'extra:': [884.0, 898.0, 894.0, 885.0, 886.0, 885.0, 896.0, 882.0, 883.0, 884.0, 885.0, 885.0, 881.0, 895.0], 'gpu_tree_copy_from:': [17.0, 17.0, 17.0, 17.0, 17.0, 17.0, 17.0, 17.0, 17.0, 17.0, 17.0, 17.0, 16.0, 16.0], 'build_tree:': [959.0, 974.0, 971.0, 961.0, 963.0, 961.0, 972.0, 959.0, 959.0, 959.0, 960.0, 961.0, 957.0, 971.0]}
our cuda printf fifo buffer size is 52428800.
the number of input argument is: 3
37.990799*********
configuration: sort_flag = 0, verbose_flag=0, check_flag=0, npoints=200000, radius=0.100000
Kernel start!
avg corr: 80.943069
@ overall: 5690 ms
@ read_input: 423 ms
@ build_tree: 958 ms
@ hashtab: 130 ms
@ gpu_tree_build: 59 ms
@ init_kernel:  0 ms
@ gpu_tree_copy_to:  9 ms
@ kernel: 4090 ms
@ extra: 883 ms
@ traverse: 4304 ms
@ gpu_tree_copy_from: 16 ms
Collected results into ../../../results/tmp/pc_FSM_Lockstep_geocity.txt_unsorted.stats

