Results wll be collected to ../../../results/tmp/pc_FSM_Lockstep_random.7d_sorted.stats...
our cuda printf fifo buffer size is 52428800.
the number of input argument is: 4
0.749668*********
configuration: sort_flag = 1, verbose_flag=0, check_flag=0, npoints=200000, radius=0.320000
Kernel start!
avg corr: 170.587326
@ overall: 4406 ms
@ read_input: 870 ms
@ build_tree: 1099 ms
@ hashtab: 138 ms
@ gpu_tree_build: 79 ms
@ init_kernel:  0 ms
@ gpu_tree_copy_to: 18 ms
@ kernel: 2177 ms
@ extra: 1012 ms
@ traverse: 2432 ms
@ gpu_tree_copy_from: 20 ms
Collected results into ../../../results/tmp/pc_FSM_Lockstep_random.7d_sorted.stats

Loading data from ../../../results/tmp/pc_FSM_Lockstep_random.7d_sorted.stats...
{'gpu_tree_copy_to:': [18.0], 'gpu_tree_build:': [79.0], 'init_kernel:': [0.0], 'traverse:': [2432.0], 'hashtab:': [138.0], 'kernel:': [2177.0], 'overall:': [4406.0], 'read_input:': [870.0], 'extra:': [1012.0], 'gpu_tree_copy_from:': [20.0], 'build_tree:': [1099.0]}
our cuda printf fifo buffer size is 52428800.
the number of input argument is: 4
0.749668*********
configuration: sort_flag = 1, verbose_flag=0, check_flag=0, npoints=200000, radius=0.320000
Kernel start!
avg corr: 170.587326
@ overall: 4444 ms
@ read_input: 904 ms
@ build_tree: 1098 ms
@ hashtab: 142 ms
@ gpu_tree_build: 84 ms
@ init_kernel:  0 ms
@ gpu_tree_copy_to: 18 ms
@ kernel: 2174 ms
@ extra: 1010 ms
@ traverse: 2437 ms
@ gpu_tree_copy_from: 20 ms
Collected results into ../../../results/tmp/pc_FSM_Lockstep_random.7d_sorted.stats

Loading data from ../../../results/tmp/pc_FSM_Lockstep_random.7d_sorted.stats...
{'gpu_tree_copy_to:': [18.0, 18.0], 'gpu_tree_build:': [79.0, 84.0], 'init_kernel:': [0.0, 0.0], 'hashtab:': [138.0, 142.0], 'traverse:': [2432.0, 2437.0], 'kernel:': [2177.0, 2174.0], 'overall:': [4406.0, 4444.0], 'read_input:': [870.0, 904.0], 'extra:': [1012.0, 1010.0], 'gpu_tree_copy_from:': [20.0, 20.0], 'build_tree:': [1099.0, 1098.0]}
our cuda printf fifo buffer size is 52428800.
the number of input argument is: 4
0.749668*********
configuration: sort_flag = 1, verbose_flag=0, check_flag=0, npoints=200000, radius=0.320000
Kernel start!
avg corr: 170.587326
@ overall: 4465 ms
@ read_input: 931 ms
@ build_tree: 1102 ms
@ hashtab: 136 ms
@ gpu_tree_build: 80 ms
@ init_kernel:  0 ms
@ gpu_tree_copy_to: 18 ms
@ kernel: 2173 ms
@ extra: 1014 ms
@ traverse: 2427 ms
@ gpu_tree_copy_from: 20 ms
Collected results into ../../../results/tmp/pc_FSM_Lockstep_random.7d_sorted.stats

Loading data from ../../../results/tmp/pc_FSM_Lockstep_random.7d_sorted.stats...
{'gpu_tree_copy_to:': [18.0, 18.0, 18.0], 'gpu_tree_build:': [79.0, 84.0, 80.0], 'init_kernel:': [0.0, 0.0, 0.0], 'traverse:': [2432.0, 2437.0, 2427.0], 'hashtab:': [138.0, 142.0, 136.0], 'kernel:': [2177.0, 2174.0, 2173.0], 'overall:': [4406.0, 4444.0, 4465.0], 'read_input:': [870.0, 904.0, 931.0], 'extra:': [1012.0, 1010.0, 1014.0], 'gpu_tree_copy_from:': [20.0, 20.0, 20.0], 'build_tree:': [1099.0, 1098.0, 1102.0]}
our cuda printf fifo buffer size is 52428800.
the number of input argument is: 4
0.749668*********
configuration: sort_flag = 1, verbose_flag=0, check_flag=0, npoints=200000, radius=0.320000
Kernel start!
avg corr: 170.587326
@ overall: 4531 ms
@ read_input: 978 ms
@ build_tree: 1100 ms
@ hashtab: 138 ms
@ gpu_tree_build: 83 ms
@ init_kernel:  0 ms
@ gpu_tree_copy_to: 27 ms
@ kernel: 2176 ms
@ extra: 1011 ms
@ traverse: 2448 ms
@ gpu_tree_copy_from: 24 ms
Collected results into ../../../results/tmp/pc_FSM_Lockstep_random.7d_sorted.stats

Loading data from ../../../results/tmp/pc_FSM_Lockstep_random.7d_sorted.stats...
{'gpu_tree_copy_to:': [18.0, 18.0, 18.0, 27.0], 'gpu_tree_build:': [79.0, 84.0, 80.0, 83.0], 'init_kernel:': [0.0, 0.0, 0.0, 0.0], 'hashtab:': [138.0, 142.0, 136.0, 138.0], 'traverse:': [2432.0, 2437.0, 2427.0, 2448.0], 'kernel:': [2177.0, 2174.0, 2173.0, 2176.0], 'overall:': [4406.0, 4444.0, 4465.0, 4531.0], 'read_input:': [870.0, 904.0, 931.0, 978.0], 'extra:': [1012.0, 1010.0, 1014.0, 1011.0], 'gpu_tree_copy_from:': [20.0, 20.0, 20.0, 24.0], 'build_tree:': [1099.0, 1098.0, 1102.0, 1100.0]}
our cuda printf fifo buffer size is 52428800.
the number of input argument is: 4
0.749668*********
configuration: sort_flag = 1, verbose_flag=0, check_flag=0, npoints=200000, radius=0.320000
Kernel start!
avg corr: 170.587326
@ overall: 4421 ms
@ read_input: 869 ms
@ build_tree: 1110 ms
@ hashtab: 137 ms
@ gpu_tree_build: 78 ms
@ init_kernel:  0 ms
@ gpu_tree_copy_to: 27 ms
@ kernel: 2172 ms
@ extra: 1025 ms
@ traverse: 2436 ms
@ gpu_tree_copy_from: 22 ms
Collected results into ../../../results/tmp/pc_FSM_Lockstep_random.7d_sorted.stats

Loading data from ../../../results/tmp/pc_FSM_Lockstep_random.7d_sorted.stats...
{'gpu_tree_copy_to:': [18.0, 18.0, 18.0, 27.0, 27.0], 'gpu_tree_build:': [79.0, 84.0, 80.0, 83.0, 78.0], 'init_kernel:': [0.0, 0.0, 0.0, 0.0, 0.0], 'traverse:': [2432.0, 2437.0, 2427.0, 2448.0, 2436.0], 'hashtab:': [138.0, 142.0, 136.0, 138.0, 137.0], 'kernel:': [2177.0, 2174.0, 2173.0, 2176.0, 2172.0], 'overall:': [4406.0, 4444.0, 4465.0, 4531.0, 4421.0], 'read_input:': [870.0, 904.0, 931.0, 978.0, 869.0], 'extra:': [1012.0, 1010.0, 1014.0, 1011.0, 1025.0], 'gpu_tree_copy_from:': [20.0, 20.0, 20.0, 24.0, 22.0], 'build_tree:': [1099.0, 1098.0, 1102.0, 1100.0, 1110.0]}
our cuda printf fifo buffer size is 52428800.
the number of input argument is: 4
0.749668*********
configuration: sort_flag = 1, verbose_flag=0, check_flag=0, npoints=200000, radius=0.320000
Kernel start!
avg corr: 170.587326
@ overall: 4513 ms
@ read_input: 981 ms
@ build_tree: 1099 ms
@ hashtab: 136 ms
@ gpu_tree_build: 79 ms
@ init_kernel:  0 ms
@ gpu_tree_copy_to: 17 ms
@ kernel: 2174 ms
@ extra: 1011 ms
@ traverse: 2427 ms
@ gpu_tree_copy_from: 19 ms
Collected results into ../../../results/tmp/pc_FSM_Lockstep_random.7d_sorted.stats

Loading data from ../../../results/tmp/pc_FSM_Lockstep_random.7d_sorted.stats...
{'gpu_tree_copy_to:': [18.0, 18.0, 18.0, 27.0, 27.0, 17.0], 'gpu_tree_build:': [79.0, 84.0, 80.0, 83.0, 78.0, 79.0], 'init_kernel:': [0.0, 0.0, 0.0, 0.0, 0.0, 0.0], 'hashtab:': [138.0, 142.0, 136.0, 138.0, 137.0, 136.0], 'traverse:': [2432.0, 2437.0, 2427.0, 2448.0, 2436.0, 2427.0], 'kernel:': [2177.0, 2174.0, 2173.0, 2176.0, 2172.0, 2174.0], 'overall:': [4406.0, 4444.0, 4465.0, 4531.0, 4421.0, 4513.0], 'read_input:': [870.0, 904.0, 931.0, 978.0, 869.0, 981.0], 'extra:': [1012.0, 1010.0, 1014.0, 1011.0, 1025.0, 1011.0], 'gpu_tree_copy_from:': [20.0, 20.0, 20.0, 24.0, 22.0, 19.0], 'build_tree:': [1099.0, 1098.0, 1102.0, 1100.0, 1110.0, 1099.0]}
our cuda printf fifo buffer size is 52428800.
the number of input argument is: 4
0.749668*********
configuration: sort_flag = 1, verbose_flag=0, check_flag=0, npoints=200000, radius=0.320000
Kernel start!
avg corr: 170.587326
@ overall: 4409 ms
@ read_input: 861 ms
@ build_tree: 1111 ms
@ hashtab: 137 ms
@ gpu_tree_build: 81 ms
@ init_kernel:  0 ms
@ gpu_tree_copy_to: 17 ms
@ kernel: 2179 ms
@ extra: 1020 ms
@ traverse: 2432 ms
@ gpu_tree_copy_from: 19 ms
Collected results into ../../../results/tmp/pc_FSM_Lockstep_random.7d_sorted.stats

Loading data from ../../../results/tmp/pc_FSM_Lockstep_random.7d_sorted.stats...
{'gpu_tree_copy_to:': [18.0, 18.0, 18.0, 27.0, 27.0, 17.0, 17.0], 'gpu_tree_build:': [79.0, 84.0, 80.0, 83.0, 78.0, 79.0, 81.0], 'init_kernel:': [0.0, 0.0, 0.0, 0.0, 0.0, 0.0, 0.0], 'traverse:': [2432.0, 2437.0, 2427.0, 2448.0, 2436.0, 2427.0, 2432.0], 'hashtab:': [138.0, 142.0, 136.0, 138.0, 137.0, 136.0, 137.0], 'kernel:': [2177.0, 2174.0, 2173.0, 2176.0, 2172.0, 2174.0, 2179.0], 'overall:': [4406.0, 4444.0, 4465.0, 4531.0, 4421.0, 4513.0, 4409.0], 'read_input:': [870.0, 904.0, 931.0, 978.0, 869.0, 981.0, 861.0], 'extra:': [1012.0, 1010.0, 1014.0, 1011.0, 1025.0, 1011.0, 1020.0], 'gpu_tree_copy_from:': [20.0, 20.0, 20.0, 24.0, 22.0, 19.0, 19.0], 'build_tree:': [1099.0, 1098.0, 1102.0, 1100.0, 1110.0, 1099.0, 1111.0]}
our cuda printf fifo buffer size is 52428800.
the number of input argument is: 4
0.749668*********
configuration: sort_flag = 1, verbose_flag=0, check_flag=0, npoints=200000, radius=0.320000
Kernel start!
avg corr: 170.587326
@ overall: 4472 ms
@ read_input: 916 ms
@ build_tree: 1120 ms
@ hashtab: 141 ms
@ gpu_tree_build: 78 ms
@ init_kernel:  0 ms
@ gpu_tree_copy_to: 17 ms
@ kernel: 2177 ms
@ extra: 1033 ms
@ traverse: 2432 ms
@ gpu_tree_copy_from: 19 ms
Collected results into ../../../results/tmp/pc_FSM_Lockstep_random.7d_sorted.stats

Loading data from ../../../results/tmp/pc_FSM_Lockstep_random.7d_sorted.stats...
{'gpu_tree_copy_to:': [18.0, 18.0, 18.0, 27.0, 27.0, 17.0, 17.0, 17.0], 'gpu_tree_build:': [79.0, 84.0, 80.0, 83.0, 78.0, 79.0, 81.0, 78.0], 'init_kernel:': [0.0, 0.0, 0.0, 0.0, 0.0, 0.0, 0.0, 0.0], 'hashtab:': [138.0, 142.0, 136.0, 138.0, 137.0, 136.0, 137.0, 141.0], 'traverse:': [2432.0, 2437.0, 2427.0, 2448.0, 2436.0, 2427.0, 2432.0, 2432.0], 'kernel:': [2177.0, 2174.0, 2173.0, 2176.0, 2172.0, 2174.0, 2179.0, 2177.0], 'overall:': [4406.0, 4444.0, 4465.0, 4531.0, 4421.0, 4513.0, 4409.0, 4472.0], 'read_input:': [870.0, 904.0, 931.0, 978.0, 869.0, 981.0, 861.0, 916.0], 'extra:': [1012.0, 1010.0, 1014.0, 1011.0, 1025.0, 1011.0, 1020.0, 1033.0], 'gpu_tree_copy_from:': [20.0, 20.0, 20.0, 24.0, 22.0, 19.0, 19.0, 19.0], 'build_tree:': [1099.0, 1098.0, 1102.0, 1100.0, 1110.0, 1099.0, 1111.0, 1120.0]}
our cuda printf fifo buffer size is 52428800.
the number of input argument is: 4
0.749668*********
configuration: sort_flag = 1, verbose_flag=0, check_flag=0, npoints=200000, radius=0.320000
Kernel start!
avg corr: 170.587326
@ overall: 4409 ms
@ read_input: 860 ms
@ build_tree: 1111 ms
@ hashtab: 138 ms
@ gpu_tree_build: 82 ms
@ init_kernel:  0 ms
@ gpu_tree_copy_to: 17 ms
@ kernel: 2175 ms
@ extra: 1020 ms
@ traverse: 2432 ms
@ gpu_tree_copy_from: 19 ms
Collected results into ../../../results/tmp/pc_FSM_Lockstep_random.7d_sorted.stats

Loading data from ../../../results/tmp/pc_FSM_Lockstep_random.7d_sorted.stats...
{'gpu_tree_copy_to:': [18.0, 18.0, 18.0, 27.0, 27.0, 17.0, 17.0, 17.0, 17.0], 'gpu_tree_build:': [79.0, 84.0, 80.0, 83.0, 78.0, 79.0, 81.0, 78.0, 82.0], 'init_kernel:': [0.0, 0.0, 0.0, 0.0, 0.0, 0.0, 0.0, 0.0, 0.0], 'traverse:': [2432.0, 2437.0, 2427.0, 2448.0, 2436.0, 2427.0, 2432.0, 2432.0, 2432.0], 'hashtab:': [138.0, 142.0, 136.0, 138.0, 137.0, 136.0, 137.0, 141.0, 138.0], 'kernel:': [2177.0, 2174.0, 2173.0, 2176.0, 2172.0, 2174.0, 2179.0, 2177.0, 2175.0], 'overall:': [4406.0, 4444.0, 4465.0, 4531.0, 4421.0, 4513.0, 4409.0, 4472.0, 4409.0], 'read_input:': [870.0, 904.0, 931.0, 978.0, 869.0, 981.0, 861.0, 916.0, 860.0], 'extra:': [1012.0, 1010.0, 1014.0, 1011.0, 1025.0, 1011.0, 1020.0, 1033.0, 1020.0], 'gpu_tree_copy_from:': [20.0, 20.0, 20.0, 24.0, 22.0, 19.0, 19.0, 19.0, 19.0], 'build_tree:': [1099.0, 1098.0, 1102.0, 1100.0, 1110.0, 1099.0, 1111.0, 1120.0, 1111.0]}
our cuda printf fifo buffer size is 52428800.
the number of input argument is: 4
0.749668*********
configuration: sort_flag = 1, verbose_flag=0, check_flag=0, npoints=200000, radius=0.320000
Kernel start!
avg corr: 170.587326
@ overall: 4503 ms
@ read_input: 955 ms
@ build_tree: 1115 ms
@ hashtab: 138 ms
@ gpu_tree_build: 79 ms
@ init_kernel:  0 ms
@ gpu_tree_copy_to: 17 ms
@ kernel: 2174 ms
@ extra: 1024 ms
@ traverse: 2427 ms
@ gpu_tree_copy_from: 19 ms
Collected results into ../../../results/tmp/pc_FSM_Lockstep_random.7d_sorted.stats

Loading data from ../../../results/tmp/pc_FSM_Lockstep_random.7d_sorted.stats...
{'gpu_tree_copy_to:': [18.0, 18.0, 18.0, 27.0, 27.0, 17.0, 17.0, 17.0, 17.0, 17.0], 'gpu_tree_build:': [79.0, 84.0, 80.0, 83.0, 78.0, 79.0, 81.0, 78.0, 82.0, 79.0], 'init_kernel:': [0.0, 0.0, 0.0, 0.0, 0.0, 0.0, 0.0, 0.0, 0.0, 0.0], 'hashtab:': [138.0, 142.0, 136.0, 138.0, 137.0, 136.0, 137.0, 141.0, 138.0, 138.0], 'traverse:': [2432.0, 2437.0, 2427.0, 2448.0, 2436.0, 2427.0, 2432.0, 2432.0, 2432.0, 2427.0], 'kernel:': [2177.0, 2174.0, 2173.0, 2176.0, 2172.0, 2174.0, 2179.0, 2177.0, 2175.0, 2174.0], 'overall:': [4406.0, 4444.0, 4465.0, 4531.0, 4421.0, 4513.0, 4409.0, 4472.0, 4409.0, 4503.0], 'read_input:': [870.0, 904.0, 931.0, 978.0, 869.0, 981.0, 861.0, 916.0, 860.0, 955.0], 'extra:': [1012.0, 1010.0, 1014.0, 1011.0, 1025.0, 1011.0, 1020.0, 1033.0, 1020.0, 1024.0], 'gpu_tree_copy_from:': [20.0, 20.0, 20.0, 24.0, 22.0, 19.0, 19.0, 19.0, 19.0, 19.0], 'build_tree:': [1099.0, 1098.0, 1102.0, 1100.0, 1110.0, 1099.0, 1111.0, 1120.0, 1111.0, 1115.0]}
our cuda printf fifo buffer size is 52428800.
the number of input argument is: 4
0.749668*********
configuration: sort_flag = 1, verbose_flag=0, check_flag=0, npoints=200000, radius=0.320000
Kernel start!
avg corr: 170.587326
@ overall: 4508 ms
@ read_input: 978 ms
@ build_tree: 1097 ms
@ hashtab: 138 ms
@ gpu_tree_build: 81 ms
@ init_kernel:  0 ms
@ gpu_tree_copy_to: 16 ms
@ kernel: 2173 ms
@ extra: 1009 ms
@ traverse: 2428 ms
@ gpu_tree_copy_from: 19 ms
Collected results into ../../../results/tmp/pc_FSM_Lockstep_random.7d_sorted.stats

Loading data from ../../../results/tmp/pc_FSM_Lockstep_random.7d_sorted.stats...
{'gpu_tree_copy_to:': [18.0, 18.0, 18.0, 27.0, 27.0, 17.0, 17.0, 17.0, 17.0, 17.0, 16.0], 'gpu_tree_build:': [79.0, 84.0, 80.0, 83.0, 78.0, 79.0, 81.0, 78.0, 82.0, 79.0, 81.0], 'init_kernel:': [0.0, 0.0, 0.0, 0.0, 0.0, 0.0, 0.0, 0.0, 0.0, 0.0, 0.0], 'traverse:': [2432.0, 2437.0, 2427.0, 2448.0, 2436.0, 2427.0, 2432.0, 2432.0, 2432.0, 2427.0, 2428.0], 'hashtab:': [138.0, 142.0, 136.0, 138.0, 137.0, 136.0, 137.0, 141.0, 138.0, 138.0, 138.0], 'kernel:': [2177.0, 2174.0, 2173.0, 2176.0, 2172.0, 2174.0, 2179.0, 2177.0, 2175.0, 2174.0, 2173.0], 'overall:': [4406.0, 4444.0, 4465.0, 4531.0, 4421.0, 4513.0, 4409.0, 4472.0, 4409.0, 4503.0, 4508.0], 'read_input:': [870.0, 904.0, 931.0, 978.0, 869.0, 981.0, 861.0, 916.0, 860.0, 955.0, 978.0], 'extra:': [1012.0, 1010.0, 1014.0, 1011.0, 1025.0, 1011.0, 1020.0, 1033.0, 1020.0, 1024.0, 1009.0], 'gpu_tree_copy_from:': [20.0, 20.0, 20.0, 24.0, 22.0, 19.0, 19.0, 19.0, 19.0, 19.0, 19.0], 'build_tree:': [1099.0, 1098.0, 1102.0, 1100.0, 1110.0, 1099.0, 1111.0, 1120.0, 1111.0, 1115.0, 1097.0]}
our cuda printf fifo buffer size is 52428800.
the number of input argument is: 4
0.749668*********
configuration: sort_flag = 1, verbose_flag=0, check_flag=0, npoints=200000, radius=0.320000
Kernel start!
avg corr: 170.587326
@ overall: 4473 ms
@ read_input: 951 ms
@ build_tree: 1097 ms
@ hashtab: 135 ms
@ gpu_tree_build: 77 ms
@ init_kernel:  0 ms
@ gpu_tree_copy_to: 16 ms
@ kernel: 2172 ms
@ extra: 1009 ms
@ traverse: 2419 ms
@ gpu_tree_copy_from: 18 ms
Collected results into ../../../results/tmp/pc_FSM_Lockstep_random.7d_sorted.stats

Loading data from ../../../results/tmp/pc_FSM_Lockstep_random.7d_sorted.stats...
{'gpu_tree_copy_to:': [18.0, 18.0, 18.0, 27.0, 27.0, 17.0, 17.0, 17.0, 17.0, 17.0, 16.0, 16.0], 'gpu_tree_build:': [79.0, 84.0, 80.0, 83.0, 78.0, 79.0, 81.0, 78.0, 82.0, 79.0, 81.0, 77.0], 'init_kernel:': [0.0, 0.0, 0.0, 0.0, 0.0, 0.0, 0.0, 0.0, 0.0, 0.0, 0.0, 0.0], 'hashtab:': [138.0, 142.0, 136.0, 138.0, 137.0, 136.0, 137.0, 141.0, 138.0, 138.0, 138.0, 135.0], 'traverse:': [2432.0, 2437.0, 2427.0, 2448.0, 2436.0, 2427.0, 2432.0, 2432.0, 2432.0, 2427.0, 2428.0, 2419.0], 'kernel:': [2177.0, 2174.0, 2173.0, 2176.0, 2172.0, 2174.0, 2179.0, 2177.0, 2175.0, 2174.0, 2173.0, 2172.0], 'overall:': [4406.0, 4444.0, 4465.0, 4531.0, 4421.0, 4513.0, 4409.0, 4472.0, 4409.0, 4503.0, 4508.0, 4473.0], 'read_input:': [870.0, 904.0, 931.0, 978.0, 869.0, 981.0, 861.0, 916.0, 860.0, 955.0, 978.0, 951.0], 'extra:': [1012.0, 1010.0, 1014.0, 1011.0, 1025.0, 1011.0, 1020.0, 1033.0, 1020.0, 1024.0, 1009.0, 1009.0], 'gpu_tree_copy_from:': [20.0, 20.0, 20.0, 24.0, 22.0, 19.0, 19.0, 19.0, 19.0, 19.0, 19.0, 18.0], 'build_tree:': [1099.0, 1098.0, 1102.0, 1100.0, 1110.0, 1099.0, 1111.0, 1120.0, 1111.0, 1115.0, 1097.0, 1097.0]}
our cuda printf fifo buffer size is 52428800.
the number of input argument is: 4
0.749668*********
configuration: sort_flag = 1, verbose_flag=0, check_flag=0, npoints=200000, radius=0.320000
Kernel start!
avg corr: 170.587326
@ overall: 4510 ms
@ read_input: 984 ms
@ build_tree: 1100 ms
@ hashtab: 136 ms
@ gpu_tree_build: 80 ms
@ init_kernel:  0 ms
@ gpu_tree_copy_to: 16 ms
@ kernel: 2170 ms
@ extra: 1011 ms
@ traverse: 2422 ms
@ gpu_tree_copy_from: 18 ms
Collected results into ../../../results/tmp/pc_FSM_Lockstep_random.7d_sorted.stats

Loading data from ../../../results/tmp/pc_FSM_Lockstep_random.7d_sorted.stats...
{'gpu_tree_copy_to:': [18.0, 18.0, 18.0, 27.0, 27.0, 17.0, 17.0, 17.0, 17.0, 17.0, 16.0, 16.0, 16.0], 'gpu_tree_build:': [79.0, 84.0, 80.0, 83.0, 78.0, 79.0, 81.0, 78.0, 82.0, 79.0, 81.0, 77.0, 80.0], 'init_kernel:': [0.0, 0.0, 0.0, 0.0, 0.0, 0.0, 0.0, 0.0, 0.0, 0.0, 0.0, 0.0, 0.0], 'traverse:': [2432.0, 2437.0, 2427.0, 2448.0, 2436.0, 2427.0, 2432.0, 2432.0, 2432.0, 2427.0, 2428.0, 2419.0, 2422.0], 'hashtab:': [138.0, 142.0, 136.0, 138.0, 137.0, 136.0, 137.0, 141.0, 138.0, 138.0, 138.0, 135.0, 136.0], 'kernel:': [2177.0, 2174.0, 2173.0, 2176.0, 2172.0, 2174.0, 2179.0, 2177.0, 2175.0, 2174.0, 2173.0, 2172.0, 2170.0], 'overall:': [4406.0, 4444.0, 4465.0, 4531.0, 4421.0, 4513.0, 4409.0, 4472.0, 4409.0, 4503.0, 4508.0, 4473.0, 4510.0], 'read_input:': [870.0, 904.0, 931.0, 978.0, 869.0, 981.0, 861.0, 916.0, 860.0, 955.0, 978.0, 951.0, 984.0], 'extra:': [1012.0, 1010.0, 1014.0, 1011.0, 1025.0, 1011.0, 1020.0, 1033.0, 1020.0, 1024.0, 1009.0, 1009.0, 1011.0], 'gpu_tree_copy_from:': [20.0, 20.0, 20.0, 24.0, 22.0, 19.0, 19.0, 19.0, 19.0, 19.0, 19.0, 18.0, 18.0], 'build_tree:': [1099.0, 1098.0, 1102.0, 1100.0, 1110.0, 1099.0, 1111.0, 1120.0, 1111.0, 1115.0, 1097.0, 1097.0, 1100.0]}
our cuda printf fifo buffer size is 52428800.
the number of input argument is: 4
0.749668*********
configuration: sort_flag = 1, verbose_flag=0, check_flag=0, npoints=200000, radius=0.320000
Kernel start!
avg corr: 170.587326
@ overall: 4501 ms
@ read_input: 966 ms
@ build_tree: 1108 ms
@ hashtab: 138 ms
@ gpu_tree_build: 76 ms
@ init_kernel:  0 ms
@ gpu_tree_copy_to: 16 ms
@ kernel: 2174 ms
@ extra: 1021 ms
@ traverse: 2422 ms
@ gpu_tree_copy_from: 18 ms
Collected results into ../../../results/tmp/pc_FSM_Lockstep_random.7d_sorted.stats

Loading data from ../../../results/tmp/pc_FSM_Lockstep_random.7d_sorted.stats...
{'gpu_tree_copy_to:': [18.0, 18.0, 18.0, 27.0, 27.0, 17.0, 17.0, 17.0, 17.0, 17.0, 16.0, 16.0, 16.0, 16.0], 'gpu_tree_build:': [79.0, 84.0, 80.0, 83.0, 78.0, 79.0, 81.0, 78.0, 82.0, 79.0, 81.0, 77.0, 80.0, 76.0], 'init_kernel:': [0.0, 0.0, 0.0, 0.0, 0.0, 0.0, 0.0, 0.0, 0.0, 0.0, 0.0, 0.0, 0.0, 0.0], 'hashtab:': [138.0, 142.0, 136.0, 138.0, 137.0, 136.0, 137.0, 141.0, 138.0, 138.0, 138.0, 135.0, 136.0, 138.0], 'traverse:': [2432.0, 2437.0, 2427.0, 2448.0, 2436.0, 2427.0, 2432.0, 2432.0, 2432.0, 2427.0, 2428.0, 2419.0, 2422.0, 2422.0], 'kernel:': [2177.0, 2174.0, 2173.0, 2176.0, 2172.0, 2174.0, 2179.0, 2177.0, 2175.0, 2174.0, 2173.0, 2172.0, 2170.0, 2174.0], 'overall:': [4406.0, 4444.0, 4465.0, 4531.0, 4421.0, 4513.0, 4409.0, 4472.0, 4409.0, 4503.0, 4508.0, 4473.0, 4510.0, 4501.0], 'read_input:': [870.0, 904.0, 931.0, 978.0, 869.0, 981.0, 861.0, 916.0, 860.0, 955.0, 978.0, 951.0, 984.0, 966.0], 'extra:': [1012.0, 1010.0, 1014.0, 1011.0, 1025.0, 1011.0, 1020.0, 1033.0, 1020.0, 1024.0, 1009.0, 1009.0, 1011.0, 1021.0], 'gpu_tree_copy_from:': [20.0, 20.0, 20.0, 24.0, 22.0, 19.0, 19.0, 19.0, 19.0, 19.0, 19.0, 18.0, 18.0, 18.0], 'build_tree:': [1099.0, 1098.0, 1102.0, 1100.0, 1110.0, 1099.0, 1111.0, 1120.0, 1111.0, 1115.0, 1097.0, 1097.0, 1100.0, 1108.0]}
our cuda printf fifo buffer size is 52428800.
the number of input argument is: 4
0.749668*********
configuration: sort_flag = 1, verbose_flag=0, check_flag=0, npoints=200000, radius=0.320000
Kernel start!
avg corr: 170.587326
@ overall: 4457 ms
@ read_input: 928 ms
@ build_tree: 1099 ms
@ hashtab: 135 ms
@ gpu_tree_build: 79 ms
@ init_kernel:  0 ms
@ gpu_tree_copy_to: 17 ms
@ kernel: 2176 ms
@ extra: 1010 ms
@ traverse: 2426 ms
@ gpu_tree_copy_from: 19 ms
Collected results into ../../../results/tmp/pc_FSM_Lockstep_random.7d_sorted.stats

