Results wll be collected to ../../../results/tmp/pc_FSM_Lockstep_covtype.7d_unsorted.stats...
our cuda printf fifo buffer size is 52428800.
the number of input argument is: 3
-1.109060*********
configuration: sort_flag = 0, verbose_flag=0, check_flag=0, npoints=200000, radius=0.320000
Kernel start!
avg corr: 19.318600
@ overall: 14195 ms
@ read_input: 1005 ms
@ build_tree: 1106 ms
@ hashtab: 138 ms
@ gpu_tree_build: 78 ms
@ init_kernel:  0 ms
@ gpu_tree_copy_to: 17 ms
@ kernel: 11827 ms
@ extra: 998 ms
@ traverse: 12079 ms
@ gpu_tree_copy_from: 19 ms
Collected results into ../../../results/tmp/pc_FSM_Lockstep_covtype.7d_unsorted.stats

Loading data from ../../../results/tmp/pc_FSM_Lockstep_covtype.7d_unsorted.stats...
{'gpu_tree_copy_to:': [17.0], 'gpu_tree_build:': [78.0], 'init_kernel:': [0.0], 'traverse:': [12079.0], 'hashtab:': [138.0], 'kernel:': [11827.0], 'overall:': [14195.0], 'read_input:': [1005.0], 'extra:': [998.0], 'gpu_tree_copy_from:': [19.0], 'build_tree:': [1106.0]}
our cuda printf fifo buffer size is 52428800.
the number of input argument is: 3
-1.109060*********
configuration: sort_flag = 0, verbose_flag=0, check_flag=0, npoints=200000, radius=0.320000
Kernel start!
avg corr: 19.318600
@ overall: 14212 ms
@ read_input: 947 ms
@ build_tree: 1107 ms
@ hashtab: 138 ms
@ gpu_tree_build: 77 ms
@ init_kernel:  0 ms
@ gpu_tree_copy_to: 16 ms
@ kernel: 11903 ms
@ extra: 1000 ms
@ traverse: 12153 ms
@ gpu_tree_copy_from: 19 ms
Collected results into ../../../results/tmp/pc_FSM_Lockstep_covtype.7d_unsorted.stats

Loading data from ../../../results/tmp/pc_FSM_Lockstep_covtype.7d_unsorted.stats...
{'gpu_tree_copy_to:': [17.0, 16.0], 'gpu_tree_build:': [78.0, 77.0], 'init_kernel:': [0.0, 0.0], 'hashtab:': [138.0, 138.0], 'traverse:': [12079.0, 12153.0], 'kernel:': [11827.0, 11903.0], 'overall:': [14195.0, 14212.0], 'read_input:': [1005.0, 947.0], 'extra:': [998.0, 1000.0], 'gpu_tree_copy_from:': [19.0, 19.0], 'build_tree:': [1106.0, 1107.0]}
our cuda printf fifo buffer size is 52428800.
the number of input argument is: 3
-1.109060*********
configuration: sort_flag = 0, verbose_flag=0, check_flag=0, npoints=200000, radius=0.320000
Kernel start!
avg corr: 19.318600
@ overall: 14210 ms
@ read_input: 941 ms
@ build_tree: 1110 ms
@ hashtab: 138 ms
@ gpu_tree_build: 81 ms
@ init_kernel:  0 ms
@ gpu_tree_copy_to: 27 ms
@ kernel: 11886 ms
@ extra: 999 ms
@ traverse: 12153 ms
@ gpu_tree_copy_from: 22 ms
Collected results into ../../../results/tmp/pc_FSM_Lockstep_covtype.7d_unsorted.stats

Loading data from ../../../results/tmp/pc_FSM_Lockstep_covtype.7d_unsorted.stats...
{'gpu_tree_copy_to:': [17.0, 16.0, 27.0], 'gpu_tree_build:': [78.0, 77.0, 81.0], 'init_kernel:': [0.0, 0.0, 0.0], 'traverse:': [12079.0, 12153.0, 12153.0], 'hashtab:': [138.0, 138.0, 138.0], 'kernel:': [11827.0, 11903.0, 11886.0], 'overall:': [14195.0, 14212.0, 14210.0], 'read_input:': [1005.0, 947.0, 941.0], 'extra:': [998.0, 1000.0, 999.0], 'gpu_tree_copy_from:': [19.0, 19.0, 22.0], 'build_tree:': [1106.0, 1107.0, 1110.0]}
our cuda printf fifo buffer size is 52428800.
the number of input argument is: 3
-1.109060*********
configuration: sort_flag = 0, verbose_flag=0, check_flag=0, npoints=200000, radius=0.320000
Kernel start!
avg corr: 19.318600
@ overall: 14228 ms
@ read_input: 947 ms
@ build_tree: 1112 ms
@ hashtab: 138 ms
@ gpu_tree_build: 81 ms
@ init_kernel:  0 ms
@ gpu_tree_copy_to: 27 ms
@ kernel: 11896 ms
@ extra: 1001 ms
@ traverse: 12163 ms
@ gpu_tree_copy_from: 21 ms
Collected results into ../../../results/tmp/pc_FSM_Lockstep_covtype.7d_unsorted.stats

Loading data from ../../../results/tmp/pc_FSM_Lockstep_covtype.7d_unsorted.stats...
{'gpu_tree_copy_to:': [17.0, 16.0, 27.0, 27.0], 'gpu_tree_build:': [78.0, 77.0, 81.0, 81.0], 'init_kernel:': [0.0, 0.0, 0.0, 0.0], 'hashtab:': [138.0, 138.0, 138.0, 138.0], 'traverse:': [12079.0, 12153.0, 12153.0, 12163.0], 'kernel:': [11827.0, 11903.0, 11886.0, 11896.0], 'overall:': [14195.0, 14212.0, 14210.0, 14228.0], 'read_input:': [1005.0, 947.0, 941.0, 947.0], 'extra:': [998.0, 1000.0, 999.0, 1001.0], 'gpu_tree_copy_from:': [19.0, 19.0, 22.0, 21.0], 'build_tree:': [1106.0, 1107.0, 1110.0, 1112.0]}
our cuda printf fifo buffer size is 52428800.
the number of input argument is: 3
-1.109060*********
configuration: sort_flag = 0, verbose_flag=0, check_flag=0, npoints=200000, radius=0.320000
Kernel start!
avg corr: 19.318600
@ overall: 14248 ms
@ read_input: 1059 ms
@ build_tree: 1123 ms
@ hashtab: 138 ms
@ gpu_tree_build: 85 ms
@ init_kernel:  0 ms
@ gpu_tree_copy_to: 20 ms
@ kernel: 11786 ms
@ extra: 1015 ms
@ traverse: 12059 ms
@ gpu_tree_copy_from: 30 ms
Collected results into ../../../results/tmp/pc_FSM_Lockstep_covtype.7d_unsorted.stats

Loading data from ../../../results/tmp/pc_FSM_Lockstep_covtype.7d_unsorted.stats...
{'gpu_tree_copy_to:': [17.0, 16.0, 27.0, 27.0, 20.0], 'gpu_tree_build:': [78.0, 77.0, 81.0, 81.0, 85.0], 'init_kernel:': [0.0, 0.0, 0.0, 0.0, 0.0], 'traverse:': [12079.0, 12153.0, 12153.0, 12163.0, 12059.0], 'hashtab:': [138.0, 138.0, 138.0, 138.0, 138.0], 'kernel:': [11827.0, 11903.0, 11886.0, 11896.0, 11786.0], 'overall:': [14195.0, 14212.0, 14210.0, 14228.0, 14248.0], 'read_input:': [1005.0, 947.0, 941.0, 947.0, 1059.0], 'extra:': [998.0, 1000.0, 999.0, 1001.0, 1015.0], 'gpu_tree_copy_from:': [19.0, 19.0, 22.0, 21.0, 30.0], 'build_tree:': [1106.0, 1107.0, 1110.0, 1112.0, 1123.0]}
our cuda printf fifo buffer size is 52428800.
the number of input argument is: 3
-1.109060*********
configuration: sort_flag = 0, verbose_flag=0, check_flag=0, npoints=200000, radius=0.320000
Kernel start!
avg corr: 19.318600
@ overall: 14241 ms
@ read_input: 992 ms
@ build_tree: 1107 ms
@ hashtab: 137 ms
@ gpu_tree_build: 78 ms
@ init_kernel:  0 ms
@ gpu_tree_copy_to: 27 ms
@ kernel: 11876 ms
@ extra: 997 ms
@ traverse: 12138 ms
@ gpu_tree_copy_from: 20 ms
Collected results into ../../../results/tmp/pc_FSM_Lockstep_covtype.7d_unsorted.stats

Loading data from ../../../results/tmp/pc_FSM_Lockstep_covtype.7d_unsorted.stats...
{'gpu_tree_copy_to:': [17.0, 16.0, 27.0, 27.0, 20.0, 27.0], 'gpu_tree_build:': [78.0, 77.0, 81.0, 81.0, 85.0, 78.0], 'init_kernel:': [0.0, 0.0, 0.0, 0.0, 0.0, 0.0], 'hashtab:': [138.0, 138.0, 138.0, 138.0, 138.0, 137.0], 'traverse:': [12079.0, 12153.0, 12153.0, 12163.0, 12059.0, 12138.0], 'kernel:': [11827.0, 11903.0, 11886.0, 11896.0, 11786.0, 11876.0], 'overall:': [14195.0, 14212.0, 14210.0, 14228.0, 14248.0, 14241.0], 'read_input:': [1005.0, 947.0, 941.0, 947.0, 1059.0, 992.0], 'extra:': [998.0, 1000.0, 999.0, 1001.0, 1015.0, 997.0], 'gpu_tree_copy_from:': [19.0, 19.0, 22.0, 21.0, 30.0, 20.0], 'build_tree:': [1106.0, 1107.0, 1110.0, 1112.0, 1123.0, 1107.0]}
our cuda printf fifo buffer size is 52428800.
the number of input argument is: 3
-1.109060*********
configuration: sort_flag = 0, verbose_flag=0, check_flag=0, npoints=200000, radius=0.320000
Kernel start!
avg corr: 19.318600
@ overall: 14168 ms
@ read_input: 938 ms
@ build_tree: 1108 ms
@ hashtab: 137 ms
@ gpu_tree_build: 81 ms
@ init_kernel:  0 ms
@ gpu_tree_copy_to: 17 ms
@ kernel: 11863 ms
@ extra: 997 ms
@ traverse: 12116 ms
@ gpu_tree_copy_from: 19 ms
Collected results into ../../../results/tmp/pc_FSM_Lockstep_covtype.7d_unsorted.stats

Loading data from ../../../results/tmp/pc_FSM_Lockstep_covtype.7d_unsorted.stats...
{'gpu_tree_copy_to:': [17.0, 16.0, 27.0, 27.0, 20.0, 27.0, 17.0], 'gpu_tree_build:': [78.0, 77.0, 81.0, 81.0, 85.0, 78.0, 81.0], 'init_kernel:': [0.0, 0.0, 0.0, 0.0, 0.0, 0.0, 0.0], 'traverse:': [12079.0, 12153.0, 12153.0, 12163.0, 12059.0, 12138.0, 12116.0], 'hashtab:': [138.0, 138.0, 138.0, 138.0, 138.0, 137.0, 137.0], 'kernel:': [11827.0, 11903.0, 11886.0, 11896.0, 11786.0, 11876.0, 11863.0], 'overall:': [14195.0, 14212.0, 14210.0, 14228.0, 14248.0, 14241.0, 14168.0], 'read_input:': [1005.0, 947.0, 941.0, 947.0, 1059.0, 992.0, 938.0], 'extra:': [998.0, 1000.0, 999.0, 1001.0, 1015.0, 997.0, 997.0], 'gpu_tree_copy_from:': [19.0, 19.0, 22.0, 21.0, 30.0, 20.0, 19.0], 'build_tree:': [1106.0, 1107.0, 1110.0, 1112.0, 1123.0, 1107.0, 1108.0]}
our cuda printf fifo buffer size is 52428800.
the number of input argument is: 3
-1.109060*********
configuration: sort_flag = 0, verbose_flag=0, check_flag=0, npoints=200000, radius=0.320000
Kernel start!
avg corr: 19.318600
@ overall: 14208 ms
@ read_input: 1051 ms
@ build_tree: 1112 ms
@ hashtab: 137 ms
@ gpu_tree_build: 79 ms
@ init_kernel:  0 ms
@ gpu_tree_copy_to: 17 ms
@ kernel: 11788 ms
@ extra: 1001 ms
@ traverse: 12040 ms
@ gpu_tree_copy_from: 19 ms
Collected results into ../../../results/tmp/pc_FSM_Lockstep_covtype.7d_unsorted.stats

Loading data from ../../../results/tmp/pc_FSM_Lockstep_covtype.7d_unsorted.stats...
{'gpu_tree_copy_to:': [17.0, 16.0, 27.0, 27.0, 20.0, 27.0, 17.0, 17.0], 'gpu_tree_build:': [78.0, 77.0, 81.0, 81.0, 85.0, 78.0, 81.0, 79.0], 'init_kernel:': [0.0, 0.0, 0.0, 0.0, 0.0, 0.0, 0.0, 0.0], 'hashtab:': [138.0, 138.0, 138.0, 138.0, 138.0, 137.0, 137.0, 137.0], 'traverse:': [12079.0, 12153.0, 12153.0, 12163.0, 12059.0, 12138.0, 12116.0, 12040.0], 'kernel:': [11827.0, 11903.0, 11886.0, 11896.0, 11786.0, 11876.0, 11863.0, 11788.0], 'overall:': [14195.0, 14212.0, 14210.0, 14228.0, 14248.0, 14241.0, 14168.0, 14208.0], 'read_input:': [1005.0, 947.0, 941.0, 947.0, 1059.0, 992.0, 938.0, 1051.0], 'extra:': [998.0, 1000.0, 999.0, 1001.0, 1015.0, 997.0, 997.0, 1001.0], 'gpu_tree_copy_from:': [19.0, 19.0, 22.0, 21.0, 30.0, 20.0, 19.0, 19.0], 'build_tree:': [1106.0, 1107.0, 1110.0, 1112.0, 1123.0, 1107.0, 1108.0, 1112.0]}
our cuda printf fifo buffer size is 52428800.
the number of input argument is: 3
-1.109060*********
configuration: sort_flag = 0, verbose_flag=0, check_flag=0, npoints=200000, radius=0.320000
Kernel start!
avg corr: 19.318600
@ overall: 14265 ms
@ read_input: 1009 ms
@ build_tree: 1107 ms
@ hashtab: 138 ms
@ gpu_tree_build: 77 ms
@ init_kernel:  0 ms
@ gpu_tree_copy_to: 17 ms
@ kernel: 11893 ms
@ extra: 997 ms
@ traverse: 12144 ms
@ gpu_tree_copy_from: 19 ms
Collected results into ../../../results/tmp/pc_FSM_Lockstep_covtype.7d_unsorted.stats

Loading data from ../../../results/tmp/pc_FSM_Lockstep_covtype.7d_unsorted.stats...
{'gpu_tree_copy_to:': [17.0, 16.0, 27.0, 27.0, 20.0, 27.0, 17.0, 17.0, 17.0], 'gpu_tree_build:': [78.0, 77.0, 81.0, 81.0, 85.0, 78.0, 81.0, 79.0, 77.0], 'init_kernel:': [0.0, 0.0, 0.0, 0.0, 0.0, 0.0, 0.0, 0.0, 0.0], 'traverse:': [12079.0, 12153.0, 12153.0, 12163.0, 12059.0, 12138.0, 12116.0, 12040.0, 12144.0], 'hashtab:': [138.0, 138.0, 138.0, 138.0, 138.0, 137.0, 137.0, 137.0, 138.0], 'kernel:': [11827.0, 11903.0, 11886.0, 11896.0, 11786.0, 11876.0, 11863.0, 11788.0, 11893.0], 'overall:': [14195.0, 14212.0, 14210.0, 14228.0, 14248.0, 14241.0, 14168.0, 14208.0, 14265.0], 'read_input:': [1005.0, 947.0, 941.0, 947.0, 1059.0, 992.0, 938.0, 1051.0, 1009.0], 'extra:': [998.0, 1000.0, 999.0, 1001.0, 1015.0, 997.0, 997.0, 1001.0, 997.0], 'gpu_tree_copy_from:': [19.0, 19.0, 22.0, 21.0, 30.0, 20.0, 19.0, 19.0, 19.0], 'build_tree:': [1106.0, 1107.0, 1110.0, 1112.0, 1123.0, 1107.0, 1108.0, 1112.0, 1107.0]}
our cuda printf fifo buffer size is 52428800.
the number of input argument is: 3
-1.109060*********
configuration: sort_flag = 0, verbose_flag=0, check_flag=0, npoints=200000, radius=0.320000
Kernel start!
avg corr: 19.318600
@ overall: 14102 ms
@ read_input: 933 ms
@ build_tree: 1112 ms
@ hashtab: 136 ms
@ gpu_tree_build: 82 ms
@ init_kernel:  0 ms
@ gpu_tree_copy_to: 18 ms
@ kernel: 11795 ms
@ extra: 1000 ms
@ traverse: 12051 ms
@ gpu_tree_copy_from: 20 ms
Collected results into ../../../results/tmp/pc_FSM_Lockstep_covtype.7d_unsorted.stats

Loading data from ../../../results/tmp/pc_FSM_Lockstep_covtype.7d_unsorted.stats...
{'gpu_tree_copy_to:': [17.0, 16.0, 27.0, 27.0, 20.0, 27.0, 17.0, 17.0, 17.0, 18.0], 'gpu_tree_build:': [78.0, 77.0, 81.0, 81.0, 85.0, 78.0, 81.0, 79.0, 77.0, 82.0], 'init_kernel:': [0.0, 0.0, 0.0, 0.0, 0.0, 0.0, 0.0, 0.0, 0.0, 0.0], 'hashtab:': [138.0, 138.0, 138.0, 138.0, 138.0, 137.0, 137.0, 137.0, 138.0, 136.0], 'traverse:': [12079.0, 12153.0, 12153.0, 12163.0, 12059.0, 12138.0, 12116.0, 12040.0, 12144.0, 12051.0], 'kernel:': [11827.0, 11903.0, 11886.0, 11896.0, 11786.0, 11876.0, 11863.0, 11788.0, 11893.0, 11795.0], 'overall:': [14195.0, 14212.0, 14210.0, 14228.0, 14248.0, 14241.0, 14168.0, 14208.0, 14265.0, 14102.0], 'read_input:': [1005.0, 947.0, 941.0, 947.0, 1059.0, 992.0, 938.0, 1051.0, 1009.0, 933.0], 'extra:': [998.0, 1000.0, 999.0, 1001.0, 1015.0, 997.0, 997.0, 1001.0, 997.0, 1000.0], 'gpu_tree_copy_from:': [19.0, 19.0, 22.0, 21.0, 30.0, 20.0, 19.0, 19.0, 19.0, 20.0], 'build_tree:': [1106.0, 1107.0, 1110.0, 1112.0, 1123.0, 1107.0, 1108.0, 1112.0, 1107.0, 1112.0]}
our cuda printf fifo buffer size is 52428800.
the number of input argument is: 3
-1.109060*********
configuration: sort_flag = 0, verbose_flag=0, check_flag=0, npoints=200000, radius=0.320000
Kernel start!
avg corr: 19.318600
@ overall: 14165 ms
@ read_input: 994 ms
@ build_tree: 1104 ms
@ hashtab: 138 ms
@ gpu_tree_build: 76 ms
@ init_kernel:  0 ms
@ gpu_tree_copy_to: 18 ms
@ kernel: 11810 ms
@ extra: 995 ms
@ traverse: 12062 ms
@ gpu_tree_copy_from: 20 ms
Collected results into ../../../results/tmp/pc_FSM_Lockstep_covtype.7d_unsorted.stats

Loading data from ../../../results/tmp/pc_FSM_Lockstep_covtype.7d_unsorted.stats...
{'gpu_tree_copy_to:': [17.0, 16.0, 27.0, 27.0, 20.0, 27.0, 17.0, 17.0, 17.0, 18.0, 18.0], 'gpu_tree_build:': [78.0, 77.0, 81.0, 81.0, 85.0, 78.0, 81.0, 79.0, 77.0, 82.0, 76.0], 'init_kernel:': [0.0, 0.0, 0.0, 0.0, 0.0, 0.0, 0.0, 0.0, 0.0, 0.0, 0.0], 'traverse:': [12079.0, 12153.0, 12153.0, 12163.0, 12059.0, 12138.0, 12116.0, 12040.0, 12144.0, 12051.0, 12062.0], 'hashtab:': [138.0, 138.0, 138.0, 138.0, 138.0, 137.0, 137.0, 137.0, 138.0, 136.0, 138.0], 'kernel:': [11827.0, 11903.0, 11886.0, 11896.0, 11786.0, 11876.0, 11863.0, 11788.0, 11893.0, 11795.0, 11810.0], 'overall:': [14195.0, 14212.0, 14210.0, 14228.0, 14248.0, 14241.0, 14168.0, 14208.0, 14265.0, 14102.0, 14165.0], 'read_input:': [1005.0, 947.0, 941.0, 947.0, 1059.0, 992.0, 938.0, 1051.0, 1009.0, 933.0, 994.0], 'extra:': [998.0, 1000.0, 999.0, 1001.0, 1015.0, 997.0, 997.0, 1001.0, 997.0, 1000.0, 995.0], 'gpu_tree_copy_from:': [19.0, 19.0, 22.0, 21.0, 30.0, 20.0, 19.0, 19.0, 19.0, 20.0, 20.0], 'build_tree:': [1106.0, 1107.0, 1110.0, 1112.0, 1123.0, 1107.0, 1108.0, 1112.0, 1107.0, 1112.0, 1104.0]}
our cuda printf fifo buffer size is 52428800.
the number of input argument is: 3
-1.109060*********
configuration: sort_flag = 0, verbose_flag=0, check_flag=0, npoints=200000, radius=0.320000
Kernel start!
avg corr: 19.318600
@ overall: 14166 ms
@ read_input: 1020 ms
@ build_tree: 1108 ms
@ hashtab: 138 ms
@ gpu_tree_build: 84 ms
@ init_kernel:  0 ms
@ gpu_tree_copy_to: 18 ms
@ kernel: 11772 ms
@ extra: 997 ms
@ traverse: 12032 ms
@ gpu_tree_copy_from: 20 ms
Collected results into ../../../results/tmp/pc_FSM_Lockstep_covtype.7d_unsorted.stats

Loading data from ../../../results/tmp/pc_FSM_Lockstep_covtype.7d_unsorted.stats...
{'gpu_tree_copy_to:': [17.0, 16.0, 27.0, 27.0, 20.0, 27.0, 17.0, 17.0, 17.0, 18.0, 18.0, 18.0], 'gpu_tree_build:': [78.0, 77.0, 81.0, 81.0, 85.0, 78.0, 81.0, 79.0, 77.0, 82.0, 76.0, 84.0], 'init_kernel:': [0.0, 0.0, 0.0, 0.0, 0.0, 0.0, 0.0, 0.0, 0.0, 0.0, 0.0, 0.0], 'hashtab:': [138.0, 138.0, 138.0, 138.0, 138.0, 137.0, 137.0, 137.0, 138.0, 136.0, 138.0, 138.0], 'traverse:': [12079.0, 12153.0, 12153.0, 12163.0, 12059.0, 12138.0, 12116.0, 12040.0, 12144.0, 12051.0, 12062.0, 12032.0], 'kernel:': [11827.0, 11903.0, 11886.0, 11896.0, 11786.0, 11876.0, 11863.0, 11788.0, 11893.0, 11795.0, 11810.0, 11772.0], 'overall:': [14195.0, 14212.0, 14210.0, 14228.0, 14248.0, 14241.0, 14168.0, 14208.0, 14265.0, 14102.0, 14165.0, 14166.0], 'read_input:': [1005.0, 947.0, 941.0, 947.0, 1059.0, 992.0, 938.0, 1051.0, 1009.0, 933.0, 994.0, 1020.0], 'extra:': [998.0, 1000.0, 999.0, 1001.0, 1015.0, 997.0, 997.0, 1001.0, 997.0, 1000.0, 995.0, 997.0], 'gpu_tree_copy_from:': [19.0, 19.0, 22.0, 21.0, 30.0, 20.0, 19.0, 19.0, 19.0, 20.0, 20.0, 20.0], 'build_tree:': [1106.0, 1107.0, 1110.0, 1112.0, 1123.0, 1107.0, 1108.0, 1112.0, 1107.0, 1112.0, 1104.0, 1108.0]}
our cuda printf fifo buffer size is 52428800.
the number of input argument is: 3
-1.109060*********
configuration: sort_flag = 0, verbose_flag=0, check_flag=0, npoints=200000, radius=0.320000
Kernel start!
avg corr: 19.318600
@ overall: 14136 ms
@ read_input: 955 ms
@ build_tree: 1110 ms
@ hashtab: 139 ms
@ gpu_tree_build: 83 ms
@ init_kernel:  0 ms
@ gpu_tree_copy_to: 18 ms
@ kernel: 11807 ms
@ extra: 999 ms
@ traverse: 12066 ms
@ gpu_tree_copy_from: 20 ms
Collected results into ../../../results/tmp/pc_FSM_Lockstep_covtype.7d_unsorted.stats

Loading data from ../../../results/tmp/pc_FSM_Lockstep_covtype.7d_unsorted.stats...
{'gpu_tree_copy_to:': [17.0, 16.0, 27.0, 27.0, 20.0, 27.0, 17.0, 17.0, 17.0, 18.0, 18.0, 18.0, 18.0], 'gpu_tree_build:': [78.0, 77.0, 81.0, 81.0, 85.0, 78.0, 81.0, 79.0, 77.0, 82.0, 76.0, 84.0, 83.0], 'init_kernel:': [0.0, 0.0, 0.0, 0.0, 0.0, 0.0, 0.0, 0.0, 0.0, 0.0, 0.0, 0.0, 0.0], 'traverse:': [12079.0, 12153.0, 12153.0, 12163.0, 12059.0, 12138.0, 12116.0, 12040.0, 12144.0, 12051.0, 12062.0, 12032.0, 12066.0], 'hashtab:': [138.0, 138.0, 138.0, 138.0, 138.0, 137.0, 137.0, 137.0, 138.0, 136.0, 138.0, 138.0, 139.0], 'kernel:': [11827.0, 11903.0, 11886.0, 11896.0, 11786.0, 11876.0, 11863.0, 11788.0, 11893.0, 11795.0, 11810.0, 11772.0, 11807.0], 'overall:': [14195.0, 14212.0, 14210.0, 14228.0, 14248.0, 14241.0, 14168.0, 14208.0, 14265.0, 14102.0, 14165.0, 14166.0, 14136.0], 'read_input:': [1005.0, 947.0, 941.0, 947.0, 1059.0, 992.0, 938.0, 1051.0, 1009.0, 933.0, 994.0, 1020.0, 955.0], 'extra:': [998.0, 1000.0, 999.0, 1001.0, 1015.0, 997.0, 997.0, 1001.0, 997.0, 1000.0, 995.0, 997.0, 999.0], 'gpu_tree_copy_from:': [19.0, 19.0, 22.0, 21.0, 30.0, 20.0, 19.0, 19.0, 19.0, 20.0, 20.0, 20.0, 20.0], 'build_tree:': [1106.0, 1107.0, 1110.0, 1112.0, 1123.0, 1107.0, 1108.0, 1112.0, 1107.0, 1112.0, 1104.0, 1108.0, 1110.0]}
our cuda printf fifo buffer size is 52428800.
the number of input argument is: 3
-1.109060*********
configuration: sort_flag = 0, verbose_flag=0, check_flag=0, npoints=200000, radius=0.320000
Kernel start!
avg corr: 19.318600
@ overall: 14178 ms
@ read_input: 936 ms
@ build_tree: 1115 ms
@ hashtab: 139 ms
@ gpu_tree_build: 82 ms
@ init_kernel:  0 ms
@ gpu_tree_copy_to: 18 ms
@ kernel: 11866 ms
@ extra: 1004 ms
@ traverse: 12123 ms
@ gpu_tree_copy_from: 18 ms
Collected results into ../../../results/tmp/pc_FSM_Lockstep_covtype.7d_unsorted.stats

Loading data from ../../../results/tmp/pc_FSM_Lockstep_covtype.7d_unsorted.stats...
{'gpu_tree_copy_to:': [17.0, 16.0, 27.0, 27.0, 20.0, 27.0, 17.0, 17.0, 17.0, 18.0, 18.0, 18.0, 18.0, 18.0], 'gpu_tree_build:': [78.0, 77.0, 81.0, 81.0, 85.0, 78.0, 81.0, 79.0, 77.0, 82.0, 76.0, 84.0, 83.0, 82.0], 'init_kernel:': [0.0, 0.0, 0.0, 0.0, 0.0, 0.0, 0.0, 0.0, 0.0, 0.0, 0.0, 0.0, 0.0, 0.0], 'hashtab:': [138.0, 138.0, 138.0, 138.0, 138.0, 137.0, 137.0, 137.0, 138.0, 136.0, 138.0, 138.0, 139.0, 139.0], 'traverse:': [12079.0, 12153.0, 12153.0, 12163.0, 12059.0, 12138.0, 12116.0, 12040.0, 12144.0, 12051.0, 12062.0, 12032.0, 12066.0, 12123.0], 'kernel:': [11827.0, 11903.0, 11886.0, 11896.0, 11786.0, 11876.0, 11863.0, 11788.0, 11893.0, 11795.0, 11810.0, 11772.0, 11807.0, 11866.0], 'overall:': [14195.0, 14212.0, 14210.0, 14228.0, 14248.0, 14241.0, 14168.0, 14208.0, 14265.0, 14102.0, 14165.0, 14166.0, 14136.0, 14178.0], 'read_input:': [1005.0, 947.0, 941.0, 947.0, 1059.0, 992.0, 938.0, 1051.0, 1009.0, 933.0, 994.0, 1020.0, 955.0, 936.0], 'extra:': [998.0, 1000.0, 999.0, 1001.0, 1015.0, 997.0, 997.0, 1001.0, 997.0, 1000.0, 995.0, 997.0, 999.0, 1004.0], 'gpu_tree_copy_from:': [19.0, 19.0, 22.0, 21.0, 30.0, 20.0, 19.0, 19.0, 19.0, 20.0, 20.0, 20.0, 20.0, 18.0], 'build_tree:': [1106.0, 1107.0, 1110.0, 1112.0, 1123.0, 1107.0, 1108.0, 1112.0, 1107.0, 1112.0, 1104.0, 1108.0, 1110.0, 1115.0]}
our cuda printf fifo buffer size is 52428800.
the number of input argument is: 3
-1.109060*********
configuration: sort_flag = 0, verbose_flag=0, check_flag=0, npoints=200000, radius=0.320000
Kernel start!
avg corr: 19.318600
@ overall: 14107 ms
@ read_input: 953 ms
@ build_tree: 1114 ms
@ hashtab: 140 ms
@ gpu_tree_build: 82 ms
@ init_kernel:  0 ms
@ gpu_tree_copy_to: 18 ms
@ kernel: 11775 ms
@ extra: 1003 ms
@ traverse: 12035 ms
@ gpu_tree_copy_from: 20 ms
Collected results into ../../../results/tmp/pc_FSM_Lockstep_covtype.7d_unsorted.stats

