Results wll be collected to ../../../results/tmp/pc_Non_Lockstep_random.7d_sorted.stats...
our cuda printf fifo buffer size is 52428800.
configuration: sort_flag = 1, verbose_flag=0, check_flag=0, npoints=200000, radius=0.320000
avg corr: 170.587326
avg nodes: 10161.100586
@ overall: 14170 ms
@ read_input: 942 ms
@ build_tree: 1156 ms
@ hashtab: 173 ms
@ gpu_tree_build: 109 ms
@ init_kernel:  0 ms
@ gpu_tree_copy_to: 26 ms
@ kernel: 11674 ms
@ extra: 1058 ms
@ traverse: 12059 ms
@ gpu_tree_copy_from: 77 ms
Collected results into ../../../results/tmp/pc_Non_Lockstep_random.7d_sorted.stats

