Results wll be collected to ../../../results/tmp/pc_Original_Lockstep_covtype.7d_sorted.stats...
the number of input argument is: 4
-1.109060*********
configuration: sort_flag = 1, verbose_flag=0, check_flag=0, npoints=200000, radius=0.320000
avg corr: 19.318600
@ overall: 9102 ms
@ read_input: 941 ms
@ build_tree: 1072 ms
@ hashtab: 171 ms
@ gpu_tree_build: 81 ms
@ init_kernel: 2629 ms
@ gpu_tree_copy_to: 23 ms
@ kernel: 4160 ms
@ extra: 991 ms
@ traverse: 7084 ms
@ gpu_tree_copy_from: 20 ms
Collected results into ../../../results/tmp/pc_Original_Lockstep_covtype.7d_sorted.stats

Loading data from ../../../results/tmp/pc_Original_Lockstep_covtype.7d_sorted.stats...
{'gpu_tree_copy_to:': [23.0], 'gpu_tree_build:': [81.0], 'init_kernel:': [2629.0], 'traverse:': [7084.0], 'hashtab:': [171.0], 'kernel:': [4160.0], 'overall:': [9102.0], 'read_input:': [941.0], 'extra:': [991.0], 'gpu_tree_copy_from:': [20.0], 'build_tree:': [1072.0]}
the number of input argument is: 4
-1.109060*********
configuration: sort_flag = 1, verbose_flag=0, check_flag=0, npoints=200000, radius=0.320000
avg corr: 19.318600
@ overall: 9057 ms
@ read_input: 919 ms
@ build_tree: 1077 ms
@ hashtab: 137 ms
@ gpu_tree_build: 80 ms
@ init_kernel: 2635 ms
@ gpu_tree_copy_to: 22 ms
@ kernel: 4162 ms
@ extra: 995 ms
@ traverse: 7056 ms
@ gpu_tree_copy_from: 19 ms
Collected results into ../../../results/tmp/pc_Original_Lockstep_covtype.7d_sorted.stats

Loading data from ../../../results/tmp/pc_Original_Lockstep_covtype.7d_sorted.stats...
{'gpu_tree_copy_to:': [23.0, 22.0], 'gpu_tree_build:': [81.0, 80.0], 'init_kernel:': [2629.0, 2635.0], 'hashtab:': [171.0, 137.0], 'traverse:': [7084.0, 7056.0], 'kernel:': [4160.0, 4162.0], 'overall:': [9102.0, 9057.0], 'read_input:': [941.0, 919.0], 'extra:': [991.0, 995.0], 'gpu_tree_copy_from:': [20.0, 19.0], 'build_tree:': [1072.0, 1077.0]}
the number of input argument is: 4
-1.109060*********
configuration: sort_flag = 1, verbose_flag=0, check_flag=0, npoints=200000, radius=0.320000
avg corr: 19.318600
@ overall: 9082 ms
@ read_input: 999 ms
@ build_tree: 1076 ms
@ hashtab: 136 ms
@ gpu_tree_build: 79 ms
@ init_kernel: 2586 ms
@ gpu_tree_copy_to: 22 ms
@ kernel: 4161 ms
@ extra: 994 ms
@ traverse: 7002 ms
@ gpu_tree_copy_from: 18 ms
Collected results into ../../../results/tmp/pc_Original_Lockstep_covtype.7d_sorted.stats

Loading data from ../../../results/tmp/pc_Original_Lockstep_covtype.7d_sorted.stats...
{'gpu_tree_copy_to:': [23.0, 22.0, 22.0], 'gpu_tree_build:': [81.0, 80.0, 79.0], 'init_kernel:': [2629.0, 2635.0, 2586.0], 'traverse:': [7084.0, 7056.0, 7002.0], 'hashtab:': [171.0, 137.0, 136.0], 'kernel:': [4160.0, 4162.0, 4161.0], 'overall:': [9102.0, 9057.0, 9082.0], 'read_input:': [941.0, 919.0, 999.0], 'extra:': [991.0, 995.0, 994.0], 'gpu_tree_copy_from:': [20.0, 19.0, 18.0], 'build_tree:': [1072.0, 1077.0, 1076.0]}
the number of input argument is: 4
-1.109060*********
configuration: sort_flag = 1, verbose_flag=0, check_flag=0, npoints=200000, radius=0.320000
avg corr: 19.318600
@ overall: 9065 ms
@ read_input: 925 ms
@ build_tree: 1075 ms
@ hashtab: 138 ms
@ gpu_tree_build: 82 ms
@ init_kernel: 2621 ms
@ gpu_tree_copy_to: 23 ms
@ kernel: 4163 ms
@ extra: 994 ms
@ traverse: 7057 ms
@ gpu_tree_copy_from: 30 ms
Collected results into ../../../results/tmp/pc_Original_Lockstep_covtype.7d_sorted.stats

Loading data from ../../../results/tmp/pc_Original_Lockstep_covtype.7d_sorted.stats...
{'gpu_tree_copy_to:': [23.0, 22.0, 22.0, 23.0], 'gpu_tree_build:': [81.0, 80.0, 79.0, 82.0], 'init_kernel:': [2629.0, 2635.0, 2586.0, 2621.0], 'hashtab:': [171.0, 137.0, 136.0, 138.0], 'traverse:': [7084.0, 7056.0, 7002.0, 7057.0], 'kernel:': [4160.0, 4162.0, 4161.0, 4163.0], 'overall:': [9102.0, 9057.0, 9082.0, 9065.0], 'read_input:': [941.0, 919.0, 999.0, 925.0], 'extra:': [991.0, 995.0, 994.0, 994.0], 'gpu_tree_copy_from:': [20.0, 19.0, 18.0, 30.0], 'build_tree:': [1072.0, 1077.0, 1076.0, 1075.0]}
the number of input argument is: 4
-1.109060*********
configuration: sort_flag = 1, verbose_flag=0, check_flag=0, npoints=200000, radius=0.320000
avg corr: 19.318600
@ overall: 9129 ms
@ read_input: 939 ms
@ build_tree: 1071 ms
@ hashtab: 172 ms
@ gpu_tree_build: 82 ms
@ init_kernel: 2653 ms
@ gpu_tree_copy_to: 23 ms
@ kernel: 4161 ms
@ extra: 992 ms
@ traverse: 7114 ms
@ gpu_tree_copy_from: 22 ms
Collected results into ../../../results/tmp/pc_Original_Lockstep_covtype.7d_sorted.stats

Loading data from ../../../results/tmp/pc_Original_Lockstep_covtype.7d_sorted.stats...
{'gpu_tree_copy_to:': [23.0, 22.0, 22.0, 23.0, 23.0], 'gpu_tree_build:': [81.0, 80.0, 79.0, 82.0, 82.0], 'init_kernel:': [2629.0, 2635.0, 2586.0, 2621.0, 2653.0], 'traverse:': [7084.0, 7056.0, 7002.0, 7057.0, 7114.0], 'hashtab:': [171.0, 137.0, 136.0, 138.0, 172.0], 'kernel:': [4160.0, 4162.0, 4161.0, 4163.0, 4161.0], 'overall:': [9102.0, 9057.0, 9082.0, 9065.0, 9129.0], 'read_input:': [941.0, 919.0, 999.0, 925.0, 939.0], 'extra:': [991.0, 995.0, 994.0, 994.0, 992.0], 'gpu_tree_copy_from:': [20.0, 19.0, 18.0, 30.0, 22.0], 'build_tree:': [1072.0, 1077.0, 1076.0, 1075.0, 1071.0]}
the number of input argument is: 4
-1.109060*********
configuration: sort_flag = 1, verbose_flag=0, check_flag=0, npoints=200000, radius=0.320000
avg corr: 19.318600
@ overall: 9148 ms
@ read_input: 967 ms
@ build_tree: 1073 ms
@ hashtab: 139 ms
@ gpu_tree_build: 80 ms
@ init_kernel: 2663 ms
@ gpu_tree_copy_to: 24 ms
@ kernel: 4165 ms
@ extra: 994 ms
@ traverse: 7100 ms
@ gpu_tree_copy_from: 29 ms
Collected results into ../../../results/tmp/pc_Original_Lockstep_covtype.7d_sorted.stats

Loading data from ../../../results/tmp/pc_Original_Lockstep_covtype.7d_sorted.stats...
{'gpu_tree_copy_to:': [23.0, 22.0, 22.0, 23.0, 23.0, 24.0], 'gpu_tree_build:': [81.0, 80.0, 79.0, 82.0, 82.0, 80.0], 'init_kernel:': [2629.0, 2635.0, 2586.0, 2621.0, 2653.0, 2663.0], 'hashtab:': [171.0, 137.0, 136.0, 138.0, 172.0, 139.0], 'traverse:': [7084.0, 7056.0, 7002.0, 7057.0, 7114.0, 7100.0], 'kernel:': [4160.0, 4162.0, 4161.0, 4163.0, 4161.0, 4165.0], 'overall:': [9102.0, 9057.0, 9082.0, 9065.0, 9129.0, 9148.0], 'read_input:': [941.0, 919.0, 999.0, 925.0, 939.0, 967.0], 'extra:': [991.0, 995.0, 994.0, 994.0, 992.0, 994.0], 'gpu_tree_copy_from:': [20.0, 19.0, 18.0, 30.0, 22.0, 29.0], 'build_tree:': [1072.0, 1077.0, 1076.0, 1075.0, 1071.0, 1073.0]}
the number of input argument is: 4
-1.109060*********
configuration: sort_flag = 1, verbose_flag=0, check_flag=0, npoints=200000, radius=0.320000
avg corr: 19.318600
@ overall: 9043 ms
@ read_input: 958 ms
@ build_tree: 1075 ms
@ hashtab: 137 ms
@ gpu_tree_build: 80 ms
@ init_kernel: 2585 ms
@ gpu_tree_copy_to: 22 ms
@ kernel: 4162 ms
@ extra: 994 ms
@ traverse: 7005 ms
@ gpu_tree_copy_from: 19 ms
Collected results into ../../../results/tmp/pc_Original_Lockstep_covtype.7d_sorted.stats

Loading data from ../../../results/tmp/pc_Original_Lockstep_covtype.7d_sorted.stats...
{'gpu_tree_copy_to:': [23.0, 22.0, 22.0, 23.0, 23.0, 24.0, 22.0], 'gpu_tree_build:': [81.0, 80.0, 79.0, 82.0, 82.0, 80.0, 80.0], 'init_kernel:': [2629.0, 2635.0, 2586.0, 2621.0, 2653.0, 2663.0, 2585.0], 'traverse:': [7084.0, 7056.0, 7002.0, 7057.0, 7114.0, 7100.0, 7005.0], 'hashtab:': [171.0, 137.0, 136.0, 138.0, 172.0, 139.0, 137.0], 'kernel:': [4160.0, 4162.0, 4161.0, 4163.0, 4161.0, 4165.0, 4162.0], 'overall:': [9102.0, 9057.0, 9082.0, 9065.0, 9129.0, 9148.0, 9043.0], 'read_input:': [941.0, 919.0, 999.0, 925.0, 939.0, 967.0, 958.0], 'extra:': [991.0, 995.0, 994.0, 994.0, 992.0, 994.0, 994.0], 'gpu_tree_copy_from:': [20.0, 19.0, 18.0, 30.0, 22.0, 29.0, 19.0], 'build_tree:': [1072.0, 1077.0, 1076.0, 1075.0, 1071.0, 1073.0, 1075.0]}
the number of input argument is: 4
-1.109060*********
configuration: sort_flag = 1, verbose_flag=0, check_flag=0, npoints=200000, radius=0.320000
avg corr: 19.318600
@ overall: 9039 ms
@ read_input: 944 ms
@ build_tree: 1076 ms
@ hashtab: 136 ms
@ gpu_tree_build: 79 ms
@ init_kernel: 2600 ms
@ gpu_tree_copy_to: 22 ms
@ kernel: 4158 ms
@ extra: 994 ms
@ traverse: 7014 ms
@ gpu_tree_copy_from: 19 ms
Collected results into ../../../results/tmp/pc_Original_Lockstep_covtype.7d_sorted.stats

Loading data from ../../../results/tmp/pc_Original_Lockstep_covtype.7d_sorted.stats...
{'gpu_tree_copy_to:': [23.0, 22.0, 22.0, 23.0, 23.0, 24.0, 22.0, 22.0], 'gpu_tree_build:': [81.0, 80.0, 79.0, 82.0, 82.0, 80.0, 80.0, 79.0], 'init_kernel:': [2629.0, 2635.0, 2586.0, 2621.0, 2653.0, 2663.0, 2585.0, 2600.0], 'hashtab:': [171.0, 137.0, 136.0, 138.0, 172.0, 139.0, 137.0, 136.0], 'traverse:': [7084.0, 7056.0, 7002.0, 7057.0, 7114.0, 7100.0, 7005.0, 7014.0], 'kernel:': [4160.0, 4162.0, 4161.0, 4163.0, 4161.0, 4165.0, 4162.0, 4158.0], 'overall:': [9102.0, 9057.0, 9082.0, 9065.0, 9129.0, 9148.0, 9043.0, 9039.0], 'read_input:': [941.0, 919.0, 999.0, 925.0, 939.0, 967.0, 958.0, 944.0], 'extra:': [991.0, 995.0, 994.0, 994.0, 992.0, 994.0, 994.0, 994.0], 'gpu_tree_copy_from:': [20.0, 19.0, 18.0, 30.0, 22.0, 29.0, 19.0, 19.0], 'build_tree:': [1072.0, 1077.0, 1076.0, 1075.0, 1071.0, 1073.0, 1075.0, 1076.0]}
the number of input argument is: 4
-1.109060*********
configuration: sort_flag = 1, verbose_flag=0, check_flag=0, npoints=200000, radius=0.320000
avg corr: 19.318600
@ overall: 9083 ms
@ read_input: 946 ms
@ build_tree: 1077 ms
@ hashtab: 138 ms
@ gpu_tree_build: 81 ms
@ init_kernel: 2618 ms
@ gpu_tree_copy_to: 24 ms
@ kernel: 4163 ms
@ extra: 995 ms
@ traverse: 7053 ms
@ gpu_tree_copy_from: 29 ms
Collected results into ../../../results/tmp/pc_Original_Lockstep_covtype.7d_sorted.stats

Loading data from ../../../results/tmp/pc_Original_Lockstep_covtype.7d_sorted.stats...
{'gpu_tree_copy_to:': [23.0, 22.0, 22.0, 23.0, 23.0, 24.0, 22.0, 22.0, 24.0], 'gpu_tree_build:': [81.0, 80.0, 79.0, 82.0, 82.0, 80.0, 80.0, 79.0, 81.0], 'init_kernel:': [2629.0, 2635.0, 2586.0, 2621.0, 2653.0, 2663.0, 2585.0, 2600.0, 2618.0], 'traverse:': [7084.0, 7056.0, 7002.0, 7057.0, 7114.0, 7100.0, 7005.0, 7014.0, 7053.0], 'hashtab:': [171.0, 137.0, 136.0, 138.0, 172.0, 139.0, 137.0, 136.0, 138.0], 'kernel:': [4160.0, 4162.0, 4161.0, 4163.0, 4161.0, 4165.0, 4162.0, 4158.0, 4163.0], 'overall:': [9102.0, 9057.0, 9082.0, 9065.0, 9129.0, 9148.0, 9043.0, 9039.0, 9083.0], 'read_input:': [941.0, 919.0, 999.0, 925.0, 939.0, 967.0, 958.0, 944.0, 946.0], 'extra:': [991.0, 995.0, 994.0, 994.0, 992.0, 994.0, 994.0, 994.0, 995.0], 'gpu_tree_copy_from:': [20.0, 19.0, 18.0, 30.0, 22.0, 29.0, 19.0, 19.0, 29.0], 'build_tree:': [1072.0, 1077.0, 1076.0, 1075.0, 1071.0, 1073.0, 1075.0, 1076.0, 1077.0]}
the number of input argument is: 4
-1.109060*********
configuration: sort_flag = 1, verbose_flag=0, check_flag=0, npoints=200000, radius=0.320000
avg corr: 19.318600
@ overall: 9262 ms
@ read_input: 999 ms
@ build_tree: 1076 ms
@ hashtab: 139 ms
@ gpu_tree_build: 82 ms
@ init_kernel: 2743 ms
@ gpu_tree_copy_to: 26 ms
@ kernel: 4163 ms
@ extra: 995 ms
@ traverse: 7178 ms
@ gpu_tree_copy_from: 26 ms
Collected results into ../../../results/tmp/pc_Original_Lockstep_covtype.7d_sorted.stats

Loading data from ../../../results/tmp/pc_Original_Lockstep_covtype.7d_sorted.stats...
{'gpu_tree_copy_to:': [23.0, 22.0, 22.0, 23.0, 23.0, 24.0, 22.0, 22.0, 24.0, 26.0], 'gpu_tree_build:': [81.0, 80.0, 79.0, 82.0, 82.0, 80.0, 80.0, 79.0, 81.0, 82.0], 'init_kernel:': [2629.0, 2635.0, 2586.0, 2621.0, 2653.0, 2663.0, 2585.0, 2600.0, 2618.0, 2743.0], 'hashtab:': [171.0, 137.0, 136.0, 138.0, 172.0, 139.0, 137.0, 136.0, 138.0, 139.0], 'traverse:': [7084.0, 7056.0, 7002.0, 7057.0, 7114.0, 7100.0, 7005.0, 7014.0, 7053.0, 7178.0], 'kernel:': [4160.0, 4162.0, 4161.0, 4163.0, 4161.0, 4165.0, 4162.0, 4158.0, 4163.0, 4163.0], 'overall:': [9102.0, 9057.0, 9082.0, 9065.0, 9129.0, 9148.0, 9043.0, 9039.0, 9083.0, 9262.0], 'read_input:': [941.0, 919.0, 999.0, 925.0, 939.0, 967.0, 958.0, 944.0, 946.0, 999.0], 'extra:': [991.0, 995.0, 994.0, 994.0, 992.0, 994.0, 994.0, 994.0, 995.0, 995.0], 'gpu_tree_copy_from:': [20.0, 19.0, 18.0, 30.0, 22.0, 29.0, 19.0, 19.0, 29.0, 26.0], 'build_tree:': [1072.0, 1077.0, 1076.0, 1075.0, 1071.0, 1073.0, 1075.0, 1076.0, 1077.0, 1076.0]}
the number of input argument is: 4
-1.109060*********
configuration: sort_flag = 1, verbose_flag=0, check_flag=0, npoints=200000, radius=0.320000
avg corr: 19.318600
@ overall: 9095 ms
@ read_input: 951 ms
@ build_tree: 1073 ms
@ hashtab: 171 ms
@ gpu_tree_build: 82 ms
@ init_kernel: 2614 ms
@ gpu_tree_copy_to: 24 ms
@ kernel: 4156 ms
@ extra: 991 ms
@ traverse: 7066 ms
@ gpu_tree_copy_from: 20 ms
Collected results into ../../../results/tmp/pc_Original_Lockstep_covtype.7d_sorted.stats

Loading data from ../../../results/tmp/pc_Original_Lockstep_covtype.7d_sorted.stats...
{'gpu_tree_copy_to:': [23.0, 22.0, 22.0, 23.0, 23.0, 24.0, 22.0, 22.0, 24.0, 26.0, 24.0], 'gpu_tree_build:': [81.0, 80.0, 79.0, 82.0, 82.0, 80.0, 80.0, 79.0, 81.0, 82.0, 82.0], 'init_kernel:': [2629.0, 2635.0, 2586.0, 2621.0, 2653.0, 2663.0, 2585.0, 2600.0, 2618.0, 2743.0, 2614.0], 'traverse:': [7084.0, 7056.0, 7002.0, 7057.0, 7114.0, 7100.0, 7005.0, 7014.0, 7053.0, 7178.0, 7066.0], 'hashtab:': [171.0, 137.0, 136.0, 138.0, 172.0, 139.0, 137.0, 136.0, 138.0, 139.0, 171.0], 'kernel:': [4160.0, 4162.0, 4161.0, 4163.0, 4161.0, 4165.0, 4162.0, 4158.0, 4163.0, 4163.0, 4156.0], 'overall:': [9102.0, 9057.0, 9082.0, 9065.0, 9129.0, 9148.0, 9043.0, 9039.0, 9083.0, 9262.0, 9095.0], 'read_input:': [941.0, 919.0, 999.0, 925.0, 939.0, 967.0, 958.0, 944.0, 946.0, 999.0, 951.0], 'extra:': [991.0, 995.0, 994.0, 994.0, 992.0, 994.0, 994.0, 994.0, 995.0, 995.0, 991.0], 'gpu_tree_copy_from:': [20.0, 19.0, 18.0, 30.0, 22.0, 29.0, 19.0, 19.0, 29.0, 26.0, 20.0], 'build_tree:': [1072.0, 1077.0, 1076.0, 1075.0, 1071.0, 1073.0, 1075.0, 1076.0, 1077.0, 1076.0, 1073.0]}
the number of input argument is: 4
-1.109060*********
configuration: sort_flag = 1, verbose_flag=0, check_flag=0, npoints=200000, radius=0.320000
avg corr: 19.318600
@ overall: 9149 ms
@ read_input: 992 ms
@ build_tree: 1077 ms
@ hashtab: 139 ms
@ gpu_tree_build: 81 ms
@ init_kernel: 2646 ms
@ gpu_tree_copy_to: 24 ms
@ kernel: 4165 ms
@ extra: 996 ms
@ traverse: 7074 ms
@ gpu_tree_copy_from: 19 ms
Collected results into ../../../results/tmp/pc_Original_Lockstep_covtype.7d_sorted.stats

Loading data from ../../../results/tmp/pc_Original_Lockstep_covtype.7d_sorted.stats...
{'gpu_tree_copy_to:': [23.0, 22.0, 22.0, 23.0, 23.0, 24.0, 22.0, 22.0, 24.0, 26.0, 24.0, 24.0], 'gpu_tree_build:': [81.0, 80.0, 79.0, 82.0, 82.0, 80.0, 80.0, 79.0, 81.0, 82.0, 82.0, 81.0], 'init_kernel:': [2629.0, 2635.0, 2586.0, 2621.0, 2653.0, 2663.0, 2585.0, 2600.0, 2618.0, 2743.0, 2614.0, 2646.0], 'hashtab:': [171.0, 137.0, 136.0, 138.0, 172.0, 139.0, 137.0, 136.0, 138.0, 139.0, 171.0, 139.0], 'traverse:': [7084.0, 7056.0, 7002.0, 7057.0, 7114.0, 7100.0, 7005.0, 7014.0, 7053.0, 7178.0, 7066.0, 7074.0], 'kernel:': [4160.0, 4162.0, 4161.0, 4163.0, 4161.0, 4165.0, 4162.0, 4158.0, 4163.0, 4163.0, 4156.0, 4165.0], 'overall:': [9102.0, 9057.0, 9082.0, 9065.0, 9129.0, 9148.0, 9043.0, 9039.0, 9083.0, 9262.0, 9095.0, 9149.0], 'read_input:': [941.0, 919.0, 999.0, 925.0, 939.0, 967.0, 958.0, 944.0, 946.0, 999.0, 951.0, 992.0], 'extra:': [991.0, 995.0, 994.0, 994.0, 992.0, 994.0, 994.0, 994.0, 995.0, 995.0, 991.0, 996.0], 'gpu_tree_copy_from:': [20.0, 19.0, 18.0, 30.0, 22.0, 29.0, 19.0, 19.0, 29.0, 26.0, 20.0, 19.0], 'build_tree:': [1072.0, 1077.0, 1076.0, 1075.0, 1071.0, 1073.0, 1075.0, 1076.0, 1077.0, 1076.0, 1073.0, 1077.0]}
the number of input argument is: 4
-1.109060*********
configuration: sort_flag = 1, verbose_flag=0, check_flag=0, npoints=200000, radius=0.320000
avg corr: 19.318600
@ overall: 9049 ms
@ read_input: 903 ms
@ build_tree: 1077 ms
@ hashtab: 143 ms
@ gpu_tree_build: 83 ms
@ init_kernel: 2628 ms
@ gpu_tree_copy_to: 24 ms
@ kernel: 4166 ms
@ extra: 995 ms
@ traverse: 7063 ms
@ gpu_tree_copy_from: 20 ms
Collected results into ../../../results/tmp/pc_Original_Lockstep_covtype.7d_sorted.stats

Loading data from ../../../results/tmp/pc_Original_Lockstep_covtype.7d_sorted.stats...
{'gpu_tree_copy_to:': [23.0, 22.0, 22.0, 23.0, 23.0, 24.0, 22.0, 22.0, 24.0, 26.0, 24.0, 24.0, 24.0], 'gpu_tree_build:': [81.0, 80.0, 79.0, 82.0, 82.0, 80.0, 80.0, 79.0, 81.0, 82.0, 82.0, 81.0, 83.0], 'init_kernel:': [2629.0, 2635.0, 2586.0, 2621.0, 2653.0, 2663.0, 2585.0, 2600.0, 2618.0, 2743.0, 2614.0, 2646.0, 2628.0], 'traverse:': [7084.0, 7056.0, 7002.0, 7057.0, 7114.0, 7100.0, 7005.0, 7014.0, 7053.0, 7178.0, 7066.0, 7074.0, 7063.0], 'hashtab:': [171.0, 137.0, 136.0, 138.0, 172.0, 139.0, 137.0, 136.0, 138.0, 139.0, 171.0, 139.0, 143.0], 'kernel:': [4160.0, 4162.0, 4161.0, 4163.0, 4161.0, 4165.0, 4162.0, 4158.0, 4163.0, 4163.0, 4156.0, 4165.0, 4166.0], 'overall:': [9102.0, 9057.0, 9082.0, 9065.0, 9129.0, 9148.0, 9043.0, 9039.0, 9083.0, 9262.0, 9095.0, 9149.0, 9049.0], 'read_input:': [941.0, 919.0, 999.0, 925.0, 939.0, 967.0, 958.0, 944.0, 946.0, 999.0, 951.0, 992.0, 903.0], 'extra:': [991.0, 995.0, 994.0, 994.0, 992.0, 994.0, 994.0, 994.0, 995.0, 995.0, 991.0, 996.0, 995.0], 'gpu_tree_copy_from:': [20.0, 19.0, 18.0, 30.0, 22.0, 29.0, 19.0, 19.0, 29.0, 26.0, 20.0, 19.0, 20.0], 'build_tree:': [1072.0, 1077.0, 1076.0, 1075.0, 1071.0, 1073.0, 1075.0, 1076.0, 1077.0, 1076.0, 1073.0, 1077.0, 1077.0]}
the number of input argument is: 4
-1.109060*********
configuration: sort_flag = 1, verbose_flag=0, check_flag=0, npoints=200000, radius=0.320000
avg corr: 19.318600
@ overall: 9159 ms
@ read_input: 965 ms
@ build_tree: 1070 ms
@ hashtab: 171 ms
@ gpu_tree_build: 79 ms
@ init_kernel: 2657 ms
@ gpu_tree_copy_to: 23 ms
@ kernel: 4166 ms
@ extra: 991 ms
@ traverse: 7117 ms
@ gpu_tree_copy_from: 21 ms
Collected results into ../../../results/tmp/pc_Original_Lockstep_covtype.7d_sorted.stats

Loading data from ../../../results/tmp/pc_Original_Lockstep_covtype.7d_sorted.stats...
{'gpu_tree_copy_to:': [23.0, 22.0, 22.0, 23.0, 23.0, 24.0, 22.0, 22.0, 24.0, 26.0, 24.0, 24.0, 24.0, 23.0], 'gpu_tree_build:': [81.0, 80.0, 79.0, 82.0, 82.0, 80.0, 80.0, 79.0, 81.0, 82.0, 82.0, 81.0, 83.0, 79.0], 'init_kernel:': [2629.0, 2635.0, 2586.0, 2621.0, 2653.0, 2663.0, 2585.0, 2600.0, 2618.0, 2743.0, 2614.0, 2646.0, 2628.0, 2657.0], 'hashtab:': [171.0, 137.0, 136.0, 138.0, 172.0, 139.0, 137.0, 136.0, 138.0, 139.0, 171.0, 139.0, 143.0, 171.0], 'traverse:': [7084.0, 7056.0, 7002.0, 7057.0, 7114.0, 7100.0, 7005.0, 7014.0, 7053.0, 7178.0, 7066.0, 7074.0, 7063.0, 7117.0], 'kernel:': [4160.0, 4162.0, 4161.0, 4163.0, 4161.0, 4165.0, 4162.0, 4158.0, 4163.0, 4163.0, 4156.0, 4165.0, 4166.0, 4166.0], 'overall:': [9102.0, 9057.0, 9082.0, 9065.0, 9129.0, 9148.0, 9043.0, 9039.0, 9083.0, 9262.0, 9095.0, 9149.0, 9049.0, 9159.0], 'read_input:': [941.0, 919.0, 999.0, 925.0, 939.0, 967.0, 958.0, 944.0, 946.0, 999.0, 951.0, 992.0, 903.0, 965.0], 'extra:': [991.0, 995.0, 994.0, 994.0, 992.0, 994.0, 994.0, 994.0, 995.0, 995.0, 991.0, 996.0, 995.0, 991.0], 'gpu_tree_copy_from:': [20.0, 19.0, 18.0, 30.0, 22.0, 29.0, 19.0, 19.0, 29.0, 26.0, 20.0, 19.0, 20.0, 21.0], 'build_tree:': [1072.0, 1077.0, 1076.0, 1075.0, 1071.0, 1073.0, 1075.0, 1076.0, 1077.0, 1076.0, 1073.0, 1077.0, 1077.0, 1070.0]}
the number of input argument is: 4
-1.109060*********
configuration: sort_flag = 1, verbose_flag=0, check_flag=0, npoints=200000, radius=0.320000
avg corr: 19.318600
@ overall: 9166 ms
@ read_input: 980 ms
@ build_tree: 1073 ms
@ hashtab: 170 ms
@ gpu_tree_build: 79 ms
@ init_kernel: 2650 ms
@ gpu_tree_copy_to: 23 ms
@ kernel: 4163 ms
@ extra: 992 ms
@ traverse: 7107 ms
@ gpu_tree_copy_from: 21 ms
Collected results into ../../../results/tmp/pc_Original_Lockstep_covtype.7d_sorted.stats

