Results wll be collected to ../../../results/tmp/pc_Original_Lockstep_random.7d_sorted.stats...
the number of input argument is: 4
0.749668*********
configuration: sort_flag = 1, verbose_flag=0, check_flag=0, npoints=200000, radius=0.320000
avg corr: 170.587326
@ overall: 7004 ms
@ read_input: 893 ms
@ build_tree: 1081 ms
@ hashtab: 135 ms
@ gpu_tree_build: 79 ms
@ init_kernel: 2626 ms
@ gpu_tree_copy_to: 24 ms
@ kernel: 2129 ms
@ extra: 1003 ms
@ traverse: 5022 ms
@ gpu_tree_copy_from: 29 ms
Collected results into ../../../results/tmp/pc_Original_Lockstep_random.7d_sorted.stats

Loading data from ../../../results/tmp/pc_Original_Lockstep_random.7d_sorted.stats...
{'gpu_tree_copy_to:': [24.0], 'gpu_tree_build:': [79.0], 'init_kernel:': [2626.0], 'traverse:': [5022.0], 'hashtab:': [135.0], 'kernel:': [2129.0], 'overall:': [7004.0], 'read_input:': [893.0], 'extra:': [1003.0], 'gpu_tree_copy_from:': [29.0], 'build_tree:': [1081.0]}
the number of input argument is: 4
0.749668*********
configuration: sort_flag = 1, verbose_flag=0, check_flag=0, npoints=200000, radius=0.320000
avg corr: 170.587326
@ overall: 7105 ms
@ read_input: 890 ms
@ build_tree: 1086 ms
@ hashtab: 137 ms
@ gpu_tree_build: 81 ms
@ init_kernel: 2718 ms
@ gpu_tree_copy_to: 23 ms
@ kernel: 2132 ms
@ extra: 1005 ms
@ traverse: 5121 ms
@ gpu_tree_copy_from: 30 ms
Collected results into ../../../results/tmp/pc_Original_Lockstep_random.7d_sorted.stats

Loading data from ../../../results/tmp/pc_Original_Lockstep_random.7d_sorted.stats...
{'gpu_tree_copy_to:': [24.0, 23.0], 'gpu_tree_build:': [79.0, 81.0], 'init_kernel:': [2626.0, 2718.0], 'hashtab:': [135.0, 137.0], 'traverse:': [5022.0, 5121.0], 'kernel:': [2129.0, 2132.0], 'overall:': [7004.0, 7105.0], 'read_input:': [893.0, 890.0], 'extra:': [1003.0, 1005.0], 'gpu_tree_copy_from:': [29.0, 30.0], 'build_tree:': [1081.0, 1086.0]}
the number of input argument is: 4
0.749668*********
configuration: sort_flag = 1, verbose_flag=0, check_flag=0, npoints=200000, radius=0.320000
avg corr: 170.587326
@ overall: 7074 ms
@ read_input: 924 ms
@ build_tree: 1085 ms
@ hashtab: 172 ms
@ gpu_tree_build: 82 ms
@ init_kernel: 2629 ms
@ gpu_tree_copy_to: 24 ms
@ kernel: 2130 ms
@ extra: 1004 ms
@ traverse: 5059 ms
@ gpu_tree_copy_from: 22 ms
Collected results into ../../../results/tmp/pc_Original_Lockstep_random.7d_sorted.stats

Loading data from ../../../results/tmp/pc_Original_Lockstep_random.7d_sorted.stats...
{'gpu_tree_copy_to:': [24.0, 23.0, 24.0], 'gpu_tree_build:': [79.0, 81.0, 82.0], 'init_kernel:': [2626.0, 2718.0, 2629.0], 'traverse:': [5022.0, 5121.0, 5059.0], 'hashtab:': [135.0, 137.0, 172.0], 'kernel:': [2129.0, 2132.0, 2130.0], 'overall:': [7004.0, 7105.0, 7074.0], 'read_input:': [893.0, 890.0, 924.0], 'extra:': [1003.0, 1005.0, 1004.0], 'gpu_tree_copy_from:': [29.0, 30.0, 22.0], 'build_tree:': [1081.0, 1086.0, 1085.0]}
the number of input argument is: 4
0.749668*********
configuration: sort_flag = 1, verbose_flag=0, check_flag=0, npoints=200000, radius=0.320000
avg corr: 170.587326
@ overall: 7085 ms
@ read_input: 912 ms
@ build_tree: 1085 ms
@ hashtab: 138 ms
@ gpu_tree_build: 81 ms
@ init_kernel: 2675 ms
@ gpu_tree_copy_to: 23 ms
@ kernel: 2133 ms
@ extra: 1003 ms
@ traverse: 5079 ms
@ gpu_tree_copy_from: 29 ms
Collected results into ../../../results/tmp/pc_Original_Lockstep_random.7d_sorted.stats

Loading data from ../../../results/tmp/pc_Original_Lockstep_random.7d_sorted.stats...
{'gpu_tree_copy_to:': [24.0, 23.0, 24.0, 23.0], 'gpu_tree_build:': [79.0, 81.0, 82.0, 81.0], 'init_kernel:': [2626.0, 2718.0, 2629.0, 2675.0], 'hashtab:': [135.0, 137.0, 172.0, 138.0], 'traverse:': [5022.0, 5121.0, 5059.0, 5079.0], 'kernel:': [2129.0, 2132.0, 2130.0, 2133.0], 'overall:': [7004.0, 7105.0, 7074.0, 7085.0], 'read_input:': [893.0, 890.0, 924.0, 912.0], 'extra:': [1003.0, 1005.0, 1004.0, 1003.0], 'gpu_tree_copy_from:': [29.0, 30.0, 22.0, 29.0], 'build_tree:': [1081.0, 1086.0, 1085.0, 1085.0]}
the number of input argument is: 4
0.749668*********
configuration: sort_flag = 1, verbose_flag=0, check_flag=0, npoints=200000, radius=0.320000
avg corr: 170.587326
@ overall: 7192 ms
@ read_input: 914 ms
@ build_tree: 1089 ms
@ hashtab: 169 ms
@ gpu_tree_build: 82 ms
@ init_kernel: 2706 ms
@ gpu_tree_copy_to: 34 ms
@ kernel: 2170 ms
@ extra: 1008 ms
@ traverse: 5184 ms
@ gpu_tree_copy_from: 24 ms
Collected results into ../../../results/tmp/pc_Original_Lockstep_random.7d_sorted.stats

Loading data from ../../../results/tmp/pc_Original_Lockstep_random.7d_sorted.stats...
{'gpu_tree_copy_to:': [24.0, 23.0, 24.0, 23.0, 34.0], 'gpu_tree_build:': [79.0, 81.0, 82.0, 81.0, 82.0], 'init_kernel:': [2626.0, 2718.0, 2629.0, 2675.0, 2706.0], 'traverse:': [5022.0, 5121.0, 5059.0, 5079.0, 5184.0], 'hashtab:': [135.0, 137.0, 172.0, 138.0, 169.0], 'kernel:': [2129.0, 2132.0, 2130.0, 2133.0, 2170.0], 'overall:': [7004.0, 7105.0, 7074.0, 7085.0, 7192.0], 'read_input:': [893.0, 890.0, 924.0, 912.0, 914.0], 'extra:': [1003.0, 1005.0, 1004.0, 1003.0, 1008.0], 'gpu_tree_copy_from:': [29.0, 30.0, 22.0, 29.0, 24.0], 'build_tree:': [1081.0, 1086.0, 1085.0, 1085.0, 1089.0]}
the number of input argument is: 4
0.749668*********
configuration: sort_flag = 1, verbose_flag=0, check_flag=0, npoints=200000, radius=0.320000
avg corr: 170.587326
@ overall: 7105 ms
@ read_input: 919 ms
@ build_tree: 1088 ms
@ hashtab: 142 ms
@ gpu_tree_build: 82 ms
@ init_kernel: 2667 ms
@ gpu_tree_copy_to: 34 ms
@ kernel: 2133 ms
@ extra: 1007 ms
@ traverse: 5090 ms
@ gpu_tree_copy_from: 31 ms
Collected results into ../../../results/tmp/pc_Original_Lockstep_random.7d_sorted.stats

Loading data from ../../../results/tmp/pc_Original_Lockstep_random.7d_sorted.stats...
{'gpu_tree_copy_to:': [24.0, 23.0, 24.0, 23.0, 34.0, 34.0], 'gpu_tree_build:': [79.0, 81.0, 82.0, 81.0, 82.0, 82.0], 'init_kernel:': [2626.0, 2718.0, 2629.0, 2675.0, 2706.0, 2667.0], 'hashtab:': [135.0, 137.0, 172.0, 138.0, 169.0, 142.0], 'traverse:': [5022.0, 5121.0, 5059.0, 5079.0, 5184.0, 5090.0], 'kernel:': [2129.0, 2132.0, 2130.0, 2133.0, 2170.0, 2133.0], 'overall:': [7004.0, 7105.0, 7074.0, 7085.0, 7192.0, 7105.0], 'read_input:': [893.0, 890.0, 924.0, 912.0, 914.0, 919.0], 'extra:': [1003.0, 1005.0, 1004.0, 1003.0, 1008.0, 1007.0], 'gpu_tree_copy_from:': [29.0, 30.0, 22.0, 29.0, 24.0, 31.0], 'build_tree:': [1081.0, 1086.0, 1085.0, 1085.0, 1089.0, 1088.0]}
the number of input argument is: 4
0.749668*********
configuration: sort_flag = 1, verbose_flag=0, check_flag=0, npoints=200000, radius=0.320000
avg corr: 170.587326
@ overall: 7090 ms
@ read_input: 914 ms
@ build_tree: 1089 ms
@ hashtab: 138 ms
@ gpu_tree_build: 82 ms
@ init_kernel: 2677 ms
@ gpu_tree_copy_to: 23 ms
@ kernel: 2129 ms
@ extra: 1007 ms
@ traverse: 5079 ms
@ gpu_tree_copy_from: 30 ms
Collected results into ../../../results/tmp/pc_Original_Lockstep_random.7d_sorted.stats

Loading data from ../../../results/tmp/pc_Original_Lockstep_random.7d_sorted.stats...
{'gpu_tree_copy_to:': [24.0, 23.0, 24.0, 23.0, 34.0, 34.0, 23.0], 'gpu_tree_build:': [79.0, 81.0, 82.0, 81.0, 82.0, 82.0, 82.0], 'init_kernel:': [2626.0, 2718.0, 2629.0, 2675.0, 2706.0, 2667.0, 2677.0], 'traverse:': [5022.0, 5121.0, 5059.0, 5079.0, 5184.0, 5090.0, 5079.0], 'hashtab:': [135.0, 137.0, 172.0, 138.0, 169.0, 142.0, 138.0], 'kernel:': [2129.0, 2132.0, 2130.0, 2133.0, 2170.0, 2133.0, 2129.0], 'overall:': [7004.0, 7105.0, 7074.0, 7085.0, 7192.0, 7105.0, 7090.0], 'read_input:': [893.0, 890.0, 924.0, 912.0, 914.0, 919.0, 914.0], 'extra:': [1003.0, 1005.0, 1004.0, 1003.0, 1008.0, 1007.0, 1007.0], 'gpu_tree_copy_from:': [29.0, 30.0, 22.0, 29.0, 24.0, 31.0, 30.0], 'build_tree:': [1081.0, 1086.0, 1085.0, 1085.0, 1089.0, 1088.0, 1089.0]}
the number of input argument is: 4
0.749668*********
configuration: sort_flag = 1, verbose_flag=0, check_flag=0, npoints=200000, radius=0.320000
avg corr: 170.587326
@ overall: 7152 ms
@ read_input: 888 ms
@ build_tree: 1085 ms
@ hashtab: 138 ms
@ gpu_tree_build: 82 ms
@ init_kernel: 2752 ms
@ gpu_tree_copy_to: 34 ms
@ kernel: 2134 ms
@ extra: 1004 ms
@ traverse: 5170 ms
@ gpu_tree_copy_from: 31 ms
Collected results into ../../../results/tmp/pc_Original_Lockstep_random.7d_sorted.stats

Loading data from ../../../results/tmp/pc_Original_Lockstep_random.7d_sorted.stats...
{'gpu_tree_copy_to:': [24.0, 23.0, 24.0, 23.0, 34.0, 34.0, 23.0, 34.0], 'gpu_tree_build:': [79.0, 81.0, 82.0, 81.0, 82.0, 82.0, 82.0, 82.0], 'init_kernel:': [2626.0, 2718.0, 2629.0, 2675.0, 2706.0, 2667.0, 2677.0, 2752.0], 'hashtab:': [135.0, 137.0, 172.0, 138.0, 169.0, 142.0, 138.0, 138.0], 'traverse:': [5022.0, 5121.0, 5059.0, 5079.0, 5184.0, 5090.0, 5079.0, 5170.0], 'kernel:': [2129.0, 2132.0, 2130.0, 2133.0, 2170.0, 2133.0, 2129.0, 2134.0], 'overall:': [7004.0, 7105.0, 7074.0, 7085.0, 7192.0, 7105.0, 7090.0, 7152.0], 'read_input:': [893.0, 890.0, 924.0, 912.0, 914.0, 919.0, 914.0, 888.0], 'extra:': [1003.0, 1005.0, 1004.0, 1003.0, 1008.0, 1007.0, 1007.0, 1004.0], 'gpu_tree_copy_from:': [29.0, 30.0, 22.0, 29.0, 24.0, 31.0, 30.0, 31.0], 'build_tree:': [1081.0, 1086.0, 1085.0, 1085.0, 1089.0, 1088.0, 1089.0, 1085.0]}
the number of input argument is: 4
0.749668*********
configuration: sort_flag = 1, verbose_flag=0, check_flag=0, npoints=200000, radius=0.320000
avg corr: 170.587326
@ overall: 7114 ms
@ read_input: 924 ms
@ build_tree: 1085 ms
@ hashtab: 138 ms
@ gpu_tree_build: 81 ms
@ init_kernel: 2654 ms
@ gpu_tree_copy_to: 24 ms
@ kernel: 2170 ms
@ extra: 1003 ms
@ traverse: 5096 ms
@ gpu_tree_copy_from: 30 ms
Collected results into ../../../results/tmp/pc_Original_Lockstep_random.7d_sorted.stats

Loading data from ../../../results/tmp/pc_Original_Lockstep_random.7d_sorted.stats...
{'gpu_tree_copy_to:': [24.0, 23.0, 24.0, 23.0, 34.0, 34.0, 23.0, 34.0, 24.0], 'gpu_tree_build:': [79.0, 81.0, 82.0, 81.0, 82.0, 82.0, 82.0, 82.0, 81.0], 'init_kernel:': [2626.0, 2718.0, 2629.0, 2675.0, 2706.0, 2667.0, 2677.0, 2752.0, 2654.0], 'traverse:': [5022.0, 5121.0, 5059.0, 5079.0, 5184.0, 5090.0, 5079.0, 5170.0, 5096.0], 'hashtab:': [135.0, 137.0, 172.0, 138.0, 169.0, 142.0, 138.0, 138.0, 138.0], 'kernel:': [2129.0, 2132.0, 2130.0, 2133.0, 2170.0, 2133.0, 2129.0, 2134.0, 2170.0], 'overall:': [7004.0, 7105.0, 7074.0, 7085.0, 7192.0, 7105.0, 7090.0, 7152.0, 7114.0], 'read_input:': [893.0, 890.0, 924.0, 912.0, 914.0, 919.0, 914.0, 888.0, 924.0], 'extra:': [1003.0, 1005.0, 1004.0, 1003.0, 1008.0, 1007.0, 1007.0, 1004.0, 1003.0], 'gpu_tree_copy_from:': [29.0, 30.0, 22.0, 29.0, 24.0, 31.0, 30.0, 31.0, 30.0], 'build_tree:': [1081.0, 1086.0, 1085.0, 1085.0, 1089.0, 1088.0, 1089.0, 1085.0, 1085.0]}
the number of input argument is: 4
0.749668*********
configuration: sort_flag = 1, verbose_flag=0, check_flag=0, npoints=200000, radius=0.320000
avg corr: 170.587326
@ overall: 7011 ms
@ read_input: 860 ms
@ build_tree: 1099 ms
@ hashtab: 139 ms
@ gpu_tree_build: 82 ms
@ init_kernel: 2640 ms
@ gpu_tree_copy_to: 24 ms
@ kernel: 2132 ms
@ extra: 1015 ms
@ traverse: 5045 ms
@ gpu_tree_copy_from: 29 ms
Collected results into ../../../results/tmp/pc_Original_Lockstep_random.7d_sorted.stats

Loading data from ../../../results/tmp/pc_Original_Lockstep_random.7d_sorted.stats...
{'gpu_tree_copy_to:': [24.0, 23.0, 24.0, 23.0, 34.0, 34.0, 23.0, 34.0, 24.0, 24.0], 'gpu_tree_build:': [79.0, 81.0, 82.0, 81.0, 82.0, 82.0, 82.0, 82.0, 81.0, 82.0], 'init_kernel:': [2626.0, 2718.0, 2629.0, 2675.0, 2706.0, 2667.0, 2677.0, 2752.0, 2654.0, 2640.0], 'hashtab:': [135.0, 137.0, 172.0, 138.0, 169.0, 142.0, 138.0, 138.0, 138.0, 139.0], 'traverse:': [5022.0, 5121.0, 5059.0, 5079.0, 5184.0, 5090.0, 5079.0, 5170.0, 5096.0, 5045.0], 'kernel:': [2129.0, 2132.0, 2130.0, 2133.0, 2170.0, 2133.0, 2129.0, 2134.0, 2170.0, 2132.0], 'overall:': [7004.0, 7105.0, 7074.0, 7085.0, 7192.0, 7105.0, 7090.0, 7152.0, 7114.0, 7011.0], 'read_input:': [893.0, 890.0, 924.0, 912.0, 914.0, 919.0, 914.0, 888.0, 924.0, 860.0], 'extra:': [1003.0, 1005.0, 1004.0, 1003.0, 1008.0, 1007.0, 1007.0, 1004.0, 1003.0, 1015.0], 'gpu_tree_copy_from:': [29.0, 30.0, 22.0, 29.0, 24.0, 31.0, 30.0, 31.0, 30.0, 29.0], 'build_tree:': [1081.0, 1086.0, 1085.0, 1085.0, 1089.0, 1088.0, 1089.0, 1085.0, 1085.0, 1099.0]}
the number of input argument is: 4
0.749668*********
configuration: sort_flag = 1, verbose_flag=0, check_flag=0, npoints=200000, radius=0.320000
avg corr: 170.587326
@ overall: 7226 ms
@ read_input: 946 ms
@ build_tree: 1085 ms
@ hashtab: 139 ms
@ gpu_tree_build: 81 ms
@ init_kernel: 2769 ms
@ gpu_tree_copy_to: 34 ms
@ kernel: 2133 ms
@ extra: 1004 ms
@ traverse: 5187 ms
@ gpu_tree_copy_from: 31 ms
Collected results into ../../../results/tmp/pc_Original_Lockstep_random.7d_sorted.stats

Loading data from ../../../results/tmp/pc_Original_Lockstep_random.7d_sorted.stats...
{'gpu_tree_copy_to:': [24.0, 23.0, 24.0, 23.0, 34.0, 34.0, 23.0, 34.0, 24.0, 24.0, 34.0], 'gpu_tree_build:': [79.0, 81.0, 82.0, 81.0, 82.0, 82.0, 82.0, 82.0, 81.0, 82.0, 81.0], 'init_kernel:': [2626.0, 2718.0, 2629.0, 2675.0, 2706.0, 2667.0, 2677.0, 2752.0, 2654.0, 2640.0, 2769.0], 'traverse:': [5022.0, 5121.0, 5059.0, 5079.0, 5184.0, 5090.0, 5079.0, 5170.0, 5096.0, 5045.0, 5187.0], 'hashtab:': [135.0, 137.0, 172.0, 138.0, 169.0, 142.0, 138.0, 138.0, 138.0, 139.0, 139.0], 'kernel:': [2129.0, 2132.0, 2130.0, 2133.0, 2170.0, 2133.0, 2129.0, 2134.0, 2170.0, 2132.0, 2133.0], 'overall:': [7004.0, 7105.0, 7074.0, 7085.0, 7192.0, 7105.0, 7090.0, 7152.0, 7114.0, 7011.0, 7226.0], 'read_input:': [893.0, 890.0, 924.0, 912.0, 914.0, 919.0, 914.0, 888.0, 924.0, 860.0, 946.0], 'extra:': [1003.0, 1005.0, 1004.0, 1003.0, 1008.0, 1007.0, 1007.0, 1004.0, 1003.0, 1015.0, 1004.0], 'gpu_tree_copy_from:': [29.0, 30.0, 22.0, 29.0, 24.0, 31.0, 30.0, 31.0, 30.0, 29.0, 31.0], 'build_tree:': [1081.0, 1086.0, 1085.0, 1085.0, 1089.0, 1088.0, 1089.0, 1085.0, 1085.0, 1099.0, 1085.0]}
the number of input argument is: 4
0.749668*********
configuration: sort_flag = 1, verbose_flag=0, check_flag=0, npoints=200000, radius=0.320000
avg corr: 170.587326
@ overall: 7139 ms
@ read_input: 928 ms
@ build_tree: 1088 ms
@ hashtab: 138 ms
@ gpu_tree_build: 82 ms
@ init_kernel: 2675 ms
@ gpu_tree_copy_to: 23 ms
@ kernel: 2169 ms
@ extra: 1009 ms
@ traverse: 5116 ms
@ gpu_tree_copy_from: 29 ms
Collected results into ../../../results/tmp/pc_Original_Lockstep_random.7d_sorted.stats

Loading data from ../../../results/tmp/pc_Original_Lockstep_random.7d_sorted.stats...
{'gpu_tree_copy_to:': [24.0, 23.0, 24.0, 23.0, 34.0, 34.0, 23.0, 34.0, 24.0, 24.0, 34.0, 23.0], 'gpu_tree_build:': [79.0, 81.0, 82.0, 81.0, 82.0, 82.0, 82.0, 82.0, 81.0, 82.0, 81.0, 82.0], 'init_kernel:': [2626.0, 2718.0, 2629.0, 2675.0, 2706.0, 2667.0, 2677.0, 2752.0, 2654.0, 2640.0, 2769.0, 2675.0], 'hashtab:': [135.0, 137.0, 172.0, 138.0, 169.0, 142.0, 138.0, 138.0, 138.0, 139.0, 139.0, 138.0], 'traverse:': [5022.0, 5121.0, 5059.0, 5079.0, 5184.0, 5090.0, 5079.0, 5170.0, 5096.0, 5045.0, 5187.0, 5116.0], 'kernel:': [2129.0, 2132.0, 2130.0, 2133.0, 2170.0, 2133.0, 2129.0, 2134.0, 2170.0, 2132.0, 2133.0, 2169.0], 'overall:': [7004.0, 7105.0, 7074.0, 7085.0, 7192.0, 7105.0, 7090.0, 7152.0, 7114.0, 7011.0, 7226.0, 7139.0], 'read_input:': [893.0, 890.0, 924.0, 912.0, 914.0, 919.0, 914.0, 888.0, 924.0, 860.0, 946.0, 928.0], 'extra:': [1003.0, 1005.0, 1004.0, 1003.0, 1008.0, 1007.0, 1007.0, 1004.0, 1003.0, 1015.0, 1004.0, 1009.0], 'gpu_tree_copy_from:': [29.0, 30.0, 22.0, 29.0, 24.0, 31.0, 30.0, 31.0, 30.0, 29.0, 31.0, 29.0], 'build_tree:': [1081.0, 1086.0, 1085.0, 1085.0, 1089.0, 1088.0, 1089.0, 1085.0, 1085.0, 1099.0, 1085.0, 1088.0]}
the number of input argument is: 4
0.749668*********
configuration: sort_flag = 1, verbose_flag=0, check_flag=0, npoints=200000, radius=0.320000
avg corr: 170.587326
@ overall: 7189 ms
@ read_input: 914 ms
@ build_tree: 1088 ms
@ hashtab: 139 ms
@ gpu_tree_build: 82 ms
@ init_kernel: 2761 ms
@ gpu_tree_copy_to: 34 ms
@ kernel: 2132 ms
@ extra: 1006 ms
@ traverse: 5179 ms
@ gpu_tree_copy_from: 31 ms
Collected results into ../../../results/tmp/pc_Original_Lockstep_random.7d_sorted.stats

Loading data from ../../../results/tmp/pc_Original_Lockstep_random.7d_sorted.stats...
{'gpu_tree_copy_to:': [24.0, 23.0, 24.0, 23.0, 34.0, 34.0, 23.0, 34.0, 24.0, 24.0, 34.0, 23.0, 34.0], 'gpu_tree_build:': [79.0, 81.0, 82.0, 81.0, 82.0, 82.0, 82.0, 82.0, 81.0, 82.0, 81.0, 82.0, 82.0], 'init_kernel:': [2626.0, 2718.0, 2629.0, 2675.0, 2706.0, 2667.0, 2677.0, 2752.0, 2654.0, 2640.0, 2769.0, 2675.0, 2761.0], 'traverse:': [5022.0, 5121.0, 5059.0, 5079.0, 5184.0, 5090.0, 5079.0, 5170.0, 5096.0, 5045.0, 5187.0, 5116.0, 5179.0], 'hashtab:': [135.0, 137.0, 172.0, 138.0, 169.0, 142.0, 138.0, 138.0, 138.0, 139.0, 139.0, 138.0, 139.0], 'kernel:': [2129.0, 2132.0, 2130.0, 2133.0, 2170.0, 2133.0, 2129.0, 2134.0, 2170.0, 2132.0, 2133.0, 2169.0, 2132.0], 'overall:': [7004.0, 7105.0, 7074.0, 7085.0, 7192.0, 7105.0, 7090.0, 7152.0, 7114.0, 7011.0, 7226.0, 7139.0, 7189.0], 'read_input:': [893.0, 890.0, 924.0, 912.0, 914.0, 919.0, 914.0, 888.0, 924.0, 860.0, 946.0, 928.0, 914.0], 'extra:': [1003.0, 1005.0, 1004.0, 1003.0, 1008.0, 1007.0, 1007.0, 1004.0, 1003.0, 1015.0, 1004.0, 1009.0, 1006.0], 'gpu_tree_copy_from:': [29.0, 30.0, 22.0, 29.0, 24.0, 31.0, 30.0, 31.0, 30.0, 29.0, 31.0, 29.0, 31.0], 'build_tree:': [1081.0, 1086.0, 1085.0, 1085.0, 1089.0, 1088.0, 1089.0, 1085.0, 1085.0, 1099.0, 1085.0, 1088.0, 1088.0]}
the number of input argument is: 4
0.749668*********
configuration: sort_flag = 1, verbose_flag=0, check_flag=0, npoints=200000, radius=0.320000
avg corr: 170.587326
@ overall: 7043 ms
@ read_input: 864 ms
@ build_tree: 1084 ms
@ hashtab: 173 ms
@ gpu_tree_build: 81 ms
@ init_kernel: 2645 ms
@ gpu_tree_copy_to: 34 ms
@ kernel: 2132 ms
@ extra: 1003 ms
@ traverse: 5089 ms
@ gpu_tree_copy_from: 24 ms
Collected results into ../../../results/tmp/pc_Original_Lockstep_random.7d_sorted.stats

Loading data from ../../../results/tmp/pc_Original_Lockstep_random.7d_sorted.stats...
{'gpu_tree_copy_to:': [24.0, 23.0, 24.0, 23.0, 34.0, 34.0, 23.0, 34.0, 24.0, 24.0, 34.0, 23.0, 34.0, 34.0], 'gpu_tree_build:': [79.0, 81.0, 82.0, 81.0, 82.0, 82.0, 82.0, 82.0, 81.0, 82.0, 81.0, 82.0, 82.0, 81.0], 'init_kernel:': [2626.0, 2718.0, 2629.0, 2675.0, 2706.0, 2667.0, 2677.0, 2752.0, 2654.0, 2640.0, 2769.0, 2675.0, 2761.0, 2645.0], 'hashtab:': [135.0, 137.0, 172.0, 138.0, 169.0, 142.0, 138.0, 138.0, 138.0, 139.0, 139.0, 138.0, 139.0, 173.0], 'traverse:': [5022.0, 5121.0, 5059.0, 5079.0, 5184.0, 5090.0, 5079.0, 5170.0, 5096.0, 5045.0, 5187.0, 5116.0, 5179.0, 5089.0], 'kernel:': [2129.0, 2132.0, 2130.0, 2133.0, 2170.0, 2133.0, 2129.0, 2134.0, 2170.0, 2132.0, 2133.0, 2169.0, 2132.0, 2132.0], 'overall:': [7004.0, 7105.0, 7074.0, 7085.0, 7192.0, 7105.0, 7090.0, 7152.0, 7114.0, 7011.0, 7226.0, 7139.0, 7189.0, 7043.0], 'read_input:': [893.0, 890.0, 924.0, 912.0, 914.0, 919.0, 914.0, 888.0, 924.0, 860.0, 946.0, 928.0, 914.0, 864.0], 'extra:': [1003.0, 1005.0, 1004.0, 1003.0, 1008.0, 1007.0, 1007.0, 1004.0, 1003.0, 1015.0, 1004.0, 1009.0, 1006.0, 1003.0], 'gpu_tree_copy_from:': [29.0, 30.0, 22.0, 29.0, 24.0, 31.0, 30.0, 31.0, 30.0, 29.0, 31.0, 29.0, 31.0, 24.0], 'build_tree:': [1081.0, 1086.0, 1085.0, 1085.0, 1089.0, 1088.0, 1089.0, 1085.0, 1085.0, 1099.0, 1085.0, 1088.0, 1088.0, 1084.0]}
the number of input argument is: 4
0.749668*********
configuration: sort_flag = 1, verbose_flag=0, check_flag=0, npoints=200000, radius=0.320000
avg corr: 170.587326
@ overall: 7171 ms
@ read_input: 914 ms
@ build_tree: 1081 ms
@ hashtab: 171 ms
@ gpu_tree_build: 82 ms
@ init_kernel: 2731 ms
@ gpu_tree_copy_to: 23 ms
@ kernel: 2141 ms
@ extra: 1000 ms
@ traverse: 5170 ms
@ gpu_tree_copy_from: 22 ms
Collected results into ../../../results/tmp/pc_Original_Lockstep_random.7d_sorted.stats

