Results wll be collected to ../../../results/tmp/vp_Non_Lockstep_random.7d_sorted.stats...
Configuration: sort_flag = 1, verbose_flag = 0, nthreads=1, DIM = 7, npoints = 200000, input_file=../../../input/pc/random.7d
@ init_kernel: 2626 ms
kernel start!
kernel end!
@ search_kernel: 3689 ms
@ kernel: 3020 ms
@ sort: 1085 ms
@ search: 3702 ms
correct rate: 1.0000
Collected results into ../../../results/tmp/vp_Non_Lockstep_random.7d_sorted.stats

Loading data from ../../../results/tmp/vp_Non_Lockstep_random.7d_sorted.stats...
{'init_kernel:': [2626.0], 'search_kernel:': [3689.0], 'kernel:': [3020.0], 'sort:': [1085.0], 'search:': [3702.0]}
Configuration: sort_flag = 1, verbose_flag = 0, nthreads=1, DIM = 7, npoints = 200000, input_file=../../../input/pc/random.7d
@ init_kernel: 2647 ms
kernel start!
kernel end!
@ search_kernel: 3699 ms
@ kernel: 3020 ms
@ sort: 1085 ms
@ search: 3712 ms
correct rate: 1.0000
Collected results into ../../../results/tmp/vp_Non_Lockstep_random.7d_sorted.stats

Loading data from ../../../results/tmp/vp_Non_Lockstep_random.7d_sorted.stats...
{'init_kernel:': [2626.0, 2647.0], 'search_kernel:': [3689.0, 3699.0], 'kernel:': [3020.0, 3020.0], 'search:': [3702.0, 3712.0], 'sort:': [1085.0, 1085.0]}
Configuration: sort_flag = 1, verbose_flag = 0, nthreads=1, DIM = 7, npoints = 200000, input_file=../../../input/pc/random.7d
@ init_kernel: 2799 ms
kernel start!
kernel end!
@ search_kernel: 3637 ms
@ kernel: 3037 ms
@ sort: 1084 ms
@ search: 3650 ms
correct rate: 1.0000
Collected results into ../../../results/tmp/vp_Non_Lockstep_random.7d_sorted.stats

Loading data from ../../../results/tmp/vp_Non_Lockstep_random.7d_sorted.stats...
{'init_kernel:': [2626.0, 2647.0, 2799.0], 'search_kernel:': [3689.0, 3699.0, 3637.0], 'kernel:': [3020.0, 3020.0, 3037.0], 'sort:': [1085.0, 1085.0, 1084.0], 'search:': [3702.0, 3712.0, 3650.0]}
Configuration: sort_flag = 1, verbose_flag = 0, nthreads=1, DIM = 7, npoints = 200000, input_file=../../../input/pc/random.7d
@ init_kernel: 2706 ms
kernel start!
kernel end!
@ search_kernel: 3711 ms
@ kernel: 3029 ms
@ sort: 1038 ms
@ search: 3724 ms
correct rate: 1.0000
Collected results into ../../../results/tmp/vp_Non_Lockstep_random.7d_sorted.stats

Loading data from ../../../results/tmp/vp_Non_Lockstep_random.7d_sorted.stats...
{'init_kernel:': [2626.0, 2647.0, 2799.0, 2706.0], 'search_kernel:': [3689.0, 3699.0, 3637.0, 3711.0], 'kernel:': [3020.0, 3020.0, 3037.0, 3029.0], 'search:': [3702.0, 3712.0, 3650.0, 3724.0], 'sort:': [1085.0, 1085.0, 1084.0, 1038.0]}
Configuration: sort_flag = 1, verbose_flag = 0, nthreads=1, DIM = 7, npoints = 200000, input_file=../../../input/pc/random.7d
@ init_kernel: 2643 ms
kernel start!
kernel end!
@ search_kernel: 3725 ms
@ kernel: 3030 ms
@ sort: 1039 ms
@ search: 3739 ms
correct rate: 1.0000
Collected results into ../../../results/tmp/vp_Non_Lockstep_random.7d_sorted.stats

Loading data from ../../../results/tmp/vp_Non_Lockstep_random.7d_sorted.stats...
{'init_kernel:': [2626.0, 2647.0, 2799.0, 2706.0, 2643.0], 'search_kernel:': [3689.0, 3699.0, 3637.0, 3711.0, 3725.0], 'kernel:': [3020.0, 3020.0, 3037.0, 3029.0, 3030.0], 'sort:': [1085.0, 1085.0, 1084.0, 1038.0, 1039.0], 'search:': [3702.0, 3712.0, 3650.0, 3724.0, 3739.0]}
Configuration: sort_flag = 1, verbose_flag = 0, nthreads=1, DIM = 7, npoints = 200000, input_file=../../../input/pc/random.7d
@ init_kernel: 2632 ms
kernel start!
kernel end!
@ search_kernel: 3601 ms
@ kernel: 3027 ms
@ sort: 921 ms
@ search: 3614 ms
correct rate: 1.0000
Collected results into ../../../results/tmp/vp_Non_Lockstep_random.7d_sorted.stats

Loading data from ../../../results/tmp/vp_Non_Lockstep_random.7d_sorted.stats...
{'init_kernel:': [2626.0, 2647.0, 2799.0, 2706.0, 2643.0, 2632.0], 'search_kernel:': [3689.0, 3699.0, 3637.0, 3711.0, 3725.0, 3601.0], 'kernel:': [3020.0, 3020.0, 3037.0, 3029.0, 3030.0, 3027.0], 'search:': [3702.0, 3712.0, 3650.0, 3724.0, 3739.0, 3614.0], 'sort:': [1085.0, 1085.0, 1084.0, 1038.0, 1039.0, 921.0]}
Configuration: sort_flag = 1, verbose_flag = 0, nthreads=1, DIM = 7, npoints = 200000, input_file=../../../input/pc/random.7d
@ init_kernel: 2743 ms
kernel start!
kernel end!
@ search_kernel: 3663 ms
@ kernel: 3024 ms
@ sort: 977 ms
@ search: 3675 ms
correct rate: 1.0000
Collected results into ../../../results/tmp/vp_Non_Lockstep_random.7d_sorted.stats

Loading data from ../../../results/tmp/vp_Non_Lockstep_random.7d_sorted.stats...
{'init_kernel:': [2626.0, 2647.0, 2799.0, 2706.0, 2643.0, 2632.0, 2743.0], 'search_kernel:': [3689.0, 3699.0, 3637.0, 3711.0, 3725.0, 3601.0, 3663.0], 'kernel:': [3020.0, 3020.0, 3037.0, 3029.0, 3030.0, 3027.0, 3024.0], 'sort:': [1085.0, 1085.0, 1084.0, 1038.0, 1039.0, 921.0, 977.0], 'search:': [3702.0, 3712.0, 3650.0, 3724.0, 3739.0, 3614.0, 3675.0]}
Configuration: sort_flag = 1, verbose_flag = 0, nthreads=1, DIM = 7, npoints = 200000, input_file=../../../input/pc/random.7d
@ init_kernel: 2681 ms
kernel start!
kernel end!
@ search_kernel: 3741 ms
@ kernel: 3034 ms
@ sort: 1083 ms
@ search: 3755 ms
correct rate: 1.0000
Collected results into ../../../results/tmp/vp_Non_Lockstep_random.7d_sorted.stats

Loading data from ../../../results/tmp/vp_Non_Lockstep_random.7d_sorted.stats...
{'init_kernel:': [2626.0, 2647.0, 2799.0, 2706.0, 2643.0, 2632.0, 2743.0, 2681.0], 'search_kernel:': [3689.0, 3699.0, 3637.0, 3711.0, 3725.0, 3601.0, 3663.0, 3741.0], 'kernel:': [3020.0, 3020.0, 3037.0, 3029.0, 3030.0, 3027.0, 3024.0, 3034.0], 'search:': [3702.0, 3712.0, 3650.0, 3724.0, 3739.0, 3614.0, 3675.0, 3755.0], 'sort:': [1085.0, 1085.0, 1084.0, 1038.0, 1039.0, 921.0, 977.0, 1083.0]}
Configuration: sort_flag = 1, verbose_flag = 0, nthreads=1, DIM = 7, npoints = 200000, input_file=../../../input/pc/random.7d
@ init_kernel: 2751 ms
kernel start!
kernel end!
@ search_kernel: 3672 ms
@ kernel: 3022 ms
@ sort: 1085 ms
@ search: 3685 ms
correct rate: 1.0000
Collected results into ../../../results/tmp/vp_Non_Lockstep_random.7d_sorted.stats

Loading data from ../../../results/tmp/vp_Non_Lockstep_random.7d_sorted.stats...
{'init_kernel:': [2626.0, 2647.0, 2799.0, 2706.0, 2643.0, 2632.0, 2743.0, 2681.0, 2751.0], 'search_kernel:': [3689.0, 3699.0, 3637.0, 3711.0, 3725.0, 3601.0, 3663.0, 3741.0, 3672.0], 'kernel:': [3020.0, 3020.0, 3037.0, 3029.0, 3030.0, 3027.0, 3024.0, 3034.0, 3022.0], 'sort:': [1085.0, 1085.0, 1084.0, 1038.0, 1039.0, 921.0, 977.0, 1083.0, 1085.0], 'search:': [3702.0, 3712.0, 3650.0, 3724.0, 3739.0, 3614.0, 3675.0, 3755.0, 3685.0]}
Configuration: sort_flag = 1, verbose_flag = 0, nthreads=1, DIM = 7, npoints = 200000, input_file=../../../input/pc/random.7d
@ init_kernel: 2770 ms
kernel start!
kernel end!
@ search_kernel: 3737 ms
@ kernel: 3037 ms
@ sort: 1039 ms
@ search: 3750 ms
correct rate: 1.0000
Collected results into ../../../results/tmp/vp_Non_Lockstep_random.7d_sorted.stats

Loading data from ../../../results/tmp/vp_Non_Lockstep_random.7d_sorted.stats...
{'init_kernel:': [2626.0, 2647.0, 2799.0, 2706.0, 2643.0, 2632.0, 2743.0, 2681.0, 2751.0, 2770.0], 'search_kernel:': [3689.0, 3699.0, 3637.0, 3711.0, 3725.0, 3601.0, 3663.0, 3741.0, 3672.0, 3737.0], 'kernel:': [3020.0, 3020.0, 3037.0, 3029.0, 3030.0, 3027.0, 3024.0, 3034.0, 3022.0, 3037.0], 'search:': [3702.0, 3712.0, 3650.0, 3724.0, 3739.0, 3614.0, 3675.0, 3755.0, 3685.0, 3750.0], 'sort:': [1085.0, 1085.0, 1084.0, 1038.0, 1039.0, 921.0, 977.0, 1083.0, 1085.0, 1039.0]}
Configuration: sort_flag = 1, verbose_flag = 0, nthreads=1, DIM = 7, npoints = 200000, input_file=../../../input/pc/random.7d
@ init_kernel: 2678 ms
kernel start!
kernel end!
@ search_kernel: 3598 ms
@ kernel: 2999 ms
@ sort: 1038 ms
@ search: 3612 ms
correct rate: 1.0000
Collected results into ../../../results/tmp/vp_Non_Lockstep_random.7d_sorted.stats

Loading data from ../../../results/tmp/vp_Non_Lockstep_random.7d_sorted.stats...
{'init_kernel:': [2626.0, 2647.0, 2799.0, 2706.0, 2643.0, 2632.0, 2743.0, 2681.0, 2751.0, 2770.0, 2678.0], 'search_kernel:': [3689.0, 3699.0, 3637.0, 3711.0, 3725.0, 3601.0, 3663.0, 3741.0, 3672.0, 3737.0, 3598.0], 'kernel:': [3020.0, 3020.0, 3037.0, 3029.0, 3030.0, 3027.0, 3024.0, 3034.0, 3022.0, 3037.0, 2999.0], 'sort:': [1085.0, 1085.0, 1084.0, 1038.0, 1039.0, 921.0, 977.0, 1083.0, 1085.0, 1039.0, 1038.0], 'search:': [3702.0, 3712.0, 3650.0, 3724.0, 3739.0, 3614.0, 3675.0, 3755.0, 3685.0, 3750.0, 3612.0]}
Configuration: sort_flag = 1, verbose_flag = 0, nthreads=1, DIM = 7, npoints = 200000, input_file=../../../input/pc/random.7d
@ init_kernel: 2740 ms
kernel start!
kernel end!
@ search_kernel: 3683 ms
@ kernel: 3045 ms
@ sort: 1086 ms
@ search: 3696 ms
correct rate: 1.0000
Collected results into ../../../results/tmp/vp_Non_Lockstep_random.7d_sorted.stats

Loading data from ../../../results/tmp/vp_Non_Lockstep_random.7d_sorted.stats...
{'init_kernel:': [2626.0, 2647.0, 2799.0, 2706.0, 2643.0, 2632.0, 2743.0, 2681.0, 2751.0, 2770.0, 2678.0, 2740.0], 'search_kernel:': [3689.0, 3699.0, 3637.0, 3711.0, 3725.0, 3601.0, 3663.0, 3741.0, 3672.0, 3737.0, 3598.0, 3683.0], 'kernel:': [3020.0, 3020.0, 3037.0, 3029.0, 3030.0, 3027.0, 3024.0, 3034.0, 3022.0, 3037.0, 2999.0, 3045.0], 'search:': [3702.0, 3712.0, 3650.0, 3724.0, 3739.0, 3614.0, 3675.0, 3755.0, 3685.0, 3750.0, 3612.0, 3696.0], 'sort:': [1085.0, 1085.0, 1084.0, 1038.0, 1039.0, 921.0, 977.0, 1083.0, 1085.0, 1039.0, 1038.0, 1086.0]}
Configuration: sort_flag = 1, verbose_flag = 0, nthreads=1, DIM = 7, npoints = 200000, input_file=../../../input/pc/random.7d
@ init_kernel: 2770 ms
kernel start!
kernel end!
@ search_kernel: 3682 ms
@ kernel: 3039 ms
@ sort: 1085 ms
@ search: 3696 ms
correct rate: 1.0000
Collected results into ../../../results/tmp/vp_Non_Lockstep_random.7d_sorted.stats

Loading data from ../../../results/tmp/vp_Non_Lockstep_random.7d_sorted.stats...
{'init_kernel:': [2626.0, 2647.0, 2799.0, 2706.0, 2643.0, 2632.0, 2743.0, 2681.0, 2751.0, 2770.0, 2678.0, 2740.0, 2770.0], 'search_kernel:': [3689.0, 3699.0, 3637.0, 3711.0, 3725.0, 3601.0, 3663.0, 3741.0, 3672.0, 3737.0, 3598.0, 3683.0, 3682.0], 'kernel:': [3020.0, 3020.0, 3037.0, 3029.0, 3030.0, 3027.0, 3024.0, 3034.0, 3022.0, 3037.0, 2999.0, 3045.0, 3039.0], 'sort:': [1085.0, 1085.0, 1084.0, 1038.0, 1039.0, 921.0, 977.0, 1083.0, 1085.0, 1039.0, 1038.0, 1086.0, 1085.0], 'search:': [3702.0, 3712.0, 3650.0, 3724.0, 3739.0, 3614.0, 3675.0, 3755.0, 3685.0, 3750.0, 3612.0, 3696.0, 3696.0]}
Configuration: sort_flag = 1, verbose_flag = 0, nthreads=1, DIM = 7, npoints = 200000, input_file=../../../input/pc/random.7d
@ init_kernel: 2622 ms
kernel start!
kernel end!
@ search_kernel: 3650 ms
@ kernel: 3017 ms
@ sort: 1037 ms
@ search: 3663 ms
correct rate: 1.0000
Collected results into ../../../results/tmp/vp_Non_Lockstep_random.7d_sorted.stats

Loading data from ../../../results/tmp/vp_Non_Lockstep_random.7d_sorted.stats...
{'init_kernel:': [2626.0, 2647.0, 2799.0, 2706.0, 2643.0, 2632.0, 2743.0, 2681.0, 2751.0, 2770.0, 2678.0, 2740.0, 2770.0, 2622.0], 'search_kernel:': [3689.0, 3699.0, 3637.0, 3711.0, 3725.0, 3601.0, 3663.0, 3741.0, 3672.0, 3737.0, 3598.0, 3683.0, 3682.0, 3650.0], 'kernel:': [3020.0, 3020.0, 3037.0, 3029.0, 3030.0, 3027.0, 3024.0, 3034.0, 3022.0, 3037.0, 2999.0, 3045.0, 3039.0, 3017.0], 'search:': [3702.0, 3712.0, 3650.0, 3724.0, 3739.0, 3614.0, 3675.0, 3755.0, 3685.0, 3750.0, 3612.0, 3696.0, 3696.0, 3663.0], 'sort:': [1085.0, 1085.0, 1084.0, 1038.0, 1039.0, 921.0, 977.0, 1083.0, 1085.0, 1039.0, 1038.0, 1086.0, 1085.0, 1037.0]}
Configuration: sort_flag = 1, verbose_flag = 0, nthreads=1, DIM = 7, npoints = 200000, input_file=../../../input/pc/random.7d
@ init_kernel: 2705 ms
kernel start!
kernel end!
@ search_kernel: 3695 ms
@ kernel: 3016 ms
@ sort: 1038 ms
@ search: 3709 ms
correct rate: 1.0000
Collected results into ../../../results/tmp/vp_Non_Lockstep_random.7d_sorted.stats

