Results wll be collected to ../../../results/tmp/vp_Non_Lockstep_random.7d_unsorted.stats...
Configuration: sort_flag = 0, verbose_flag = 0, nthreads=1, DIM = 7, npoints = 200000, input_file=../../../input/pc/random.7d
@ init_kernel: 2604 ms
kernel start!
kernel end!
@ search_kernel: 3799 ms
@ kernel: 3161 ms
@ sort:  0 ms
@ search: 3805 ms
correct rate: 1.0000
Collected results into ../../../results/tmp/vp_Non_Lockstep_random.7d_unsorted.stats

Loading data from ../../../results/tmp/vp_Non_Lockstep_random.7d_unsorted.stats...
{'init_kernel:': [2604.0], 'search_kernel:': [3799.0], 'kernel:': [3161.0], 'sort:': [0.0], 'search:': [3805.0]}
Configuration: sort_flag = 0, verbose_flag = 0, nthreads=1, DIM = 7, npoints = 200000, input_file=../../../input/pc/random.7d
@ init_kernel: 2658 ms
kernel start!
kernel end!
@ search_kernel: 3752 ms
@ kernel: 3147 ms
@ sort:  0 ms
@ search: 3760 ms
correct rate: 1.0000
Collected results into ../../../results/tmp/vp_Non_Lockstep_random.7d_unsorted.stats

Loading data from ../../../results/tmp/vp_Non_Lockstep_random.7d_unsorted.stats...
{'init_kernel:': [2604.0, 2658.0], 'search_kernel:': [3799.0, 3752.0], 'kernel:': [3161.0, 3147.0], 'search:': [3805.0, 3760.0], 'sort:': [0.0, 0.0]}
Configuration: sort_flag = 0, verbose_flag = 0, nthreads=1, DIM = 7, npoints = 200000, input_file=../../../input/pc/random.7d
@ init_kernel: 2606 ms
kernel start!
kernel end!
@ search_kernel: 3830 ms
@ kernel: 3166 ms
@ sort:  0 ms
@ search: 3838 ms
correct rate: 1.0000
Collected results into ../../../results/tmp/vp_Non_Lockstep_random.7d_unsorted.stats

Loading data from ../../../results/tmp/vp_Non_Lockstep_random.7d_unsorted.stats...
{'init_kernel:': [2604.0, 2658.0, 2606.0], 'search_kernel:': [3799.0, 3752.0, 3830.0], 'kernel:': [3161.0, 3147.0, 3166.0], 'sort:': [0.0, 0.0, 0.0], 'search:': [3805.0, 3760.0, 3838.0]}
Configuration: sort_flag = 0, verbose_flag = 0, nthreads=1, DIM = 7, npoints = 200000, input_file=../../../input/pc/random.7d
@ init_kernel: 2605 ms
kernel start!
kernel end!
@ search_kernel: 3800 ms
@ kernel: 3149 ms
@ sort:  0 ms
@ search: 3805 ms
correct rate: 1.0000
Collected results into ../../../results/tmp/vp_Non_Lockstep_random.7d_unsorted.stats

Loading data from ../../../results/tmp/vp_Non_Lockstep_random.7d_unsorted.stats...
{'init_kernel:': [2604.0, 2658.0, 2606.0, 2605.0], 'search_kernel:': [3799.0, 3752.0, 3830.0, 3800.0], 'kernel:': [3161.0, 3147.0, 3166.0, 3149.0], 'search:': [3805.0, 3760.0, 3838.0, 3805.0], 'sort:': [0.0, 0.0, 0.0, 0.0]}
Configuration: sort_flag = 0, verbose_flag = 0, nthreads=1, DIM = 7, npoints = 200000, input_file=../../../input/pc/random.7d
@ init_kernel: 2654 ms
kernel start!
kernel end!
@ search_kernel: 3813 ms
@ kernel: 3165 ms
@ sort:  0 ms
@ search: 3820 ms
correct rate: 1.0000
Collected results into ../../../results/tmp/vp_Non_Lockstep_random.7d_unsorted.stats

Loading data from ../../../results/tmp/vp_Non_Lockstep_random.7d_unsorted.stats...
{'init_kernel:': [2604.0, 2658.0, 2606.0, 2605.0, 2654.0], 'search_kernel:': [3799.0, 3752.0, 3830.0, 3800.0, 3813.0], 'kernel:': [3161.0, 3147.0, 3166.0, 3149.0, 3165.0], 'sort:': [0.0, 0.0, 0.0, 0.0, 0.0], 'search:': [3805.0, 3760.0, 3838.0, 3805.0, 3820.0]}
Configuration: sort_flag = 0, verbose_flag = 0, nthreads=1, DIM = 7, npoints = 200000, input_file=../../../input/pc/random.7d
@ init_kernel: 2588 ms
kernel start!
kernel end!
@ search_kernel: 3750 ms
@ kernel: 3130 ms
@ sort:  0 ms
@ search: 3758 ms
correct rate: 1.0000
Collected results into ../../../results/tmp/vp_Non_Lockstep_random.7d_unsorted.stats

Loading data from ../../../results/tmp/vp_Non_Lockstep_random.7d_unsorted.stats...
{'init_kernel:': [2604.0, 2658.0, 2606.0, 2605.0, 2654.0, 2588.0], 'search_kernel:': [3799.0, 3752.0, 3830.0, 3800.0, 3813.0, 3750.0], 'kernel:': [3161.0, 3147.0, 3166.0, 3149.0, 3165.0, 3130.0], 'search:': [3805.0, 3760.0, 3838.0, 3805.0, 3820.0, 3758.0], 'sort:': [0.0, 0.0, 0.0, 0.0, 0.0, 0.0]}
Configuration: sort_flag = 0, verbose_flag = 0, nthreads=1, DIM = 7, npoints = 200000, input_file=../../../input/pc/random.7d
@ init_kernel: 2626 ms
kernel start!
kernel end!
@ search_kernel: 3720 ms
@ kernel: 3164 ms
@ sort:  0 ms
@ search: 3725 ms
correct rate: 1.0000
Collected results into ../../../results/tmp/vp_Non_Lockstep_random.7d_unsorted.stats

Loading data from ../../../results/tmp/vp_Non_Lockstep_random.7d_unsorted.stats...
{'init_kernel:': [2604.0, 2658.0, 2606.0, 2605.0, 2654.0, 2588.0, 2626.0], 'search_kernel:': [3799.0, 3752.0, 3830.0, 3800.0, 3813.0, 3750.0, 3720.0], 'kernel:': [3161.0, 3147.0, 3166.0, 3149.0, 3165.0, 3130.0, 3164.0], 'sort:': [0.0, 0.0, 0.0, 0.0, 0.0, 0.0, 0.0], 'search:': [3805.0, 3760.0, 3838.0, 3805.0, 3820.0, 3758.0, 3725.0]}
Configuration: sort_flag = 0, verbose_flag = 0, nthreads=1, DIM = 7, npoints = 200000, input_file=../../../input/pc/random.7d
@ init_kernel: 2655 ms
kernel start!
kernel end!
@ search_kernel: 3875 ms
@ kernel: 3154 ms
@ sort:  0 ms
@ search: 3883 ms
correct rate: 1.0000
Collected results into ../../../results/tmp/vp_Non_Lockstep_random.7d_unsorted.stats

Loading data from ../../../results/tmp/vp_Non_Lockstep_random.7d_unsorted.stats...
{'init_kernel:': [2604.0, 2658.0, 2606.0, 2605.0, 2654.0, 2588.0, 2626.0, 2655.0], 'search_kernel:': [3799.0, 3752.0, 3830.0, 3800.0, 3813.0, 3750.0, 3720.0, 3875.0], 'kernel:': [3161.0, 3147.0, 3166.0, 3149.0, 3165.0, 3130.0, 3164.0, 3154.0], 'search:': [3805.0, 3760.0, 3838.0, 3805.0, 3820.0, 3758.0, 3725.0, 3883.0], 'sort:': [0.0, 0.0, 0.0, 0.0, 0.0, 0.0, 0.0, 0.0]}
Configuration: sort_flag = 0, verbose_flag = 0, nthreads=1, DIM = 7, npoints = 200000, input_file=../../../input/pc/random.7d
@ init_kernel: 2755 ms
kernel start!
kernel end!
@ search_kernel: 3769 ms
@ kernel: 3170 ms
@ sort:  0 ms
@ search: 3777 ms
correct rate: 1.0000
Collected results into ../../../results/tmp/vp_Non_Lockstep_random.7d_unsorted.stats

Loading data from ../../../results/tmp/vp_Non_Lockstep_random.7d_unsorted.stats...
{'init_kernel:': [2604.0, 2658.0, 2606.0, 2605.0, 2654.0, 2588.0, 2626.0, 2655.0, 2755.0], 'search_kernel:': [3799.0, 3752.0, 3830.0, 3800.0, 3813.0, 3750.0, 3720.0, 3875.0, 3769.0], 'kernel:': [3161.0, 3147.0, 3166.0, 3149.0, 3165.0, 3130.0, 3164.0, 3154.0, 3170.0], 'sort:': [0.0, 0.0, 0.0, 0.0, 0.0, 0.0, 0.0, 0.0, 0.0], 'search:': [3805.0, 3760.0, 3838.0, 3805.0, 3820.0, 3758.0, 3725.0, 3883.0, 3777.0]}
Configuration: sort_flag = 0, verbose_flag = 0, nthreads=1, DIM = 7, npoints = 200000, input_file=../../../input/pc/random.7d
@ init_kernel: 2757 ms
kernel start!
kernel end!
@ search_kernel: 3784 ms
@ kernel: 3178 ms
@ sort:  0 ms
@ search: 3790 ms
correct rate: 1.0000
Collected results into ../../../results/tmp/vp_Non_Lockstep_random.7d_unsorted.stats

Loading data from ../../../results/tmp/vp_Non_Lockstep_random.7d_unsorted.stats...
{'init_kernel:': [2604.0, 2658.0, 2606.0, 2605.0, 2654.0, 2588.0, 2626.0, 2655.0, 2755.0, 2757.0], 'search_kernel:': [3799.0, 3752.0, 3830.0, 3800.0, 3813.0, 3750.0, 3720.0, 3875.0, 3769.0, 3784.0], 'kernel:': [3161.0, 3147.0, 3166.0, 3149.0, 3165.0, 3130.0, 3164.0, 3154.0, 3170.0, 3178.0], 'search:': [3805.0, 3760.0, 3838.0, 3805.0, 3820.0, 3758.0, 3725.0, 3883.0, 3777.0, 3790.0], 'sort:': [0.0, 0.0, 0.0, 0.0, 0.0, 0.0, 0.0, 0.0, 0.0, 0.0]}
Configuration: sort_flag = 0, verbose_flag = 0, nthreads=1, DIM = 7, npoints = 200000, input_file=../../../input/pc/random.7d
@ init_kernel: 2647 ms
kernel start!
kernel end!
@ search_kernel: 3799 ms
@ kernel: 3164 ms
@ sort:  0 ms
@ search: 3806 ms
correct rate: 1.0000
Collected results into ../../../results/tmp/vp_Non_Lockstep_random.7d_unsorted.stats

Loading data from ../../../results/tmp/vp_Non_Lockstep_random.7d_unsorted.stats...
{'init_kernel:': [2604.0, 2658.0, 2606.0, 2605.0, 2654.0, 2588.0, 2626.0, 2655.0, 2755.0, 2757.0, 2647.0], 'search_kernel:': [3799.0, 3752.0, 3830.0, 3800.0, 3813.0, 3750.0, 3720.0, 3875.0, 3769.0, 3784.0, 3799.0], 'kernel:': [3161.0, 3147.0, 3166.0, 3149.0, 3165.0, 3130.0, 3164.0, 3154.0, 3170.0, 3178.0, 3164.0], 'sort:': [0.0, 0.0, 0.0, 0.0, 0.0, 0.0, 0.0, 0.0, 0.0, 0.0, 0.0], 'search:': [3805.0, 3760.0, 3838.0, 3805.0, 3820.0, 3758.0, 3725.0, 3883.0, 3777.0, 3790.0, 3806.0]}
Configuration: sort_flag = 0, verbose_flag = 0, nthreads=1, DIM = 7, npoints = 200000, input_file=../../../input/pc/random.7d
@ init_kernel: 2594 ms
kernel start!
kernel end!
@ search_kernel: 3844 ms
@ kernel: 3188 ms
@ sort:  0 ms
@ search: 3851 ms
correct rate: 1.0000
Collected results into ../../../results/tmp/vp_Non_Lockstep_random.7d_unsorted.stats

Loading data from ../../../results/tmp/vp_Non_Lockstep_random.7d_unsorted.stats...
{'init_kernel:': [2604.0, 2658.0, 2606.0, 2605.0, 2654.0, 2588.0, 2626.0, 2655.0, 2755.0, 2757.0, 2647.0, 2594.0], 'search_kernel:': [3799.0, 3752.0, 3830.0, 3800.0, 3813.0, 3750.0, 3720.0, 3875.0, 3769.0, 3784.0, 3799.0, 3844.0], 'kernel:': [3161.0, 3147.0, 3166.0, 3149.0, 3165.0, 3130.0, 3164.0, 3154.0, 3170.0, 3178.0, 3164.0, 3188.0], 'search:': [3805.0, 3760.0, 3838.0, 3805.0, 3820.0, 3758.0, 3725.0, 3883.0, 3777.0, 3790.0, 3806.0, 3851.0], 'sort:': [0.0, 0.0, 0.0, 0.0, 0.0, 0.0, 0.0, 0.0, 0.0, 0.0, 0.0, 0.0]}
Configuration: sort_flag = 0, verbose_flag = 0, nthreads=1, DIM = 7, npoints = 200000, input_file=../../../input/pc/random.7d
@ init_kernel: 2571 ms
kernel start!
kernel end!
@ search_kernel: 3828 ms
@ kernel: 3181 ms
@ sort:  0 ms
@ search: 3833 ms
correct rate: 1.0000
Collected results into ../../../results/tmp/vp_Non_Lockstep_random.7d_unsorted.stats

Loading data from ../../../results/tmp/vp_Non_Lockstep_random.7d_unsorted.stats...
{'init_kernel:': [2604.0, 2658.0, 2606.0, 2605.0, 2654.0, 2588.0, 2626.0, 2655.0, 2755.0, 2757.0, 2647.0, 2594.0, 2571.0], 'search_kernel:': [3799.0, 3752.0, 3830.0, 3800.0, 3813.0, 3750.0, 3720.0, 3875.0, 3769.0, 3784.0, 3799.0, 3844.0, 3828.0], 'kernel:': [3161.0, 3147.0, 3166.0, 3149.0, 3165.0, 3130.0, 3164.0, 3154.0, 3170.0, 3178.0, 3164.0, 3188.0, 3181.0], 'sort:': [0.0, 0.0, 0.0, 0.0, 0.0, 0.0, 0.0, 0.0, 0.0, 0.0, 0.0, 0.0, 0.0], 'search:': [3805.0, 3760.0, 3838.0, 3805.0, 3820.0, 3758.0, 3725.0, 3883.0, 3777.0, 3790.0, 3806.0, 3851.0, 3833.0]}
Configuration: sort_flag = 0, verbose_flag = 0, nthreads=1, DIM = 7, npoints = 200000, input_file=../../../input/pc/random.7d
@ init_kernel: 2607 ms
kernel start!
kernel end!
@ search_kernel: 3825 ms
@ kernel: 3160 ms
@ sort:  0 ms
@ search: 3833 ms
correct rate: 1.0000
Collected results into ../../../results/tmp/vp_Non_Lockstep_random.7d_unsorted.stats

Loading data from ../../../results/tmp/vp_Non_Lockstep_random.7d_unsorted.stats...
{'init_kernel:': [2604.0, 2658.0, 2606.0, 2605.0, 2654.0, 2588.0, 2626.0, 2655.0, 2755.0, 2757.0, 2647.0, 2594.0, 2571.0, 2607.0], 'search_kernel:': [3799.0, 3752.0, 3830.0, 3800.0, 3813.0, 3750.0, 3720.0, 3875.0, 3769.0, 3784.0, 3799.0, 3844.0, 3828.0, 3825.0], 'kernel:': [3161.0, 3147.0, 3166.0, 3149.0, 3165.0, 3130.0, 3164.0, 3154.0, 3170.0, 3178.0, 3164.0, 3188.0, 3181.0, 3160.0], 'search:': [3805.0, 3760.0, 3838.0, 3805.0, 3820.0, 3758.0, 3725.0, 3883.0, 3777.0, 3790.0, 3806.0, 3851.0, 3833.0, 3833.0], 'sort:': [0.0, 0.0, 0.0, 0.0, 0.0, 0.0, 0.0, 0.0, 0.0, 0.0, 0.0, 0.0, 0.0, 0.0]}
Configuration: sort_flag = 0, verbose_flag = 0, nthreads=1, DIM = 7, npoints = 200000, input_file=../../../input/pc/random.7d
@ init_kernel: 2630 ms
kernel start!
kernel end!
@ search_kernel: 3801 ms
@ kernel: 3165 ms
@ sort:  0 ms
@ search: 3809 ms
correct rate: 1.0000
Collected results into ../../../results/tmp/vp_Non_Lockstep_random.7d_unsorted.stats

