Results wll be collected to ../../../results/tmp/vp_Original_Lockstep_covtype.7d_unsorted.stats...
Configuration: sort_flag = 0, verbose_flag = 0, nthreads=1, DIM = 7, npoints = 200000, input_file=../../../input/pc/covtype.7d
@ init_kernel: 3118 ms
@ kernel: 8851 ms
@ sort:  0 ms
@ search_kernel: 9566 ms
@ search: 9572 ms
correct rate: 0.8632
Collected results into ../../../results/tmp/vp_Original_Lockstep_covtype.7d_unsorted.stats

Loading data from ../../../results/tmp/vp_Original_Lockstep_covtype.7d_unsorted.stats...
{'init_kernel:': [3118.0], 'kernel:': [8851.0], 'sort:': [0.0], 'search_kernel:': [9566.0], 'search:': [9572.0]}
Configuration: sort_flag = 0, verbose_flag = 0, nthreads=1, DIM = 7, npoints = 200000, input_file=../../../input/pc/covtype.7d
@ init_kernel: 2761 ms
@ kernel: 8850 ms
@ sort:  0 ms
@ search_kernel: 9443 ms
@ search: 9451 ms
correct rate: 0.8632
Collected results into ../../../results/tmp/vp_Original_Lockstep_covtype.7d_unsorted.stats

Loading data from ../../../results/tmp/vp_Original_Lockstep_covtype.7d_unsorted.stats...
{'init_kernel:': [3118.0, 2761.0], 'kernel:': [8851.0, 8850.0], 'sort:': [0.0, 0.0], 'search_kernel:': [9566.0, 9443.0], 'search:': [9572.0, 9451.0]}
Configuration: sort_flag = 0, verbose_flag = 0, nthreads=1, DIM = 7, npoints = 200000, input_file=../../../input/pc/covtype.7d
@ init_kernel: 2654 ms
@ kernel: 8887 ms
@ sort:  0 ms
@ search_kernel: 9578 ms
@ search: 9586 ms
correct rate: 0.8632
Collected results into ../../../results/tmp/vp_Original_Lockstep_covtype.7d_unsorted.stats

Loading data from ../../../results/tmp/vp_Original_Lockstep_covtype.7d_unsorted.stats...
{'init_kernel:': [3118.0, 2761.0, 2654.0], 'kernel:': [8851.0, 8850.0, 8887.0], 'sort:': [0.0, 0.0, 0.0], 'search_kernel:': [9566.0, 9443.0, 9578.0], 'search:': [9572.0, 9451.0, 9586.0]}
Configuration: sort_flag = 0, verbose_flag = 0, nthreads=1, DIM = 7, npoints = 200000, input_file=../../../input/pc/covtype.7d
@ init_kernel: 2665 ms
@ kernel: 8859 ms
@ sort:  0 ms
@ search_kernel: 9444 ms
@ search: 9452 ms
correct rate: 0.8632
Collected results into ../../../results/tmp/vp_Original_Lockstep_covtype.7d_unsorted.stats

Loading data from ../../../results/tmp/vp_Original_Lockstep_covtype.7d_unsorted.stats...
{'init_kernel:': [3118.0, 2761.0, 2654.0, 2665.0], 'kernel:': [8851.0, 8850.0, 8887.0, 8859.0], 'sort:': [0.0, 0.0, 0.0, 0.0], 'search_kernel:': [9566.0, 9443.0, 9578.0, 9444.0], 'search:': [9572.0, 9451.0, 9586.0, 9452.0]}
Configuration: sort_flag = 0, verbose_flag = 0, nthreads=1, DIM = 7, npoints = 200000, input_file=../../../input/pc/covtype.7d
@ init_kernel: 2689 ms
@ kernel: 8875 ms
@ sort:  0 ms
@ search_kernel: 9472 ms
@ search: 9479 ms
correct rate: 0.8632
Collected results into ../../../results/tmp/vp_Original_Lockstep_covtype.7d_unsorted.stats

Loading data from ../../../results/tmp/vp_Original_Lockstep_covtype.7d_unsorted.stats...
{'init_kernel:': [3118.0, 2761.0, 2654.0, 2665.0, 2689.0], 'kernel:': [8851.0, 8850.0, 8887.0, 8859.0, 8875.0], 'sort:': [0.0, 0.0, 0.0, 0.0, 0.0], 'search_kernel:': [9566.0, 9443.0, 9578.0, 9444.0, 9472.0], 'search:': [9572.0, 9451.0, 9586.0, 9452.0, 9479.0]}
Configuration: sort_flag = 0, verbose_flag = 0, nthreads=1, DIM = 7, npoints = 200000, input_file=../../../input/pc/covtype.7d
@ init_kernel: 2643 ms
@ kernel: 8864 ms
@ sort:  0 ms
@ search_kernel: 9452 ms
@ search: 9460 ms
correct rate: 0.8632
Collected results into ../../../results/tmp/vp_Original_Lockstep_covtype.7d_unsorted.stats

Loading data from ../../../results/tmp/vp_Original_Lockstep_covtype.7d_unsorted.stats...
{'init_kernel:': [3118.0, 2761.0, 2654.0, 2665.0, 2689.0, 2643.0], 'kernel:': [8851.0, 8850.0, 8887.0, 8859.0, 8875.0, 8864.0], 'sort:': [0.0, 0.0, 0.0, 0.0, 0.0, 0.0], 'search_kernel:': [9566.0, 9443.0, 9578.0, 9444.0, 9472.0, 9452.0], 'search:': [9572.0, 9451.0, 9586.0, 9452.0, 9479.0, 9460.0]}
Configuration: sort_flag = 0, verbose_flag = 0, nthreads=1, DIM = 7, npoints = 200000, input_file=../../../input/pc/covtype.7d
@ init_kernel: 2663 ms
@ kernel: 8864 ms
@ sort:  0 ms
@ search_kernel: 9577 ms
@ search: 9585 ms
correct rate: 0.8632
Collected results into ../../../results/tmp/vp_Original_Lockstep_covtype.7d_unsorted.stats

Loading data from ../../../results/tmp/vp_Original_Lockstep_covtype.7d_unsorted.stats...
{'init_kernel:': [3118.0, 2761.0, 2654.0, 2665.0, 2689.0, 2643.0, 2663.0], 'kernel:': [8851.0, 8850.0, 8887.0, 8859.0, 8875.0, 8864.0, 8864.0], 'sort:': [0.0, 0.0, 0.0, 0.0, 0.0, 0.0, 0.0], 'search_kernel:': [9566.0, 9443.0, 9578.0, 9444.0, 9472.0, 9452.0, 9577.0], 'search:': [9572.0, 9451.0, 9586.0, 9452.0, 9479.0, 9460.0, 9585.0]}
Configuration: sort_flag = 0, verbose_flag = 0, nthreads=1, DIM = 7, npoints = 200000, input_file=../../../input/pc/covtype.7d
@ init_kernel: 2796 ms
@ kernel: 8863 ms
@ sort:  0 ms
@ search_kernel: 9500 ms
@ search: 9508 ms
correct rate: 0.8632
Collected results into ../../../results/tmp/vp_Original_Lockstep_covtype.7d_unsorted.stats

Loading data from ../../../results/tmp/vp_Original_Lockstep_covtype.7d_unsorted.stats...
{'init_kernel:': [3118.0, 2761.0, 2654.0, 2665.0, 2689.0, 2643.0, 2663.0, 2796.0], 'kernel:': [8851.0, 8850.0, 8887.0, 8859.0, 8875.0, 8864.0, 8864.0, 8863.0], 'sort:': [0.0, 0.0, 0.0, 0.0, 0.0, 0.0, 0.0, 0.0], 'search_kernel:': [9566.0, 9443.0, 9578.0, 9444.0, 9472.0, 9452.0, 9577.0, 9500.0], 'search:': [9572.0, 9451.0, 9586.0, 9452.0, 9479.0, 9460.0, 9585.0, 9508.0]}
Configuration: sort_flag = 0, verbose_flag = 0, nthreads=1, DIM = 7, npoints = 200000, input_file=../../../input/pc/covtype.7d
@ init_kernel: 2782 ms
@ kernel: 8873 ms
@ sort:  0 ms
@ search_kernel: 9418 ms
@ search: 9426 ms
correct rate: 0.8632
Collected results into ../../../results/tmp/vp_Original_Lockstep_covtype.7d_unsorted.stats

Loading data from ../../../results/tmp/vp_Original_Lockstep_covtype.7d_unsorted.stats...
{'init_kernel:': [3118.0, 2761.0, 2654.0, 2665.0, 2689.0, 2643.0, 2663.0, 2796.0, 2782.0], 'kernel:': [8851.0, 8850.0, 8887.0, 8859.0, 8875.0, 8864.0, 8864.0, 8863.0, 8873.0], 'sort:': [0.0, 0.0, 0.0, 0.0, 0.0, 0.0, 0.0, 0.0, 0.0], 'search_kernel:': [9566.0, 9443.0, 9578.0, 9444.0, 9472.0, 9452.0, 9577.0, 9500.0, 9418.0], 'search:': [9572.0, 9451.0, 9586.0, 9452.0, 9479.0, 9460.0, 9585.0, 9508.0, 9426.0]}
Configuration: sort_flag = 0, verbose_flag = 0, nthreads=1, DIM = 7, npoints = 200000, input_file=../../../input/pc/covtype.7d
@ init_kernel: 2690 ms
@ kernel: 8878 ms
@ sort:  0 ms
@ search_kernel: 9615 ms
@ search: 9623 ms
correct rate: 0.8632
Collected results into ../../../results/tmp/vp_Original_Lockstep_covtype.7d_unsorted.stats

Loading data from ../../../results/tmp/vp_Original_Lockstep_covtype.7d_unsorted.stats...
{'init_kernel:': [3118.0, 2761.0, 2654.0, 2665.0, 2689.0, 2643.0, 2663.0, 2796.0, 2782.0, 2690.0], 'kernel:': [8851.0, 8850.0, 8887.0, 8859.0, 8875.0, 8864.0, 8864.0, 8863.0, 8873.0, 8878.0], 'sort:': [0.0, 0.0, 0.0, 0.0, 0.0, 0.0, 0.0, 0.0, 0.0, 0.0], 'search_kernel:': [9566.0, 9443.0, 9578.0, 9444.0, 9472.0, 9452.0, 9577.0, 9500.0, 9418.0, 9615.0], 'search:': [9572.0, 9451.0, 9586.0, 9452.0, 9479.0, 9460.0, 9585.0, 9508.0, 9426.0, 9623.0]}
Configuration: sort_flag = 0, verbose_flag = 0, nthreads=1, DIM = 7, npoints = 200000, input_file=../../../input/pc/covtype.7d
@ init_kernel: 2635 ms
@ kernel: 8879 ms
@ sort:  0 ms
@ search_kernel: 9563 ms
@ search: 9572 ms
correct rate: 0.8632
Collected results into ../../../results/tmp/vp_Original_Lockstep_covtype.7d_unsorted.stats

Loading data from ../../../results/tmp/vp_Original_Lockstep_covtype.7d_unsorted.stats...
{'init_kernel:': [3118.0, 2761.0, 2654.0, 2665.0, 2689.0, 2643.0, 2663.0, 2796.0, 2782.0, 2690.0, 2635.0], 'kernel:': [8851.0, 8850.0, 8887.0, 8859.0, 8875.0, 8864.0, 8864.0, 8863.0, 8873.0, 8878.0, 8879.0], 'sort:': [0.0, 0.0, 0.0, 0.0, 0.0, 0.0, 0.0, 0.0, 0.0, 0.0, 0.0], 'search_kernel:': [9566.0, 9443.0, 9578.0, 9444.0, 9472.0, 9452.0, 9577.0, 9500.0, 9418.0, 9615.0, 9563.0], 'search:': [9572.0, 9451.0, 9586.0, 9452.0, 9479.0, 9460.0, 9585.0, 9508.0, 9426.0, 9623.0, 9572.0]}
Configuration: sort_flag = 0, verbose_flag = 0, nthreads=1, DIM = 7, npoints = 200000, input_file=../../../input/pc/covtype.7d
@ init_kernel: 2683 ms
@ kernel: 8892 ms
@ sort:  0 ms
@ search_kernel: 9576 ms
@ search: 9584 ms
correct rate: 0.8632
Collected results into ../../../results/tmp/vp_Original_Lockstep_covtype.7d_unsorted.stats

Loading data from ../../../results/tmp/vp_Original_Lockstep_covtype.7d_unsorted.stats...
{'init_kernel:': [3118.0, 2761.0, 2654.0, 2665.0, 2689.0, 2643.0, 2663.0, 2796.0, 2782.0, 2690.0, 2635.0, 2683.0], 'kernel:': [8851.0, 8850.0, 8887.0, 8859.0, 8875.0, 8864.0, 8864.0, 8863.0, 8873.0, 8878.0, 8879.0, 8892.0], 'sort:': [0.0, 0.0, 0.0, 0.0, 0.0, 0.0, 0.0, 0.0, 0.0, 0.0, 0.0, 0.0], 'search_kernel:': [9566.0, 9443.0, 9578.0, 9444.0, 9472.0, 9452.0, 9577.0, 9500.0, 9418.0, 9615.0, 9563.0, 9576.0], 'search:': [9572.0, 9451.0, 9586.0, 9452.0, 9479.0, 9460.0, 9585.0, 9508.0, 9426.0, 9623.0, 9572.0, 9584.0]}
Configuration: sort_flag = 0, verbose_flag = 0, nthreads=1, DIM = 7, npoints = 200000, input_file=../../../input/pc/covtype.7d
@ init_kernel: 2624 ms
@ kernel: 8853 ms
@ sort:  0 ms
@ search_kernel: 9545 ms
@ search: 9552 ms
correct rate: 0.8632
Collected results into ../../../results/tmp/vp_Original_Lockstep_covtype.7d_unsorted.stats

Loading data from ../../../results/tmp/vp_Original_Lockstep_covtype.7d_unsorted.stats...
{'init_kernel:': [3118.0, 2761.0, 2654.0, 2665.0, 2689.0, 2643.0, 2663.0, 2796.0, 2782.0, 2690.0, 2635.0, 2683.0, 2624.0], 'kernel:': [8851.0, 8850.0, 8887.0, 8859.0, 8875.0, 8864.0, 8864.0, 8863.0, 8873.0, 8878.0, 8879.0, 8892.0, 8853.0], 'sort:': [0.0, 0.0, 0.0, 0.0, 0.0, 0.0, 0.0, 0.0, 0.0, 0.0, 0.0, 0.0, 0.0], 'search_kernel:': [9566.0, 9443.0, 9578.0, 9444.0, 9472.0, 9452.0, 9577.0, 9500.0, 9418.0, 9615.0, 9563.0, 9576.0, 9545.0], 'search:': [9572.0, 9451.0, 9586.0, 9452.0, 9479.0, 9460.0, 9585.0, 9508.0, 9426.0, 9623.0, 9572.0, 9584.0, 9552.0]}
Configuration: sort_flag = 0, verbose_flag = 0, nthreads=1, DIM = 7, npoints = 200000, input_file=../../../input/pc/covtype.7d
@ init_kernel: 2775 ms
@ kernel: 8885 ms
@ sort:  0 ms
@ search_kernel: 9523 ms
@ search: 9531 ms
correct rate: 0.8632
Collected results into ../../../results/tmp/vp_Original_Lockstep_covtype.7d_unsorted.stats

Loading data from ../../../results/tmp/vp_Original_Lockstep_covtype.7d_unsorted.stats...
{'init_kernel:': [3118.0, 2761.0, 2654.0, 2665.0, 2689.0, 2643.0, 2663.0, 2796.0, 2782.0, 2690.0, 2635.0, 2683.0, 2624.0, 2775.0], 'kernel:': [8851.0, 8850.0, 8887.0, 8859.0, 8875.0, 8864.0, 8864.0, 8863.0, 8873.0, 8878.0, 8879.0, 8892.0, 8853.0, 8885.0], 'sort:': [0.0, 0.0, 0.0, 0.0, 0.0, 0.0, 0.0, 0.0, 0.0, 0.0, 0.0, 0.0, 0.0, 0.0], 'search_kernel:': [9566.0, 9443.0, 9578.0, 9444.0, 9472.0, 9452.0, 9577.0, 9500.0, 9418.0, 9615.0, 9563.0, 9576.0, 9545.0, 9523.0], 'search:': [9572.0, 9451.0, 9586.0, 9452.0, 9479.0, 9460.0, 9585.0, 9508.0, 9426.0, 9623.0, 9572.0, 9584.0, 9552.0, 9531.0]}
Configuration: sort_flag = 0, verbose_flag = 0, nthreads=1, DIM = 7, npoints = 200000, input_file=../../../input/pc/covtype.7d
@ init_kernel: 2651 ms
@ kernel: 8868 ms
@ sort:  0 ms
@ search_kernel: 9540 ms
@ search: 9548 ms
correct rate: 0.8632
Collected results into ../../../results/tmp/vp_Original_Lockstep_covtype.7d_unsorted.stats

